{
  "?xml": {
    "@version": "1.0", 
    "@encoding": "utf-8"
  }, 
  "ms2": {
    "key": [
      {
        "@id": "1", 
        "@name": "Gear Merchant", 
        "@feature": "NpcRashi"
      }, 
      {
        "@id": "2", 
        "@name": "Supply Merchant", 
        "@feature": "GuildSystem01"
      }, 
      {
        "@id": "3", 
        "@name": "Gemstone Merchant", 
        "@feature": "ItemSocketSystem"
      }, 
      {
        "@id": "4", 
        "@name": "Transcendence Material Shop", 
        "@feature": "ItemMerge"
      }, 
      {
        "@id": "6", 
        "@name": "Chairwoman", 
        "@feature": "GuildQuest01"
      }
    ]
  }
}