{
  "?xml": {
    "@version": "1.0", 
    "@encoding": "utf-8"
  }, 
  "ms2": {
    "key": [
      {
        "@id": "11000008", 
        "@name": "Turka's Cache"
      }, 
      {
        "@id": "11000009", 
        "@name": "Turka's Rare Cache"
      }, 
      {
        "@id": "19000017", 
        "@name": "Maple Shop"
      }, 
      {
        "@id": "19000028", 
        "@name": "Nearby Product Store"
      }, 
      {
        "@id": "19000029", 
        "@name": "REDACTED"
      }, 
      {
        "@id": "31000001", 
        "@name": "Item Extractor"
      }, 
      {
        "@id": "31000002", 
        "@name": "Flip It!"
      }, 
      {
        "@id": "31000003", 
        "@name": "Festival Cutout"
      }, 
      {
        "@id": "31000004", 
        "@name": "Maple Point Display"
      }, 
      {
        "@id": "31000005", 
        "@name": "Flip It!"
      }, 
      {
        "@id": "31000010", 
        "@name": "Festival Cutout"
      }, 
      {
        "@id": "31000012", 
        "@name": "Rayopoly"
      }, 
      {
        "@id": "60001001", 
        "@name": "Copper Vein"
      }, 
      {
        "@id": "60001011", 
        "@name": "Copper Vein"
      }, 
      {
        "@id": "60001020", 
        "@name": "Copper Vein", 
        "@feature": "Mastery05"
      }, 
      {
        "@id": "60002003", 
        "@name": "Tin Vein"
      }, 
      {
        "@id": "60002009", 
        "@name": "Tin Vein"
      }, 
      {
        "@id": "60002024", 
        "@name": "Tin Vein", 
        "@feature": "Mastery05"
      }, 
      {
        "@id": "60003003", 
        "@name": "Zinc Vein"
      }, 
      {
        "@id": "60003006", 
        "@name": "Zinc Vein"
      }, 
      {
        "@id": "60003010", 
        "@name": "Zinc Vein"
      }, 
      {
        "@id": "60003019", 
        "@name": "Zinc Vein", 
        "@feature": "Mastery05"
      }, 
      {
        "@id": "60004004", 
        "@name": "Silver Vein"
      }, 
      {
        "@id": "60004009", 
        "@name": "Silver Vein"
      }, 
      {
        "@id": "60004021", 
        "@name": "Silver Vein", 
        "@feature": "Mastery05"
      }, 
      {
        "@id": "60005003", 
        "@name": "Iron Vein"
      }, 
      {
        "@id": "60005008", 
        "@name": "Iron Vein"
      }, 
      {
        "@id": "60005010", 
        "@name": "Iron Vein"
      }, 
      {
        "@id": "60005015", 
        "@name": "Iron Vein", 
        "@feature": "Mastery05"
      }, 
      {
        "@id": "60006003", 
        "@name": "Lead Vein"
      }, 
      {
        "@id": "60006013", 
        "@name": "Lead Vein"
      }, 
      {
        "@id": "60006014", 
        "@name": "Lead Vein"
      }, 
      {
        "@id": "60006036", 
        "@name": "Lead Vein", 
        "@feature": "Mastery05"
      }, 
      {
        "@id": "60007005", 
        "@name": "Nickel Vein"
      }, 
      {
        "@id": "60007009", 
        "@name": "Nickel Vein"
      }, 
      {
        "@id": "60007022", 
        "@name": "Nickel Vein", 
        "@feature": "Mastery05"
      }, 
      {
        "@id": "60008004", 
        "@name": "Ravensteel Vein"
      }, 
      {
        "@id": "60008007", 
        "@name": "Ravensteel Vein"
      }, 
      {
        "@id": "60008021", 
        "@name": "Ravensteel Vein", 
        "@feature": "Mastery05"
      }, 
      {
        "@id": "60009002", 
        "@name": "Tungsten Vein"
      }, 
      {
        "@id": "60009011", 
        "@name": "Tungsten Vein"
      }, 
      {
        "@id": "60009020", 
        "@name": "Tungsten Vein", 
        "@feature": "Mastery05"
      }, 
      {
        "@id": "60010003", 
        "@name": "Gold Vein"
      }, 
      {
        "@id": "60010010", 
        "@name": "Gold Vein"
      }, 
      {
        "@id": "60010020", 
        "@name": "Gold Vein", 
        "@feature": "Mastery05"
      }, 
      {
        "@id": "60011001", 
        "@name": "Platinum Vein"
      }, 
      {
        "@id": "60011007", 
        "@name": "Platinum Vein"
      }, 
      {
        "@id": "60011012", 
        "@name": "Platinum Vein", 
        "@feature": "Mastery05"
      }, 
      {
        "@id": "60012001", 
        "@name": "Cobalt Vein"
      }, 
      {
        "@id": "60012010", 
        "@name": "Cobalt Vein"
      }, 
      {
        "@id": "60012025", 
        "@name": "Cobalt Vein", 
        "@feature": "Mastery05"
      }, 
      {
        "@id": "60013003", 
        "@name": "Palladium Vein"
      }, 
      {
        "@id": "60013007", 
        "@name": "Palladium Vein"
      }, 
      {
        "@id": "60013023", 
        "@name": "Palladium Vein", 
        "@feature": "Mastery05"
      }, 
      {
        "@id": "60014004", 
        "@name": "Mithril Lode", 
        "@feature": "Mastery06"
      }, 
      {
        "@id": "60014009", 
        "@name": "Mithril Lode", 
        "@feature": "Mastery06"
      }, 
      {
        "@id": "60014026", 
        "@name": "Mithril Lode", 
        "@feature": "Mastery06"
      }, 
      {
        "@id": "60015006", 
        "@name": "Duckhorn Cone Vein", 
        "@feature": "Mastery06"
      }, 
      {
        "@id": "60015025", 
        "@name": "Duckhorn Cone Vein", 
        "@feature": "Mastery06"
      }, 
      {
        "@id": "60019002", 
        "@name": "Lumastone Vein"
      }, 
      {
        "@id": "60020001", 
        "@name": "Old Stump"
      }, 
      {
        "@id": "60021001", 
        "@name": "Mud Flat Pearls"
      }, 
      {
        "@id": "60023001", 
        "@name": "Marjoram Herb"
      }, 
      {
        "@id": "60023008", 
        "@name": "Marjoram Herb"
      }, 
      {
        "@id": "60023029", 
        "@name": "Marjoram Herb", 
        "@feature": "Mastery05"
      }, 
      {
        "@id": "60024002", 
        "@name": "Lavender Herb"
      }, 
      {
        "@id": "60024006", 
        "@name": "Lavender Herb"
      }, 
      {
        "@id": "60024029", 
        "@name": "Lavender Herb", 
        "@feature": "Mastery05"
      }, 
      {
        "@id": "60025003", 
        "@name": "Oregano Herb"
      }, 
      {
        "@id": "60025006", 
        "@name": "Oregano Herb"
      }, 
      {
        "@id": "60025024", 
        "@name": "Oregano Herb", 
        "@feature": "Mastery05"
      }, 
      {
        "@id": "60026002", 
        "@name": "Lemon Balm Herb"
      }, 
      {
        "@id": "60026005", 
        "@name": "Lemon Balm Herb"
      }, 
      {
        "@id": "60026010", 
        "@name": "Lemon Balm Herb"
      }, 
      {
        "@id": "60026024", 
        "@name": "Lemon Balm Herb", 
        "@feature": "Mastery05"
      }, 
      {
        "@id": "60027003", 
        "@name": "Mandarin Herb"
      }, 
      {
        "@id": "60027006", 
        "@name": "Mandarin Herb"
      }, 
      {
        "@id": "60027024", 
        "@name": "Mandarin Herb", 
        "@feature": "Mastery05"
      }, 
      {
        "@id": "60028001", 
        "@name": "Jasmine Herb"
      }, 
      {
        "@id": "60028005", 
        "@name": "Jasmine Herb"
      }, 
      {
        "@id": "60028021", 
        "@name": "Jasmine Herb", 
        "@feature": "Mastery05"
      }, 
      {
        "@id": "60029003", 
        "@name": "Tea Tree Herb"
      }, 
      {
        "@id": "60029005", 
        "@name": "Tea Tree Herb"
      }, 
      {
        "@id": "60029031", 
        "@name": "Tea Tree Herb", 
        "@feature": "Mastery05"
      }, 
      {
        "@id": "60030003", 
        "@name": "Cherry Sage Herb"
      }, 
      {
        "@id": "60030004", 
        "@name": "Cherry Sage Herb"
      }, 
      {
        "@id": "60030020", 
        "@name": "Cherry Sage Herb", 
        "@feature": "Mastery05"
      }, 
      {
        "@id": "60031002", 
        "@name": "Patchouli Herb"
      }, 
      {
        "@id": "60031006", 
        "@name": "Patchouli Herb"
      }, 
      {
        "@id": "60031027", 
        "@name": "Patchouli Herb", 
        "@feature": "Mastery05"
      }, 
      {
        "@id": "60032001", 
        "@name": "Rosemary Herb"
      }, 
      {
        "@id": "60032007", 
        "@name": "Rosemary Herb"
      }, 
      {
        "@id": "60032008", 
        "@name": "Rosemary Herb"
      }, 
      {
        "@id": "60032020", 
        "@name": "Rosemary Herb", 
        "@feature": "Mastery05"
      }, 
      {
        "@id": "60033002", 
        "@name": "Yarrow Herb"
      }, 
      {
        "@id": "60033027", 
        "@name": "Yarrow Herb", 
        "@feature": "Mastery05"
      }, 
      {
        "@id": "60034001", 
        "@name": "Basil Herb"
      }, 
      {
        "@id": "60034028", 
        "@name": "Basil Herb", 
        "@feature": "Mastery05"
      }, 
      {
        "@id": "60035003", 
        "@name": "Bergamot Herb"
      }, 
      {
        "@id": "60035007", 
        "@name": "Bergamot Herb"
      }, 
      {
        "@id": "60035019", 
        "@name": "Bergamot Herb", 
        "@feature": "Mastery05"
      }, 
      {
        "@id": "60036001", 
        "@name": "Cotton Lavender Herb"
      }, 
      {
        "@id": "60037001", 
        "@name": "Pineapple Sage Herb"
      }, 
      {
        "@id": "60038001", 
        "@name": "Rose Geranium Herb"
      }, 
      {
        "@id": "60039005", 
        "@name": "Spartium Hub", 
        "@feature": "Mastery06"
      }, 
      {
        "@id": "60039010", 
        "@name": "Spartium Hub", 
        "@feature": "Mastery06"
      }, 
      {
        "@id": "60039014", 
        "@name": "Spartium Hub", 
        "@feature": "Mastery06"
      }, 
      {
        "@id": "60039027", 
        "@name": "Spartium Hub", 
        "@feature": "Mastery06"
      }, 
      {
        "@id": "60040001", 
        "@name": "Time hub", 
        "@feature": "Mastery06"
      }, 
      {
        "@id": "60040007", 
        "@name": "Time hub", 
        "@feature": "Mastery06"
      }, 
      {
        "@id": "60040027", 
        "@name": "Time hub", 
        "@feature": "Mastery06"
      }
    ]
  }
}