{
  "?xml": {
    "@version": "1.0", 
    "@encoding": "utf-8"
  }, 
  "ms2": {
    "key": [
      {
        "@id": "1", 
        "@name": "Beginner"
      }, 
      {
        "@id": "10", 
        "@name": "Knight Job Group"
      }, 
      {
        "@id": "20", 
        "@name": "Beserker Job Group"
      }, 
      {
        "@id": "30", 
        "@name": "Wizard Job Group"
      }, 
      {
        "@id": "40", 
        "@name": "Priest Job Group"
      }, 
      {
        "@id": "50", 
        "@name": "Ranger Job Group"
      }, 
      {
        "@id": "60", 
        "@name": "Heavy Gunner Job Group"
      }, 
      {
        "@id": "70", 
        "@name": "Thief Job Group"
      }, 
      {
        "@id": "80", 
        "@name": "Assassin Job Group"
      }, 
      {
        "@id": "90", 
        "@name": "Runeblader Job Group", 
        "@feature": "RuneBlader"
      }, 
      {
        "@id": "100", 
        "@name": "Striker Job Group", 
        "@feature": "Striker"
      }, 
      {
        "@id": "110", 
        "@name": "Soul Binder Job Group", 
        "@feature": "SoulBinder"
      }, 
      {
        "@id": "999", 
        "@name": "GM"
      }
    ]
  }
}