{
  "?xml": {
    "@version": "1.0", 
    "@encoding": "utf-8"
  }, 
  "ms2": {
    "key": [
      {
        "@id": "10700001", 
        "@level": "1", 
        "@name": "mean", 
        "@tooltipDescription": "Choose the means and the way! \\nEnhance some skills \\n% 30% increase in movement speed"
      }, 
      {
        "@id": "10700011", 
        "@level": "1", 
        "@name": "Poison blow", 
        "@tooltipDescription": "Poisoned by poison! \\n 11% poison damage per second"
      }, 
      {
        "@id": "10700011", 
        "@level": "2", 
        "@name": "Poison blow", 
        "@tooltipDescription": "Poisoned by poison! \\n 12% poison damage per second"
      }, 
      {
        "@id": "10700011", 
        "@level": "3", 
        "@name": "Poison blow", 
        "@tooltipDescription": "Poisoned by poison! \\n 13% poison damage per second"
      }, 
      {
        "@id": "10700011", 
        "@level": "4", 
        "@name": "Poison blow", 
        "@tooltipDescription": "Poisoned by poison! \\n 14% poison damage per second"
      }, 
      {
        "@id": "10700011", 
        "@level": "5", 
        "@name": "Poison blow", 
        "@tooltipDescription": "Poisoned by poison! \\n 15% poison damage per second"
      }, 
      {
        "@id": "10700011", 
        "@level": "6", 
        "@name": "Poison blow", 
        "@tooltipDescription": "Poisoned by poison! \\n 16% poison damage per second"
      }, 
      {
        "@id": "10700011", 
        "@level": "7", 
        "@name": "Poison blow", 
        "@tooltipDescription": "Poisoned by poison! \\n 17% poison damage per second"
      }, 
      {
        "@id": "10700011", 
        "@level": "8", 
        "@name": "Poison blow", 
        "@tooltipDescription": "Poisoned by poison! \\n 18% poison damage per second"
      }, 
      {
        "@id": "10700011", 
        "@level": "9", 
        "@name": "Poison blow", 
        "@tooltipDescription": "Poisoned by poison! \\n 19% poison damage per second"
      }, 
      {
        "@id": "10700011", 
        "@level": "10", 
        "@name": "Poison blow", 
        "@tooltipDescription": "Poisoned by poison! \\n 20% poison damage per second"
      }, 
      {
        "@id": "10700011", 
        "@level": "11", 
        "@name": "Poison blow", 
        "@tooltipDescription": "Poisoned by poison! \\n 21% poison damage per second"
      }, 
      {
        "@id": "10700011", 
        "@level": "12", 
        "@name": "Poison blow", 
        "@tooltipDescription": "Poisoned by poisoning! \\n 22% poison damage per second"
      }, 
      {
        "@id": "10700031", 
        "@level": "1", 
        "@name": "Blade dance", 
        "@tooltipDescription": "Eliminate enemy attacks with flexible movement. \\n Avoid enemy attacks with 81% chance."
      }, 
      {
        "@id": "10700031", 
        "@level": "2", 
        "@name": "Blade dance", 
        "@tooltipDescription": "Eliminate enemy attacks with flexible movements. Avoid enemy attacks with 83% chance"
      }, 
      {
        "@id": "10700031", 
        "@level": "3", 
        "@name": "Blade dance", 
        "@tooltipDescription": "Eliminate enemy attacks with flexible movement. \\nAvoid an enemy attack with 85% chance"
      }, 
      {
        "@id": "10700031", 
        "@level": "4", 
        "@name": "Blade dance", 
        "@tooltipDescription": "Eliminate enemy attacks with flexible movement."
      }, 
      {
        "@id": "10700031", 
        "@level": "5", 
        "@name": "Blade dance", 
        "@tooltipDescription": "Eliminate enemy attacks with flexible movement. Avoid enemy attacks with 89% chance."
      }, 
      {
        "@id": "10700031", 
        "@level": "6", 
        "@name": "Blade dance", 
        "@tooltipDescription": "Eliminate enemy attacks with flexible movements. Eliminate enemy attacks with 91% chance"
      }, 
      {
        "@id": "10700031", 
        "@level": "7", 
        "@name": "Blade dance", 
        "@tooltipDescription": "Eliminate enemy attacks with flexible movement."
      }, 
      {
        "@id": "10700031", 
        "@level": "8", 
        "@name": "Blade dance", 
        "@tooltipDescription": "Eliminate enemy attacks with flexible movement. \\nAt 95% chance of avoiding enemy attacks"
      }, 
      {
        "@id": "10700031", 
        "@level": "9", 
        "@name": "Blade dance", 
        "@tooltipDescription": "Eliminate enemy attacks with flexible movement."
      }, 
      {
        "@id": "10700031", 
        "@level": "10", 
        "@name": "Blade dance", 
        "@tooltipDescription": "Eliminate enemy attacks with flexible movement. \\n Avoid enemy attacks with 99% chance."
      }, 
      {
        "@id": "10700031", 
        "@level": "11", 
        "@name": "Blade dance", 
        "@tooltipDescription": "Eliminate enemy attacks with flexible movement. \\n Avoid enemy attacks with 99% chance."
      }, 
      {
        "@id": "10700031", 
        "@level": "12", 
        "@name": "Blade dance", 
        "@tooltipDescription": "Eliminate enemy attacks with flexible movement. \\n Avoid enemy attacks with 99% chance."
      }, 
      {
        "@id": "10700051", 
        "@level": "1", 
        "@name": "Somersault kick", 
        "@tooltipDescription": "You can not get into a powerful kick! \\nThe movement speed is reduced by 30% \\nThe jump power is reduced by 30%"
      }, 
      {
        "@id": "10700051", 
        "@level": "2", 
        "@name": "Somersault kick", 
        "@tooltipDescription": "You can not move your body to a powerful kick! \\nThe movement speed is reduced by 35% \\nThe jump power is reduced by 35%"
      }, 
      {
        "@id": "10700051", 
        "@level": "3", 
        "@name": "Somersault kick", 
        "@tooltipDescription": "You can not properly move your body to a powerful kick! \\n 40% reduction in movement speed \\n 40% reduction in jump force"
      }, 
      {
        "@id": "10700051", 
        "@level": "4", 
        "@name": "Somersault kick", 
        "@tooltipDescription": "You can not move your body to a powerful kick! \\nThe movement speed is reduced by 35% \\nThe jump power is reduced by 35%"
      }, 
      {
        "@id": "10700051", 
        "@level": "5", 
        "@name": "Somersault kick", 
        "@tooltipDescription": "You can not move your body to a powerful kick! \\nThe movement speed is reduced by 35% \\nThe jump power is reduced by 35%"
      }, 
      {
        "@id": "10700051", 
        "@level": "6", 
        "@name": "Somersault kick", 
        "@tooltipDescription": "You can not move your body to a powerful kick! \\nThe movement speed is reduced by 35% \\nThe jump power is reduced by 35%"
      }, 
      {
        "@id": "10700051", 
        "@level": "7", 
        "@name": "Somersault kick", 
        "@tooltipDescription": "You can not properly move your body to a powerful kick! \\n 40% reduction in movement speed \\n 40% reduction in jump force"
      }, 
      {
        "@id": "10700051", 
        "@level": "8", 
        "@name": "Somersault kick", 
        "@tooltipDescription": "You can not properly move your body to a powerful kick! \\n 40% reduction in movement speed \\n 40% reduction in jump force"
      }, 
      {
        "@id": "10700051", 
        "@level": "9", 
        "@name": "Somersault kick", 
        "@tooltipDescription": "You can not properly move your body to a powerful kick! \\n 40% reduction in movement speed \\n 40% reduction in jump force"
      }, 
      {
        "@id": "10700051", 
        "@level": "10", 
        "@name": "Somersault kick", 
        "@tooltipDescription": "You can not properly move your body to a powerful kick! \\nThe movement speed is reduced by 45% \\nThe jump power is reduced by 45%"
      }, 
      {
        "@id": "10700051", 
        "@level": "11", 
        "@name": "Somersault kick", 
        "@tooltipDescription": "You can not properly move your body to a powerful kick! \\nThe movement speed is reduced by 45% \\nThe jump power is reduced by 45%"
      }, 
      {
        "@id": "10700051", 
        "@level": "12", 
        "@name": "Somersault kick", 
        "@tooltipDescription": "You can not properly move your body to a powerful kick! \\nThe movement speed is reduced by 45% \\nThe jump power is reduced by 45%"
      }, 
      {
        "@id": "10700052", 
        "@level": "1", 
        "@name": "Somersault kick", 
        "@tooltipDescription": "I lost my spirit in a powerful kick! \\nNot acted stunned"
      }, 
      {
        "@id": "10700081", 
        "@level": "1", 
        "@name": "Heyst", 
        "@tooltipDescription": "Moves faster like a wind. \\nIncreases attack speed and movement speed by 13% \\n Increases physical damage by 8%"
      }, 
      {
        "@id": "10700081", 
        "@level": "2", 
        "@name": "Heyst", 
        "@tooltipDescription": "Moves faster like a wind. \\nIncreases attack speed and movement speed by 14%. \\n Increases physical attack power by 9%."
      }, 
      {
        "@id": "10700081", 
        "@level": "3", 
        "@name": "Heyst", 
        "@tooltipDescription": "Move as fast as the wind. \\nIncreases attack speed and movement speed by 15%. \\n Increases physical damage by 10%."
      }, 
      {
        "@id": "10700081", 
        "@level": "4", 
        "@name": "Heyst", 
        "@tooltipDescription": "Move as fast as the wind. \\nIncreases attack speed and movement speed by 16% \\n Increases physical damage by 11%"
      }, 
      {
        "@id": "10700081", 
        "@level": "5", 
        "@name": "Heyst", 
        "@tooltipDescription": "Move faster like a wind. \\nIncreases attack speed and movement speed by 17%. \\n Increases physical damage by 12%."
      }, 
      {
        "@id": "10700081", 
        "@level": "6", 
        "@name": "Heyst", 
        "@tooltipDescription": "Moves faster like a wind. \\nIncreases attack speed and movement speed by 18% \\n Increases physical damage by 13%"
      }, 
      {
        "@id": "10700081", 
        "@level": "7", 
        "@name": "Heyst", 
        "@tooltipDescription": "Move as fast as the wind. \\n Attack speed and movement speed increased by 19% \\n Physical attack power increased by 14%"
      }, 
      {
        "@id": "10700081", 
        "@level": "8", 
        "@name": "Heyst", 
        "@tooltipDescription": "Move as fast as the wind. \\n 20% increase attack speed and movement speed \\n 15% increase physical damage"
      }, 
      {
        "@id": "10700081", 
        "@level": "9", 
        "@name": "Heyst", 
        "@tooltipDescription": "Moves faster like a wind. \\nIncreases attack speed and movement speed by 21% \\n Increases physical damage by 16%"
      }, 
      {
        "@id": "10700081", 
        "@level": "10", 
        "@name": "Heyst", 
        "@tooltipDescription": "Move faster like a wind. \\nIncreases attack speed and movement speed by 22% \\n Increases physical damage by 17%"
      }, 
      {
        "@id": "10700081", 
        "@level": "11", 
        "@name": "Heyst", 
        "@tooltipDescription": "Moves faster like a wind. \\nIncreases attack speed and movement speed by 23%. \\nIncreases physical damage by 18%."
      }, 
      {
        "@id": "10700081", 
        "@level": "12", 
        "@name": "Heyst", 
        "@tooltipDescription": "Move as fast as the wind. \\nIncreases attack speed and movement speed by 24%. \\n Increases physical attack power by 19%."
      }, 
      {
        "@id": "10700102", 
        "@level": "1", 
        "@name": "retribution", 
        "@tooltipDescription": "Chance to fight back! \\n Physical attack and magic attack power 4.5%, evasion 6 increase"
      }, 
      {
        "@id": "10700102", 
        "@level": "2", 
        "@name": "retribution", 
        "@tooltipDescription": "Chance to fight back! \\n Physical attack and magic damage 6%, evasion 7 increased"
      }, 
      {
        "@id": "10700102", 
        "@level": "3", 
        "@name": "retribution", 
        "@tooltipDescription": "Chance to fight back! \\n Physical attack and magic attack power increased by 7.5%, evasion by 8%"
      }, 
      {
        "@id": "10700102", 
        "@level": "4", 
        "@name": "retribution", 
        "@tooltipDescription": "Chance to fight back! \\n Physical attack and magic damage 9%, evasion 9 increased"
      }, 
      {
        "@id": "10700102", 
        "@level": "5", 
        "@name": "retribution", 
        "@tooltipDescription": "Chance to fight back! \\n Physical damage and magic damage 10.5%, evasion 10 increased"
      }, 
      {
        "@id": "10700102", 
        "@level": "6", 
        "@name": "retribution", 
        "@tooltipDescription": "Chance to fight back! \\n Physical attack and magic damage 12%, evasion 11 increased"
      }, 
      {
        "@id": "10700102", 
        "@level": "7", 
        "@name": "retribution", 
        "@tooltipDescription": "Chance to fight back! \\n 13.5% physical attack and magic damage, evasion 12 increase"
      }, 
      {
        "@id": "10700102", 
        "@level": "8", 
        "@name": "retribution", 
        "@tooltipDescription": "Chance to fight back! \\n Physical attack and magic damage 15%, evasion 13 increased"
      }, 
      {
        "@id": "10700102", 
        "@level": "9", 
        "@name": "retribution", 
        "@tooltipDescription": "Chance to fight back! \\n 16.5% increase in physical attack and magic damage, 14 increase in avoidance"
      }, 
      {
        "@id": "10700102", 
        "@level": "10", 
        "@name": "retribution", 
        "@tooltipDescription": "Chance to fight back! \\n Physical attack and magic damage 18%, evasion 15%"
      }, 
      {
        "@id": "10700102", 
        "@level": "11", 
        "@name": "retribution", 
        "@tooltipDescription": "Chance to fight back! \\n Physical attack and magic attack power increased by 19.5%, evasion by 16%"
      }, 
      {
        "@id": "10700102", 
        "@level": "12", 
        "@name": "retribution", 
        "@tooltipDescription": "Chance to fight back! \\n Physical attack and magic attack power 21%, evasion 17% increase"
      }, 
      {
        "@id": "10700111", 
        "@level": "1", 
        "@name": "Poisonous glass bottle", 
        "@tooltipDescription": "Poisoned by poison! \\ N 35% poison damage per second"
      }, 
      {
        "@id": "10700111", 
        "@level": "2", 
        "@name": "Poisonous glass bottle", 
        "@tooltipDescription": "Poisoned by poison! \\ N 38% poison damage per second"
      }, 
      {
        "@id": "10700111", 
        "@level": "3", 
        "@name": "Poisonous glass bottle", 
        "@tooltipDescription": "Poisoned by poisoning! \\ N 41% poison damage per second"
      }, 
      {
        "@id": "10700111", 
        "@level": "4", 
        "@name": "Poisonous glass bottle", 
        "@tooltipDescription": "Poisoned by poison! \\n 44% poison damage per second"
      }, 
      {
        "@id": "10700111", 
        "@level": "5", 
        "@name": "Poisonous glass bottle", 
        "@tooltipDescription": "Poisoned by poison! \\ N 47% poison damage per second"
      }, 
      {
        "@id": "10700111", 
        "@level": "6", 
        "@name": "Poisonous glass bottle", 
        "@tooltipDescription": "Poisoned by poison! \\ N 50% poison damage per second"
      }, 
      {
        "@id": "10700111", 
        "@level": "7", 
        "@name": "Poisonous glass bottle", 
        "@tooltipDescription": "Poisoned by poison! \\ N 53% poison damage per second"
      }, 
      {
        "@id": "10700111", 
        "@level": "8", 
        "@name": "Poisonous glass bottle", 
        "@tooltipDescription": "Poisoned by poison! \\ N 56% poison damage per second"
      }, 
      {
        "@id": "10700111", 
        "@level": "9", 
        "@name": "Poisonous glass bottle", 
        "@tooltipDescription": "Poisoned by poison! \\ N 59% poison damage per second"
      }, 
      {
        "@id": "10700111", 
        "@level": "10", 
        "@name": "Poisonous glass bottle", 
        "@tooltipDescription": "Poisoned by poison! \\ N 62% poison damage per second"
      }, 
      {
        "@id": "10700111", 
        "@level": "11", 
        "@name": "Poisonous glass bottle", 
        "@tooltipDescription": "Poisoned by poison! \\ N 65% poison damage per second"
      }, 
      {
        "@id": "10700111", 
        "@level": "12", 
        "@name": "Poisonous glass bottle", 
        "@tooltipDescription": "Poisoned by poison! \\ N 68% poison damage per second"
      }, 
      {
        "@id": "10700142", 
        "@level": "1", 
        "@name": "Battle Plan", 
        "@tooltipDescription": "It's time to focus on the battle. \\nThe battle plan is activated, causing physical damage to increase.", 
        "@feature": "JobChange_01"
      }, 
      {
        "@id": "10700161", 
        "@level": "1", 
        "@name": "Mesogard Plus", 
        "@tooltipDescription": "Use Meso to block attacks. \\n 26% less damage to enemies."
      }, 
      {
        "@id": "10700161", 
        "@level": "2", 
        "@name": "Mesogard Plus", 
        "@tooltipDescription": "Protects against attacks using Meso. \\n 32% less damage to enemies"
      }, 
      {
        "@id": "10700161", 
        "@level": "3", 
        "@name": "Mesogard Plus", 
        "@tooltipDescription": "Protects against attacks using Meso. \\nAvoids 38% less damage to enemies."
      }, 
      {
        "@id": "10700161", 
        "@level": "4", 
        "@name": "Mesogard Plus", 
        "@tooltipDescription": "Use Meso to block attacks. \\n 44% less damage to enemies."
      }, 
      {
        "@id": "10700161", 
        "@level": "5", 
        "@name": "Mesogard Plus", 
        "@tooltipDescription": "Use Meso to block attacks. \\n 50% less damage to enemies."
      }, 
      {
        "@id": "10700161", 
        "@level": "6", 
        "@name": "Mesogard Plus", 
        "@tooltipDescription": "Use Meso to block attacks. \\n 56% less damage to enemies."
      }, 
      {
        "@id": "10700161", 
        "@level": "7", 
        "@name": "Mesogard Plus", 
        "@tooltipDescription": "Use Meso to block attacks. \\n 62% less damage to enemies."
      }, 
      {
        "@id": "10700161", 
        "@level": "8", 
        "@name": "Mesogard Plus", 
        "@tooltipDescription": "Use Meso to block attacks. \\n 68% less damage to enemies."
      }, 
      {
        "@id": "10700161", 
        "@level": "9", 
        "@name": "Mesogard Plus", 
        "@tooltipDescription": "Use Meso to block attacks. \\n 74% reduction in damage to enemies."
      }, 
      {
        "@id": "10700161", 
        "@level": "10", 
        "@name": "Mesogard Plus", 
        "@tooltipDescription": "Use Meso to block attacks. \\n 80% reduction in damage to enemies."
      }, 
      {
        "@id": "10700161", 
        "@level": "11", 
        "@name": "Mesogard Plus", 
        "@tooltipDescription": "Prevent attacks by using meso. \\nEnter enemy damage by 86%."
      }, 
      {
        "@id": "10700161", 
        "@level": "12", 
        "@name": "Mesogard Plus", 
        "@tooltipDescription": "Use Meso to block attacks. \\n 92% reduction in enemy damage"
      }, 
      {
        "@id": "10700162", 
        "@level": "1", 
        "@name": "Mesogard Plus EX", 
        "@tooltipDescription": "Use Meso to block attacks and strengthen your weapons. \\n 2.6% less damage done to your opponent \\n \\ 11% more physical damage"
      }, 
      {
        "@id": "10700162", 
        "@level": "2", 
        "@name": "Mesogard Plus EX", 
        "@tooltipDescription": "Use Meso to block attacks and strengthen your weapons. \\nAbra damage to enemies reduced by 3.2%. \\n 14% increase in physical damage."
      }, 
      {
        "@id": "10700162", 
        "@level": "3", 
        "@name": "Mesogard Plus EX", 
        "@tooltipDescription": "Use Meso to block attacks and strengthen weapons. \\n3.8% less damage to enemies \\n \\n7% more physical damage"
      }, 
      {
        "@id": "10700162", 
        "@level": "4", 
        "@name": "Mesogard Plus EX", 
        "@tooltipDescription": "Use Meso to block attacks and strengthen weapons. \\n4.4% reduction in damage to enemies \\n% 20% increase in physical damage"
      }, 
      {
        "@id": "10700162", 
        "@level": "5", 
        "@name": "Mesogard Plus EX", 
        "@tooltipDescription": "Use Meso to block attacks and strengthen your weapons. \\n 5% less damage to enemies \\n \\ 23% more physical damage"
      }, 
      {
        "@id": "10700162", 
        "@level": "6", 
        "@name": "Mesogard Plus EX", 
        "@tooltipDescription": "Use Meso to block attacks and strengthen weapons. \\n 5.6% reduction in damage to enemies \\n 26% increase in physical damage"
      }, 
      {
        "@id": "10700162", 
        "@level": "7", 
        "@name": "Mesogard Plus EX", 
        "@tooltipDescription": "Use Meso to block attacks and strengthen weapons. \\n2.6% reduction in damage to enemies \\n% 29% increase in physical damage"
      }, 
      {
        "@id": "10700162", 
        "@level": "8", 
        "@name": "Mesogard Plus EX", 
        "@tooltipDescription": "Prevent attacks and strengthen weapons using meso. \\nDelivere damage to enemies by 6.8%, \\n Increase physical damage by 32%."
      }, 
      {
        "@id": "10700162", 
        "@level": "9", 
        "@name": "Mesogard Plus EX", 
        "@tooltipDescription": "Use Meso to block attacks and strengthen weapons. \\n7.4% less damage to enemies \\n \\ 35% more physical damage"
      }, 
      {
        "@id": "10700162", 
        "@level": "10", 
        "@name": "Mesogard Plus EX", 
        "@tooltipDescription": "Use Meso to block attacks and strengthen weapons. \\n 8% less damage to enemies \\n \\ 38% more physical damage"
      }, 
      {
        "@id": "10700162", 
        "@level": "11", 
        "@name": "Mesogard Plus EX", 
        "@tooltipDescription": "Prevent attacks and strengthen weapons using Meso. \\nDelivere damage to enemies by 8.6%, \\nStrengthen physical attack by 41%."
      }, 
      {
        "@id": "10700162", 
        "@level": "12", 
        "@name": "Mesogard Plus EX", 
        "@tooltipDescription": "Prevent attacks using weapons and strengthen weapons. \\n 9.2% reduction in damage to enemies \\n \\n \\n 44% increase in physical damage"
      }, 
      {
        "@id": "10700191", 
        "@level": "1", 
        "@name": "Battle Staff (check)", 
        "@tooltipDescription": "10% increase in armor", 
        "@feature": "JobChange_01"
      }, 
      {
        "@id": "10700191", 
        "@level": "2", 
        "@name": "Battle Staff (check)", 
        "@tooltipDescription": "10% increase in armor", 
        "@feature": "JobChange_01"
      }, 
      {
        "@id": "10700191", 
        "@level": "3", 
        "@name": "Battle Staff (check)", 
        "@tooltipDescription": "10% increase in armor", 
        "@feature": "JobChange_01"
      }, 
      {
        "@id": "10700191", 
        "@level": "4", 
        "@name": "Battle Staff (check)", 
        "@tooltipDescription": "10% increase in armor", 
        "@feature": "JobChange_01"
      }, 
      {
        "@id": "10700191", 
        "@level": "5", 
        "@name": "Battle Staff (check)", 
        "@tooltipDescription": "10% increase in armor", 
        "@feature": "JobChange_01"
      }, 
      {
        "@id": "10700191", 
        "@level": "6", 
        "@name": "Battle Staff (check)", 
        "@tooltipDescription": "10% increase in armor", 
        "@feature": "JobChange_01"
      }, 
      {
        "@id": "10700191", 
        "@level": "7", 
        "@name": "Battle Staff (check)", 
        "@tooltipDescription": "10% increase in armor", 
        "@feature": "JobChange_01"
      }, 
      {
        "@id": "10700191", 
        "@level": "8", 
        "@name": "Battle Staff (check)", 
        "@tooltipDescription": "10% increase in armor", 
        "@feature": "JobChange_01"
      }, 
      {
        "@id": "10700191", 
        "@level": "9", 
        "@name": "Battle Staff (check)", 
        "@tooltipDescription": "10% increase in armor", 
        "@feature": "JobChange_01"
      }, 
      {
        "@id": "10700191", 
        "@level": "10", 
        "@name": "Battle Staff (check)", 
        "@tooltipDescription": "10% increase in armor", 
        "@feature": "JobChange_01"
      }, 
      {
        "@id": "10700191", 
        "@level": "11", 
        "@name": "Battle Staff (check)", 
        "@tooltipDescription": "10% increase in armor", 
        "@feature": "JobChange_01"
      }, 
      {
        "@id": "10700191", 
        "@level": "12", 
        "@name": "Battle Staff (check)", 
        "@tooltipDescription": "10% increase in armor", 
        "@feature": "JobChange_01"
      }, 
      {
        "@id": "10700194", 
        "@level": "1", 
        "@name": "Battle Staff (battle rush)", 
        "@tooltipDescription": "Focus on battle. \\n 29% physical damage, 10% movement speed.", 
        "@feature": "JobChange_01"
      }, 
      {
        "@id": "10700194", 
        "@level": "2", 
        "@name": "Battle Staff (battle rush)", 
        "@tooltipDescription": "Focus on battle. \\n 31% physical damage and 10% movement speed.", 
        "@feature": "JobChange_01"
      }, 
      {
        "@id": "10700194", 
        "@level": "3", 
        "@name": "Battle Staff (battle rush)", 
        "@tooltipDescription": "Focus on combat. \\n 33% physical damage, 10% movement speed.", 
        "@feature": "JobChange_01"
      }, 
      {
        "@id": "10700194", 
        "@level": "4", 
        "@name": "Battle Staff (battle rush)", 
        "@tooltipDescription": "Focus on combat. \\n 35% physical damage, 10% movement speed.", 
        "@feature": "JobChange_01"
      }, 
      {
        "@id": "10700194", 
        "@level": "5", 
        "@name": "Battle Staff (battle rush)", 
        "@tooltipDescription": "Focus on battle. \\n 37% physical damage, 10% movement speed.", 
        "@feature": "JobChange_01"
      }, 
      {
        "@id": "10700194", 
        "@level": "6", 
        "@name": "Battle Staff (battle rush)", 
        "@tooltipDescription": "Focus on battle. \\n 39% physical damage, 10% movement speed.", 
        "@feature": "JobChange_01"
      }, 
      {
        "@id": "10700194", 
        "@level": "7", 
        "@name": "Battle Staff (battle rush)", 
        "@tooltipDescription": "Focus on battle. \\n 41% physical damage, 10% movement speed.", 
        "@feature": "JobChange_01"
      }, 
      {
        "@id": "10700194", 
        "@level": "8", 
        "@name": "Battle Staff (battle rush)", 
        "@tooltipDescription": "Concentrate on battle. \\n 43% physical damage and 10% movement speed.", 
        "@feature": "JobChange_01"
      }, 
      {
        "@id": "10700194", 
        "@level": "9", 
        "@name": "Battle Staff (battle rush)", 
        "@tooltipDescription": "Focus on battle. \\n45% physical damage and 10% movement speed.", 
        "@feature": "JobChange_01"
      }, 
      {
        "@id": "10700194", 
        "@level": "10", 
        "@name": "Battle Staff (battle rush)", 
        "@tooltipDescription": "Concentrate on battle. \\n 47% physical damage and 10% movement speed.", 
        "@feature": "JobChange_01"
      }, 
      {
        "@id": "10700194", 
        "@level": "11", 
        "@name": "Battle Staff (battle rush)", 
        "@tooltipDescription": "Focus on battle. \\n 49% physical damage and 10% movement speed.", 
        "@feature": "JobChange_01"
      }, 
      {
        "@id": "10700194", 
        "@level": "12", 
        "@name": "Battle Staff (battle rush)", 
        "@tooltipDescription": "Focus on combat. \\n 51% physical damage and 10% movement speed.", 
        "@feature": "JobChange_01"
      }, 
      {
        "@id": "10700195", 
        "@level": "1", 
        "@name": "Battle Staff (battle rush)", 
        "@tooltipDescription": "Reserve your strength to prepare for your next battle.", 
        "@feature": "JobChange_01"
      }, 
      {
        "@id": "10700231", 
        "@level": "1", 
        "@name": "Squeeze Glass Bottle 1", 
        "@tooltipDescription": "Poisoned by poison! \\n 40% poison damage per second", 
        "@feature": "JobChange_01"
      }, 
      {
        "@id": "10700231", 
        "@level": "2", 
        "@name": "Squeeze Glass Bottle 1", 
        "@tooltipDescription": "Poisoned by poison! \\n 45% poison damage per second", 
        "@feature": "JobChange_01"
      }, 
      {
        "@id": "10700231", 
        "@level": "3", 
        "@name": "Squeeze Glass Bottle 1", 
        "@tooltipDescription": "Poisoned by poison! \\n 50% poison damage per second", 
        "@feature": "JobChange_01"
      }, 
      {
        "@id": "10700231", 
        "@level": "4", 
        "@name": "Squeeze Glass Bottle 1", 
        "@tooltipDescription": "Poisoned by poison! \\n 55% poison damage per second", 
        "@feature": "JobChange_01"
      }, 
      {
        "@id": "10700231", 
        "@level": "5", 
        "@name": "Squeeze Glass Bottle 1", 
        "@tooltipDescription": "Poisoned by poison! \\n 60% poison damage per second", 
        "@feature": "JobChange_01"
      }, 
      {
        "@id": "10700231", 
        "@level": "6", 
        "@name": "Squeeze Glass Bottle 1", 
        "@tooltipDescription": "Poisoned by poison! \\n 65% poison damage per second", 
        "@feature": "JobChange_01"
      }, 
      {
        "@id": "10700231", 
        "@level": "7", 
        "@name": "Squeeze Glass Bottle 1", 
        "@tooltipDescription": "Poisoned by poison! \\n 70% poison damage per second", 
        "@feature": "JobChange_01"
      }, 
      {
        "@id": "10700231", 
        "@level": "8", 
        "@name": "Squeeze Glass Bottle 1", 
        "@tooltipDescription": "Poisoned by poison! \\n 75% poison damage per second", 
        "@feature": "JobChange_01"
      }, 
      {
        "@id": "10700231", 
        "@level": "9", 
        "@name": "Squeeze Glass Bottle 1", 
        "@tooltipDescription": "Poisoned by poison! \\n 80% poison damage per second", 
        "@feature": "JobChange_01"
      }, 
      {
        "@id": "10700231", 
        "@level": "10", 
        "@name": "Squeeze Glass Bottle 1", 
        "@tooltipDescription": "Poisoned by poison! \\n 85% poison damage per second", 
        "@feature": "JobChange_01"
      }, 
      {
        "@id": "10700231", 
        "@level": "11", 
        "@name": "Squeeze Glass Bottle 1", 
        "@tooltipDescription": "Poisoned by poison! \\n 90% poison damage per second", 
        "@feature": "JobChange_01"
      }, 
      {
        "@id": "10700231", 
        "@level": "12", 
        "@name": "Squeeze Glass Bottle 1", 
        "@tooltipDescription": "Poisoned by poison! \\n 95% poison damage per second", 
        "@feature": "JobChange_01"
      }, 
      {
        "@id": "10700232", 
        "@level": "1", 
        "@name": "Squeeze glass bottle 2", 
        "@tooltipDescription": "Poisoned by poison! \\n 40% poison damage per second", 
        "@feature": "JobChange_01"
      }, 
      {
        "@id": "10700232", 
        "@level": "2", 
        "@name": "Squeeze glass bottle 2", 
        "@tooltipDescription": "Poisoned by poison! \\n 45% poison damage per second", 
        "@feature": "JobChange_01"
      }, 
      {
        "@id": "10700232", 
        "@level": "3", 
        "@name": "Squeeze glass bottle 2", 
        "@tooltipDescription": "Poisoned by poison! \\n 50% poison damage per second", 
        "@feature": "JobChange_01"
      }, 
      {
        "@id": "10700232", 
        "@level": "4", 
        "@name": "Squeeze glass bottle 2", 
        "@tooltipDescription": "Poisoned by poison! \\n 55% poison damage per second", 
        "@feature": "JobChange_01"
      }, 
      {
        "@id": "10700232", 
        "@level": "5", 
        "@name": "Squeeze glass bottle 2", 
        "@tooltipDescription": "Poisoned by poison! \\n 60% poison damage per second", 
        "@feature": "JobChange_01"
      }, 
      {
        "@id": "10700232", 
        "@level": "6", 
        "@name": "Squeeze glass bottle 2", 
        "@tooltipDescription": "Poisoned by poison! \\n 65% poison damage per second", 
        "@feature": "JobChange_01"
      }, 
      {
        "@id": "10700232", 
        "@level": "7", 
        "@name": "Squeeze glass bottle 2", 
        "@tooltipDescription": "Poisoned by poison! \\n 70% poison damage per second", 
        "@feature": "JobChange_01"
      }, 
      {
        "@id": "10700232", 
        "@level": "8", 
        "@name": "Squeeze glass bottle 2", 
        "@tooltipDescription": "Poisoned by poison! \\n 75% poison damage per second", 
        "@feature": "JobChange_01"
      }, 
      {
        "@id": "10700232", 
        "@level": "9", 
        "@name": "Squeeze glass bottle 2", 
        "@tooltipDescription": "Poisoned by poison! \\n 80% poison damage per second", 
        "@feature": "JobChange_01"
      }, 
      {
        "@id": "10700232", 
        "@level": "10", 
        "@name": "Squeeze glass bottle 2", 
        "@tooltipDescription": "Poisoned by poison! \\n 85% poison damage per second", 
        "@feature": "JobChange_01"
      }, 
      {
        "@id": "10700232", 
        "@level": "11", 
        "@name": "Squeeze glass bottle 2", 
        "@tooltipDescription": "Poisoned by poison! \\n 90% poison damage per second", 
        "@feature": "JobChange_01"
      }, 
      {
        "@id": "10700232", 
        "@level": "12", 
        "@name": "Squeeze glass bottle 2", 
        "@tooltipDescription": "Poisoned by poison! \\n 95% poison damage per second", 
        "@feature": "JobChange_01"
      }, 
      {
        "@id": "10700282", 
        "@level": "1", 
        "@name": "Term commitment", 
        "@tooltipDescription": "Attack speed increased by 7%, movement speed increased by 4%", 
        "@feature": "JobChange_02"
      }, 
      {
        "@id": "10700282", 
        "@level": "2", 
        "@name": "Term commitment", 
        "@tooltipDescription": "Attack Speed 14%, Move Speed 8%", 
        "@feature": "JobChange_02"
      }, 
      {
        "@id": "10700282", 
        "@level": "3", 
        "@name": "Term commitment", 
        "@tooltipDescription": "Attack Speed 21%, Movement Speed 12%", 
        "@feature": "JobChange_02"
      }, 
      {
        "@id": "10700282", 
        "@level": "4", 
        "@name": "Term commitment", 
        "@tooltipDescription": "Attack speed 28%, movement speed 16% increase", 
        "@feature": "JobChange_02"
      }, 
      {
        "@id": "10700282", 
        "@level": "5", 
        "@name": "Term commitment", 
        "@tooltipDescription": "Attack Speed 35%, Move Speed 20%", 
        "@feature": "JobChange_02"
      }, 
      {
        "@id": "10700282", 
        "@level": "6", 
        "@name": "Term commitment", 
        "@tooltipDescription": "Attack Speed 42%, Move Speed 24%", 
        "@feature": "JobChange_02"
      }, 
      {
        "@id": "10700282", 
        "@level": "7", 
        "@name": "Term commitment", 
        "@tooltipDescription": "Attack Speed 49%, Movement Speed 28%", 
        "@feature": "JobChange_02"
      }, 
      {
        "@id": "10700282", 
        "@level": "8", 
        "@name": "Term commitment", 
        "@tooltipDescription": "Attack speed 56%, movement speed 32% increase", 
        "@feature": "JobChange_02"
      }, 
      {
        "@id": "10700282", 
        "@level": "9", 
        "@name": "Term commitment", 
        "@tooltipDescription": "Attack Speed 63%, Movement Speed 36%", 
        "@feature": "JobChange_02"
      }, 
      {
        "@id": "10700282", 
        "@level": "10", 
        "@name": "Term commitment", 
        "@tooltipDescription": "Attack Speed 70%, Movement Speed 40%", 
        "@feature": "JobChange_02"
      }, 
      {
        "@id": "10700282", 
        "@level": "11", 
        "@name": "Term commitment", 
        "@tooltipDescription": "Attack speed 77%, movement speed 44% increase", 
        "@feature": "JobChange_02"
      }, 
      {
        "@id": "10700282", 
        "@level": "12", 
        "@name": "Term commitment", 
        "@tooltipDescription": "Attack Speed 84%, Move Speed 48%", 
        "@feature": "JobChange_02"
      }, 
      {
        "@id": "10700283", 
        "@level": "1", 
        "@name": "Term commitment", 
        "@tooltipDescription": "Physical / magic damage 6%, physical / magic resistance 105 increased", 
        "@feature": "JobChange_02"
      }, 
      {
        "@id": "10700283", 
        "@level": "2", 
        "@name": "Term commitment", 
        "@tooltipDescription": "Physical / magic damage 12%, physical / magic resistance 135 increase", 
        "@feature": "JobChange_02"
      }, 
      {
        "@id": "10700283", 
        "@level": "3", 
        "@name": "Term commitment", 
        "@tooltipDescription": "Physical / magic damage increased by 18%, physical / magic resistance increased by 165", 
        "@feature": "JobChange_02"
      }, 
      {
        "@id": "10700283", 
        "@level": "4", 
        "@name": "Term commitment", 
        "@tooltipDescription": "Physical / magic damage 24%, physical / magic resistance 195 increased", 
        "@feature": "JobChange_02"
      }, 
      {
        "@id": "10700283", 
        "@level": "5", 
        "@name": "Term commitment", 
        "@tooltipDescription": "Physical / magic damage 30%, physical / magic resistance 225 increased", 
        "@feature": "JobChange_02"
      }, 
      {
        "@id": "10700283", 
        "@level": "6", 
        "@name": "Term commitment", 
        "@tooltipDescription": "Physical / magic damage 36%, physical / magic resistance 255 increased", 
        "@feature": "JobChange_02"
      }, 
      {
        "@id": "10700283", 
        "@level": "7", 
        "@name": "Term commitment", 
        "@tooltipDescription": "Physical / Magical Attack Power 42%, Physical / Magical Resistance 285 increased", 
        "@feature": "JobChange_02"
      }, 
      {
        "@id": "10700283", 
        "@level": "8", 
        "@name": "Term commitment", 
        "@tooltipDescription": "Physical / magic damage 48%, physical / magic resistance 315 increased", 
        "@feature": "JobChange_02"
      }, 
      {
        "@id": "10700283", 
        "@level": "9", 
        "@name": "Term commitment", 
        "@tooltipDescription": "Physical / magic damage 54%, physical / magic resistance 345 increased", 
        "@feature": "JobChange_02"
      }, 
      {
        "@id": "10700283", 
        "@level": "10", 
        "@name": "Term commitment", 
        "@tooltipDescription": "Physical / Magical Attack Power 60%, Physical / Magic Resist 375 Increase", 
        "@feature": "JobChange_02"
      }, 
      {
        "@id": "10700283", 
        "@level": "11", 
        "@name": "Term commitment", 
        "@tooltipDescription": "Physical / magic damage 66%, physical / magic resistance 405 increased", 
        "@feature": "JobChange_02"
      }, 
      {
        "@id": "10700283", 
        "@level": "12", 
        "@name": "Term commitment", 
        "@tooltipDescription": "Physical / Magical ATK 72%, Physical / Magical Resistance 435 increased", 
        "@feature": "JobChange_02"
      }, 
      {
        "@id": "10700284", 
        "@level": "1", 
        "@name": "Term commitment", 
        "@tooltipDescription": "Weapon Attack Power 4% in Retaliation, Evasion 4 Increase", 
        "@feature": "JobChange_02"
      }, 
      {
        "@id": "10700284", 
        "@level": "2", 
        "@name": "Term commitment", 
        "@tooltipDescription": "Weapon Attack Power in Retaliation 8%, Evasion 8 Increase", 
        "@feature": "JobChange_02"
      }, 
      {
        "@id": "10700284", 
        "@level": "3", 
        "@name": "Term commitment", 
        "@tooltipDescription": "Weapon ATK 12%, Evasion 12 Increase", 
        "@feature": "JobChange_02"
      }, 
      {
        "@id": "10700284", 
        "@level": "4", 
        "@name": "Term commitment", 
        "@tooltipDescription": "Weapon Attack Power 16%, Evasion 16 Increase", 
        "@feature": "JobChange_02"
      }, 
      {
        "@id": "10700284", 
        "@level": "5", 
        "@name": "Term commitment", 
        "@tooltipDescription": "Weapon Attack Power 20%, Avoidance 20", 
        "@feature": "JobChange_02"
      }, 
      {
        "@id": "10700284", 
        "@level": "6", 
        "@name": "Term commitment", 
        "@tooltipDescription": "Weapon damage 24%, avoidance 24 increase", 
        "@feature": "JobChange_02"
      }, 
      {
        "@id": "10700284", 
        "@level": "7", 
        "@name": "Term commitment", 
        "@tooltipDescription": "Weapon Attack in Retaliation 28%, Evasion 28", 
        "@feature": "JobChange_02"
      }, 
      {
        "@id": "10700284", 
        "@level": "8", 
        "@name": "Term commitment", 
        "@tooltipDescription": "Weapon Attack Power 32%, Evasion 32 Increase", 
        "@feature": "JobChange_02"
      }, 
      {
        "@id": "10700284", 
        "@level": "9", 
        "@name": "Term commitment", 
        "@tooltipDescription": "Weapon Attack Power 36%, Evasion 36 Increase", 
        "@feature": "JobChange_02"
      }, 
      {
        "@id": "10700284", 
        "@level": "10", 
        "@name": "Term commitment", 
        "@tooltipDescription": "Weapon Attack Power 40%, Evasion 40 Increase", 
        "@feature": "JobChange_02"
      }, 
      {
        "@id": "10700284", 
        "@level": "11", 
        "@name": "Term commitment", 
        "@tooltipDescription": "Weapon Attack Power 44%, Evasion 44 Increase", 
        "@feature": "JobChange_02"
      }, 
      {
        "@id": "10700284", 
        "@level": "12", 
        "@name": "Term commitment", 
        "@tooltipDescription": "Weapon Attack Power 48%, Evasion 48 Increase", 
        "@feature": "JobChange_02"
      }, 
      {
        "@id": "10700001", 
        "@level": "1", 
        "@name": "mean", 
        "@tooltipDescription": "Choose the means and the way! \\nEnhance some skills \\n% 30% increase in movement speed", 
        "@feature": "CharacterBalance_01", 
        "@locale": "KR"
      }, 
      {
        "@id": "10700011", 
        "@level": "1", 
        "@name": "Poison blow", 
        "@tooltipDescription": "Poisoned by poison! \\n 11% poison damage per second", 
        "@feature": "CharacterBalance_01", 
        "@locale": "KR"
      }, 
      {
        "@id": "10700011", 
        "@level": "2", 
        "@name": "Poison blow", 
        "@tooltipDescription": "Poisoned by poison! \\n 12% poison damage per second", 
        "@feature": "CharacterBalance_01", 
        "@locale": "KR"
      }, 
      {
        "@id": "10700011", 
        "@level": "3", 
        "@name": "Poison blow", 
        "@tooltipDescription": "Poisoned by poison! \\n 13% poison damage per second", 
        "@feature": "CharacterBalance_01", 
        "@locale": "KR"
      }, 
      {
        "@id": "10700011", 
        "@level": "4", 
        "@name": "Poison blow", 
        "@tooltipDescription": "Poisoned by poison! \\n 14% poison damage per second", 
        "@feature": "CharacterBalance_01", 
        "@locale": "KR"
      }, 
      {
        "@id": "10700011", 
        "@level": "5", 
        "@name": "Poison blow", 
        "@tooltipDescription": "Poisoned by poison! \\n 15% poison damage per second", 
        "@feature": "CharacterBalance_01", 
        "@locale": "KR"
      }, 
      {
        "@id": "10700011", 
        "@level": "6", 
        "@name": "Poison blow", 
        "@tooltipDescription": "Poisoned by poison! \\n 16% poison damage per second", 
        "@feature": "CharacterBalance_01", 
        "@locale": "KR"
      }, 
      {
        "@id": "10700011", 
        "@level": "7", 
        "@name": "Poison blow", 
        "@tooltipDescription": "Poisoned by poison! \\n 17% poison damage per second", 
        "@feature": "CharacterBalance_01", 
        "@locale": "KR"
      }, 
      {
        "@id": "10700011", 
        "@level": "8", 
        "@name": "Poison blow", 
        "@tooltipDescription": "Poisoned by poison! \\n 18% poison damage per second", 
        "@feature": "CharacterBalance_01", 
        "@locale": "KR"
      }, 
      {
        "@id": "10700011", 
        "@level": "9", 
        "@name": "Poison blow", 
        "@tooltipDescription": "Poisoned by poison! \\n 19% poison damage per second", 
        "@feature": "CharacterBalance_01", 
        "@locale": "KR"
      }, 
      {
        "@id": "10700011", 
        "@level": "10", 
        "@name": "Poison blow", 
        "@tooltipDescription": "Poisoned by poison! \\n 20% poison damage per second", 
        "@feature": "CharacterBalance_01", 
        "@locale": "KR"
      }, 
      {
        "@id": "10700011", 
        "@level": "11", 
        "@name": "Poison blow", 
        "@tooltipDescription": "Poisoned by poison! \\n 21% poison damage per second", 
        "@feature": "CharacterBalance_01", 
        "@locale": "KR"
      }, 
      {
        "@id": "10700011", 
        "@level": "12", 
        "@name": "Poison blow", 
        "@tooltipDescription": "Poisoned by poisoning! \\n 22% poison damage per second", 
        "@feature": "CharacterBalance_01", 
        "@locale": "KR"
      }, 
      {
        "@id": "10700031", 
        "@level": "1", 
        "@name": "Blade dance", 
        "@tooltipDescription": "Eliminate enemy attacks with flexible movement. \\n Avoid enemy attacks with 81% chance.", 
        "@feature": "CharacterBalance_01", 
        "@locale": "KR"
      }, 
      {
        "@id": "10700031", 
        "@level": "2", 
        "@name": "Blade dance", 
        "@tooltipDescription": "Eliminate enemy attacks with flexible movements. Avoid enemy attacks with 83% chance", 
        "@feature": "CharacterBalance_01", 
        "@locale": "KR"
      }, 
      {
        "@id": "10700031", 
        "@level": "3", 
        "@name": "Blade dance", 
        "@tooltipDescription": "Eliminate enemy attacks with flexible movement. \\nAvoid an enemy attack with 85% chance", 
        "@feature": "CharacterBalance_01", 
        "@locale": "KR"
      }, 
      {
        "@id": "10700031", 
        "@level": "4", 
        "@name": "Blade dance", 
        "@tooltipDescription": "Eliminate enemy attacks with flexible movement.", 
        "@feature": "CharacterBalance_01", 
        "@locale": "KR"
      }, 
      {
        "@id": "10700031", 
        "@level": "5", 
        "@name": "Blade dance", 
        "@tooltipDescription": "Eliminate enemy attacks with flexible movement. Avoid enemy attacks with 89% chance.", 
        "@feature": "CharacterBalance_01", 
        "@locale": "KR"
      }, 
      {
        "@id": "10700031", 
        "@level": "6", 
        "@name": "Blade dance", 
        "@tooltipDescription": "Eliminate enemy attacks with flexible movements. Eliminate enemy attacks with 91% chance", 
        "@feature": "CharacterBalance_01", 
        "@locale": "KR"
      }, 
      {
        "@id": "10700031", 
        "@level": "7", 
        "@name": "Blade dance", 
        "@tooltipDescription": "Eliminate enemy attacks with flexible movement.", 
        "@feature": "CharacterBalance_01", 
        "@locale": "KR"
      }, 
      {
        "@id": "10700031", 
        "@level": "8", 
        "@name": "Blade dance", 
        "@tooltipDescription": "Eliminate enemy attacks with flexible movement. \\nAt 95% chance of avoiding enemy attacks", 
        "@feature": "CharacterBalance_01", 
        "@locale": "KR"
      }, 
      {
        "@id": "10700031", 
        "@level": "9", 
        "@name": "Blade dance", 
        "@tooltipDescription": "Eliminate enemy attacks with flexible movement.", 
        "@feature": "CharacterBalance_01", 
        "@locale": "KR"
      }, 
      {
        "@id": "10700031", 
        "@level": "10", 
        "@name": "Blade dance", 
        "@tooltipDescription": "Eliminate enemy attacks with flexible movement. \\n Avoid enemy attacks with 99% chance.", 
        "@feature": "CharacterBalance_01", 
        "@locale": "KR"
      }, 
      {
        "@id": "10700031", 
        "@level": "11", 
        "@name": "Blade dance", 
        "@tooltipDescription": "Eliminate enemy attacks with flexible movement. \\n Avoid enemy attacks with 99% chance.", 
        "@feature": "CharacterBalance_01", 
        "@locale": "KR"
      }, 
      {
        "@id": "10700031", 
        "@level": "12", 
        "@name": "Blade dance", 
        "@tooltipDescription": "Eliminate enemy attacks with flexible movement. \\n Avoid enemy attacks with 99% chance.", 
        "@feature": "CharacterBalance_01", 
        "@locale": "KR"
      }, 
      {
        "@id": "10700051", 
        "@level": "1", 
        "@name": "Somersault kick", 
        "@tooltipDescription": "You can not get into a powerful kick! \\nThe movement speed is reduced by 30% \\nThe jump power is reduced by 30%", 
        "@feature": "CharacterBalance_01", 
        "@locale": "KR"
      }, 
      {
        "@id": "10700051", 
        "@level": "2", 
        "@name": "Somersault kick", 
        "@tooltipDescription": "You can not move your body to a powerful kick! \\nThe movement speed is reduced by 35% \\nThe jump power is reduced by 35%", 
        "@feature": "CharacterBalance_01", 
        "@locale": "KR"
      }, 
      {
        "@id": "10700051", 
        "@level": "3", 
        "@name": "Somersault kick", 
        "@tooltipDescription": "You can not properly move your body to a powerful kick! \\n 40% reduction in movement speed \\n 40% reduction in jump force", 
        "@feature": "CharacterBalance_01", 
        "@locale": "KR"
      }, 
      {
        "@id": "10700051", 
        "@level": "4", 
        "@name": "Somersault kick", 
        "@tooltipDescription": "You can not move your body to a powerful kick! \\nThe movement speed is reduced by 35% \\nThe jump power is reduced by 35%", 
        "@feature": "CharacterBalance_01", 
        "@locale": "KR"
      }, 
      {
        "@id": "10700051", 
        "@level": "5", 
        "@name": "Somersault kick", 
        "@tooltipDescription": "You can not move your body to a powerful kick! \\nThe movement speed is reduced by 35% \\nThe jump power is reduced by 35%", 
        "@feature": "CharacterBalance_01", 
        "@locale": "KR"
      }, 
      {
        "@id": "10700051", 
        "@level": "6", 
        "@name": "Somersault kick", 
        "@tooltipDescription": "You can not move your body to a powerful kick! \\nThe movement speed is reduced by 35% \\nThe jump power is reduced by 35%", 
        "@feature": "CharacterBalance_01", 
        "@locale": "KR"
      }, 
      {
        "@id": "10700051", 
        "@level": "7", 
        "@name": "Somersault kick", 
        "@tooltipDescription": "You can not properly move your body to a powerful kick! \\n 40% reduction in movement speed \\n 40% reduction in jump force", 
        "@feature": "CharacterBalance_01", 
        "@locale": "KR"
      }, 
      {
        "@id": "10700051", 
        "@level": "8", 
        "@name": "Somersault kick", 
        "@tooltipDescription": "You can not properly move your body to a powerful kick! \\n 40% reduction in movement speed \\n 40% reduction in jump force", 
        "@feature": "CharacterBalance_01", 
        "@locale": "KR"
      }, 
      {
        "@id": "10700051", 
        "@level": "9", 
        "@name": "Somersault kick", 
        "@tooltipDescription": "You can not properly move your body to a powerful kick! \\n 40% reduction in movement speed \\n 40% reduction in jump force", 
        "@feature": "CharacterBalance_01", 
        "@locale": "KR"
      }, 
      {
        "@id": "10700051", 
        "@level": "10", 
        "@name": "Somersault kick", 
        "@tooltipDescription": "You can not properly move your body to a powerful kick! \\nThe movement speed is reduced by 45% \\nThe jump power is reduced by 45%", 
        "@feature": "CharacterBalance_01", 
        "@locale": "KR"
      }, 
      {
        "@id": "10700051", 
        "@level": "11", 
        "@name": "Somersault kick", 
        "@tooltipDescription": "You can not properly move your body to a powerful kick! \\nThe movement speed is reduced by 45% \\nThe jump power is reduced by 45%", 
        "@feature": "CharacterBalance_01", 
        "@locale": "KR"
      }, 
      {
        "@id": "10700051", 
        "@level": "12", 
        "@name": "Somersault kick", 
        "@tooltipDescription": "You can not properly move your body to a powerful kick! \\nThe movement speed is reduced by 45% \\nThe jump power is reduced by 45%", 
        "@feature": "CharacterBalance_01", 
        "@locale": "KR"
      }, 
      {
        "@id": "10700052", 
        "@level": "1", 
        "@name": "Somersault kick", 
        "@tooltipDescription": "I lost my spirit in a powerful kick! \\nNot acted stunned", 
        "@feature": "CharacterBalance_01", 
        "@locale": "KR"
      }, 
      {
        "@id": "10700081", 
        "@level": "1", 
        "@name": "Heyst", 
        "@tooltipDescription": "Moves faster like a wind. \\nIncreases attack speed and movement speed by 13% \\n Increases physical damage by 8%", 
        "@feature": "CharacterBalance_01", 
        "@locale": "KR"
      }, 
      {
        "@id": "10700081", 
        "@level": "2", 
        "@name": "Heyst", 
        "@tooltipDescription": "Moves faster like a wind. \\nIncreases attack speed and movement speed by 14%. \\n Increases physical attack power by 9%.", 
        "@feature": "CharacterBalance_01", 
        "@locale": "KR"
      }, 
      {
        "@id": "10700081", 
        "@level": "3", 
        "@name": "Heyst", 
        "@tooltipDescription": "Move as fast as the wind. \\nIncreases attack speed and movement speed by 15%. \\n Increases physical damage by 10%.", 
        "@feature": "CharacterBalance_01", 
        "@locale": "KR"
      }, 
      {
        "@id": "10700081", 
        "@level": "4", 
        "@name": "Heyst", 
        "@tooltipDescription": "Move as fast as the wind. \\nIncreases attack speed and movement speed by 16% \\n Increases physical damage by 11%", 
        "@feature": "CharacterBalance_01", 
        "@locale": "KR"
      }, 
      {
        "@id": "10700081", 
        "@level": "5", 
        "@name": "Heyst", 
        "@tooltipDescription": "Move faster like a wind. \\nIncreases attack speed and movement speed by 17%. \\n Increases physical damage by 12%.", 
        "@feature": "CharacterBalance_01", 
        "@locale": "KR"
      }, 
      {
        "@id": "10700081", 
        "@level": "6", 
        "@name": "Heyst", 
        "@tooltipDescription": "Moves faster like a wind. \\nIncreases attack speed and movement speed by 18% \\n Increases physical damage by 13%", 
        "@feature": "CharacterBalance_01", 
        "@locale": "KR"
      }, 
      {
        "@id": "10700081", 
        "@level": "7", 
        "@name": "Heyst", 
        "@tooltipDescription": "Move as fast as the wind. \\n Attack speed and movement speed increased by 19% \\n Physical attack power increased by 14%", 
        "@feature": "CharacterBalance_01", 
        "@locale": "KR"
      }, 
      {
        "@id": "10700081", 
        "@level": "8", 
        "@name": "Heyst", 
        "@tooltipDescription": "Move as fast as the wind. \\n 20% increase attack speed and movement speed \\n 15% increase physical damage", 
        "@feature": "CharacterBalance_01", 
        "@locale": "KR"
      }, 
      {
        "@id": "10700081", 
        "@level": "9", 
        "@name": "Heyst", 
        "@tooltipDescription": "Moves faster like a wind. \\nIncreases attack speed and movement speed by 21% \\n Increases physical damage by 16%", 
        "@feature": "CharacterBalance_01", 
        "@locale": "KR"
      }, 
      {
        "@id": "10700081", 
        "@level": "10", 
        "@name": "Heyst", 
        "@tooltipDescription": "Move faster like a wind. \\nIncreases attack speed and movement speed by 22% \\n Increases physical damage by 17%", 
        "@feature": "CharacterBalance_01", 
        "@locale": "KR"
      }, 
      {
        "@id": "10700081", 
        "@level": "11", 
        "@name": "Heyst", 
        "@tooltipDescription": "Moves faster like a wind. \\nIncreases attack speed and movement speed by 23%. \\nIncreases physical damage by 18%.", 
        "@feature": "CharacterBalance_01", 
        "@locale": "KR"
      }, 
      {
        "@id": "10700081", 
        "@level": "12", 
        "@name": "Heyst", 
        "@tooltipDescription": "Move as fast as the wind. \\nIncreases attack speed and movement speed by 24%. \\n Increases physical attack power by 19%.", 
        "@feature": "CharacterBalance_01", 
        "@locale": "KR"
      }, 
      {
        "@id": "10700102", 
        "@level": "1", 
        "@name": "retribution", 
        "@tooltipDescription": "Chance to fight back! \\n Physical attack and magic attack power 4.5%, evasion 6 increase", 
        "@feature": "CharacterBalance_01", 
        "@locale": "KR"
      }, 
      {
        "@id": "10700102", 
        "@level": "2", 
        "@name": "retribution", 
        "@tooltipDescription": "Chance to fight back! \\n Physical attack and magic damage 6%, evasion 7 increased", 
        "@feature": "CharacterBalance_01", 
        "@locale": "KR"
      }, 
      {
        "@id": "10700102", 
        "@level": "3", 
        "@name": "retribution", 
        "@tooltipDescription": "Chance to fight back! \\n Physical attack and magic attack power increased by 7.5%, evasion by 8%", 
        "@feature": "CharacterBalance_01", 
        "@locale": "KR"
      }, 
      {
        "@id": "10700102", 
        "@level": "4", 
        "@name": "retribution", 
        "@tooltipDescription": "Chance to fight back! \\n Physical attack and magic damage 9%, evasion 9 increased", 
        "@feature": "CharacterBalance_01", 
        "@locale": "KR"
      }, 
      {
        "@id": "10700102", 
        "@level": "5", 
        "@name": "retribution", 
        "@tooltipDescription": "Chance to fight back! \\n Physical damage and magic damage 10.5%, evasion 10 increased", 
        "@feature": "CharacterBalance_01", 
        "@locale": "KR"
      }, 
      {
        "@id": "10700102", 
        "@level": "6", 
        "@name": "retribution", 
        "@tooltipDescription": "Chance to fight back! \\n Physical attack and magic damage 12%, evasion 11 increased", 
        "@feature": "CharacterBalance_01", 
        "@locale": "KR"
      }, 
      {
        "@id": "10700102", 
        "@level": "7", 
        "@name": "retribution", 
        "@tooltipDescription": "Chance to fight back! \\n 13.5% physical attack and magic damage, evasion 12 increase", 
        "@feature": "CharacterBalance_01", 
        "@locale": "KR"
      }, 
      {
        "@id": "10700102", 
        "@level": "8", 
        "@name": "retribution", 
        "@tooltipDescription": "Chance to fight back! \\n Physical attack and magic damage 15%, evasion 13 increased", 
        "@feature": "CharacterBalance_01", 
        "@locale": "KR"
      }, 
      {
        "@id": "10700102", 
        "@level": "9", 
        "@name": "retribution", 
        "@tooltipDescription": "Chance to fight back! \\n 16.5% increase in physical attack and magic damage, 14 increase in avoidance", 
        "@feature": "CharacterBalance_01", 
        "@locale": "KR"
      }, 
      {
        "@id": "10700102", 
        "@level": "10", 
        "@name": "retribution", 
        "@tooltipDescription": "Chance to fight back! \\n Physical attack and magic damage 18%, evasion 15%", 
        "@feature": "CharacterBalance_01", 
        "@locale": "KR"
      }, 
      {
        "@id": "10700102", 
        "@level": "11", 
        "@name": "retribution", 
        "@tooltipDescription": "Chance to fight back! \\n Physical attack and magic attack power increased by 19.5%, evasion by 16%", 
        "@feature": "CharacterBalance_01", 
        "@locale": "KR"
      }, 
      {
        "@id": "10700102", 
        "@level": "12", 
        "@name": "retribution", 
        "@tooltipDescription": "Chance to fight back! \\n Physical attack and magic attack power 21%, evasion 17% increase", 
        "@feature": "CharacterBalance_01", 
        "@locale": "KR"
      }, 
      {
        "@id": "10700111", 
        "@level": "1", 
        "@name": "Poisonous glass bottle", 
        "@tooltipDescription": "Poisoned by poison! \\ N 38% poison damage per second", 
        "@feature": "CharacterBalance_01", 
        "@locale": "KR"
      }, 
      {
        "@id": "10700111", 
        "@level": "2", 
        "@name": "Poisonous glass bottle", 
        "@tooltipDescription": "Poisoned by poison! \\ N 40% poison damage per second", 
        "@feature": "CharacterBalance_01", 
        "@locale": "KR"
      }, 
      {
        "@id": "10700111", 
        "@level": "3", 
        "@name": "Poisonous glass bottle", 
        "@tooltipDescription": "Poisoned by poison! \\ N 42% poison damage per second", 
        "@feature": "CharacterBalance_01", 
        "@locale": "KR"
      }, 
      {
        "@id": "10700111", 
        "@level": "4", 
        "@name": "Poisonous glass bottle", 
        "@tooltipDescription": "Poisoned by poison! \\n 44% poison damage per second", 
        "@feature": "CharacterBalance_01", 
        "@locale": "KR"
      }, 
      {
        "@id": "10700111", 
        "@level": "5", 
        "@name": "Poisonous glass bottle", 
        "@tooltipDescription": "Poisoned by poison! \\ N 46% poison damage per second", 
        "@feature": "CharacterBalance_01", 
        "@locale": "KR"
      }, 
      {
        "@id": "10700111", 
        "@level": "6", 
        "@name": "Poisonous glass bottle", 
        "@tooltipDescription": "Poisoned by poison! \\ N 48% poison damage per second", 
        "@feature": "CharacterBalance_01", 
        "@locale": "KR"
      }, 
      {
        "@id": "10700111", 
        "@level": "7", 
        "@name": "Poisonous glass bottle", 
        "@tooltipDescription": "Poisoned by poison! \\ N 50% poison damage per second", 
        "@feature": "CharacterBalance_01", 
        "@locale": "KR"
      }, 
      {
        "@id": "10700111", 
        "@level": "8", 
        "@name": "Poisonous glass bottle", 
        "@tooltipDescription": "Poisoned by poison! \\ N 52% poison damage per second", 
        "@feature": "CharacterBalance_01", 
        "@locale": "KR"
      }, 
      {
        "@id": "10700111", 
        "@level": "9", 
        "@name": "Poisonous glass bottle", 
        "@tooltipDescription": "Poisoned by poison! \\ N 54% poison damage per second", 
        "@feature": "CharacterBalance_01", 
        "@locale": "KR"
      }, 
      {
        "@id": "10700111", 
        "@level": "10", 
        "@name": "Poisonous glass bottle", 
        "@tooltipDescription": "Poisoned by poison! \\ N 56% poison damage per second", 
        "@feature": "CharacterBalance_01", 
        "@locale": "KR"
      }, 
      {
        "@id": "10700111", 
        "@level": "11", 
        "@name": "Poisonous glass bottle", 
        "@tooltipDescription": "Poisoned by poison! \\ N 58% poison damage per second", 
        "@feature": "CharacterBalance_01", 
        "@locale": "KR"
      }, 
      {
        "@id": "10700111", 
        "@level": "12", 
        "@name": "Poisonous glass bottle", 
        "@tooltipDescription": "Poisoned by poison! \\ N 60% poison damage per second", 
        "@feature": "CharacterBalance_01", 
        "@locale": "KR"
      }, 
      {
        "@id": "10700161", 
        "@level": "1", 
        "@name": "Mesogard Plus", 
        "@tooltipDescription": "Use Meso to block attacks. \\n 26% less damage to enemies.", 
        "@feature": "CharacterBalance_01", 
        "@locale": "KR"
      }, 
      {
        "@id": "10700161", 
        "@level": "2", 
        "@name": "Mesogard Plus", 
        "@tooltipDescription": "Protects against attacks using Meso. \\n 32% less damage to enemies", 
        "@feature": "CharacterBalance_01", 
        "@locale": "KR"
      }, 
      {
        "@id": "10700161", 
        "@level": "3", 
        "@name": "Mesogard Plus", 
        "@tooltipDescription": "Protects against attacks using Meso. \\nAvoids 38% less damage to enemies.", 
        "@feature": "CharacterBalance_01", 
        "@locale": "KR"
      }, 
      {
        "@id": "10700161", 
        "@level": "4", 
        "@name": "Mesogard Plus", 
        "@tooltipDescription": "Use Meso to block attacks. \\n 44% less damage to enemies.", 
        "@feature": "CharacterBalance_01", 
        "@locale": "KR"
      }, 
      {
        "@id": "10700161", 
        "@level": "5", 
        "@name": "Mesogard Plus", 
        "@tooltipDescription": "Use Meso to block attacks. \\n 50% less damage to enemies.", 
        "@feature": "CharacterBalance_01", 
        "@locale": "KR"
      }, 
      {
        "@id": "10700161", 
        "@level": "6", 
        "@name": "Mesogard Plus", 
        "@tooltipDescription": "Use Meso to block attacks. \\n 56% less damage to enemies.", 
        "@feature": "CharacterBalance_01", 
        "@locale": "KR"
      }, 
      {
        "@id": "10700161", 
        "@level": "7", 
        "@name": "Mesogard Plus", 
        "@tooltipDescription": "Use Meso to block attacks. \\n 62% less damage to enemies.", 
        "@feature": "CharacterBalance_01", 
        "@locale": "KR"
      }, 
      {
        "@id": "10700161", 
        "@level": "8", 
        "@name": "Mesogard Plus", 
        "@tooltipDescription": "Use Meso to block attacks. \\n 68% less damage to enemies.", 
        "@feature": "CharacterBalance_01", 
        "@locale": "KR"
      }, 
      {
        "@id": "10700161", 
        "@level": "9", 
        "@name": "Mesogard Plus", 
        "@tooltipDescription": "Use Meso to block attacks. \\n 74% reduction in damage to enemies.", 
        "@feature": "CharacterBalance_01", 
        "@locale": "KR"
      }, 
      {
        "@id": "10700161", 
        "@level": "10", 
        "@name": "Mesogard Plus", 
        "@tooltipDescription": "Use Meso to block attacks. \\n 80% reduction in damage to enemies.", 
        "@feature": "CharacterBalance_01", 
        "@locale": "KR"
      }, 
      {
        "@id": "10700161", 
        "@level": "11", 
        "@name": "Mesogard Plus", 
        "@tooltipDescription": "Prevent attacks by using meso. \\nEnter enemy damage by 86%.", 
        "@feature": "CharacterBalance_01", 
        "@locale": "KR"
      }, 
      {
        "@id": "10700161", 
        "@level": "12", 
        "@name": "Mesogard Plus", 
        "@tooltipDescription": "Use Meso to block attacks. \\n 92% reduction in enemy damage", 
        "@feature": "CharacterBalance_01", 
        "@locale": "KR"
      }, 
      {
        "@id": "10700162", 
        "@level": "1", 
        "@name": "Mesogard Plus EX", 
        "@tooltipDescription": "Use Meso to block attacks and strengthen your weapons. \\n 2.6% less damage done to your opponent \\n \\ 11% more physical damage", 
        "@feature": "CharacterBalance_01", 
        "@locale": "KR"
      }, 
      {
        "@id": "10700162", 
        "@level": "2", 
        "@name": "Mesogard Plus EX", 
        "@tooltipDescription": "Use Meso to block attacks and strengthen your weapons. \\nAbra damage to enemies reduced by 3.2%. \\n 14% increase in physical damage.", 
        "@feature": "CharacterBalance_01", 
        "@locale": "KR"
      }, 
      {
        "@id": "10700162", 
        "@level": "3", 
        "@name": "Mesogard Plus EX", 
        "@tooltipDescription": "Use Meso to block attacks and strengthen weapons. \\n3.8% less damage to enemies \\n \\n7% more physical damage", 
        "@feature": "CharacterBalance_01", 
        "@locale": "KR"
      }, 
      {
        "@id": "10700162", 
        "@level": "4", 
        "@name": "Mesogard Plus EX", 
        "@tooltipDescription": "Use Meso to block attacks and strengthen weapons. \\n4.4% reduction in damage to enemies \\n% 20% increase in physical damage", 
        "@feature": "CharacterBalance_01", 
        "@locale": "KR"
      }, 
      {
        "@id": "10700162", 
        "@level": "5", 
        "@name": "Mesogard Plus EX", 
        "@tooltipDescription": "Use Meso to block attacks and strengthen your weapons. \\n 5% less damage to enemies \\n \\ 23% more physical damage", 
        "@feature": "CharacterBalance_01", 
        "@locale": "KR"
      }, 
      {
        "@id": "10700162", 
        "@level": "6", 
        "@name": "Mesogard Plus EX", 
        "@tooltipDescription": "Use Meso to block attacks and strengthen weapons. \\n 5.6% reduction in damage to enemies \\n 26% increase in physical damage", 
        "@feature": "CharacterBalance_01", 
        "@locale": "KR"
      }, 
      {
        "@id": "10700162", 
        "@level": "7", 
        "@name": "Mesogard Plus EX", 
        "@tooltipDescription": "Use Meso to block attacks and strengthen weapons. \\n2.6% reduction in damage to enemies \\n% 29% increase in physical damage", 
        "@feature": "CharacterBalance_01", 
        "@locale": "KR"
      }, 
      {
        "@id": "10700162", 
        "@level": "8", 
        "@name": "Mesogard Plus EX", 
        "@tooltipDescription": "Prevent attacks and strengthen weapons using meso. \\nDelivere damage to enemies by 6.8%, \\n Increase physical damage by 32%.", 
        "@feature": "CharacterBalance_01", 
        "@locale": "KR"
      }, 
      {
        "@id": "10700162", 
        "@level": "9", 
        "@name": "Mesogard Plus EX", 
        "@tooltipDescription": "Use Meso to block attacks and strengthen weapons. \\n7.4% less damage to enemies \\n \\ 35% more physical damage", 
        "@feature": "CharacterBalance_01", 
        "@locale": "KR"
      }, 
      {
        "@id": "10700162", 
        "@level": "10", 
        "@name": "Mesogard Plus EX", 
        "@tooltipDescription": "Use Meso to block attacks and strengthen weapons. \\n 8% less damage to enemies \\n \\ 38% more physical damage", 
        "@feature": "CharacterBalance_01", 
        "@locale": "KR"
      }, 
      {
        "@id": "10700162", 
        "@level": "11", 
        "@name": "Mesogard Plus EX", 
        "@tooltipDescription": "Prevent attacks and strengthen weapons using Meso. \\nDelivere damage to enemies by 8.6%, \\nStrengthen physical attack by 41%.", 
        "@feature": "CharacterBalance_01", 
        "@locale": "KR"
      }, 
      {
        "@id": "10700162", 
        "@level": "12", 
        "@name": "Mesogard Plus EX", 
        "@tooltipDescription": "Prevent attacks using weapons and strengthen weapons. \\n 9.2% reduction in damage to enemies \\n \\n \\n 44% increase in physical damage", 
        "@feature": "CharacterBalance_01", 
        "@locale": "KR"
      }
    ]
  }
}