{
  "?xml": {
    "@version": "1.0", 
    "@encoding": "utf-8"
  }, 
  "ms2": {
    "key": [
      {
        "@id": "20000001", 
        "@level": "1", 
        "@uiDescription": "Swim more quickly! Hold down the key to sustain your movement, which consumes <font color='#ff5f5f'>20</font> stamina per sec. Press a direction key to swim."
      }, 
      {
        "@id": "20000011", 
        "@level": "1", 
        "@uiDescription": "Navigate steep walls freely. Hold down the key to sustain your movement, which consumes <font color='#ff5f5f'>20</font> stamina per sec. Press a direction key to climb."
      }, 
      {
        "@id": "20000021", 
        "@level": "1", 
        "@uiDescription": "Float into the sky holding balloons, ascending <font color='#ff5f5f'>1.5</font>&#160;m every sec. Hold down the key to sustain your movement, which consumes <font color='#ff5f5f'>10</font> stamina per sec. Press and hold a directional key to propel yourself <font color='#ff5f5f'>2</font>&#160;m per sec. You cannot use this skill indoors or in certain restricted regions."
      }, 
      {
        "@id": "20000021", 
        "@level": "2", 
        "@uiDescription": "Float into the sky holding balloons, ascending <font color='#ff5f5f'>1.7</font>&#160;m every sec. Hold down the key to sustain your movement, which consumes <font color='#ff5f5f'>10</font> stamina per sec. Press and hold a directional key to propel yourself <font color='#ff5f5f'>2</font>&#160;m per sec. You cannot use this skill indoors or in certain restricted regions."
      }, 
      {
        "@id": "20000021", 
        "@level": "3", 
        "@uiDescription": "Float into the sky holding balloons, ascending <font color='#ff5f5f'>1.9</font>&#160;m every sec. Hold down the key to sustain your movement, which consumes <font color='#ff5f5f'>10</font> stamina per sec. Press and hold a directional key to propel yourself <font color='#ff5f5f'>2</font>&#160;m per sec. You cannot use this skill indoors or in certain restricted regions."
      }, 
      {
        "@id": "20000021", 
        "@level": "4", 
        "@uiDescription": "Float into the sky holding balloons, ascending <font color='#ff5f5f'>2.1</font>&#160;m every sec. Hold down the key to sustain your movement, which consumes <font color='#ff5f5f'>10</font> stamina per sec. Press and hold a directional key to propel yourself <font color='#ff5f5f'>2</font>&#160;m per sec. You cannot use this skill indoors or in certain restricted regions."
      }, 
      {
        "@id": "20000021", 
        "@level": "5", 
        "@uiDescription": "Float into the sky holding balloons, ascending <font color='#ff5f5f'>2.5</font>&#160;m every sec. Hold down the key to sustain your movement, which consumes <font color='#ff5f5f'>10</font> stamina per sec. Press and hold a directional key to propel yourself <font color='#ff5f5f'>2</font>&#160;m per sec. You cannot use this skill indoors or in certain restricted regions."
      }, 
      {
        "@id": "20000041", 
        "@level": "1", 
        "@uiDescription": "Grab tightly to a trained eagle that ascends <font color='#ff5f5f'>0.5</font>&#160;m every sec. Hold down the key to sustain your movement, which consumes <font color='#ff5f5f'>20</font> stamina per sec. Press and hold a directional key to propel yourself <font color='#ff5f5f'>7</font>&#160;m per sec. You cannot use this skill indoors or in certain restricted regions."
      }, 
      {
        "@id": "20000051", 
        "@level": "1", 
        "@uiDescription": "Follow the call of an angelic being to ascend <font color='#ff5f5f'>4.8</font>&#160;m every sec. Hold down the key to sustain your movement, which consumes <font color='#ff5f5f'>20</font> stamina per sec. Press and hold a directional key to propel yourself <font color='#ff5f5f'>1</font>&#160;m per sec. You cannot use this skill indoors or in certain restricted regions."
      }, 
      {
        "@id": "20000071", 
        "@level": "1", 
        "@uiDescription": "Hang onto a flickering incandescent bulb that ascends <font color='#ff5f5f'>2.1</font>&#160;m every sec. Hold down the key to sustain your movement, which consumes <font color='#ff5f5f'>10</font> stamina per sec. Press and hold a directional key to propel yourself <font color='#ff5f5f'>2.2</font>&#160;m per sec. You cannot use this skill indoors or in certain restricted regions."
      }, 
      {
        "@id": "20000081", 
        "@level": "1", 
        "@uiDescription": "Grab onto the leg of an alien trying to board their UFO and ascend <font color='#ff5f5f'>1.3</font>&#160;m every sec. Hold down the key to sustain your movement, which consumes <font color='#ff5f5f'>20</font> stamina per sec. Press and hold a directional key to propel yourself <font color='#ff5f5f'>6.3</font>&#160;m per sec. You cannot use this skill indoors or in certain restricted regions."
      }, 
      {
        "@id": "20000091", 
        "@level": "1", 
        "@uiDescription": "Grab onto a powerful missile to ascend <font color='#ff5f5f'>2</font>&#160;m every sec. Hold down the key to sustain your movement, which consumes <font color='#ff5f5f'>30</font> stamina per sec. Press and hold a directional key to propel yourself <font color='#ff5f5f'>2</font>&#160;m per sec with an acceleration of <font color='#ff5f5f'>350</font>. You cannot use this skill indoors or in certain restricted regions."
      }, 
      {
        "@id": "20000101", 
        "@level": "1", 
        "@uiDescription": "Grab onto a massive, powerful missile to ascend <font color='#ff5f5f'>0.5</font>&#160;m every sec with an acceleration of <font color='#ff5f5f'>100</font>. Hold down the key to sustain your movement, which consumes <font color='#ff5f5f'>20</font> stamina per sec. Press and hold a directional key to propel yourself <font color='#ff5f5f'>1</font>&#160;m per sec with an acceleration of <font color='#ff5f5f'>200</font>. You cannot use this skill indoors or in certain restricted regions."
      }, 
      {
        "@id": "20000111", 
        "@level": "1", 
        "@uiDescription": "Glide gracefully upon an immaculately folded paper plane and slowly descend from the sky. Hold down the key to sustain your movement, which consumes <font color='#ff5f5f'>20</font> stamina per sec. Press and hold a directional key to propel yourself <font color='#ff5f5f'>8.6</font>&#160;m per sec. You can only use this skill while jumping or airborne, and you cannot use this skill indoors or in certain restricted regions."
      }, 
      {
        "@id": "20000121", 
        "@level": "1", 
        "@uiDescription": "Perch atop a state-of-the-art drone that ascends  <font color='#ff5f5f'>0.5</font>&#160;m every sec. Hold down the key to sustain your movement, which consumes <font color='#ff5f5f'>10</font> stamina per sec. Press and hold a directional key to propel yourself <font color='#ff5f5f'>3.9</font>&#160;m per sec. You cannot use this skill indoors or in certain restricted regions."
      }, 
      {
        "@id": "20000131", 
        "@level": "1", 
        "@uiDescription": "Slowly descend from the sky atop a snowflake. Hold down the key to sustain your movement, which consumes <font color='#ff5f5f'>10</font> stamina per sec. Press and hold a directional key to propel yourself <font color='#ff5f5f'>4.8</font>&#160;m per sec. You can only use this skill while jumping or airborne, and you cannot use this skill indoors or in certain restricted regions."
      }, 
      {
        "@id": "20000141", 
        "@level": "1", 
        "@uiDescription": "Create a mountable rune that ascends <font color='#ff5f5f'>0.5</font>&#160;m every sec. Hold down the key to sustain your movement, which consumes <font color='#ff5f5f'>30</font> stamina per sec. Press and hold a directional key to propel yourself <font color='#ff5f5f'>4.5</font>&#160;m per sec. You cannot use this skill indoors or in certain restricted regions."
      }, 
      {
        "@id": "20000141", 
        "@level": "2", 
        "@uiDescription": "Create a mountable rune that ascends <font color='#ff5f5f'>0.5</font>&#160;m every sec. Hold down the key to sustain your movement, which consumes <font color='#ff5f5f'>30</font> stamina per sec. Press and hold a directional key to propel yourself <font color='#ff5f5f'>5</font>&#160;m per sec. You cannot use this skill indoors or in certain restricted regions."
      }, 
      {
        "@id": "20000141", 
        "@level": "3", 
        "@uiDescription": "Create a mountable rune that ascends <font color='#ff5f5f'>0.5</font>&#160;m every sec. Hold down the key to sustain your movement, which consumes <font color='#ff5f5f'>30</font> stamina per sec. Press and hold a directional key to propel yourself <font color='#ff5f5f'>5.5</font>&#160;m per sec. You cannot use this skill indoors or in certain restricted regions."
      }, 
      {
        "@id": "20000141", 
        "@level": "4", 
        "@uiDescription": "Create a mountable rune that ascends <font color='#ff5f5f'>0.5</font>&#160;m every sec. Hold down the key to sustain your movement, which consumes <font color='#ff5f5f'>30</font> stamina per sec. Press and hold a directional key to propel yourself <font color='#ff5f5f'>6</font>&#160;m per sec. You cannot use this skill indoors or in certain restricted regions."
      }, 
      {
        "@id": "20000141", 
        "@level": "5", 
        "@uiDescription": "Create a mountable rune that ascends <font color='#ff5f5f'>0.5</font>&#160;m every sec. Hold down the key to sustain your movement, which consumes <font color='#ff5f5f'>30</font> stamina per sec. Press and hold a directional key to propel yourself <font color='#ff5f5f'>7</font>&#160;m per sec. You cannot use this skill indoors or in certain restricted regions."
      }, 
      {
        "@id": "20000151", 
        "@level": "1", 
        "@uiDescription": "Hang onto a cute duck that ascends <font color='#ff5f5f'>2.1</font>&#160;m every sec. Hold down the key to sustain your movement, which consumes <font color='#ff5f5f'>10</font> stamina per sec. Press and hold a directional key to propel yourself <font color='#ff5f5f'>2.2</font>&#160;m per sec. You cannot use this skill indoors or in certain restricted regions."
      }, 
      {
        "@id": "20000161", 
        "@level": "1", 
        "@uiDescription": "Mount a cute slime that ascends <font color='#ff5f5f'>0.5</font>&#160;m every sec. Hold down the key to sustain your movement, which consumes <font color='#ff5f5f'>10</font> stamina per sec. Press and hold a directional key to propel yourself <font color='#ff5f5f'>3.9</font>&#160;m per sec. You cannot use this skill indoors or in certain restricted regions."
      }, 
      {
        "@id": "20000171", 
        "@level": "1", 
        "@uiDescription": "Perch atop an orange maple leaf that ascends <font color='#ff5f5f'>0.5</font>&#160;m every sec. Hold down the key to sustain your movement, which consumes <font color='#ff5f5f'>20</font> stamina per sec. Press and hold a directional key to propel yourself <font color='#ff5f5f'>7.3</font>&#160;m per sec. You cannot use this skill indoors or in certain restricted regions."
      }, 
      {
        "@id": "50001354", 
        "@level": "1", 
        "@uiDescription": "The ultimate in $npcName:23000118$. \\n \\n \\n \\n \\n \\n \\n $skill:90003004$$pp:를,을$ Unless you use it, it can not be reversed.", 
        "@feature": "LapentaDungeon"
      }, 
      {
        "@id": "60300016", 
        "@level": "1", 
        "@uiDescription": "The ultimate in $npcName:23000116$. \\n \\n \\n \\n \\n \\n \\n $skill:90003003$$pp:를,을$ Unless you use it, it can not be reversed.", 
        "@feature": "LapentaDungeon"
      }, 
      {
        "@id": "60300114", 
        "@level": "1", 
        "@uiDescription": "The ultimate in $npcName:23000117$. \\n \\n \\n \\n \\n \\n \\n $skill:90003005$$pp:를,을$ Unless you use it, it can not be reversed.", 
        "@feature": "LapentaDungeon"
      }, 
      {
        "@id": "70003001", 
        "@level": "1", 
        "@uiDescription": "You can only destroy objects with this skill.", 
        "@feature": "Kritias_2018_12"
      }, 
      {
        "@id": "70003011", 
        "@level": "1", 
        "@uiDescription": "You can only destroy objects with this skill.", 
        "@feature": "Kritias_2018_12"
      }, 
      {
        "@id": "70003021", 
        "@level": "1", 
        "@uiDescription": "You can only destroy objects with this skill.", 
        "@feature": "Kritias_2018_12"
      }, 
      {
        "@id": "70003031", 
        "@level": "1", 
        "@uiDescription": "You can only destroy objects with this skill.", 
        "@feature": "Kritias_2018_12"
      }, 
      {
        "@id": "70003041", 
        "@level": "1", 
        "@uiDescription": "This skill can only destroy the shield of the boss.", 
        "@feature": "Kritias_2018_12"
      }, 
      {
        "@id": "70003051", 
        "@level": "1", 
        "@uiDescription": "This skill can only destroy the shield of the boss.", 
        "@feature": "Kritias_2018_12"
      }, 
      {
        "@id": "70003061", 
        "@level": "1", 
        "@uiDescription": "This skill can only destroy the shield of the boss.", 
        "@feature": "Kritias_2018_12"
      }, 
      {
        "@id": "70003071", 
        "@level": "1", 
        "@uiDescription": "This skill can only destroy the shield of the boss.", 
        "@feature": "Kritias_2018_12"
      }, 
      {
        "@id": "70003091", 
        "@level": "1", 
        "@uiDescription": "We wield strong fists.", 
        "@feature": "Fieldwar02"
      }, 
      {
        "@id": "70003101", 
        "@level": "1", 
        "@uiDescription": "Shock waves are emitted around.", 
        "@feature": "Fieldwar02"
      }, 
      {
        "@id": "70003121", 
        "@level": "1", 
        "@uiDescription": "Attack enemies with machine guns.", 
        "@feature": "Fieldwar02"
      }, 
      {
        "@id": "70003122", 
        "@level": "1", 
        "@uiDescription": "Turn drill on and rush.", 
        "@feature": "Fieldwar02"
      }, 
      {
        "@id": "70003123", 
        "@level": "1", 
        "@uiDescription": "Fires a powerful cannon.", 
        "@feature": "Fieldwar02"
      }, 
      {
        "@id": "70003131", 
        "@level": "1", 
        "@uiDescription": "It is a potion that has been supplied. \\nIncreases 1200 health immediately.", 
        "@feature": "Fieldwar02"
      }, 
      {
        "@id": "90000022", 
        "@level": "1", 
        "@uiDescription": "Turtcoli's egg.\\nThis rare ingredient is nutritious and delicious."
      }, 
      {
        "@id": "90000023", 
        "@level": "1", 
        "@uiDescription": "Emergency rations for the guards stationed near Tria."
      }, 
      {
        "@id": "90000024", 
        "@level": "1", 
        "@uiDescription": "Some very chewy jelly. Once it sticks to something, it sticks to it forever."
      }, 
      {
        "@id": "90000025", 
        "@level": "1", 
        "@uiDescription": "Protects you from shadow poison."
      }, 
      {
        "@id": "90000026", 
        "@level": "1", 
        "@uiDescription": "Increases your physical attack by 15."
      }, 
      {
        "@id": "90000027", 
        "@level": "1", 
        "@uiDescription": "Increases your magic attack by 15."
      }, 
      {
        "@id": "90000028", 
        "@level": "1", 
        "@uiDescription": "Increases your max health by 450."
      }, 
      {
        "@id": "90000029", 
        "@level": "1", 
        "@uiDescription": "Increases experience by 10%."
      }, 
      {
        "@id": "90000038", 
        "@level": "1", 
        "@uiDescription": "Restores 224 health over 28 sec at a pace of 8 health per sec."
      }, 
      {
        "@id": "90000039", 
        "@level": "1", 
        "@uiDescription": "Restores 560 health over 28 sec at a pace of 20 health per sec."
      }, 
      {
        "@id": "90000040", 
        "@level": "1", 
        "@uiDescription": "Restores 1120 health over 28 sec at a pace of 40 health per sec."
      }, 
      {
        "@id": "90000041", 
        "@level": "1", 
        "@uiDescription": "Restores 1680 health over 28 sec at a pace of 60 health per sec."
      }, 
      {
        "@id": "90000042", 
        "@level": "1", 
        "@uiDescription": "Restores 2100 health over 28 sec at a pace of 75 health per sec."
      }, 
      {
        "@id": "90000043", 
        "@level": "1", 
        "@uiDescription": "Restores 2240 health over 28 sec at a pace of 80 health per sec."
      }, 
      {
        "@id": "90000044", 
        "@level": "1", 
        "@uiDescription": "Restores 2660 health over 28 sec at a pace of 95 health per sec."
      }, 
      {
        "@id": "90000045", 
        "@level": "1", 
        "@uiDescription": "Cures all diseases."
      }, 
      {
        "@id": "90000088", 
        "@level": "1", 
        "@uiDescription": "Restores 1120 health over 28 sec at a pace of 40 health per sec."
      }, 
      {
        "@id": "90000913", 
        "@level": "1", 
        "@uiDescription": "You can regenerate 2240 health in 28 seconds. \\n 80 health per second is restored."
      }, 
      {
        "@id": "90000914", 
        "@level": "1", 
        "@uiDescription": "You can regenerate your health to 1680 in 28 seconds. \\n60 Restores 60 health per second."
      }, 
      {
        "@id": "90200001", 
        "@level": "1", 
        "@uiDescription": "Express your anger."
      }, 
      {
        "@id": "90200002", 
        "@level": "1", 
        "@uiDescription": "Gather your energy with a martial shout."
      }, 
      {
        "@id": "90200003", 
        "@level": "1", 
        "@uiDescription": "Express your displeasure by pouting."
      }, 
      {
        "@id": "90200004", 
        "@level": "1", 
        "@uiDescription": "Plot something devious."
      }, 
      {
        "@id": "90200005", 
        "@level": "1", 
        "@uiDescription": "Bow your head in disappointment."
      }, 
      {
        "@id": "90200006", 
        "@level": "1", 
        "@uiDescription": "Give a big thumbs up."
      }, 
      {
        "@id": "90200007", 
        "@level": "1", 
        "@uiDescription": "Make it clear that you are NOT the authority on this topic."
      }, 
      {
        "@id": "90200008", 
        "@level": "1", 
        "@uiDescription": "Show off how awesome you are with a dynamic pose."
      }, 
      {
        "@id": "90200009", 
        "@level": "1", 
        "@uiDescription": "Drop to all fours in despair."
      }, 
      {
        "@id": "90200010", 
        "@level": "1", 
        "@uiDescription": "Get lost in dreamy thoughts."
      }, 
      {
        "@id": "90200011", 
        "@level": "1", 
        "@uiDescription": "Give an enthusiastic greeting."
      }, 
      {
        "@id": "90200012", 
        "@level": "1", 
        "@uiDescription": "Point and laugh."
      }, 
      {
        "@id": "90200013", 
        "@level": "1", 
        "@uiDescription": "Dance like nobody's watching."
      }, 
      {
        "@id": "90200014", 
        "@level": "1", 
        "@uiDescription": "Sit there with your hands up until you've learned your lesson."
      }, 
      {
        "@id": "90200015", 
        "@level": "1", 
        "@uiDescription": "Go face down on the ground as punishment for being bad."
      }, 
      {
        "@id": "90200016", 
        "@level": "1", 
        "@uiDescription": "Lay down and sleep."
      }, 
      {
        "@id": "90200017", 
        "@level": "1", 
        "@uiDescription": "Do a para para dance."
      }, 
      {
        "@id": "90200018", 
        "@level": "1", 
        "@uiDescription": "Throw a temper tantrum."
      }, 
      {
        "@id": "90200019", 
        "@level": "1", 
        "@uiDescription": "Play rock-paper-scissors."
      }, 
      {
        "@id": "90200020", 
        "@level": "1", 
        "@uiDescription": "Play rock-paper-scissors."
      }, 
      {
        "@id": "90200021", 
        "@level": "1", 
        "@uiDescription": "Play rock-paper-scissors."
      }, 
      {
        "@id": "90200022", 
        "@level": "1", 
        "@uiDescription": "Bow politely."
      }, 
      {
        "@id": "90200023", 
        "@level": "1", 
        "@uiDescription": "Express your surprise."
      }, 
      {
        "@id": "90200024", 
        "@level": "1", 
        "@uiDescription": "Disagree by making a big X with your arms."
      }, 
      {
        "@id": "90200025", 
        "@level": "1", 
        "@uiDescription": "Make a taunting gesture."
      }, 
      {
        "@id": "90200026", 
        "@level": "1", 
        "@uiDescription": "Express that you're upset."
      }, 
      {
        "@id": "90200027", 
        "@level": "1", 
        "@uiDescription": "Blow a kiss."
      }, 
      {
        "@id": "90200028", 
        "@level": "1", 
        "@uiDescription": "Give a kiss."
      }, 
      {
        "@id": "90200029", 
        "@level": "1", 
        "@uiDescription": "Tap dance."
      }, 
      {
        "@id": "90200030", 
        "@level": "1", 
        "@uiDescription": "Shimmy and shake."
      }, 
      {
        "@id": "90200031", 
        "@level": "1", 
        "@uiDescription": "Cry."
      }, 
      {
        "@id": "90200041", 
        "@level": "1", 
        "@uiDescription": "Sit comfortably on the floor."
      }, 
      {
        "@id": "90200042", 
        "@level": "1", 
        "@uiDescription": "Sit with dangling feet. Perfect for chairs and ledges."
      }, 
      {
        "@id": "90200043", 
        "@level": "1", 
        "@uiDescription": "Have an epiphany."
      }, 
      {
        "@id": "90200044", 
        "@level": "1", 
        "@uiDescription": "Have a lot on your mind."
      }, 
      {
        "@id": "90200045", 
        "@level": "1", 
        "@uiDescription": "Cry and point at a big meanie."
      }, 
      {
        "@id": "90200046", 
        "@level": "1", 
        "@uiDescription": "Dance like you've got no bones."
      }, 
      {
        "@id": "90200047", 
        "@level": "1", 
        "@uiDescription": "Spin and spin."
      }, 
      {
        "@id": "90200048", 
        "@level": "1", 
        "@uiDescription": "Dance like a bunny."
      }, 
      {
        "@id": "90200049", 
        "@level": "1", 
        "@uiDescription": "Dance and shuffle."
      }, 
      {
        "@id": "90200050", 
        "@level": "1", 
        "@uiDescription": "Strut your stuff with this dance."
      }, 
      {
        "@id": "90200051", 
        "@level": "1", 
        "@uiDescription": "Dance like a worm."
      }, 
      {
        "@id": "90200052", 
        "@level": "1", 
        "@uiDescription": "Sing while clasping your hands together."
      }, 
      {
        "@id": "90200053", 
        "@level": "1", 
        "@uiDescription": "Kneel and bow."
      }, 
      {
        "@id": "90200054", 
        "@level": "1", 
        "@uiDescription": "Dance like a kid on a sugar high."
      }, 
      {
        "@id": "90200055", 
        "@level": "1", 
        "@uiDescription": "Dance like you're rowing a boat."
      }, 
      {
        "@id": "90200056", 
        "@level": "1", 
        "@uiDescription": "Lean back and get loose."
      }, 
      {
        "@id": "90200057", 
        "@level": "1", 
        "@uiDescription": "This is not your father's fan dance."
      }, 
      {
        "@id": "90200058", 
        "@level": "1", 
        "@uiDescription": "Roll your hips and dance."
      }, 
      {
        "@id": "90200059", 
        "@level": "1", 
        "@uiDescription": "Strike a pose."
      }, 
      {
        "@id": "90200060", 
        "@level": "1", 
        "@uiDescription": "Get on the floor and do the windmill."
      }, 
      {
        "@id": "90200061", 
        "@level": "1", 
        "@uiDescription": "Dance to your own groove."
      }, 
      {
        "@id": "90200062", 
        "@level": "1", 
        "@uiDescription": "Dance with rhythmic steps."
      }, 
      {
        "@id": "90200063", 
        "@level": "1", 
        "@uiDescription": "Sit on the Gold Honor Throne."
      }, 
      {
        "@id": "90200064", 
        "@level": "1", 
        "@uiDescription": "Sit on the Silver Honor Throne."
      }, 
      {
        "@id": "90200065", 
        "@level": "1", 
        "@uiDescription": "Sit on the Bronze Honor Throne."
      }, 
      {
        "@id": "90200066", 
        "@level": "1", 
        "@uiDescription": "Summon the evil spirit, Pim."
      }, 
      {
        "@id": "90200067", 
        "@level": "1", 
        "@uiDescription": "Be startled by a dark shade."
      }, 
      {
        "@id": "90200068", 
        "@level": "1", 
        "@uiDescription": "Dance with a zombie."
      }, 
      {
        "@id": "90200069", 
        "@level": "1", 
        "@uiDescription": "Dance hypnotically."
      }, 
      {
        "@id": "90200070", 
        "@level": "1", 
        "@uiDescription": "Try to guess what's inside your holiday present."
      }, 
      {
        "@id": "90200071", 
        "@level": "1", 
        "@uiDescription": "Play in the snow."
      }, 
      {
        "@id": "90200072", 
        "@level": "1", 
        "@uiDescription": "Sit on the Phoenix Throne."
      }, 
      {
        "@id": "90200073", 
        "@level": "1", 
        "@uiDescription": "Throw some cash around."
      }, 
      {
        "@id": "90200074", 
        "@level": "1", 
        "@uiDescription": "Get a kiss from Bobby."
      }, 
      {
        "@id": "90200075", 
        "@level": "1", 
        "@uiDescription": "Get a kiss from Ruby."
      }, 
      {
        "@id": "90200076", 
        "@level": "1", 
        "@uiDescription": "Proclaim your feelings with a beautiful rose."
      }, 
      {
        "@id": "90200077", 
        "@level": "1", 
        "@uiDescription": "Show off your giant catch."
      }, 
      {
        "@id": "90200078", 
        "@level": "1", 
        "@uiDescription": "Educate yourself with a lesson from Principal Goldus."
      }, 
      {
        "@id": "90200079", 
        "@level": "1", 
        "@uiDescription": "Take a class with Student Teacher Miel."
      }, 
      {
        "@id": "90200080", 
        "@level": "1", 
        "@uiDescription": "Take a class with Ethics Teacher Belma."
      }, 
      {
        "@id": "90200081", 
        "@level": "1", 
        "@uiDescription": "Enjoy a picnic under a cherry tree."
      }, 
      {
        "@id": "90200082", 
        "@level": "1", 
        "@uiDescription": "Slurp salty noodles in a salty funk."
      }, 
      {
        "@id": "90200083", 
        "@level": "1", 
        "@uiDescription": "Slurp tasty noodles bursting with joy."
      }, 
      {
        "@id": "90200084", 
        "@level": "1", 
        "@uiDescription": "Ride a Wooden Horse."
      }, 
      {
        "@id": "90200085", 
        "@level": "1", 
        "@uiDescription": "Propose with a shiny ring."
      }, 
      {
        "@id": "90200086", 
        "@level": "1", 
        "@uiDescription": "Accept a proposal."
      }, 
      {
        "@id": "90200087", 
        "@level": "1", 
        "@uiDescription": "Reject a proposal."
      }, 
      {
        "@id": "90200088", 
        "@level": "1", 
        "@uiDescription": "Sit on a soft cushy Pink Bean."
      }, 
      {
        "@id": "90200089", 
        "@level": "1", 
        "@uiDescription": "Sit on the Zakum Zakum Chair."
      }, 
      {
        "@id": "90200090", 
        "@level": "1", 
        "@uiDescription": "Blow out the candles on a celebratory cake."
      }, 
      {
        "@id": "90200091", 
        "@level": "1", 
        "@uiDescription": "Sit upon the Ambitious Throne."
      }, 
      {
        "@id": "90200092", 
        "@level": "1", 
        "@uiDescription": "Prepare to high-five."
      }, 
      {
        "@id": "90200093", 
        "@level": "1", 
        "@uiDescription": "Dance up and down."
      }, 
      {
        "@id": "90200094", 
        "@level": "1", 
        "@uiDescription": "Do the Ray Dance."
      }, 
      {
        "@id": "90200095", 
        "@level": "1", 
        "@uiDescription": "Pound in a mortar."
      }, 
      {
        "@id": "90200096", 
        "@level": "1", 
        "@uiDescription": "Blow out the candles on a celebratory cake.", 
        "@locale": "CN"
      }, 
      {
        "@id": "90200097", 
        "@level": "1", 
        "@uiDescription": "Sit on the Saint Honor Throne."
      }, 
      {
        "@id": "90200098", 
        "@level": "1", 
        "@uiDescription": "Cheer actively."
      }, 
      {
        "@id": "90200099", 
        "@level": "1", 
        "@uiDescription": "Blow out the candles on a celebratory cake.", 
        "@locale": "CN"
      }, 
      {
        "@id": "90200100", 
        "@level": "1", 
        "@uiDescription": "Sit on top of a large Orange Mushroom. "
      }, 
      {
        "@id": "90200101", 
        "@level": "1", 
        "@uiDescription": "Jerk and dance."
      }, 
      {
        "@id": "90200102", 
        "@level": "1", 
        "@uiDescription": "Take action to conduct an Internet broadcast."
      }, 
      {
        "@id": "90200103", 
        "@level": "1", 
        "@uiDescription": "Take action to cool down the fireworks."
      }, 
      {
        "@id": "90200104", 
        "@level": "1", 
        "@uiDescription": "Spring flowers blow The kite."
      }, 
      {
        "@id": "90200105", 
        "@level": "1", 
        "@uiDescription": "We have a vine-cool swing full of crispy grass."
      }, 
      {
        "@id": "90200106", 
        "@level": "1", 
        "@uiDescription": "Take action to catch a fire on a celebration cake.", 
        "@locale": "NA"
      }, 
      {
        "@id": "90200107", 
        "@level": "1", 
        "@uiDescription": "Take action that will invigorate you."
      }, 
      {
        "@id": "90200108", 
        "@level": "1", 
        "@uiDescription": "We take action to sit in golden forehead of the meringue king."
      }, 
      {
        "@id": "90200109", 
        "@level": "1", 
        "@uiDescription": "The meringue dances with the drinkers.", 
        "@feature": "WorldChampionMushroom"
      }, 
      {
        "@id": "90200110", 
        "@level": "1", 
        "@uiDescription": "Install camping gear and relax in a camping chair."
      }, 
      {
        "@id": "90200111", 
        "@level": "1", 
        "@uiDescription": "Relax with the cute penguins in the cool ice cups."
      }, 
      {
        "@id": "90200112", 
        "@level": "1", 
        "@uiDescription": "Spree Dancing with sloth mushrooms."
      }, 
      {
        "@id": "90200113", 
        "@level": "1", 
        "@uiDescription": "Take a break with duck balls on a sweet watermelon."
      }, 
      {
        "@id": "90200114", 
        "@level": "1", 
        "@uiDescription": "Baby Panda prepared dinner for Maple Story 2 anniversary."
      }, 
      {
        "@id": "90200115", 
        "@level": "1", 
        "@uiDescription": "Shu Kishi dance to dance."
      }, 
      {
        "@id": "90200119", 
        "@level": "1", 
        "@uiDescription": "Take action to direct puppet theater."
      }, 
      {
        "@id": "90200120", 
        "@level": "1", 
        "@uiDescription": "I enjoy relaxing under the maple trees."
      }, 
      {
        "@id": "90200121", 
        "@level": "1", 
        "@uiDescription": "I pose in front of a large shark.", 
        "@feature": "Fishing02"
      }, 
      {
        "@id": "90200122", 
        "@level": "1", 
        "@uiDescription": "It takes a good night's sleep with a lucky pig dream."
      }, 
      {
        "@id": "90200123", 
        "@level": "1", 
        "@uiDescription": "Enjoy a relaxing bath in a hot spring bath."
      }, 
      {
        "@id": "90200124", 
        "@level": "1", 
        "@uiDescription": "Follow the pose that Mason often takes.", 
        "@feature": "Kritias_2018_12"
      }, 
      {
        "@id": "90200125", 
        "@level": "1", 
        "@uiDescription": "Rhythmically step dances."
      }, 
      {
        "@id": "90200126", 
        "@level": "1", 
        "@uiDescription": "I dance happily in face of cute peening. Flying Poing!", 
        "@feature": "Event"
      }, 
      {
        "@id": "90200127", 
        "@level": "1", 
        "@uiDescription": "It gives a cute play and fun. The more I love, the closer I can be.", 
        "@feature": "Event"
      }, 
      {
        "@id": "90200128", 
        "@level": "1", 
        "@uiDescription": "It shows enormous concentration and enters into the tear mode."
      }, 
      {
        "@id": "90200129", 
        "@level": "1", 
        "@uiDescription": "You will fall into deep sleep."
      }, 
      {
        "@id": "90200130", 
        "@level": "1", 
        "@uiDescription": "The trendy dance focuses everyone's attention."
      }, 
      {
        "@id": "90200131", 
        "@level": "1", 
        "@uiDescription": "I take a self-portrait to leave the most beautiful and wonderful moment."
      }, 
      {
        "@id": "90200132", 
        "@level": "1", 
        "@uiDescription": "To get stronger, you have to endure the harsh training of Alberto Bein."
      }, 
      {
        "@id": "90200133", 
        "@level": "1", 
        "@uiDescription": "I take a nice hero pose."
      }, 
      {
        "@id": "90200134", 
        "@level": "1", 
        "@uiDescription": "I take a hero pose that appears powerful."
      }, 
      {
        "@id": "90200135", 
        "@level": "1", 
        "@uiDescription": "I take a hero pose which appears stately."
      }, 
      {
        "@id": "90200137", 
        "@level": "1", 
        "@uiDescription": "I enjoy relaxing under the cherry trees."
      }, 
      {
        "@id": "90210001", 
        "@level": "1", 
        "@uiDescription": "Clap.", 
        "@locale": "CN"
      }, 
      {
        "@id": "90210002", 
        "@level": "1", 
        "@uiDescription": "Wave a glow stick.", 
        "@locale": "CN"
      }, 
      {
        "@id": "90220001", 
        "@level": "1", 
        "@uiDescription": "Embrace your partner."
      }, 
      {
        "@id": "90220002", 
        "@level": "1", 
        "@uiDescription": "Do a fist bump with your partner."
      }, 
      {
        "@id": "90220003", 
        "@level": "1", 
        "@uiDescription": "Take action to play with your opponent."
      }, 
      {
        "@id": "90220004", 
        "@level": "1", 
        "@uiDescription": "Take action to share your mind with your opponent and your candy."
      }, 
      {
        "@id": "90220005", 
        "@level": "1", 
        "@uiDescription": "Take action to request help from your opponent."
      }, 
      {
        "@id": "90220006", 
        "@level": "1", 
        "@uiDescription": "Take action to look forward to each other."
      }, 
      {
        "@id": "90220007", 
        "@level": "1", 
        "@uiDescription": "Take an action to bow down with your opponent."
      }, 
      {
        "@id": "90220008", 
        "@level": "1", 
        "@uiDescription": "Take action dancing with your opponent."
      }, 
      {
        "@id": "90220009", 
        "@level": "1", 
        "@uiDescription": "Take action to meet clapped with your opponent."
      }, 
      {
        "@id": "90220010", 
        "@level": "1", 
        "@uiDescription": "It is amazing to drink hot coffee."
      }, 
      {
        "@id": "90220011", 
        "@level": "1", 
        "@uiDescription": "The cakes are danced with the key to the bitter hat."
      }, 
      {
        "@id": "90220012", 
        "@level": "1", 
        "@uiDescription": "Take action by rolling your feet with your opponent."
      }, 
      {
        "@id": "90220013", 
        "@level": "1", 
        "@uiDescription": "Take action to make a tug of war with your opponents."
      }, 
      {
        "@id": "90220014", 
        "@level": "1", 
        "@uiDescription": "Your opponent will play a water gun. \\nDelivery <font color='#7A7A7A'>character Some actions may vary depending on your gender.</font>"
      }, 
      {
        "@id": "90220015", 
        "@level": "1", 
        "@uiDescription": "Your opponent and your princess will hug. \\nOperate <font color='#7A7A7A'>characters may differ depending on your gender.</font>"
      }, 
      {
        "@id": "90220016", 
        "@level": "1", 
        "@uiDescription": "Divide the campfire warmth in front of your opponent and the Christmas tree. \\nThe <font color='#7A7A7A'>opponent's character may differ depending on your gender.</font>"
      }, 
      {
        "@id": "90220017", 
        "@level": "1", 
        "@uiDescription": "Attach the red light with your opponent and watch. \\nYour <font color='#7A7A7A'>opponent's character may differ depending on the gender.</font>"
      }, 
      {
        "@id": "90220018", 
        "@level": "1", 
        "@uiDescription": "Your opponent takes action to feed each other with chocolate. \\nYou <font color='#7A7A7A'>may have different behavior depending on your opponent's gender.</font>"
      }, 
      {
        "@id": "90220019", 
        "@level": "1", 
        "@uiDescription": "Take action to eat candy with tears flowing with your opponent. \\ <font color='#7A7A7A'>NOperate character Some actions may vary depending on gender.</font>"
      }, 
      {
        "@id": "90220020", 
        "@level": "1", 
        "@uiDescription": "Take action to eat candy with a happy face with your opponent. \\nYou <font color='#7A7A7A'>may have different behavior depending on your opponent's gender.</font>"
      }, 
      {
        "@id": "90220021", 
        "@level": "1", 
        "@uiDescription": "Find a big egg and take some amazing action. \\ NOnce your <font color='#7A7A7A'>opponent&#39;s gender, some actions may be different.</font>"
      }, 
      {
        "@id": "90000343", 
        "@level": "1", 
        "@uiDescription": "Mining Production Buff Tool (Guide Quest) Description", 
        "@feature": "Mastery"
      }, 
      {
        "@id": "90000344", 
        "@level": "1", 
        "@uiDescription": "Mining Production Buff Tool 1 Description", 
        "@feature": "Mastery"
      }, 
      {
        "@id": "90000345", 
        "@level": "1", 
        "@uiDescription": "Mining Production Buff Tool 2 Description", 
        "@feature": "Mastery"
      }, 
      {
        "@id": "90000346", 
        "@level": "1", 
        "@uiDescription": "Mining Production Buff Tool 3 Description", 
        "@feature": "Mastery"
      }, 
      {
        "@id": "90000347", 
        "@level": "1", 
        "@uiDescription": "Mining Production Buff Tool 4 Description", 
        "@feature": "Mastery"
      }, 
      {
        "@id": "90000348", 
        "@level": "1", 
        "@uiDescription": "Mining Production Buff Tool 5 Description", 
        "@feature": "Mastery"
      }, 
      {
        "@id": "90000349", 
        "@level": "1", 
        "@uiDescription": "Mining Production Buff Tool 6 Description", 
        "@feature": "Mastery"
      }, 
      {
        "@id": "90000350", 
        "@level": "1", 
        "@uiDescription": "Ranching Gathering Buff Tool (Guide Quest) Description", 
        "@feature": "Mastery"
      }, 
      {
        "@id": "90000351", 
        "@level": "1", 
        "@uiDescription": "Ranching Gathering Buff Tool 1 Description", 
        "@feature": "Mastery"
      }, 
      {
        "@id": "90000352", 
        "@level": "1", 
        "@uiDescription": "Ranching Gathering Buff Tool 2 Description", 
        "@feature": "Mastery"
      }, 
      {
        "@id": "90000353", 
        "@level": "1", 
        "@uiDescription": "Ranching Gathering Buff Tool 3 Description", 
        "@feature": "Mastery"
      }, 
      {
        "@id": "90000354", 
        "@level": "1", 
        "@uiDescription": "Ranching Gathering Buff Tool 4 Description", 
        "@feature": "Mastery"
      }, 
      {
        "@id": "90000355", 
        "@level": "1", 
        "@uiDescription": "Ranching Gathering Buff Tool 5 Description", 
        "@feature": "Mastery"
      }, 
      {
        "@id": "90000356", 
        "@level": "1", 
        "@uiDescription": "Ranching Gathering Buff Tool 6 Description", 
        "@feature": "Mastery"
      }, 
      {
        "@id": "90000357", 
        "@level": "1", 
        "@uiDescription": "Mining Mastery Buff Tool 1 Description", 
        "@feature": "Mastery"
      }, 
      {
        "@id": "90000358", 
        "@level": "1", 
        "@uiDescription": "Mining Mastery Buff Tool 2 Description", 
        "@feature": "Mastery"
      }, 
      {
        "@id": "90000359", 
        "@level": "1", 
        "@uiDescription": "Mining Mastery Buff Tool 3 Description", 
        "@feature": "Mastery"
      }, 
      {
        "@id": "90000360", 
        "@level": "1", 
        "@uiDescription": "Mining Mastery Buff Tool 4 Description", 
        "@feature": "Mastery"
      }, 
      {
        "@id": "90000361", 
        "@level": "1", 
        "@uiDescription": "Mining Mastery Buff Tool 5 Description", 
        "@feature": "Mastery"
      }, 
      {
        "@id": "90000362", 
        "@level": "1", 
        "@uiDescription": "Mining Mastery Buff Tool 6 Description", 
        "@feature": "Mastery"
      }, 
      {
        "@id": "90000363", 
        "@level": "1", 
        "@uiDescription": "Ranching Mastery Buff Tool 1 Description", 
        "@feature": "Mastery"
      }, 
      {
        "@id": "90000364", 
        "@level": "1", 
        "@uiDescription": "Ranching Mastery Buff Tool 2 Description", 
        "@feature": "Mastery"
      }, 
      {
        "@id": "90000365", 
        "@level": "1", 
        "@uiDescription": "Ranching Mastery Buff Tool 3 Description", 
        "@feature": "Mastery"
      }, 
      {
        "@id": "90000366", 
        "@level": "1", 
        "@uiDescription": "Ranching Mastery Buff Tool 4 Description", 
        "@feature": "Mastery"
      }, 
      {
        "@id": "90000367", 
        "@level": "1", 
        "@uiDescription": "Ranching Mastery Buff Tool 5 Description", 
        "@feature": "Mastery"
      }, 
      {
        "@id": "90000368", 
        "@level": "1", 
        "@uiDescription": "Ranching Mastery Buff Tool 6 Description", 
        "@feature": "Mastery"
      }, 
      {
        "@id": "90000369", 
        "@level": "1", 
        "@uiDescription": "Smithing Production Buff Tool 1 Description", 
        "@feature": "Mastery"
      }, 
      {
        "@id": "90000370", 
        "@level": "1", 
        "@uiDescription": "Smithing Production Buff Tool 2 Description", 
        "@feature": "Mastery"
      }, 
      {
        "@id": "90000371", 
        "@level": "1", 
        "@uiDescription": "Smithing Production Buff Tool 3 Description", 
        "@feature": "Mastery"
      }, 
      {
        "@id": "90000372", 
        "@level": "1", 
        "@uiDescription": "Smithing Production Buff Tool 4 Description", 
        "@feature": "Mastery"
      }, 
      {
        "@id": "90000373", 
        "@level": "1", 
        "@uiDescription": "Smithing Production Buff Tool 5 Description", 
        "@feature": "Mastery"
      }, 
      {
        "@id": "90000374", 
        "@level": "1", 
        "@uiDescription": "Smithing Production Buff Tool 6 Description", 
        "@feature": "Mastery"
      }, 
      {
        "@id": "90000375", 
        "@level": "1", 
        "@uiDescription": "Handicraft Production Buff Tool 1 Description", 
        "@feature": "Mastery"
      }, 
      {
        "@id": "90000376", 
        "@level": "1", 
        "@uiDescription": "Handicraft Production Buff Tool 2 Description", 
        "@feature": "Mastery"
      }, 
      {
        "@id": "90000377", 
        "@level": "1", 
        "@uiDescription": "Handicraft Production Buff Tool 3 Description", 
        "@feature": "Mastery"
      }, 
      {
        "@id": "90000378", 
        "@level": "1", 
        "@uiDescription": "Handicraft Production Buff Tool 4 Description", 
        "@feature": "Mastery"
      }, 
      {
        "@id": "90000379", 
        "@level": "1", 
        "@uiDescription": "Handicraft Production Buff Tool 5 Description", 
        "@feature": "Mastery"
      }, 
      {
        "@id": "90000380", 
        "@level": "1", 
        "@uiDescription": "Handicraft Production Buff Tool 6 Description", 
        "@feature": "Mastery"
      }, 
      {
        "@id": "90000381", 
        "@level": "1", 
        "@uiDescription": "Smithing Mastery Buff Tool 1 Description", 
        "@feature": "Mastery"
      }, 
      {
        "@id": "90000382", 
        "@level": "1", 
        "@uiDescription": "Smithing Mastery Buff Tool 2 Description", 
        "@feature": "Mastery"
      }, 
      {
        "@id": "90000383", 
        "@level": "1", 
        "@uiDescription": "Smithing Mastery Buff Tool 3 Description", 
        "@feature": "Mastery"
      }, 
      {
        "@id": "90000384", 
        "@level": "1", 
        "@uiDescription": "Smithing Mastery Buff Tool 4 Description", 
        "@feature": "Mastery"
      }, 
      {
        "@id": "90000385", 
        "@level": "1", 
        "@uiDescription": "Smithing Mastery Buff Tool 5 Description", 
        "@feature": "Mastery"
      }, 
      {
        "@id": "90000386", 
        "@level": "1", 
        "@uiDescription": "Smithing Mastery Buff Tool 6 Description", 
        "@feature": "Mastery"
      }, 
      {
        "@id": "90000387", 
        "@level": "1", 
        "@uiDescription": "Handicraft Mastery Buff Tool 1 Description", 
        "@feature": "Mastery"
      }, 
      {
        "@id": "90000388", 
        "@level": "1", 
        "@uiDescription": "Handicraft Mastery Buff Tool 2 Description", 
        "@feature": "Mastery"
      }, 
      {
        "@id": "90000389", 
        "@level": "1", 
        "@uiDescription": "Handicraft Mastery Buff Tool 3 Description", 
        "@feature": "Mastery"
      }, 
      {
        "@id": "90000390", 
        "@level": "1", 
        "@uiDescription": "Handicraft Mastery Buff Tool 4 Description", 
        "@feature": "Mastery"
      }, 
      {
        "@id": "90000391", 
        "@level": "1", 
        "@uiDescription": "Handicraft Mastery Buff Tool 5 Description", 
        "@feature": "Mastery"
      }, 
      {
        "@id": "90000392", 
        "@level": "1", 
        "@uiDescription": "Handicraft Mastery Buff Tool 6 Description", 
        "@feature": "Mastery"
      }, 
      {
        "@id": "90000394", 
        "@level": "1", 
        "@uiDescription": "Tin Stone Description", 
        "@feature": "Mastery"
      }, 
      {
        "@id": "90000395", 
        "@level": "1", 
        "@uiDescription": "Platinum Stone Description", 
        "@feature": "Mastery"
      }, 
      {
        "@id": "90000396", 
        "@level": "1", 
        "@uiDescription": "Snail Shell Compound", 
        "@feature": "Mastery"
      }, 
      {
        "@id": "90000397", 
        "@level": "1", 
        "@uiDescription": "Fox Tail Compound", 
        "@feature": "Mastery"
      }, 
      {
        "@id": "99910001", 
        "@level": "1", 
        "@uiDescription": "Charge through enemies and shove them back."
      }, 
      {
        "@id": "99910002", 
        "@level": "1", 
        "@uiDescription": "Head-butt an enemy."
      }, 
      {
        "@id": "99910021", 
        "@level": "1", 
        "@uiDescription": "Throw a fireball at nearby enemies."
      }, 
      {
        "@id": "99910031", 
        "@level": "1", 
        "@uiDescription": "A"
      }, 
      {
        "@id": "99910032", 
        "@level": "1", 
        "@uiDescription": "B"
      }, 
      {
        "@id": "99910033", 
        "@level": "1", 
        "@uiDescription": "B Splash"
      }, 
      {
        "@id": "99910041", 
        "@level": "1", 
        "@uiDescription": "Swing a punch at an enemy."
      }, 
      {
        "@id": "99910042", 
        "@level": "1", 
        "@uiDescription": "Throw a one-two punch at enemies."
      }, 
      {
        "@id": "99910043", 
        "@level": "1", 
        "@uiDescription": "Strike the ground, hitting your surroundings."
      }, 
      {
        "@id": "99910051", 
        "@level": "1", 
        "@uiDescription": "Jump forward and strike an enemy with your hammer."
      }, 
      {
        "@id": "99910052", 
        "@level": "1", 
        "@uiDescription": "Raise your hammer to strike nearby enemies."
      }, 
      {
        "@id": "99910053", 
        "@level": "1", 
        "@uiDescription": "Spin while holding your hammer to attack nearby enemies."
      }, 
      {
        "@id": "99910061", 
        "@level": "1", 
        "@uiDescription": "Jump forward to strike an enemy down."
      }, 
      {
        "@id": "99910062", 
        "@level": "1", 
        "@uiDescription": "Jump high, then strike the ground."
      }, 
      {
        "@id": "99910071", 
        "@level": "1", 
        "@uiDescription": "Quickly shoot 5 electric bolts."
      }, 
      {
        "@id": "99910072", 
        "@level": "1", 
        "@uiDescription": "Quickly shoot 5 electric bolts."
      }, 
      {
        "@id": "99910073", 
        "@level": "1", 
        "@uiDescription": "Gather energy to shoot a laser at enemies in front of you."
      }, 
      {
        "@id": "99910074", 
        "@level": "1", 
        "@uiDescription": "Use a booster to shoot forward, hitting enemies."
      }, 
      {
        "@id": "99910075", 
        "@level": "1", 
        "@uiDescription": "Use both hands to quickly shoot electric bolts."
      }, 
      {
        "@id": "99910076", 
        "@level": "1", 
        "@uiDescription": "Blindly shoot electric bolts at nearby enemies."
      }, 
      {
        "@id": "99910081", 
        "@level": "1", 
        "@uiDescription": "Shoot a magical bullet."
      }, 
      {
        "@id": "99910091", 
        "@level": "1", 
        "@uiDescription": "Slowly swing greatsword.", 
        "@feature": "VIPDungeon"
      }, 
      {
        "@id": "99910092", 
        "@level": "1", 
        "@uiDescription": "Roll forward and strike down with a greatsword.", 
        "@feature": "VIPDungeon"
      }, 
      {
        "@id": "99910101", 
        "@level": "1", 
        "@uiDescription": "Slash and stab with a sword, attacking twice.", 
        "@feature": "VIPDungeon"
      }, 
      {
        "@id": "99910102", 
        "@level": "1", 
        "@uiDescription": "Toss sword energy in a frontal attack.", 
        "@feature": "VIPDungeon"
      }, 
      {
        "@id": "99910111", 
        "@level": "1", 
        "@uiDescription": "Quickly shoot an arrow.", 
        "@feature": "VIPDungeon"
      }, 
      {
        "@id": "99910112", 
        "@level": "1", 
        "@uiDescription": "Shoot multiple arrows in a frontal cone.", 
        "@feature": "VIPDungeon"
      }, 
      {
        "@id": "99910121", 
        "@level": "1", 
        "@uiDescription": "Quickly shoot bubble bullets.", 
        "@feature": "PirateOcean"
      }, 
      {
        "@id": "99910122", 
        "@level": "1", 
        "@uiDescription": "Shoot a powerful water cannon.", 
        "@feature": "PirateOcean"
      }, 
      {
        "@id": "99910131", 
        "@level": "1", 
        "@uiDescription": "Shoot <font color='#00aaef'>3</font> <font color='#00aaef'>20</font>&#160;mm bullets.", 
        "@feature": "DarkCastle"
      }, 
      {
        "@id": "99910132", 
        "@level": "1", 
        "@uiDescription": "Charge forward with an excavator.", 
        "@feature": "DarkCastle"
      }, 
      {
        "@id": "99910133", 
        "@level": "1", 
        "@uiDescription": "Shoot a powerful <font color='#00aaef'>105</font>&#160;mm cannonball.", 
        "@feature": "DarkCastle"
      }, 
      {
        "@id": "99910141", 
        "@level": "1", 
        "@uiDescription": "Charge forward.", 
        "@feature": "DarkCastle"
      }, 
      {
        "@id": "99910142", 
        "@level": "1", 
        "@uiDescription": "Recover health.", 
        "@feature": "DarkCastle"
      }, 
      {
        "@id": "99910151", 
        "@level": "1", 
        "@uiDescription": "Quickly shoot an arrow.", 
        "@feature": "DarkCastle"
      }, 
      {
        "@id": "99910152", 
        "@level": "1", 
        "@uiDescription": "Shoot multiple arrows in a frontal cone.", 
        "@feature": "DarkCastle"
      }, 
      {
        "@id": "99910161", 
        "@level": "1", 
        "@uiDescription": "Use both hands to quickly shoot electric bolts.", 
        "@feature": "DarkCastle"
      }, 
      {
        "@id": "99910162", 
        "@level": "1", 
        "@uiDescription": "Gather energy to shoot a laser at enemies in front of you.", 
        "@feature": "DarkCastle"
      }, 
      {
        "@id": "99910163", 
        "@level": "1", 
        "@uiDescription": "Use a booster to shoot forward, hitting enemies.", 
        "@feature": "DarkCastle"
      }, 
      {
        "@id": "99910164", 
        "@level": "1", 
        "@uiDescription": "Gather immense energy to shoot a powerful laser at enemies in front of you.", 
        "@feature": "DarkCastle"
      }, 
      {
        "@id": "99910171", 
        "@level": "1", 
        "@uiDescription": "Quickly toss <font color='#00aaef'>2</font> thrown weapons.", 
        "@feature": "DarkCastle"
      }, 
      {
        "@id": "99910172", 
        "@level": "1", 
        "@uiDescription": "Toss a grenade in front of you.", 
        "@feature": "DarkCastle"
      }, 
      {
        "@id": "99910173", 
        "@level": "1", 
        "@uiDescription": "Move forward very quickly.", 
        "@feature": "DarkCastle"
      }, 
      {
        "@id": "99910181", 
        "@level": "1", 
        "@uiDescription": "Slash and stab with a sword, attacking twice.", 
        "@feature": "DarkCastle"
      }, 
      {
        "@id": "99910182", 
        "@level": "1", 
        "@uiDescription": "Toss sword energy in a frontal attack.", 
        "@feature": "DarkCastle"
      }, 
      {
        "@id": "99910191", 
        "@level": "1", 
        "@uiDescription": "Quickly shoot an arrow.", 
        "@feature": "DarkCastle"
      }, 
      {
        "@id": "99910192", 
        "@level": "1", 
        "@uiDescription": "Shoot multiple arrows in a frontal cone.", 
        "@feature": "DarkCastle"
      }, 
      {
        "@id": "99910193", 
        "@level": "1", 
        "@uiDescription": "Shoot a spreading arrow towards that sky, which peppers the ground below.", 
        "@feature": "DarkCastle"
      }, 
      {
        "@id": "99910241", 
        "@level": "1", 
        "@uiDescription": "Get close and steal the eggs.", 
        "@feature": "GuildRaid01"
      }, 
      {
        "@id": "99910301", 
        "@level": "1", 
        "@uiDescription": "Wield a sword at a rapid pace.", 
        "@feature": "FameContents_EP1_02"
      }, 
      {
        "@id": "99910302", 
        "@level": "1", 
        "@uiDescription": "Lift the sword, swing it twice and put it back.", 
        "@feature": "FameContents_EP1_02"
      }, 
      {
        "@id": "99910303", 
        "@level": "1", 
        "@uiDescription": "The wind is rushed toward the target.", 
        "@feature": "FameContents_EP1_02"
      }, 
      {
        "@id": "99910304", 
        "@level": "1", 
        "@uiDescription": "Wield a sword at a rapid pace.", 
        "@feature": "FameContents_EP1_02"
      }, 
      {
        "@id": "99910305", 
        "@level": "1", 
        "@uiDescription": "Lift the sword, swing it twice and put it back.", 
        "@feature": "FameContents_EP1_02"
      }, 
      {
        "@id": "99910306", 
        "@level": "1", 
        "@uiDescription": "The wind is rushed toward the target.", 
        "@feature": "FameContents_EP1_02"
      }, 
      {
        "@id": "99910307", 
        "@level": "1", 
        "@uiDescription": "Hot heat on the opponent's feet causes earthquakes to rise.", 
        "@feature": "FameContents_EP1_02"
      }, 
      {
        "@id": "99910371", 
        "@level": "1", 
        "@uiDescription": "The magic bullet fires continuously in rapid succession.", 
        "@feature": "Kritias_2018_12"
      }, 
      {
        "@id": "99910372", 
        "@level": "1", 
        "@uiDescription": "Spray hot flames forward.", 
        "@feature": "Kritias_2018_12"
      }, 
      {
        "@id": "99910401", 
        "@level": "1", 
        "@uiDescription": "Attacks with a drill to the target ahead.", 
        "@feature": "Gigantica01"
      }, 
      {
        "@id": "99910402", 
        "@level": "1", 
        "@uiDescription": "It rushes and pierces.", 
        "@feature": "Gigantica01"
      }, 
      {
        "@id": "99910403", 
        "@level": "1", 
        "@uiDescription": "Jump high and shoot down the Ziggurat. \\nThis can be used to neutralize the buffs of Tika that have been attacked.", 
        "@feature": "Gigantica01"
      }, 
      {
        "@id": "120010001", 
        "@level": "1", 
        "@uiDescription": "Celin's heart-shaped song is fired in three directions at a distance of 12m ahead. A target that is hit by a song receives <font color='#00aaef'>552%</font> of damage and stuns for 1 second.", 
        "@feature": "Lapenshard01"
      }, 
      {
        "@id": "120010001", 
        "@level": "2", 
        "@uiDescription": "Celin's heart-shaped song is fired in three directions at a distance of 12m ahead. A target shot in a song receives <font color='#00aaef'>599%</font> of damage and stuns for 1 second.", 
        "@feature": "Lapenshard01"
      }, 
      {
        "@id": "120010001", 
        "@level": "3", 
        "@uiDescription": "Celin's heart-shaped song is fired in three directions at a distance of 12m ahead. A target shot with a song receives <font color='#00aaef'>646%</font> of damage and stuns for 1 second.", 
        "@feature": "Lapenshard01"
      }, 
      {
        "@id": "120010001", 
        "@level": "4", 
        "@uiDescription": "Celin's heart-shaped song is fired in three directions at a distance of 12m ahead. A target shot with a song receives <font color='#00aaef'>669%</font> of damage and stuns for 1 second.", 
        "@feature": "Lapenshard01"
      }, 
      {
        "@id": "120010001", 
        "@level": "5", 
        "@uiDescription": "Celin's heart-shaped song is fired in three directions at a distance of 12m ahead. A target that is hit by a song receives <font color='#00aaef'>716%</font> of damage and stuns for 1 second.", 
        "@feature": "Lapenshard01"
      }, 
      {
        "@id": "120010001", 
        "@level": "6", 
        "@uiDescription": "Celin's heart-shaped song is fired in three directions at a distance of 12m ahead. A target that is hit by a song receives <font color='#00aaef'>787%</font> of damage and stuns for 1 second.", 
        "@feature": "Lapenshard01"
      }, 
      {
        "@id": "120010001", 
        "@level": "7", 
        "@uiDescription": "Celin's heart-shaped song is fired in three directions at a distance of 12m ahead. A target shot with a song receives <font color='#00aaef'>857%</font> of damage and stuns for 1 second.", 
        "@feature": "Lapenshard01"
      }, 
      {
        "@id": "120010001", 
        "@level": "8", 
        "@uiDescription": "Celin's heart-shaped song is fired in three directions at a distance of 12m ahead. A target that is hit by a song receives <font color='#00aaef'>939%</font> of damage and stuns for 1 second.", 
        "@feature": "Lapenshard01"
      }, 
      {
        "@id": "120010001", 
        "@level": "9", 
        "@uiDescription": "Celin's heart-shaped song is fired in three directions at a distance of 12m ahead. A target shot with a song receives <font color='#00aaef'>1057%</font> of damage and stuns for 1 second.", 
        "@feature": "Lapenshard01"
      }, 
      {
        "@id": "120010001", 
        "@level": "10", 
        "@uiDescription": "Celin's heart-shaped song is fired in three directions at a distance of 12m ahead. A target shot with a song receives <font color='#00aaef'>1174%</font> of damage and stuns for 1 second.", 
        "@feature": "Lapenshard01"
      }, 
      {
        "@id": "120010002", 
        "@level": "1", 
        "@uiDescription": "It emits one strong current energy at a distance of 9m ahead. A hit target receives <font color='#00aaef'>158%</font> of damage and becomes in an electric shock for 20 seconds, causing <font color='#00aaef'>158%</font> additional damage per second.", 
        "@feature": "Lapenshard01"
      }, 
      {
        "@id": "120010002", 
        "@level": "2", 
        "@uiDescription": "It emits one strong current energy at a distance of 9m ahead. A hit target receives <font color='#00aaef'>171%</font> of damage and becomes in a state of electric shock for 20 seconds, resulting in an additional damage of <font color='#00aaef'>171%</font> per second.", 
        "@feature": "Lapenshard01"
      }, 
      {
        "@id": "120010002", 
        "@level": "3", 
        "@uiDescription": "It emits one strong current energy at a distance of 9m ahead. A hit target receives <font color='#00aaef'>184%</font> of damage and becomes in an electric shock for 20 seconds, causing an additional <font color='#00aaef'>184%</font> damage per second.", 
        "@feature": "Lapenshard01"
      }, 
      {
        "@id": "120010002", 
        "@level": "4", 
        "@uiDescription": "It emits one strong current energy at a distance of 9m ahead. A hit target receives <font color='#00aaef'>191%</font> of damage and becomes in a state of electric shock for 20 seconds, resulting in an additional damage of <font color='#00aaef'>191%</font> per second.", 
        "@feature": "Lapenshard01"
      }, 
      {
        "@id": "120010002", 
        "@level": "5", 
        "@uiDescription": "It emits one strong current energy at a distance of 9m ahead. A hit target receives <font color='#00aaef'>204%</font> of damage and becomes in an electric shock for 20 seconds, causing <font color='#00aaef'>204%</font> additional damage per second.", 
        "@feature": "Lapenshard01"
      }, 
      {
        "@id": "120010002", 
        "@level": "6", 
        "@uiDescription": "It emits one strong current energy at a distance of 9m ahead. A hit target receives <font color='#00aaef'>224%</font> of damage and becomes in a state of electric shock for 20 seconds, resulting in <font color='#00aaef'>224%</font> additional damage per second.", 
        "@feature": "Lapenshard01"
      }, 
      {
        "@id": "120010002", 
        "@level": "7", 
        "@uiDescription": "It emits one strong current energy at a distance of 9m ahead. A hit target receives <font color='#00aaef'>244%</font> of damage and is wounded for 20 seconds, causing an additional <font color='#00aaef'>244%</font> damage per second.", 
        "@feature": "Lapenshard01"
      }, 
      {
        "@id": "120010002", 
        "@level": "8", 
        "@uiDescription": "It emits one strong current energy at a distance of 9m ahead. A hit target receives <font color='#00aaef'>268%</font> of damage and becomes in a state of electric shock for 20 seconds, resulting in an additional <font color='#00aaef'>268%</font> damage per second.", 
        "@feature": "Lapenshard01"
      }, 
      {
        "@id": "120010002", 
        "@level": "9", 
        "@uiDescription": "It emits one strong current energy at a distance of 9m ahead. A hit target receives <font color='#00aaef'>301%</font> of damage, becomes in an electric shock for 20 seconds, and receives <font color='#00aaef'>301%</font> additional damage per second.", 
        "@feature": "Lapenshard01"
      }, 
      {
        "@id": "120010002", 
        "@level": "10", 
        "@uiDescription": "It emits one strong current energy at a distance of 9m ahead. A hit target receives <font color='#00aaef'>335%</font> of damage, becomes in an electric shock for 20 seconds, and receives <font color='#00aaef'>335%</font> additional damage per second.", 
        "@feature": "Lapenshard01"
      }, 
      {
        "@id": "120010003", 
        "@level": "1", 
        "@uiDescription": "Increases physical / magical damage by <font color='#00aaef'>36</font> and defense by 50% for 10 seconds.", 
        "@feature": "Lapenshard01"
      }, 
      {
        "@id": "120010003", 
        "@level": "2", 
        "@uiDescription": "Increases Physical / Magical ATK by <font color='#00aaef'>42</font> for 10 seconds and reduces DEF by 50%.", 
        "@feature": "Lapenshard01"
      }, 
      {
        "@id": "120010003", 
        "@level": "3", 
        "@uiDescription": "Increases Physical / Magical ATK by <font color='#00aaef'>54</font> and DEF of 50% for 10 seconds.", 
        "@feature": "Lapenshard01"
      }, 
      {
        "@id": "120010003", 
        "@level": "4", 
        "@uiDescription": "Increases Physical / Magical ATK by <font color='#00aaef'>66</font> for 10 seconds and reduces DEF by 50%.", 
        "@feature": "Lapenshard01"
      }, 
      {
        "@id": "120010003", 
        "@level": "5", 
        "@uiDescription": "Physical / magic damage increased by <font color='#00aaef'>78</font> and defense decreased by 50% for 10 seconds.", 
        "@feature": "Lapenshard01"
      }, 
      {
        "@id": "120010003", 
        "@level": "6", 
        "@uiDescription": "Increases Physical / Magical ATK by <font color='#00aaef'>96</font> for 10 seconds and reduces DEF by 50%.", 
        "@feature": "Lapenshard01"
      }, 
      {
        "@id": "120010003", 
        "@level": "7", 
        "@uiDescription": "Increases physical / magical damage by <font color='#00aaef'>120</font> and defense by 50% for 10 seconds.", 
        "@feature": "Lapenshard01"
      }, 
      {
        "@id": "120010003", 
        "@level": "8", 
        "@uiDescription": "Increases Physical / Magical ATK by <font color='#00aaef'>144</font> and DEF of 50% for 10 seconds.", 
        "@feature": "Lapenshard01"
      }, 
      {
        "@id": "120010003", 
        "@level": "9", 
        "@uiDescription": "Increases Physical / Magical ATK by <font color='#00aaef'>174</font> and DEF of 50% for 10 seconds.", 
        "@feature": "Lapenshard01"
      }, 
      {
        "@id": "120010003", 
        "@level": "10", 
        "@uiDescription": "Increases physical / magical damage by <font color='#00aaef'>216</font> and defense by 50% for 10 seconds.", 
        "@feature": "Lapenshard01"
      }, 
      {
        "@id": "120010004", 
        "@level": "1", 
        "@uiDescription": "Shoots a sword within a 9m radius for 1 sec and increases attack and movement speed by 2% for 3 sec. After colliding with a fired black target, it <font color='#00aaef'>deals</font> <font color='#00aaef'>162%</font> , <font color='#00aaef'>243%</font> , and <font color='#00aaef'>408%</font> damage over 3 times at a distance of 1.5m. In addition, it deals 2x damage to Emerald Prison and has <font color='#00aaef'>12000</font> skill brakes. Can be used 20 times in black time, and each time the cooldown passes, the number of times it can be used is restored once. When used in conjunction with equipment items that exceed the level of the Lafenshard, the Lafenshard will not be fully capable.", 
        "@feature": "Lapenshard01"
      }, 
      {
        "@id": "120010004", 
        "@level": "2", 
        "@uiDescription": "Shoots a sword within a 9m radius for 1 sec and increases attack and movement speed by 2% for 3 sec. After a collision with a fired black target, it <font color='#00aaef'>deals</font> <font color='#00aaef'>168%</font> , <font color='#00aaef'>252%</font> , and <font color='#00aaef'>420%</font> damage over 3 times at a radius of 1.5m. In addition, the Emerald Prison, which deals 2 times damage, has <font color='#00aaef'>14400</font> skill break effects. Can be used 20 times in black time, and each time the cooldown passes, the number of times it can be used is restored once. When used in conjunction with equipment items that exceed the level of the Lafenshard, the Lafenshard will not be fully capable.", 
        "@feature": "Lapenshard01"
      }, 
      {
        "@id": "120010004", 
        "@level": "3", 
        "@uiDescription": "Shoots a sword within a 9m radius for 1 sec and increases attack and movement speed by 2% for 3 sec. After colliding with a fired black target, it <font color='#00aaef'>deals</font> <font color='#00aaef'>174%</font> , <font color='#00aaef'>261%</font> , and <font color='#00aaef'>432%</font> damage over 3 times at a distance of 1.5m. In addition, the Emerald Prison, which deals 2x damage, has a <font color='#00aaef'>16800</font> skill break effect. Can be used 20 times in black time, and each time the cooldown passes, the number of times it can be used is restored once. When used in conjunction with equipment items that exceed the level of the Lafenshard, the Lafenshard will not be fully capable.", 
        "@feature": "Lapenshard01"
      }, 
      {
        "@id": "120010004", 
        "@level": "4", 
        "@uiDescription": "Shoots a sword within a 9m radius for 1 sec and increases attack and movement speed by 2% for 3 sec. After colliding against a fired black target, it <font color='#00aaef'>deals</font> <font color='#00aaef'>180%</font> , <font color='#00aaef'>270%</font> , and <font color='#00aaef'>450%</font> damage over 3 times at a radius of 1.5m. In addition, the Emerald Frizzon deals 2x damage and has <font color='#00aaef'>19200</font> skill break effects. Can be used 20 times in black time, and each time the cooldown passes, the number of times it can be used is restored once. When used in conjunction with equipment items that exceed the level of the Lafenshard, the Lafenshard will not be fully capable.", 
        "@feature": "Lapenshard01"
      }, 
      {
        "@id": "120010004", 
        "@level": "5", 
        "@uiDescription": "Shoots a sword within a 9m radius for 1 sec and increases attack and movement speed by 2% for 3 sec. After a collision with a fired black target, it <font color='#00aaef'>deals</font> <font color='#00aaef'>186%</font> , <font color='#00aaef'>282%</font> , and <font color='#00aaef'>468%</font> damage three times over a radius of 1.5m. In addition, the Emerald Frizzon <font color='#00aaef'>deals</font> 2x damage and has <font color='#00aaef'>21600</font> skill brakes. Can be used 20 times in black time, and each time the cooldown passes, the number of times it can be used is restored once. When used in conjunction with equipment items that exceed the level of the Lafenshard, the Lafenshard will not be fully capable.", 
        "@feature": "Lapenshard01"
      }, 
      {
        "@id": "120010004", 
        "@level": "6", 
        "@uiDescription": "Shoots a sword within a 9m radius for 1 sec and increases attack and movement speed by 2% for 3 sec. After a collision with a fired black target, it will cause <font color='#00aaef'>195%</font> , <font color='#00aaef'>294%</font> , and <font color='#00aaef'>489%</font> damage three times over a radius of 1.5m. In addition, it deals 2x damage to Emerald Prison and has <font color='#00aaef'>24000</font> skill break effects. Can be used 20 times in black time, and each time the cooldown passes, the number of times it can be used is restored once. When used in conjunction with equipment items that exceed the level of the Lafenshard, the Lafenshard will not be fully capable.", 
        "@feature": "Lapenshard01"
      }, 
      {
        "@id": "120010004", 
        "@level": "7", 
        "@uiDescription": "Shoots a sword within a 9m radius for 1 sec and increases attack and movement speed by 2% for 3 sec. After colliding against a fired black target, it deals <font color='#00aaef'>204%</font> , <font color='#00aaef'>306%</font> , and <font color='#00aaef'>510%</font> damage over 3 times at a radius of 1.5m. In addition, the Emerald Prison has twice the damage and has <font color='#00aaef'>26400</font> skill brakes. Can be used 20 times in black time, and each time the cooldown passes, the number of times it can be used is restored once. When used in conjunction with equipment items that exceed the level of the Lafenshard, the Lafenshard will not be fully capable.", 
        "@feature": "Lapenshard01"
      }, 
      {
        "@id": "120010004", 
        "@level": "8", 
        "@uiDescription": "Shoots a sword within a 9m radius for 1 sec and increases attack and movement speed by 2% for 3 sec. After colliding with a fired black target, it <font color='#00aaef'>deals</font> <font color='#00aaef'>210%</font> , <font color='#00aaef'>318%</font> , and <font color='#00aaef'>531%</font> damage three times over a radius of 1.5m. In addition, it deals 2x damage to Emerald Prison and has a <font color='#00aaef'>28800</font> skill break effect. Can be used 20 times in black time, and each time the cooldown passes, the number of times it can be used is restored once. When used in conjunction with equipment items that exceed the level of the Lafenshard, the Lafenshard will not be fully capable.", 
        "@feature": "Lapenshard01"
      }, 
      {
        "@id": "120010004", 
        "@level": "9", 
        "@uiDescription": "Shoots a sword within a 9m radius for 1 sec and increases attack and movement speed by 2% for 3 sec. After a collision with a fired black target, it <font color='#00aaef'>deals</font> <font color='#00aaef'>225%</font> , <font color='#00aaef'>339%</font> , and <font color='#00aaef'>567%</font> damage over three times at a distance of 1.5m. In addition, the Emerald Frizzon <font color='#00aaef'>deals</font> 2 times damage and <font color='#00aaef'>31200</font> skill break effects. Can be used 20 times in black time, and each time the cooldown passes, the number of times it can be used is restored once. When used in conjunction with equipment items that exceed the level of the Lafenshard, the Lafenshard will not be fully capable.", 
        "@feature": "Lapenshard01"
      }, 
      {
        "@id": "120010004", 
        "@level": "10", 
        "@uiDescription": "Shoots a sword within a 9m radius for 1 sec and increases attack and movement speed by 2% for 3 sec. After a collision with a fired black target, it <font color='#00aaef'>inflicts</font> <font color='#00aaef'>243%</font> , <font color='#00aaef'>366%</font> , and <font color='#00aaef'>612%</font> damage three times over a radius of 1.5m. In addition, it deals 2x damage to Emerald Prison and has <font color='#00aaef'>36000</font> skill break effects. Can be used 20 times in black time, and each time the cooldown passes, the number of times it can be used is restored once. When used in conjunction with equipment items that exceed the level of the Lafenshard, the Lafenshard will not be fully capable.", 
        "@feature": "Lapenshard01"
      }, 
      {
        "@id": "120010010", 
        "@level": "1", 
        "@uiDescription": "<font color='#ffffff'>Blizzard appears and uses moonlight on enemies in front. The melee attack is inflicted with bleeding for a period of time. Rapen shards when used with items of equipment that exceeds the level of rapen shard abilities are not exhibited completely. \\n \\n <font color='#ffd400'>[details]</font> \\n Hit <font color='#00aaef'>457%</font> Damage \\n <font color='#f06d45'>bleeding</font> for 10 seconds to hit Grant \\n \\n <font color='#ffd400'>[Additions]</font> \\n <font color='#f06d45'>Bleeding</font> : <font color='#00aaef'>69%</font> damage periodically</font>", 
        "@feature": "Lapenshard01"
      }, 
      {
        "@id": "120010010", 
        "@level": "2", 
        "@uiDescription": "<font color='#ffffff'>Blizzard appears and uses moonlight on enemies in front. The melee attack is inflicted with bleeding for a period of time. Rapen shard is the ability to does not exert full when used with the items of equipment that exceeds the level of rapen shards. \\n \\n <font color='#ffd400'>[details]</font> \\n Hit <font color='#00aaef'>548%</font> Damage \\n Hit 10 seconds <font color='#f06d45'>bleeding</font> granted \\n \\n <font color='#ffd400'>[Additional information]</font> \\n <font color='#f06d45'>Bleeding</font> : Periodic damage by <font color='#00aaef'>82%</font></font>", 
        "@feature": "Lapenshard01"
      }, 
      {
        "@id": "120010010", 
        "@level": "3", 
        "@uiDescription": "<font color='#ffffff'>Blizzard appears and uses moonlight on enemies in front. The melee attack is inflicted with bleeding for a period of time. \\n \\n <font color='#ffd400'>[Details]</font> \\n <font color='#00aaef'>685%</font> damage on hit, \\ <font color='#00aaef'>nBreaking</font> <font color='#f06d45'>bleeding for</font> 10 seconds on hit. \\n \\n \\n <font color='#ffd400'>[Additional information]</font> \\n <font color='#f06d45'>Bleeding</font> : <font color='#00aaef'>103%</font> damage periodically</font>", 
        "@feature": "Lapenshard01"
      }, 
      {
        "@id": "120010010", 
        "@level": "4", 
        "@uiDescription": "<font color='#ffffff'>Blizzard appears and uses moonlight on enemies in front. The melee attack is inflicted with bleeding for a period of time. Rapen shard is the ability to does not exert full when used with the items of equipment that exceeds the level of rapen shards. \\n \\n <font color='#ffd400'>[details]</font> \\n Hit <font color='#00aaef'>822%</font> Damage \\n Hit 10 seconds <font color='#f06d45'>bleeding</font> granted \\n \\n <font color='#ffd400'>[Additional information]</font> \\n <font color='#f06d45'>Bleeding</font> : <font color='#00aaef'>123%</font> damage periodically</font>", 
        "@feature": "Lapenshard01"
      }, 
      {
        "@id": "120010010", 
        "@level": "5", 
        "@uiDescription": "<font color='#ffffff'>Blizzard appears and uses moonlight on enemies in front. The melee attack is inflicted with bleeding for a period of time. Rapen shards when used with items of equipment that exceeds the level of rapen shard abilities are not exhibited completely. \\n \\n <font color='#ffd400'>[details]</font> \\n <font color='#f06d45'>bleeding</font> for 10 seconds at <font color='#00aaef'>1005%</font> Damage \\n Hit Hit granted \\n \\n <font color='#ffd400'>[Additional information]</font> \\n <font color='#f06d45'>Bleeding</font> : <font color='#00aaef'>151%</font> damage periodically</font>", 
        "@feature": "Lapenshard01"
      }, 
      {
        "@id": "120010010", 
        "@level": "6", 
        "@uiDescription": "<font color='#ffffff'>Blizzard appears and uses moonlight on enemies in front. The melee attack is inflicted with bleeding for a period of time. Rapen shards when used with items of equipment that exceeds the level of rapen shard abilities are not exhibited completely. \\n \\n <font color='#ffd400'>[details]</font> \\n <font color='#f06d45'>bleeding</font> for 10 seconds at <font color='#00aaef'>1233%</font> Damage \\n Hit Hit granted \\n \\n <font color='#ffd400'>[Additional information]</font> \\n <font color='#f06d45'>Bleeding</font> : <font color='#00aaef'>185%</font> damage periodically</font>", 
        "@feature": "Lapenshard01"
      }, 
      {
        "@id": "120010010", 
        "@level": "7", 
        "@uiDescription": "<font color='#ffffff'>Blizzard appears and uses moonlight on enemies in front. The melee attack is inflicted with bleeding for a period of time. Rapen shards when used with items of equipment that exceeds the level of rapen shard abilities are not exhibited completely. \\n \\n <font color='#ffd400'>[details]</font> \\n <font color='#f06d45'>bleeding</font> for 10 seconds at <font color='#00aaef'>1507%</font> Damage \\n Hit Hit granted \\n \\n <font color='#ffd400'>[Additional information]</font> \\n <font color='#f06d45'>Bleeding</font> : <font color='#00aaef'>226%</font> damage periodically</font>", 
        "@feature": "Lapenshard01"
      }, 
      {
        "@id": "120010010", 
        "@level": "8", 
        "@uiDescription": "<font color='#ffffff'>Blizzard appears and uses moonlight on enemies in front. The melee attack is inflicted with bleeding for a period of time. Rapen shards when used with items of equipment that exceeds the level of rapen shard abilities are not exhibited completely. \\n \\n <font color='#ffd400'>[details]</font> \\n Hit give <font color='#00aaef'>1827%</font> Damage \\n 10 seconds when hit <font color='#f06d45'>bleeding</font> \\n \\n <font color='#ffd400'>[Additional information]</font> \\n <font color='#f06d45'>Bleeding</font> : Periodic damage of <font color='#00aaef'>274%</font></font>", 
        "@feature": "Lapenshard01"
      }, 
      {
        "@id": "120010010", 
        "@level": "9", 
        "@uiDescription": "<font color='#ffffff'>Blizzard appears and uses moonlight on enemies in front. The melee attack is inflicted with bleeding for a period of time. Rapen shards when used with items of equipment that exceeds the level of rapen shard abilities are not exhibited completely. \\n \\n <font color='#ffd400'>[details]</font> \\n <font color='#f06d45'>bleeding</font> for 10 seconds at <font color='#00aaef'>2238%</font> Damage \\n Hit Hit granted \\n \\n <font color='#ffd400'>[Additional information]</font> \\n <font color='#f06d45'>Bleeding</font> : <font color='#00aaef'>336%</font> damage periodically</font>", 
        "@feature": "Lapenshard01"
      }, 
      {
        "@id": "120010010", 
        "@level": "10", 
        "@uiDescription": "<font color='#ffffff'>Blizzard appears and uses moonlight on enemies in front. The melee attack is inflicted with bleeding for a period of time. Rapen shards when used with items of equipment that exceeds the level of rapen shard abilities are not exhibited completely. \\n \\n <font color='#ffd400'>[details]</font> \\n <font color='#f06d45'>bleeding</font> for 10 seconds at <font color='#00aaef'>2741%</font> Damage \\n Hit Hit granted \\n \\n <font color='#ffd400'>[Additional information]</font> \\n <font color='#f06d45'>Bleeding</font> : <font color='#00aaef'>411%</font> damage periodically</font>", 
        "@feature": "Lapenshard01"
      }, 
      {
        "@id": "120010020", 
        "@level": "1", 
        "@uiDescription": "<font color='#ffffff'>Tikka uses a powerful laser attack in front of him. Each time you get hit by a laser attack, you get a certain amount of damage. Rapen shards when used with items of equipment that exceeds the level of rapen shard abilities are not exhibited completely. \\n \\n <font color='#ffd400'>[details]</font> \\n Hit <font color='#00aaef'>1,027%</font> Damage \\n <font color='#f06d45'>SHOCK</font> state grants 10 seconds upon hitting \\n \\n <font color='#ffd400'>[Additional details]</font> \\n <font color='#f06d45'>Electric Shock</font> : A chance to damage <font color='#00aaef'>154%</font> when wearing damage</font>", 
        "@feature": "Lapenshard01"
      }, 
      {
        "@id": "120010020", 
        "@level": "2", 
        "@uiDescription": "<font color='#ffffff'>Tikka uses a powerful laser attack in front of him. Each time you get hit by a laser attack, you get a certain amount of damage. Rapen shards when used with items of equipment that exceeds the level of rapen shard abilities are not exhibited completely. \\n \\n <font color='#ffd400'>[details]</font> \\n <font color='#00aaef'>1233%</font> Damage \\n <font color='#f06d45'>SHOCK</font> state grants 10 seconds when hit upon hit \\n \\n <font color='#ffd400'>[Additional details]</font> \\nElectro- <font color='#f06d45'>electric</font> : <font color='#00aaef'>185%</font> damage with a chance to <font color='#00aaef'>deal</font> damage</font>", 
        "@feature": "Lapenshard01"
      }, 
      {
        "@id": "120010020", 
        "@level": "3", 
        "@uiDescription": "<font color='#ffffff'>Tikka uses a powerful laser attack in front of him. Each time you get hit by a laser attack, you get a certain amount of damage. Rapen shard is when used with the equipment item that exceeds the level of the rapen shards ability is not exhibited completely. \\n \\n <font color='#ffd400'>[Details]</font> \\n Hit <font color='#f06d45'>shock</font> conditions give <font color='#00aaef'>1541%</font> damage \\n 10 seconds when hit \\n \\n <font color='#ffd400'>[Additional Details]</font> \\n <font color='#f06d45'>Electric Shock</font> : A chance to damage <font color='#00aaef'>231%</font> when wearing damage</font>", 
        "@feature": "Lapenshard01"
      }, 
      {
        "@id": "120010020", 
        "@level": "4", 
        "@uiDescription": "<font color='#ffffff'>Tikka uses a powerful laser attack in front of him. Each time you get hit by a laser attack, you get a certain amount of damage. Rapen shards when used with items of equipment that exceeds the level of rapen shard abilities are not exhibited completely. \\n \\n <font color='#ffd400'>[details]</font> \\n Hit <font color='#00aaef'>1,850%</font> Damage \\n <font color='#f06d45'>SHOCK</font> state grants 10 seconds upon hitting \\n \\n <font color='#ffd400'>[Addition]</font> \\n <font color='#f06d45'>Electric Shock</font> : A chance to damage <font color='#00aaef'>277%</font> damage</font>", 
        "@feature": "Lapenshard01"
      }, 
      {
        "@id": "120010020", 
        "@level": "5", 
        "@uiDescription": "<font color='#ffffff'>Tikka uses a powerful laser attack in front of him. Each time you get hit by a laser attack, you get a certain amount of damage. Rapen shards when used with items of equipment that exceeds the level of rapen shard abilities are not exhibited completely. \\n \\n <font color='#ffd400'>[details]</font> \\n Hit <font color='#00aaef'>2,261%</font> Damage \\n <font color='#f06d45'>SHOCK</font> state grants 10 seconds upon hitting \\n \\n <font color='#ffd400'>[Addition]</font> \\n <font color='#f06d45'>Electric Shock</font> : A chance to <font color='#00aaef'>deal 339%</font> damage when hit.</font>", 
        "@feature": "Lapenshard01"
      }, 
      {
        "@id": "120010020", 
        "@level": "6", 
        "@uiDescription": "<font color='#ffffff'>Tikka uses a powerful laser attack in front of him. Each time you get hit by a laser attack, you get a certain amount of damage. Rapen shards when used with items of equipment that exceeds the level of rapen shard abilities are not exhibited completely. \\n \\n <font color='#ffd400'>[details]</font> \\n <font color='#00aaef'>2775%</font> Damage \\n <font color='#f06d45'>SHOCK</font> state grants 10 seconds when hit upon hit \\n \\n <font color='#ffd400'>[Additional details]</font> \\n <font color='#f06d45'>Electric Shock</font> : A <font color='#00aaef'>416%</font> damage chance to <font color='#00aaef'>deal</font> damage.</font>", 
        "@feature": "Lapenshard01"
      }, 
      {
        "@id": "120010020", 
        "@level": "7", 
        "@uiDescription": "<font color='#ffffff'>Tikka uses a powerful laser attack in front of him. Each time you get hit by a laser attack, you get a certain amount of damage. Rapen shards when used with items of equipment that exceeds the level of rapen shard abilities are not exhibited completely. \\n \\n <font color='#ffd400'>[details]</font> \\n <font color='#00aaef'>3391%</font> Damage \\n <font color='#f06d45'>SHOCK</font> state grants 10 seconds when hit upon hit \\n \\n <font color='#ffd400'>[Addition]</font> \\ <font color='#f06d45'>nElectricity</font> : Damage <font color='#00aaef'>508%</font> chance to <font color='#00aaef'>deal</font> damage</font>", 
        "@feature": "Lapenshard01"
      }, 
      {
        "@id": "120010020", 
        "@level": "8", 
        "@uiDescription": "<font color='#ffffff'>Tikka uses a powerful laser attack in front of him. Each time you get hit by a laser attack, you get a certain amount of damage. Rapen shards when used with items of equipment that exceeds the level of rapen shard abilities are not exhibited completely. \\n \\n <font color='#ffd400'>[details]</font> \\n Hit <font color='#00aaef'>4,111%</font> Damage \\n <font color='#f06d45'>SHOCK</font> state grants 10 seconds upon hitting \\n \\n <font color='#ffd400'>[Addition]</font> \\n <font color='#f06d45'>Electric Shock</font> : A chance to damage <font color='#00aaef'>616%</font></font>", 
        "@feature": "Lapenshard01"
      }, 
      {
        "@id": "120010020", 
        "@level": "9", 
        "@uiDescription": "<font color='#ffffff'>Tikka uses a powerful laser attack in front of him. Each time you get hit by a laser attack, you get a certain amount of damage. Rapen shards when used with items of equipment that exceeds the level of rapen shard abilities are not exhibited completely. \\n \\n <font color='#ffd400'>[details]</font> \\n <font color='#00aaef'>5036%</font> Damage \\n <font color='#f06d45'>SHOCK</font> state grants 10 seconds when hit upon hit \\n \\n <font color='#ffd400'>[Additional details]</font> \\ <font color='#f06d45'>nCurrent</font> : Damage <font color='#00aaef'>755%</font> chance to <font color='#00aaef'>deal</font> damage</font>", 
        "@feature": "Lapenshard01"
      }, 
      {
        "@id": "120010020", 
        "@level": "10", 
        "@uiDescription": "<font color='#ffffff'>Tikka uses a powerful laser attack in front of him. Each time you get hit by a laser attack, you get a certain amount of damage. Rapen shards when used with items of equipment that exceeds the level of rapen shard abilities are not exhibited completely. \\n \\n <font color='#ffd400'>[details]</font> \\n <font color='#00aaef'>6166%</font> Damage \\n <font color='#f06d45'>SHOCK</font> state grants 10 seconds when hit upon hit \\n \\n <font color='#ffd400'>[Addition]</font> \\ <font color='#f06d45'>nElectricity</font> : Damage caused by damage caused by <font color='#00aaef'>925%</font></font>", 
        "@feature": "Lapenshard01"
      }
    ]
  }
}