{
  "?xml": {
    "@version": "1.0", 
    "@encoding": "utf-8"
  }, 
  "ms2": {
    "tip": [
      {
        "@id": "1", 
        "@locale": "", 
        "@feature": "", 
        "@startTime": "0-0-0-0-0-0", 
        "@endTime": "0-0-0-0-0-0", 
        "@text": "Talk to a merchant from time to time. Remember, once you speak with a merchant, you're committed to purchasing something."
      }, 
      {
        "@id": "3", 
        "@locale": "", 
        "@feature": "", 
        "@startTime": "0-0-0-0-0-0", 
        "@endTime": "0-0-0-0-0-0", 
        "@text": "Clicking Instant Restock updates the shop with new merchandise."
      }, 
      {
        "@id": "4", 
        "@locale": "", 
        "@feature": "", 
        "@startTime": "0-0-0-0-0-0", 
        "@endTime": "0-0-0-0-0-0", 
        "@text": "Go visit a friend's house!"
      }, 
      {
        "@id": "5", 
        "@locale": "", 
        "@feature": "", 
        "@startTime": "0-0-0-0-0-0", 
        "@endTime": "0-0-0-0-0-0", 
        "@text": "If you want to lease land, click the house icon in front of the site."
      }, 
      {
        "@id": "6", 
        "@locale": "", 
        "@feature": "", 
        "@startTime": "0-0-0-0-0-0", 
        "@endTime": "0-0-0-0-0-0", 
        "@text": "Clicking the [My House] button immediately moves you to the inside of your house."
      }, 
      {
        "@id": "7", 
        "@locale": "", 
        "@feature": "", 
        "@startTime": "0-0-0-0-0-0", 
        "@endTime": "0-0-0-0-0-0", 
        "@text": "The Adventurer Housing Policy allows each player to have a house."
      }, 
      {
        "@id": "8", 
        "@locale": "", 
        "@feature": "", 
        "@startTime": "0-0-0-0-0-0", 
        "@endTime": "0-0-0-0-0-0", 
        "@text": "You can place an entrance to your home on any land you lease."
      }, 
      {
        "@id": "9", 
        "@locale": "", 
        "@feature": "", 
        "@startTime": "0-0-0-0-0-0", 
        "@endTime": "0-0-0-0-0-0", 
        "@text": "Visit other people's houses and sign their guest books."
      }, 
      {
        "@id": "10", 
        "@locale": "", 
        "@feature": "", 
        "@startTime": "0-0-0-0-0-0", 
        "@endTime": "0-0-0-0-0-0", 
        "@text": "You can receive decoration gifts every day. The more elaborate your home decor, the better the gifts will be!"
      }, 
      {
        "@id": "11", 
        "@locale": "", 
        "@feature": "", 
        "@startTime": "0-0-0-0-0-0", 
        "@endTime": "0-0-0-0-0-0", 
        "@text": "The higher the level of interior decorating, the more furnishings you can add."
      }, 
      {
        "@id": "12", 
        "@locale": "", 
        "@feature": "", 
        "@startTime": "0-0-0-0-0-0", 
        "@endTime": "0-0-0-0-0-0", 
        "@text": "You can purchase furniture in Build Mode. Show off your decorating skills!"
      }, 
      {
        "@id": "13", 
        "@locale": "", 
        "@feature": "", 
        "@startTime": "0-0-0-0-0-0", 
        "@endTime": "0-0-0-0-0-0", 
        "@text": "In Build Mode you can decorate freely, even if you do not own any furnishings."
      }, 
      {
        "@id": "14", 
        "@locale": "", 
        "@feature": "", 
        "@startTime": "0-0-0-0-0-0", 
        "@endTime": "0-0-0-0-0-0", 
        "@text": "Home plans can be saved and used again later."
      }, 
      {
        "@id": "15", 
        "@locale": "", 
        "@feature": "", 
        "@startTime": "0-0-0-0-0-0", 
        "@endTime": "0-0-0-0-0-0", 
        "@text": "You can change your home's mood or set a password in Build Mode under My House settings."
      }, 
      {
        "@id": "16", 
        "@locale": "", 
        "@feature": "", 
        "@startTime": "0-0-0-0-0-0", 
        "@endTime": "0-0-0-0-0-0", 
        "@text": "You can change the rules of your house in Build Mode under My House settings."
      }, 
      {
        "@id": "17", 
        "@locale": "", 
        "@feature": "", 
        "@startTime": "0-0-0-0-0-0", 
        "@endTime": "0-0-0-0-0-0", 
        "@text": "The size and height of a house can be adjusted in Build Mode."
      }, 
      {
        "@id": "18", 
        "@locale": "", 
        "@feature": "", 
        "@startTime": "0-0-0-0-0-0", 
        "@endTime": "0-0-0-0-0-0", 
        "@text": "Decoration gifts can only be received once a day. Try to raise your decoration score as high as possible before receiving the gift."
      }, 
      {
        "@id": "19", 
        "@locale": "", 
        "@feature": "", 
        "@startTime": "0-0-0-0-0-0", 
        "@endTime": "0-0-0-0-0-0", 
        "@text": "Press the B key while on your property to launch Build Mode. You can then place items on your property."
      }, 
      {
        "@id": "20", 
        "@locale": "", 
        "@feature": "", 
        "@startTime": "0-0-0-0-0-0", 
        "@endTime": "0-0-0-0-0-0", 
        "@text": "Decorate your own home by arranging some furnishings."
      }, 
      {
        "@id": "21", 
        "@locale": "", 
        "@feature": "", 
        "@startTime": "0-0-0-0-0-0", 
        "@endTime": "0-0-0-0-0-0", 
        "@text": "You can rotate items placed on your property to face any direction you like."
      }, 
      {
        "@id": "22", 
        "@locale": "", 
        "@feature": "", 
        "@startTime": "0-0-0-0-0-0", 
        "@endTime": "0-0-0-0-0-0", 
        "@text": "You can buy and install furnishings while in Build Mode."
      }, 
      {
        "@id": "26", 
        "@locale": "", 
        "@feature": "UGCMapRenewal", 
        "@startTime": "0-0-0-0-0-0", 
        "@endTime": "0-0-0-0-0-0", 
        "@text": "When you leave a house, you'll always return to your original location."
      }, 
      {
        "@id": "27", 
        "@locale": "", 
        "@feature": "UGCMapRenewal", 
        "@startTime": "0-0-0-0-0-0", 
        "@endTime": "0-0-0-0-0-0", 
        "@text": "Some furnishings can be placed after earning a special trophy."
      }, 
      {
        "@id": "28", 
        "@locale": "", 
        "@feature": "", 
        "@startTime": "0-0-0-0-0-0", 
        "@endTime": "0-0-0-0-0-0", 
        "@text": "There might be special effects of placing souvenirs in your home!"
      }, 
      {
        "@id": "29", 
        "@locale": "", 
        "@feature": "", 
        "@startTime": "0-0-0-0-0-0", 
        "@endTime": "0-0-0-0-0-0", 
        "@text": "You can place a mannequin on your property and dress it up with equipment. Try changing up its look every now and then."
      }, 
      {
        "@id": "30", 
        "@locale": "", 
        "@feature": "", 
        "@startTime": "0-0-0-0-0-0", 
        "@endTime": "0-0-0-0-0-0", 
        "@text": "You can turn the TV installed on your property on or off."
      }, 
      {
        "@id": "31", 
        "@locale": "", 
        "@feature": "", 
        "@startTime": "0-0-0-0-0-0", 
        "@endTime": "0-0-0-0-0-0", 
        "@text": "You can design and create your own items in the Maple Workshop."
      }, 
      {
        "@id": "32", 
        "@locale": "", 
        "@feature": "", 
        "@startTime": "0-0-0-0-0-0", 
        "@endTime": "0-0-0-0-0-0", 
        "@text": "You can design Build Items, just as you can design outfits."
      }, 
      {
        "@id": "33", 
        "@locale": "KR", 
        "@feature": "", 
        "@startTime": "0-0-0-0-0-0", 
        "@endTime": "0-0-0-0-0-0", 
        "@text": "Other designers can also purchase my design items given to the designers shop."
      }, 
      {
        "@id": "33", 
        "@locale": "CN", 
        "@feature": "", 
        "@startTime": "0-0-0-0-0-0", 
        "@endTime": "0-0-0-0-0-0", 
        "@text": "Other designers can also purchase my design items given to the designers shop."
      }, 
      {
        "@id": "34", 
        "@locale": "", 
        "@feature": "", 
        "@startTime": "0-0-0-0-0-0", 
        "@endTime": "0-0-0-0-0-0", 
        "@text": "You can make an item with your own name on it, and show it off around Maple World!"
      }, 
      {
        "@id": "35", 
        "@locale": "", 
        "@feature": "", 
        "@startTime": "0-0-0-0-0-0", 
        "@endTime": "0-0-0-0-0-0", 
        "@text": "Express your personality with customizable items."
      }, 
      {
        "@id": "36", 
        "@locale": "KR", 
        "@feature": "", 
        "@startTime": "0-0-0-0-0-0", 
        "@endTime": "0-0-0-0-0-0", 
        "@text": "Once you sell the design item to the designer's shop, you can receive the sales amount excluding \\nthe production cost and the commission."
      }, 
      {
        "@id": "36", 
        "@locale": "CN", 
        "@feature": "", 
        "@startTime": "0-0-0-0-0-0", 
        "@endTime": "0-0-0-0-0-0", 
        "@text": "Once you sell the design item to the designer's shop, you can receive the sales amount excluding \\nthe production cost and the commission."
      }, 
      {
        "@id": "37", 
        "@locale": "", 
        "@feature": "", 
        "@startTime": "0-0-0-0-0-0", 
        "@endTime": "0-0-0-0-0-0", 
        "@text": "Visit $map:02000107$ if you want to switch up your style."
      }, 
      {
        "@id": "38", 
        "@locale": "", 
        "@feature": "", 
        "@startTime": "0-0-0-0-0-0", 
        "@endTime": "0-0-0-0-0-0", 
        "@text": "You can change your appearance at the Hair Salon and Plastic Surgery Office $map:02000107$."
      }, 
      {
        "@id": "39", 
        "@locale": "", 
        "@feature": "", 
        "@startTime": "0-0-0-0-0-0", 
        "@endTime": "0-0-0-0-0-0", 
        "@text": "Visit $map:02000107$ when you want a fresh new look, whether it be for your hair, face, skin tone, or something else."
      }, 
      {
        "@id": "40", 
        "@locale": "", 
        "@feature": "", 
        "@startTime": "0-0-0-0-0-0", 
        "@endTime": "0-0-0-0-0-0", 
        "@text": "Visit $map:52000010$ in $map:02000107$ to change your face."
      }, 
      {
        "@id": "41", 
        "@locale": "", 
        "@feature": "", 
        "@startTime": "0-0-0-0-0-0", 
        "@endTime": "0-0-0-0-0-0", 
        "@text": "Visit $map:52000008$ in $map:02000107$ to change your hair."
      }, 
      {
        "@id": "42", 
        "@locale": "", 
        "@feature": "", 
        "@startTime": "0-0-0-0-0-0", 
        "@endTime": "0-0-0-0-0-0", 
        "@text": "Speak with $npcName:11000256$ in $map:52000008$ on $map:02000107$ for some great new make-up."
      }, 
      {
        "@id": "43", 
        "@locale": "", 
        "@feature": "", 
        "@startTime": "0-0-0-0-0-0", 
        "@endTime": "0-0-0-0-0-0", 
        "@text": "$npcName:11000257$ in $map:52000009$ claims that your equipment can be dyed any color."
      }, 
      {
        "@id": "44", 
        "@locale": "", 
        "@feature": "", 
        "@startTime": "0-0-0-0-0-0", 
        "@endTime": "0-0-0-0-0-0", 
        "@text": "Change your hair, face, and skin in $map:02000107$!"
      }, 
      {
        "@id": "45", 
        "@locale": "", 
        "@feature": "", 
        "@startTime": "0-0-0-0-0-0", 
        "@endTime": "0-0-0-0-0-0", 
        "@text": "You can interact with the Electronic Displays around town to upload the image you want to share with others."
      }, 
      {
        "@id": "46", 
        "@locale": "", 
        "@feature": "", 
        "@startTime": "0-0-0-0-0-0", 
        "@endTime": "0-0-0-0-0-0", 
        "@text": "You need to reserve the Electronic Display at least 3 hours in advance to upload an image."
      }, 
      {
        "@id": "47", 
        "@locale": "", 
        "@feature": "", 
        "@startTime": "0-0-0-0-0-0", 
        "@endTime": "0-0-0-0-0-0", 
        "@text": "There are Electronic Displays with time slots that can be reserved. They're all around the world, not just in popular areas like $map:2000001$ and $map:2000100$."
      }, 
      {
        "@id": "48", 
        "@locale": "", 
        "@feature": "", 
        "@startTime": "0-0-0-0-0-0", 
        "@endTime": "0-0-0-0-0-0", 
        "@text": "Anyone can reserve time slots on the Electronic Displays."
      }, 
      {
        "@id": "49", 
        "@locale": "", 
        "@feature": "", 
        "@startTime": "0-0-0-0-0-0", 
        "@endTime": "0-0-0-0-0-0", 
        "@text": "Press the Set Portrait button to change your character's portrait."
      }, 
      {
        "@id": "50", 
        "@locale": "", 
        "@feature": "", 
        "@startTime": "0-0-0-0-0-0", 
        "@endTime": "0-0-0-0-0-0", 
        "@text": "When you arrive in a new town, the first thing to do is head over to the equipment shop."
      }, 
      {
        "@id": "51", 
        "@locale": "", 
        "@feature": "", 
        "@startTime": "0-0-0-0-0-0", 
        "@endTime": "0-0-0-0-0-0", 
        "@text": "Express yourself by performing an emote with the F1 - F12 keys."
      }, 
      {
        "@id": "51", 
        "@locale": "CN", 
        "@feature": "", 
        "@startTime": "0-0-0-0-0-0", 
        "@endTime": "0-0-0-0-0-0", 
        "@text": "By pressing the F1 - F12 key, dynamic action can be performed."
      }, 
      {
        "@id": "51", 
        "@locale": "NA", 
        "@feature": "", 
        "@startTime": "0-0-0-0-0-0", 
        "@endTime": "0-0-0-0-0-0", 
        "@text": "Express yourself by performing an emote with the F1 - F5 keys."
      }, 
      {
        "@id": "51", 
        "@locale": "JP", 
        "@feature": "", 
        "@startTime": "0-0-0-0-0-0", 
        "@endTime": "0-0-0-0-0-0", 
        "@text": "Press F1 to F5 to perform dynamic action."
      }, 
      {
        "@id": "51", 
        "@locale": "TH", 
        "@feature": "", 
        "@startTime": "0-0-0-0-0-0", 
        "@endTime": "0-0-0-0-0-0", 
        "@text": "Press F1 to F5 to perform dynamic action."
      }, 
      {
        "@id": "51", 
        "@locale": "TW", 
        "@feature": "", 
        "@startTime": "0-0-0-0-0-0", 
        "@endTime": "0-0-0-0-0-0", 
        "@text": "Press F1 to F5 to perform dynamic action."
      }, 
      {
        "@id": "52", 
        "@locale": "", 
        "@feature": "", 
        "@startTime": "0-0-0-0-0-0", 
        "@endTime": "0-0-0-0-0-0", 
        "@text": "Special materials like trigger editors and mannequins cannot be used in Decoration Mode. They can only be installed."
      }, 
      {
        "@id": "53", 
        "@locale": "", 
        "@feature": "", 
        "@startTime": "0-0-0-0-0-0", 
        "@endTime": "0-0-0-0-0-0", 
        "@text": "Don't be fooled by a slime's cute appearance."
      }, 
      {
        "@id": "54", 
        "@locale": "", 
        "@feature": "", 
        "@startTime": "0-0-0-0-0-0", 
        "@endTime": "0-0-0-0-0-0", 
        "@text": "You don't need arrows for your bow."
      }, 
      {
        "@id": "55", 
        "@locale": "", 
        "@feature": "", 
        "@startTime": "0-0-0-0-0-0", 
        "@endTime": "0-0-0-0-0-0", 
        "@text": "You don't need to restock your thrown weapons."
      }, 
      {
        "@id": "56", 
        "@locale": "", 
        "@feature": "", 
        "@startTime": "0-0-0-0-0-0", 
        "@endTime": "0-0-0-0-0-0", 
        "@text": "You need spirit to use active skills."
      }, 
      {
        "@id": "59", 
        "@locale": "", 
        "@feature": "", 
        "@startTime": "0-0-0-0-0-0", 
        "@endTime": "0-0-0-0-0-0", 
        "@text": "Register your newly learned skill to a quickslot for ease of use."
      }, 
      {
        "@id": "61", 
        "@locale": "", 
        "@feature": "", 
        "@startTime": "0-0-0-0-0-0", 
        "@endTime": "0-0-0-0-0-0", 
        "@text": "Other players can break your tombstone to revive you on the spot."
      }, 
      {
        "@id": "62", 
        "@locale": "", 
        "@feature": "", 
        "@startTime": "0-0-0-0-0-0", 
        "@endTime": "0-0-0-0-0-0", 
        "@text": "Register your newly acquired items to the quickslots for ease of use."
      }, 
      {
        "@id": "64", 
        "@locale": "", 
        "@feature": "", 
        "@startTime": "0-0-0-0-0-0", 
        "@endTime": "0-0-0-0-0-0", 
        "@text": "You can equip different thrown weapons to each of your hands."
      }, 
      {
        "@id": "65", 
        "@locale": "", 
        "@feature": "", 
        "@startTime": "0-0-0-0-0-0", 
        "@endTime": "0-0-0-0-0-0", 
        "@text": "You can equip thrown weapons to both your hands."
      }, 
      {
        "@id": "66", 
        "@locale": "", 
        "@feature": "", 
        "@startTime": "0-0-0-0-0-0", 
        "@endTime": "0-0-0-0-0-0", 
        "@text": "You can equip a different dagger to your left and right hands."
      }, 
      {
        "@id": "67", 
        "@locale": "", 
        "@feature": "", 
        "@startTime": "0-0-0-0-0-0", 
        "@endTime": "0-0-0-0-0-0", 
        "@text": "You can equip a different dagger to each of your hands."
      }, 
      {
        "@id": "70", 
        "@locale": "", 
        "@feature": "", 
        "@startTime": "0-0-0-0-0-0", 
        "@endTime": "0-0-0-0-0-0", 
        "@text": "After reviving, you will be Tombshocked for some time. Wait it out, or see a doctor."
      }, 
      {
        "@id": "71", 
        "@locale": "", 
        "@feature": "", 
        "@startTime": "0-0-0-0-0-0", 
        "@endTime": "0-0-0-0-0-0", 
        "@text": "If your health reaches 0 again while you still have the Tombshocked status, you will be under a metal tombstone."
      }, 
      {
        "@id": "72", 
        "@locale": "", 
        "@feature": "", 
        "@startTime": "0-0-0-0-0-0", 
        "@endTime": "0-0-0-0-0-0", 
        "@text": "After being tombstoned, you may choose to revive in place by spending mesos or merets."
      }, 
      {
        "@id": "74", 
        "@locale": "", 
        "@feature": "", 
        "@startTime": "0-0-0-0-0-0", 
        "@endTime": "0-0-0-0-0-0", 
        "@text": "There's a hat that occasionally appears in the fields. Enter this hat to discover the Pocket Realm."
      }, 
      {
        "@id": "75", 
        "@locale": "", 
        "@feature": "", 
        "@startTime": "0-0-0-0-0-0", 
        "@endTime": "0-0-0-0-0-0", 
        "@text": "Enter the hat you found in the fields to enjoy various bonus stages."
      }, 
      {
        "@id": "76", 
        "@locale": "", 
        "@feature": "", 
        "@startTime": "0-0-0-0-0-0", 
        "@endTime": "0-0-0-0-0-0", 
        "@text": "Iron Hog's armor is famed for its sturdiness."
      }, 
      {
        "@id": "77", 
        "@locale": "", 
        "@feature": "", 
        "@startTime": "0-0-0-0-0-0", 
        "@endTime": "0-0-0-0-0-0", 
        "@text": "Ironically, there are no ants in the Ant Tunnel."
      }, 
      {
        "@id": "78", 
        "@locale": "", 
        "@feature": "", 
        "@startTime": "0-0-0-0-0-0", 
        "@endTime": "0-0-0-0-0-0", 
        "@text": "$npcName:22000022$, the ruler of the Winding Canyon, is female."
      }, 
      {
        "@id": "80", 
        "@locale": "", 
        "@feature": "", 
        "@startTime": "0-0-0-0-0-0", 
        "@endTime": "0-0-0-0-0-0", 
        "@text": "Eat an herb to gradually recover your health over time."
      }, 
      {
        "@id": "81", 
        "@locale": "", 
        "@feature": "", 
        "@startTime": "0-0-0-0-0-0", 
        "@endTime": "0-0-0-0-0-0", 
        "@text": "You cannot use potions when your health is full."
      }, 
      {
        "@id": "82", 
        "@locale": "", 
        "@feature": "", 
        "@startTime": "0-0-0-0-0-0", 
        "@endTime": "0-0-0-0-0-0", 
        "@text": "$npcName:22000003$ and $npcName:22000004$ are evil fairfolk sisters."
      }, 
      {
        "@id": "83", 
        "@locale": "", 
        "@feature": "", 
        "@startTime": "0-0-0-0-0-0", 
        "@endTime": "0-0-0-0-0-0", 
        "@text": "$npcName:23000019$ and $npcName:23000020$ are married."
      }, 
      {
        "@id": "84", 
        "@locale": "", 
        "@feature": "", 
        "@startTime": "0-0-0-0-0-0", 
        "@endTime": "0-0-0-0-0-0", 
        "@text": "You can change your keyboard settings in the Key Binding tab under Options."
      }, 
      {
        "@id": "87", 
        "@locale": "", 
        "@feature": "", 
        "@startTime": "0-0-0-0-0-0", 
        "@endTime": "0-0-0-0-0-0", 
        "@text": "Try jumping at a wall. Yep, you can hang on walls."
      }, 
      {
        "@id": "89", 
        "@locale": "", 
        "@feature": "", 
        "@startTime": "0-0-0-0-0-0", 
        "@endTime": "0-0-0-0-0-0", 
        "@text": "Press the Alt or C key to jump."
      }, 
      {
        "@id": "90", 
        "@locale": "", 
        "@feature": "", 
        "@startTime": "0-0-0-0-0-0", 
        "@endTime": "0-0-0-0-0-0", 
        "@text": "Press the Ctrl or X key to attack."
      }, 
      {
        "@id": "92", 
        "@locale": "", 
        "@feature": "", 
        "@startTime": "0-0-0-0-0-0", 
        "@endTime": "0-0-0-0-0-0", 
        "@text": "You can pick up items by pressing the Z key."
      }, 
      {
        "@id": "93", 
        "@locale": "", 
        "@feature": "", 
        "@startTime": "0-0-0-0-0-0", 
        "@endTime": "0-0-0-0-0-0", 
        "@text": "While near a ladder, press the up arrow on your keyboard to cling to the ladder."
      }, 
      {
        "@id": "94", 
        "@locale": "", 
        "@feature": "", 
        "@startTime": "0-0-0-0-0-0", 
        "@endTime": "0-0-0-0-0-0", 
        "@text": "In $map:02000083$, you will not be fined for destruction of public property, even if you pull stoplights right out of the ground and swing them about!"
      }, 
      {
        "@id": "97", 
        "@locale": "", 
        "@feature": "", 
        "@startTime": "0-0-0-0-0-0", 
        "@endTime": "0-0-0-0-0-0", 
        "@text": "You can learn a lot of information by utilizing the world map."
      }, 
      {
        "@id": "98", 
        "@locale": "", 
        "@feature": "", 
        "@startTime": "0-0-0-0-0-0", 
        "@endTime": "0-0-0-0-0-0", 
        "@text": "Open the world map to check the locations of the taxi stops."
      }, 
      {
        "@id": "99", 
        "@locale": "", 
        "@feature": "", 
        "@startTime": "0-0-0-0-0-0", 
        "@endTime": "0-0-0-0-0-0", 
        "@text": "Open the world map to see which maps have quests you can accept."
      }, 
      {
        "@id": "100", 
        "@locale": "", 
        "@feature": "", 
        "@startTime": "0-0-0-0-0-0", 
        "@endTime": "0-0-0-0-0-0", 
        "@text": "Open the world map to see your current location."
      }, 
      {
        "@id": "101", 
        "@locale": "", 
        "@feature": "", 
        "@startTime": "0-0-0-0-0-0", 
        "@endTime": "0-0-0-0-0-0", 
        "@text": "Open the world map to see where a boss appeared."
      }, 
      {
        "@id": "102", 
        "@locale": "", 
        "@feature": "", 
        "@startTime": "0-0-0-0-0-0", 
        "@endTime": "0-0-0-0-0-0", 
        "@text": "Curious to know which spots are booming right now? Check out the popular locations on the world map."
      }, 
      {
        "@id": "103", 
        "@locale": "", 
        "@feature": "", 
        "@startTime": "0-0-0-0-0-0", 
        "@endTime": "0-0-0-0-0-0", 
        "@text": "Doctors are usually found in big cities or hospitals."
      }, 
      {
        "@id": "104", 
        "@locale": "", 
        "@feature": "", 
        "@startTime": "0-0-0-0-0-0", 
        "@endTime": "0-0-0-0-0-0", 
        "@text": "Receive treatment from a doctor to get back in tip-top shape!"
      }, 
      {
        "@id": "105", 
        "@locale": "", 
        "@feature": "", 
        "@startTime": "0-0-0-0-0-0", 
        "@endTime": "0-0-0-0-0-0", 
        "@text": "You can use skill points to learn a new skill or upgrade an existing one. Open your skill window to get started."
      }, 
      {
        "@id": "110", 
        "@locale": "", 
        "@feature": "", 
        "@startTime": "0-0-0-0-0-0", 
        "@endTime": "0-0-0-0-0-0", 
        "@text": "You can achieve titles by winning trophies. "
      }, 
      {
        "@id": "113", 
        "@locale": "", 
        "@feature": "", 
        "@startTime": "0-0-0-0-0-0", 
        "@endTime": "0-0-0-0-0-0", 
        "@text": "Interact with a taxi stop to take a cab to any previously discovered taxi stop."
      }, 
      {
        "@id": "114", 
        "@locale": "", 
        "@feature": "", 
        "@startTime": "0-0-0-0-0-0", 
        "@endTime": "0-0-0-0-0-0", 
        "@text": "Reach level 25 to use a deluxe taxi."
      }, 
      {
        "@id": "115", 
        "@locale": "", 
        "@feature": "", 
        "@startTime": "0-0-0-0-0-0", 
        "@endTime": "0-0-0-0-0-0", 
        "@text": "Deluxe taxis arrive as soon as you call them."
      }, 
      {
        "@id": "116", 
        "@locale": "", 
        "@feature": "", 
        "@startTime": "0-0-0-0-0-0", 
        "@endTime": "0-0-0-0-0-0", 
        "@text": "Use the Rotors Air Taxi to instantly travel anywhere on the World Map."
      }, 
      {
        "@id": "117", 
        "@locale": "", 
        "@feature": "", 
        "@startTime": "0-0-0-0-0-0", 
        "@endTime": "0-0-0-0-0-0", 
        "@text": "Right-click a character to do any number of things, like whisper, trade, send a party invite, or add a friend."
      }, 
      {
        "@id": "118", 
        "@locale": "", 
        "@feature": "", 
        "@startTime": "0-0-0-0-0-0", 
        "@endTime": "0-0-0-0-0-0", 
        "@text": "Try right-clicking a passerby and sending a party invite."
      }, 
      {
        "@id": "119", 
        "@locale": "", 
        "@feature": "", 
        "@startTime": "0-0-0-0-0-0", 
        "@endTime": "0-0-0-0-0-0", 
        "@text": "10 is the maximum number of party members."
      }, 
      {
        "@id": "120", 
        "@locale": "", 
        "@feature": "", 
        "@startTime": "0-0-0-0-0-0", 
        "@endTime": "0-0-0-0-0-0", 
        "@text": "The community window displays players logged into the same map as you."
      }, 
      {
        "@id": "121", 
        "@locale": "", 
        "@feature": "", 
        "@startTime": "0-0-0-0-0-0", 
        "@endTime": "0-0-0-0-0-0", 
        "@text": "You can add friends through the community window, or by right-clicking their characters."
      }, 
      {
        "@id": "122", 
        "@locale": "", 
        "@feature": "", 
        "@startTime": "0-0-0-0-0-0", 
        "@endTime": "0-0-0-0-0-0", 
        "@text": "You can send a party invite by right-clicking a character."
      }, 
      {
        "@id": "123", 
        "@locale": "", 
        "@feature": "", 
        "@startTime": "0-0-0-0-0-0", 
        "@endTime": "0-0-0-0-0-0", 
        "@text": "To stop all messages from a character, right-click the character and select the block function."
      }, 
      {
        "@id": "124", 
        "@locale": "", 
        "@feature": "", 
        "@startTime": "0-0-0-0-0-0", 
        "@endTime": "0-0-0-0-0-0", 
        "@text": "You can trade by right-clicking a character."
      }, 
      {
        "@id": "125", 
        "@locale": "", 
        "@feature": "", 
        "@startTime": "0-0-0-0-0-0", 
        "@endTime": "0-0-0-0-0-0", 
        "@text": "Press Tab to enlarge the minimap."
      }, 
      {
        "@id": "126", 
        "@locale": "", 
        "@feature": "", 
        "@startTime": "0-0-0-0-0-0", 
        "@endTime": "0-0-0-0-0-0", 
        "@text": "Hover the mouse over the minimap's icons to view the names of NPCs and maps."
      }, 
      {
        "@id": "127", 
        "@locale": "", 
        "@feature": "", 
        "@startTime": "0-0-0-0-0-0", 
        "@endTime": "0-0-0-0-0-0", 
        "@text": "The settings button in the minimap's upper right corner allows you to display or hide information."
      }, 
      {
        "@id": "128", 
        "@locale": "", 
        "@feature": "", 
        "@startTime": "0-0-0-0-0-0", 
        "@endTime": "0-0-0-0-0-0", 
        "@text": "The top of the minimap shows which characters are logged into the same map."
      }, 
      {
        "@id": "131", 
        "@locale": "", 
        "@feature": "", 
        "@startTime": "0-0-0-0-0-0", 
        "@endTime": "0-0-0-0-0-0", 
        "@text": "Some monsters can be grabbed if you're close enough to them."
      }, 
      {
        "@id": "133", 
        "@locale": "", 
        "@feature": "", 
        "@startTime": "0-0-0-0-0-0", 
        "@endTime": "0-0-0-0-0-0", 
        "@text": "Double-click a mount to ride it."
      }, 
      {
        "@id": "134", 
        "@locale": "", 
        "@feature": "", 
        "@startTime": "0-0-0-0-0-0", 
        "@endTime": "0-0-0-0-0-0", 
        "@text": "Save a mount to a quickslot, then press the corresponding key to ride it."
      }, 
      {
        "@id": "135", 
        "@locale": "", 
        "@feature": "", 
        "@startTime": "0-0-0-0-0-0", 
        "@endTime": "0-0-0-0-0-0", 
        "@text": "Press the X key while atop your mount to use its unique skill."
      }, 
      {
        "@id": "137", 
        "@locale": "", 
        "@feature": "UGCMapRenewal", 
        "@startTime": "0-0-0-0-0-0", 
        "@endTime": "0-0-0-0-0-0", 
        "@text": "When you're in your house, you can use your safe or call a primary physician whenever you want."
      }, 
      {
        "@id": "138", 
        "@locale": "", 
        "@feature": "UGCMapRenewal", 
        "@startTime": "0-0-0-0-0-0", 
        "@endTime": "0-0-0-0-0-0", 
        "@text": "When you log off inside your house, you won't earn rest EXP while logged off."
      }, 
      {
        "@id": "139", 
        "@locale": "", 
        "@feature": "", 
        "@startTime": "0-0-0-0-0-0", 
        "@endTime": "0-0-0-0-0-0", 
        "@text": "Right-click in the chat window to open up chat settings."
      }, 
      {
        "@id": "140", 
        "@locale": "", 
        "@feature": "", 
        "@startTime": "0-0-0-0-0-0", 
        "@endTime": "0-0-0-0-0-0", 
        "@text": "Open your inventory and shift-click an item to link it to the chat window."
      }, 
      {
        "@id": "141", 
        "@locale": "", 
        "@feature": "", 
        "@startTime": "0-0-0-0-0-0", 
        "@endTime": "0-0-0-0-0-0", 
        "@text": "Press Tab key while typing a chat message to easily change the message recipient."
      }, 
      {
        "@id": "142", 
        "@locale": "", 
        "@feature": "", 
        "@startTime": "0-0-0-0-0-0", 
        "@endTime": "0-0-0-0-0-0", 
        "@text": "You need merets to use the world megaphone or the channel megaphone in the chat window."
      }, 
      {
        "@id": "143", 
        "@locale": "", 
        "@feature": "", 
        "@startTime": "0-0-0-0-0-0", 
        "@endTime": "0-0-0-0-0-0", 
        "@text": "You can defeat monsters faster if you team up with party members."
      }, 
      {
        "@id": "144", 
        "@locale": "", 
        "@feature": "", 
        "@startTime": "0-0-0-0-0-0", 
        "@endTime": "0-0-0-0-0-0", 
        "@text": "If you pass a stranger fighting an elite or boss monster,  lend a helping hand!"
      }, 
      {
        "@id": "145", 
        "@locale": "", 
        "@feature": "", 
        "@startTime": "0-0-0-0-0-0", 
        "@endTime": "0-0-0-0-0-0", 
        "@text": "If you run into an elite or boss monster, use teamwork to defeat it."
      }, 
      {
        "@id": "146", 
        "@locale": "", 
        "@feature": "", 
        "@startTime": "0-0-0-0-0-0", 
        "@endTime": "0-0-0-0-0-0", 
        "@text": "When you're up against an elite or boss monster, it's best to fight alongside others."
      }, 
      {
        "@id": "147", 
        "@locale": "", 
        "@feature": "", 
        "@startTime": "0-0-0-0-0-0", 
        "@endTime": "0-0-0-0-0-0", 
        "@text": "If you and another player fight an elite or boss monster together, you can still obtain loot. No need to be in a party!"
      }, 
      {
        "@id": "148", 
        "@locale": "", 
        "@feature": "", 
        "@startTime": "0-0-0-0-0-0", 
        "@endTime": "0-0-0-0-0-0", 
        "@text": "You can receive a reward when fighting an elite or boss monster, even if you are not in the same party as others."
      }, 
      {
        "@id": "149", 
        "@locale": "KR", 
        "@feature": "", 
        "@startTime": "0-0-0-0-0-0", 
        "@endTime": "0-0-0-0-0-0", 
        "@text": "You can learn new actions by purchasing action attendance certificates at Melotte Market."
      }, 
      {
        "@id": "149", 
        "@locale": "CN", 
        "@feature": "", 
        "@startTime": "0-0-0-0-0-0", 
        "@endTime": "0-0-0-0-0-0", 
        "@text": "You can learn new actions by purchasing action attendance certificates at Melotte Market."
      }, 
      {
        "@id": "150", 
        "@locale": "", 
        "@feature": "", 
        "@startTime": "0-0-0-0-0-0", 
        "@endTime": "0-0-0-0-0-0", 
        "@text": "You cannot earn experience while tombstoned."
      }, 
      {
        "@id": "151", 
        "@locale": "", 
        "@feature": "", 
        "@startTime": "0-0-0-0-0-0", 
        "@endTime": "0-0-0-0-0-0", 
        "@text": "When reviving after being tombstoned, you will be immune to harm for a short period."
      }, 
      {
        "@id": "152", 
        "@locale": "", 
        "@feature": "", 
        "@startTime": "0-0-0-0-0-0", 
        "@endTime": "0-0-0-0-0-0", 
        "@text": "To revive a tombstoned player, attack their tombstone until its health gauge is depleted."
      }, 
      {
        "@id": "153", 
        "@locale": "", 
        "@feature": "", 
        "@startTime": "0-0-0-0-0-0", 
        "@endTime": "0-0-0-0-0-0", 
        "@text": "When you are defeated after recently reviving, you will be pinned under an indestructable metal tombstone."
      }, 
      {
        "@id": "154", 
        "@locale": "", 
        "@feature": "", 
        "@startTime": "0-0-0-0-0-0", 
        "@endTime": "0-0-0-0-0-0", 
        "@text": "You cannot free other players from under a metal tombstone."
      }, 
      {
        "@id": "155", 
        "@locale": "", 
        "@feature": "", 
        "@startTime": "0-0-0-0-0-0", 
        "@endTime": "0-0-0-0-0-0", 
        "@text": "Walk when traveling short distances. It's the healthy thing to do!"
      }, 
      {
        "@id": "156", 
        "@locale": "", 
        "@feature": "", 
        "@startTime": "0-0-0-0-0-0", 
        "@endTime": "0-0-0-0-0-0", 
        "@text": "Be sure to check your mail in case a special item arrives."
      }, 
      {
        "@id": "157", 
        "@locale": "", 
        "@feature": "", 
        "@startTime": "0-0-0-0-0-0", 
        "@endTime": "0-0-0-0-0-0", 
        "@text": "There's a rumor that $map:2000001$'s guards are twins, but it's not true."
      }, 
      {
        "@id": "158", 
        "@locale": "", 
        "@feature": "", 
        "@startTime": "0-0-0-0-0-0", 
        "@endTime": "0-0-0-0-0-0", 
        "@text": "No one knows $npcName:11000374$'s gender."
      }, 
      {
        "@id": "159", 
        "@locale": "", 
        "@feature": "", 
        "@startTime": "0-0-0-0-0-0", 
        "@endTime": "0-0-0-0-0-0", 
        "@text": "$npcName:11000106$ is kind only to her man."
      }, 
      {
        "@id": "160", 
        "@locale": "", 
        "@feature": "", 
        "@startTime": "0-0-0-0-0-0", 
        "@endTime": "0-0-0-0-0-0", 
        "@text": "When you see a lever in front of you... Don't think, just pull it."
      }, 
      {
        "@id": "161", 
        "@locale": "", 
        "@feature": "", 
        "@startTime": "0-0-0-0-0-0", 
        "@endTime": "0-0-0-0-0-0", 
        "@text": "To see yourself better, use the mouse wheel to zoom the camera."
      }, 
      {
        "@id": "162", 
        "@locale": "", 
        "@feature": "", 
        "@startTime": "0-0-0-0-0-0", 
        "@endTime": "0-0-0-0-0-0", 
        "@text": "If you venture off the beaten path, you might just find some treasure chests."
      }, 
      {
        "@id": "163", 
        "@locale": "", 
        "@feature": "UGCMapRenewal", 
        "@startTime": "0-0-0-0-0-0", 
        "@endTime": "0-0-0-0-0-0", 
        "@text": "While you stay in your house, you'll earn rest EXP."
      }, 
      {
        "@id": "164", 
        "@locale": "", 
        "@feature": "", 
        "@startTime": "0-0-0-0-0-0", 
        "@endTime": "0-0-0-0-0-0", 
        "@text": "Items and mesos on the floor for more than 90 seconds will disappear. It's the 90-second rule!"
      }, 
      {
        "@id": "165", 
        "@locale": "", 
        "@feature": "", 
        "@startTime": "0-0-0-0-0-0", 
        "@endTime": "0-0-0-0-0-0", 
        "@text": "No X marks the spot in this case! To find a treasure chest, you'll have to look carefully where you normally wouldn't."
      }, 
      {
        "@id": "166", 
        "@locale": "", 
        "@feature": "", 
        "@startTime": "0-0-0-0-0-0", 
        "@endTime": "0-0-0-0-0-0", 
        "@text": "Report inappropriate pictures on the Electronic Display by right-clicking them."
      }, 
      {
        "@id": "167", 
        "@locale": "", 
        "@feature": "", 
        "@startTime": "0-0-0-0-0-0", 
        "@endTime": "0-0-0-0-0-0", 
        "@text": "Type /partyrequest charactername in the chat window to invite that character to the party."
      }, 
      {
        "@id": "168", 
        "@locale": "", 
        "@feature": "", 
        "@startTime": "0-0-0-0-0-0", 
        "@endTime": "0-0-0-0-0-0", 
        "@text": "Type /partykick charactername in the chat window to kick that character out of the party."
      }, 
      {
        "@id": "169", 
        "@locale": "", 
        "@feature": "", 
        "@startTime": "0-0-0-0-0-0", 
        "@endTime": "0-0-0-0-0-0", 
        "@text": "Try pressing the G key to found a new guild."
      }, 
      {
        "@id": "170", 
        "@locale": "", 
        "@feature": "", 
        "@startTime": "0-0-0-0-0-0", 
        "@endTime": "0-0-0-0-0-0", 
        "@text": "Found a guild with a friend, one you have chemistry with!"
      }, 
      {
        "@id": "171", 
        "@locale": "", 
        "@feature": "", 
        "@startTime": "0-0-0-0-0-0", 
        "@endTime": "0-0-0-0-0-0", 
        "@text": "Guild trophies include all guild members' trophies."
      }, 
      {
        "@id": "172", 
        "@locale": "", 
        "@feature": "", 
        "@startTime": "0-0-0-0-0-0", 
        "@endTime": "0-0-0-0-0-0", 
        "@text": "The Flag of Honor at $map:02000001$ displays the Rank 1 guild trophy, Rank 1 personal trophy, and Rank 1 of the Maple Arena."
      }, 
      {
        "@id": "173", 
        "@locale": "", 
        "@feature": "", 
        "@startTime": "0-0-0-0-0-0", 
        "@endTime": "0-0-0-0-0-0", 
        "@text": "The Flag of Honor at $map:02000100$ displays the guild emblems of whoever holds the guild trophies at Ranks 1, 2, and 3."
      }, 
      {
        "@id": "174", 
        "@locale": "", 
        "@feature": "", 
        "@startTime": "0-0-0-0-0-0", 
        "@endTime": "0-0-0-0-0-0", 
        "@text": "The Flag of Honor at $map:02000023$ displays the character portraits the top 3 ranked individuals in the category of Personal Trophies."
      }, 
      {
        "@id": "175", 
        "@locale": "", 
        "@feature": "", 
        "@startTime": "0-0-0-0-0-0", 
        "@endTime": "0-0-0-0-0-0", 
        "@text": "The Flag of Honor at $map:02000064$ displays the top-three ranked guild and personal trophies."
      }, 
      {
        "@id": "176", 
        "@locale": "", 
        "@feature": "", 
        "@startTime": "0-0-0-0-0-0", 
        "@endTime": "0-0-0-0-0-0", 
        "@text": " The Flag of Honor at $map:02000051$ displays the guild emblems of those at Ranks 1, 2, and 3 in the Maple Arena."
      }, 
      {
        "@id": "177", 
        "@locale": "", 
        "@feature": "", 
        "@startTime": "0-0-0-0-0-0", 
        "@endTime": "0-0-0-0-0-0", 
        "@text": "The Flag of Honor at $map:02000051$ displays the guild emblems of those at Ranks 1, 2, and 3 in the Guild Championship."
      }, 
      {
        "@id": "178", 
        "@locale": "", 
        "@feature": "", 
        "@startTime": "0-0-0-0-0-0", 
        "@endTime": "0-0-0-0-0-0", 
        "@text": "The Flag of Honor is updated once a day."
      }, 
      {
        "@id": "179", 
        "@locale": "", 
        "@feature": "", 
        "@startTime": "0-0-0-0-0-0", 
        "@endTime": "0-0-0-0-0-0", 
        "@text": "Check the Flag of Honor, and you'll be able to see detailed rankings in Maview."
      }, 
      {
        "@id": "180", 
        "@locale": "", 
        "@feature": "UGCMapRenewal", 
        "@startTime": "0-0-0-0-0-0", 
        "@endTime": "0-0-0-0-0-0", 
        "@text": "When you call up a saved template, the existing furnishings will be cleared and the new furnishings will be placed."
      }, 
      {
        "@id": "181", 
        "@locale": "", 
        "@feature": "", 
        "@startTime": "0-0-0-0-0-0", 
        "@endTime": "0-0-0-0-0-0", 
        "@text": "Type /guildrequest charactername in the chat window to invite that character to the guild."
      }, 
      {
        "@id": "185", 
        "@locale": "", 
        "@feature": "", 
        "@startTime": "0-0-0-0-0-0", 
        "@endTime": "0-0-0-0-0-0", 
        "@text": "$npcName:11000508$ is popular for many reasons."
      }, 
      {
        "@id": "186", 
        "@locale": "", 
        "@feature": "", 
        "@startTime": "0-0-0-0-0-0", 
        "@endTime": "0-0-0-0-0-0", 
        "@text": "$npcName:11000508$, the blacksmith at $map:02000203$, can make items even stronger."
      }, 
      {
        "@id": "188", 
        "@locale": "", 
        "@feature": "", 
        "@startTime": "0-0-0-0-0-0", 
        "@endTime": "0-0-0-0-0-0", 
        "@text": "In combat with other players, enchanted equipment is counterbalanced."
      }, 
      {
        "@id": "189", 
        "@locale": "", 
        "@feature": "", 
        "@startTime": "0-0-0-0-0-0", 
        "@endTime": "0-0-0-0-0-0", 
        "@text": "$npcName:11000511$ is quite immature."
      }, 
      {
        "@id": "190", 
        "@locale": "", 
        "@feature": "", 
        "@startTime": "0-0-0-0-0-0", 
        "@endTime": "0-0-0-0-0-0", 
        "@text": "$npcName:11000511$ is the only daughter of the Shuabritze lord."
      }, 
      {
        "@id": "193", 
        "@locale": "", 
        "@feature": "NAstringMassive", 
        "@startTime": "0-0-0-0-0-0", 
        "@endTime": "0-0-0-0-0-0", 
        "@text": "High-level characters can fight one-on-one at $map:65000001$."
      }, 
      {
        "@id": "194", 
        "@locale": "", 
        "@feature": "NAstringMassive", 
        "@startTime": "0-0-0-0-0-0", 
        "@endTime": "0-0-0-0-0-0", 
        "@text": "The winner at $map:65000001$ will continue to face challengers."
      }, 
      {
        "@id": "195", 
        "@locale": "", 
        "@feature": "NAstringMassive", 
        "@startTime": "0-0-0-0-0-0", 
        "@endTime": "0-0-0-0-0-0", 
        "@text": "Up to 10 people can fight at $map:65000002$."
      }, 
      {
        "@id": "199", 
        "@locale": "", 
        "@feature": "", 
        "@startTime": "0-0-0-0-0-0", 
        "@endTime": "0-0-0-0-0-0", 
        "@text": "Report anyone that's harming the experience of other players."
      }, 
      {
        "@id": "200", 
        "@locale": "", 
        "@feature": "", 
        "@startTime": "0-0-0-0-0-0", 
        "@endTime": "0-0-0-0-0-0", 
        "@text": "If you see an inappropriate image on the Electronic Display, you can right-click it to report it."
      }, 
      {
        "@id": "201", 
        "@locale": "", 
        "@feature": "", 
        "@startTime": "0-0-0-0-0-0", 
        "@endTime": "0-0-0-0-0-0", 
        "@text": "If you report someone using inappropriate language, that person's chat will be blinded."
      }, 
      {
        "@id": "202", 
        "@locale": "", 
        "@feature": "", 
        "@startTime": "0-0-0-0-0-0", 
        "@endTime": "0-0-0-0-0-0", 
        "@text": "If you report an inappropriate character portrait or display image, that image will be immediately hidden."
      }, 
      {
        "@id": "203", 
        "@locale": "", 
        "@feature": "", 
        "@startTime": "0-0-0-0-0-0", 
        "@endTime": "0-0-0-0-0-0", 
        "@text": "$npcName:11000514$ has never allowed even a single escape."
      }, 
      {
        "@id": "204", 
        "@locale": "", 
        "@feature": "", 
        "@startTime": "0-0-0-0-0-0", 
        "@endTime": "0-0-0-0-0-0", 
        "@text": "There's a rumor circling that if you pay $npcName:11000514$ bail money, you'll be released from prison."
      }, 
      {
        "@id": "205", 
        "@locale": "", 
        "@feature": "", 
        "@startTime": "0-0-0-0-0-0", 
        "@endTime": "0-0-0-0-0-0", 
        "@text": "Be careful! False reports are punishable."
      }, 
      {
        "@id": "206", 
        "@locale": "", 
        "@feature": "", 
        "@startTime": "0-0-0-0-0-0", 
        "@endTime": "0-0-0-0-0-0", 
        "@text": "Repeatedly causing harm to others will result in Belma's judgment."
      }, 
      {
        "@id": "207", 
        "@locale": "", 
        "@feature": "", 
        "@startTime": "0-0-0-0-0-0", 
        "@endTime": "0-0-0-0-0-0", 
        "@text": "Those who receive Belma's judgment will have limited chatting, UGC use, etc."
      }, 
      {
        "@id": "208", 
        "@locale": "", 
        "@feature": "", 
        "@startTime": "0-0-0-0-0-0", 
        "@endTime": "0-0-0-0-0-0", 
        "@text": "If you participate in prison labor, you can more quickly be relieved from Belma's judgment."
      }, 
      {
        "@id": "209", 
        "@locale": "", 
        "@feature": "", 
        "@startTime": "0-0-0-0-0-0", 
        "@endTime": "0-0-0-0-0-0", 
        "@text": "False reports could lead to the reporter going to prison."
      }, 
      {
        "@id": "210", 
        "@locale": "", 
        "@feature": "", 
        "@startTime": "0-0-0-0-0-0", 
        "@endTime": "0-0-0-0-0-0", 
        "@text": "$npcName:11000585$ at $map:02000062$ is giving a tour of the prison."
      }, 
      {
        "@id": "211", 
        "@locale": "", 
        "@feature": "CharacterAbility", 
        "@startTime": "0-0-0-0-0-0", 
        "@endTime": "0-0-0-0-0-0", 
        "@text": "Traits are unlocked at Level 50."
      }, 
      {
        "@id": "212", 
        "@locale": "", 
        "@feature": "CharacterAbility", 
        "@startTime": "0-0-0-0-0-0", 
        "@endTime": "0-0-0-0-0-0", 
        "@text": "You get a Trait Point with every new level after Level 50."
      }, 
      {
        "@id": "215", 
        "@locale": "", 
        "@feature": "", 
        "@startTime": "0-0-0-0-0-0", 
        "@endTime": "0-0-0-0-0-0", 
        "@text": "Invite friends or guild members to have a group chat."
      }, 
      {
        "@id": "216", 
        "@locale": "", 
        "@feature": "", 
        "@startTime": "0-0-0-0-0-0", 
        "@endTime": "0-0-0-0-0-0", 
        "@text": "At $map:02000216$, items that are epic or of high rarity can be traded."
      }, 
      {
        "@id": "217", 
        "@locale": "", 
        "@feature": "", 
        "@startTime": "0-0-0-0-0-0", 
        "@endTime": "0-0-0-0-0-0", 
        "@text": "The fact that the Blackstar is running $map:02000216$ is a well-known \"secret.\""
      }, 
      {
        "@id": "218", 
        "@locale": "", 
        "@feature": "", 
        "@startTime": "0-0-0-0-0-0", 
        "@endTime": "0-0-0-0-0-0", 
        "@text": "You can change the names of your assistants and their nickname for you from their Profile menu."
      }, 
      {
        "@id": "219", 
        "@locale": "", 
        "@feature": "", 
        "@startTime": "0-0-0-0-0-0", 
        "@endTime": "0-0-0-0-0-0", 
        "@text": "You can't do household chores in your staff's stead."
      }, 
      {
        "@id": "220", 
        "@locale": "KR", 
        "@feature": "", 
        "@startTime": "0-0-0-0-0-0", 
        "@endTime": "0-0-0-0-0-0", 
        "@text": "Some maids are good at alchemy as in $npc:11000790$, $npc:11000792$."
      }, 
      {
        "@id": "221", 
        "@locale": "", 
        "@feature": "", 
        "@startTime": "0-0-0-0-0-0", 
        "@endTime": "0-0-0-0-0-0", 
        "@text": "Some staff excel in cooking, such as $npcName:11000770$ and $npcName:11000780$."
      }, 
      {
        "@id": "222", 
        "@locale": "", 
        "@feature": "", 
        "@startTime": "0-0-0-0-0-0", 
        "@endTime": "0-0-0-0-0-0", 
        "@text": "Some staff excel in making drinks, such as $npcName:11000787$ and $npcName:11000779$."
      }, 
      {
        "@id": "223", 
        "@locale": "", 
        "@feature": "", 
        "@startTime": "0-0-0-0-0-0", 
        "@endTime": "0-0-0-0-0-0", 
        "@text": "Some staff excel in creating necklaces, such as $npcName:11000789$ and $npcName:11000512$."
      }, 
      {
        "@id": "224", 
        "@locale": "", 
        "@feature": "", 
        "@startTime": "0-0-0-0-0-0", 
        "@endTime": "0-0-0-0-0-0", 
        "@text": "Some staff excel in creating rings, such as $npcName:11000777$ and $npcName:11000544$."
      }, 
      {
        "@id": "225", 
        "@locale": "", 
        "@feature": "", 
        "@startTime": "0-0-0-0-0-0", 
        "@endTime": "0-0-0-0-0-0", 
        "@text": "$npcName:11000770$'s signature dish is the special unagi dish."
      }, 
      {
        "@id": "226", 
        "@locale": "", 
        "@feature": "", 
        "@startTime": "0-0-0-0-0-0", 
        "@endTime": "0-0-0-0-0-0", 
        "@text": "$npcName:11000786$ longs for $npcName:11000015$."
      }, 
      {
        "@id": "227", 
        "@locale": "", 
        "@feature": "", 
        "@startTime": "0-0-0-0-0-0", 
        "@endTime": "0-0-0-0-0-0", 
        "@text": "$npcName:11000777$ is a descendant of $npcName:11000708$, $npcName:11000075$'s pet cat."
      }, 
      {
        "@id": "228", 
        "@locale": "", 
        "@feature": "", 
        "@startTime": "0-0-0-0-0-0", 
        "@endTime": "0-0-0-0-0-0", 
        "@text": "$npcName:11000787$ says that he used to work as a bartender, somewhere in $map:02000100$."
      }, 
      {
        "@id": "229", 
        "@locale": "", 
        "@feature": "", 
        "@startTime": "0-0-0-0-0-0", 
        "@endTime": "0-0-0-0-0-0", 
        "@text": "$npcName:11000791$ is full of stories. Back when he was a hawker, he gossiped wherever he went."
      }, 
      {
        "@id": "230", 
        "@locale": "", 
        "@feature": "", 
        "@startTime": "0-0-0-0-0-0", 
        "@endTime": "0-0-0-0-0-0", 
        "@text": "$npcName:11000790$'s fortunetelling is not very trustworthy."
      }, 
      {
        "@id": "231", 
        "@locale": "", 
        "@feature": "", 
        "@startTime": "0-0-0-0-0-0", 
        "@endTime": "0-0-0-0-0-0", 
        "@text": "Each assistant has a different crafting specialty."
      }, 
      {
        "@id": "232", 
        "@locale": "KR", 
        "@feature": "", 
        "@startTime": "0-0-0-0-0-0", 
        "@endTime": "0-0-0-0-0-0", 
        "@text": "Maids and butler have technology of cooking, drink making, alchemy, necklace, ring making."
      }, 
      {
        "@id": "233", 
        "@locale": "", 
        "@feature": "", 
        "@startTime": "0-0-0-0-0-0", 
        "@endTime": "0-0-0-0-0-0", 
        "@text": "Helping Hands is a training agency for youths who dream of making Victoria a better place."
      }, 
      {
        "@id": "234", 
        "@locale": "", 
        "@feature": "", 
        "@startTime": "0-0-0-0-0-0", 
        "@endTime": "0-0-0-0-0-0", 
        "@text": "A transparency badge will make equipment invisible."
      }, 
      {
        "@id": "235", 
        "@locale": "", 
        "@feature": "", 
        "@startTime": "0-0-0-0-0-0", 
        "@endTime": "0-0-0-0-0-0", 
        "@text": "You can only receive one souvenir buff at a time."
      }, 
      {
        "@id": "236", 
        "@locale": "", 
        "@feature": "", 
        "@startTime": "0-0-0-0-0-0", 
        "@endTime": "0-0-0-0-0-0", 
        "@text": "If you're feeling grubby, try installing a shower booth in your home."
      }, 
      {
        "@id": "237", 
        "@locale": "", 
        "@feature": "", 
        "@startTime": "0-0-0-0-0-0", 
        "@endTime": "0-0-0-0-0-0", 
        "@text": "Type \"/?\" in the chat window to see the chat commands."
      }, 
      {
        "@id": "238", 
        "@locale": "", 
        "@feature": "", 
        "@startTime": "0-0-0-0-0-0", 
        "@endTime": "0-0-0-0-0-0", 
        "@text": "Let's all use kind and considerate words!"
      }, 
      {
        "@id": "239", 
        "@locale": "", 
        "@feature": "SkinSocket", 
        "@startTime": "0-0-0-0-0-0", 
        "@endTime": "0-0-0-0-0-0", 
        "@text": "Extracting an outfit yields special outfit crystals. Equipment at Level 20 or higher yields Onyx."
      }, 
      {
        "@id": "240", 
        "@locale": "", 
        "@feature": "", 
        "@startTime": "0-0-0-0-0-0", 
        "@endTime": "0-0-0-0-0-0", 
        "@text": "$item:40100024$ can be earned by extracting items that are epic or of higher rarity."
      }, 
      {
        "@id": "241", 
        "@locale": "", 
        "@feature": "", 
        "@startTime": "0-0-0-0-0-0", 
        "@endTime": "0-0-0-0-0-0", 
        "@text": "The guild member limit increases alongside the guild's level, up to a maximum of 70 members."
      }, 
      {
        "@id": "243", 
        "@locale": "", 
        "@feature": "", 
        "@startTime": "0-0-0-0-0-0", 
        "@endTime": "0-0-0-0-0-0", 
        "@text": "$npcName:11000145$ claims to have come from the future."
      }, 
      {
        "@id": "244", 
        "@locale": "", 
        "@feature": "", 
        "@startTime": "0-0-0-0-0-0", 
        "@endTime": "0-0-0-0-0-0", 
        "@text": "You can obtain $item:13200028$ from $npcName:11000144$."
      }, 
      {
        "@id": "246", 
        "@locale": "KR", 
        "@feature": "", 
        "@startTime": "0-0-0-0-0-0", 
        "@endTime": "0-0-0-0-0-0", 
        "@text": "You can purchase items designed by other players at Merot Market's designer shop."
      }, 
      {
        "@id": "246", 
        "@locale": "CN", 
        "@feature": "", 
        "@startTime": "0-0-0-0-0-0", 
        "@endTime": "0-0-0-0-0-0", 
        "@text": "You can purchase items designed by other players at Merot Market's designer shop."
      }, 
      {
        "@id": "247", 
        "@locale": "KR", 
        "@feature": "", 
        "@startTime": "0-0-0-0-0-0", 
        "@endTime": "0-0-0-0-0-0", 
        "@text": "Please try selling your designs to other players at the designers shop."
      }, 
      {
        "@id": "247", 
        "@locale": "CN", 
        "@feature": "", 
        "@startTime": "0-0-0-0-0-0", 
        "@endTime": "0-0-0-0-0-0", 
        "@text": "Please try selling your designs to other players at the designers shop."
      }, 
      {
        "@id": "248", 
        "@locale": "", 
        "@feature": "", 
        "@startTime": "0-0-0-0-0-0", 
        "@endTime": "0-0-0-0-0-0", 
        "@text": "Although you can trade mesos via one-on-one trades, a portion will be charged as a handling fee."
      }, 
      {
        "@id": "249", 
        "@locale": "", 
        "@feature": "", 
        "@startTime": "0-0-0-0-0-0", 
        "@endTime": "0-0-0-0-0-0", 
        "@text": "Although all items can be equipped regardless of your job, weapons belonging to jobs other than your own will only be usable with the X button attack."
      }, 
      {
        "@id": "250", 
        "@locale": "", 
        "@feature": "", 
        "@startTime": "0-0-0-0-0-0", 
        "@endTime": "0-0-0-0-0-0", 
        "@text": "Items and mesos cannot be gifted through the mail."
      }, 
      {
        "@id": "251", 
        "@locale": "KR", 
        "@feature": "", 
        "@startTime": "0-0-0-0-0-0", 
        "@endTime": "0-0-0-0-0-0", 
        "@text": "You can file UGC related damage from the infringement center."
      }, 
      {
        "@id": "252", 
        "@locale": "", 
        "@feature": "", 
        "@startTime": "0-0-0-0-0-0", 
        "@endTime": "0-0-0-0-0-0", 
        "@text": "Type \"/search monstername\" in the chat window to find information about that particular monster."
      }, 
      {
        "@id": "253", 
        "@locale": "", 
        "@feature": "", 
        "@startTime": "0-0-0-0-0-0", 
        "@endTime": "0-0-0-0-0-0", 
        "@text": "Use the Rosetta Beauty Salon to wear hats backwards."
      }, 
      {
        "@id": "254", 
        "@locale": "", 
        "@feature": "", 
        "@startTime": "0-0-0-0-0-0", 
        "@endTime": "0-0-0-0-0-0", 
        "@text": "You can preview how the equipped item will appear by shift+right-clicking the item in the shop."
      }, 
      {
        "@id": "255", 
        "@locale": "", 
        "@feature": "", 
        "@startTime": "0-0-0-0-0-0", 
        "@endTime": "0-0-0-0-0-0", 
        "@text": "Right-click a different character to view their character info."
      }, 
      {
        "@id": "256", 
        "@locale": "", 
        "@feature": "", 
        "@startTime": "0-0-0-0-0-0", 
        "@endTime": "0-0-0-0-0-0", 
        "@text": "Type \"/changechannel channelnumber\" to easily switch channels."
      }, 
      {
        "@id": "257", 
        "@locale": "", 
        "@feature": "RuneBlader", 
        "@startTime": "0-0-0-0-0-0", 
        "@endTime": "0-0-0-0-0-0", 
        "@text": "Runeblades strive to reach the pinnacle of strength by combining swordsmanship and rune magic."
      }, 
      {
        "@id": "258", 
        "@locale": "", 
        "@feature": "RuneBlader", 
        "@startTime": "0-0-0-0-0-0", 
        "@endTime": "0-0-0-0-0-0", 
        "@text": "Jibritta, the pioneer of rune magic, joined forces with Pelgia, the greatest swordsman in history,\\nand created the Runeblade group, Terrune Calibre."
      }, 
      {
        "@id": "259", 
        "@locale": "", 
        "@feature": "RuneBlader", 
        "@startTime": "0-0-0-0-0-0", 
        "@endTime": "0-0-0-0-0-0", 
        "@text": "The Calibre 8 Blades are the honorable titles awarded to\\nthe eight greatest Runeblades of their generation."
      }, 
      {
        "@id": "260", 
        "@locale": "", 
        "@feature": "RuneBlader", 
        "@startTime": "0-0-0-0-0-0", 
        "@endTime": "0-0-0-0-0-0", 
        "@text": "Of all the Calibre 8 Blades, $npc:11001229$ has the biggest following\\nwho admires his righteous disposition and good looks."
      }, 
      {
        "@id": "261", 
        "@locale": "", 
        "@feature": "RuneBlader", 
        "@startTime": "0-0-0-0-0-0", 
        "@endTime": "0-0-0-0-0-0", 
        "@text": "Runeblades value the teachings of Baz,\\nthe spirits of their ancestors that remain on earth."
      }, 
      {
        "@id": "262", 
        "@locale": "", 
        "@feature": "RuneBlader", 
        "@startTime": "0-0-0-0-0-0", 
        "@endTime": "0-0-0-0-0-0", 
        "@text": "For Runeblades to learn new skills,\\nthey need the wisdom of their ancestors, Baz."
      }, 
      {
        "@id": "263", 
        "@locale": "", 
        "@feature": "RuneBlader", 
        "@startTime": "0-0-0-0-0-0", 
        "@endTime": "0-0-0-0-0-0", 
        "@text": "Runeblades use sharp swords called the Blades."
      }, 
      {
        "@id": "264", 
        "@locale": "", 
        "@feature": "RuneBlader", 
        "@startTime": "0-0-0-0-0-0", 
        "@endTime": "0-0-0-0-0-0", 
        "@text": "Runeblades have the ability to imbue Blades\\nwith the powers of fire, ice, and lightning."
      }, 
      {
        "@id": "265", 
        "@locale": "", 
        "@feature": "RuneBlader", 
        "@startTime": "0-0-0-0-0-0", 
        "@endTime": "0-0-0-0-0-0", 
        "@text": "Runeblades can employ the mysterious powers of runes\\nin various combat situations."
      }, 
      {
        "@id": "266", 
        "@locale": "", 
        "@feature": "RuneBlader", 
        "@startTime": "0-0-0-0-0-0", 
        "@endTime": "0-0-0-0-0-0", 
        "@text": "Women all over Calibre Island are swooning over the gruff $npc:11001229$."
      }, 
      {
        "@id": "267", 
        "@locale": "", 
        "@feature": "RuneBlader", 
        "@startTime": "0-0-0-0-0-0", 
        "@endTime": "0-0-0-0-0-0", 
        "@text": "The rumor about $npcName:11001230$ having no belly button isn't true."
      }, 
      {
        "@id": "268", 
        "@locale": "", 
        "@feature": "Fishing", 
        "@startTime": "0-0-0-0-0-0", 
        "@endTime": "0-0-0-0-0-0", 
        "@text": "Rumor has it that $npcName:11000781$ caught nothing but big fish in his time."
      }, 
      {
        "@id": "269", 
        "@locale": "", 
        "@feature": "Fishing", 
        "@startTime": "0-0-0-0-0-0", 
        "@endTime": "0-0-0-0-0-0", 
        "@text": "The rumor about $item:40100024$ being an abalone is not true."
      }, 
      {
        "@id": "270", 
        "@locale": "", 
        "@feature": "Fishing", 
        "@startTime": "0-0-0-0-0-0", 
        "@endTime": "0-0-0-0-0-0", 
        "@text": "Higher grade fish have a higher chance of breaking free."
      }, 
      {
        "@id": "271", 
        "@locale": "", 
        "@feature": "Fishing", 
        "@startTime": "0-0-0-0-0-0", 
        "@endTime": "0-0-0-0-0-0", 
        "@text": "You can fish anywhere there's enough water to swim. You cannot fish while <i>you</i> are swimming, however."
      }, 
      {
        "@id": "272", 
        "@locale": "", 
        "@feature": "Fishing", 
        "@startTime": "0-0-0-0-0-0", 
        "@endTime": "0-0-0-0-0-0", 
        "@text": "Bait increases your chance of catching something."
      }, 
      {
        "@id": "273", 
        "@locale": "", 
        "@feature": "Fishing", 
        "@startTime": "0-0-0-0-0-0", 
        "@endTime": "0-0-0-0-0-0", 
        "@text": "There's supposedly bait that attracts bigger fish."
      }, 
      {
        "@id": "274", 
        "@locale": "", 
        "@feature": "Fishing", 
        "@startTime": "0-0-0-0-0-0", 
        "@endTime": "0-0-0-0-0-0", 
        "@text": "Want to know where fish live? Open the Fish Album."
      }, 
      {
        "@id": "275", 
        "@locale": "", 
        "@feature": "Fishing", 
        "@startTime": "0-0-0-0-0-0", 
        "@endTime": "0-0-0-0-0-0", 
        "@text": "The higher a fishing hole's tier, the more difficult it is to gain Fishing Mastery there."
      }, 
      {
        "@id": "276", 
        "@locale": "", 
        "@feature": "Fishing", 
        "@startTime": "0-0-0-0-0-0", 
        "@endTime": "0-0-0-0-0-0", 
        "@text": "Different fish can be caught in different areas."
      }, 
      {
        "@id": "277", 
        "@locale": "", 
        "@feature": "Fishing", 
        "@startTime": "0-0-0-0-0-0", 
        "@endTime": "0-0-0-0-0-0", 
        "@text": "You can find special items while fishing."
      }, 
      {
        "@id": "278", 
        "@locale": "", 
        "@feature": "Fishing", 
        "@startTime": "0-0-0-0-0-0", 
        "@endTime": "0-0-0-0-0-0", 
        "@text": "You earn EXP when you catch fish."
      }, 
      {
        "@id": "279", 
        "@locale": "", 
        "@feature": "Fishing", 
        "@startTime": "0-0-0-0-0-0", 
        "@endTime": "0-0-0-0-0-0", 
        "@text": "The higher a fish's grade, the rarer it is."
      }, 
      {
        "@id": "280", 
        "@locale": "", 
        "@feature": "Fishing", 
        "@startTime": "0-0-0-0-0-0", 
        "@endTime": "0-0-0-0-0-0", 
        "@text": "The appearance of your float improves as your fishing tier increases."
      }, 
      {
        "@id": "281", 
        "@locale": "", 
        "@feature": "Fishing", 
        "@startTime": "0-0-0-0-0-0", 
        "@endTime": "0-0-0-0-0-0", 
        "@text": "Fish aren't the only thing you can catch while fishing."
      }, 
      {
        "@id": "282", 
        "@locale": "", 
        "@feature": "Fishing", 
        "@startTime": "0-0-0-0-0-0", 
        "@endTime": "0-0-0-0-0-0", 
        "@text": "Check the World Map tooltip for available fishing holes in different maps and their tiers."
      }, 
      {
        "@id": "283", 
        "@locale": "", 
        "@feature": "Fishing", 
        "@startTime": "0-0-0-0-0-0", 
        "@endTime": "0-0-0-0-0-0", 
        "@text": "$npcName:11000781$ sells fishing equipment in $map:02000002$."
      }, 
      {
        "@id": "284", 
        "@locale": "", 
        "@feature": "KarkarIsland", 
        "@startTime": "0-0-0-0-0-0", 
        "@endTime": "0-0-0-0-0-0", 
        "@text": "$npcName:11001449$ sells fishing equipment in $map:02010002$."
      }, 
      {
        "@id": "285", 
        "@locale": "", 
        "@feature": "Fishing", 
        "@startTime": "0-0-0-0-0-0", 
        "@endTime": "0-0-0-0-0-0", 
        "@text": "Want to become a fishing champ? Cast your rod wherever there's water!"
      }, 
      {
        "@id": "286", 
        "@locale": "", 
        "@feature": "Fishing", 
        "@startTime": "0-0-0-0-0-0", 
        "@endTime": "0-0-0-0-0-0", 
        "@text": "You cannot fish from moving places."
      }, 
      {
        "@id": "287", 
        "@locale": "", 
        "@feature": "Fishing", 
        "@startTime": "0-0-0-0-0-0", 
        "@endTime": "0-0-0-0-0-0", 
        "@text": "Rumor has it that there's special bait that attracts rare fish."
      }, 
      {
        "@id": "288", 
        "@locale": "", 
        "@feature": "Fishing", 
        "@startTime": "0-0-0-0-0-0", 
        "@endTime": "0-0-0-0-0-0", 
        "@text": "To increase your Fishing Mastery, you must catch fish around your fishing tier."
      }, 
      {
        "@id": "289", 
        "@locale": "", 
        "@feature": "MusicInstrument", 
        "@startTime": "0-0-0-0-0-0", 
        "@endTime": "0-0-0-0-0-0", 
        "@text": "The Royal Music Academy's mascots are Ducky and Duckling."
      }, 
      {
        "@id": "290", 
        "@locale": "", 
        "@feature": "MusicInstrument", 
        "@startTime": "0-0-0-0-0-0", 
        "@endTime": "0-0-0-0-0-0", 
        "@text": "The Royal Music Academy's president, Didiana, was moved by Ducky's singing and discovered a love for music."
      }, 
      {
        "@id": "291", 
        "@locale": "", 
        "@feature": "MusicInstrument", 
        "@startTime": "0-0-0-0-0-0", 
        "@endTime": "0-0-0-0-0-0", 
        "@text": "The Royal Music Academy sells instruments and music scores so that performers can spread the joy of music."
      }, 
      {
        "@id": "292", 
        "@locale": "", 
        "@feature": "MusicInstrument", 
        "@startTime": "0-0-0-0-0-0", 
        "@endTime": "0-0-0-0-0-0", 
        "@text": "The Royal Music Academy's administrator, $npcName:11001320$, is good friends with $npcName:11001322$."
      }, 
      {
        "@id": "293", 
        "@locale": "", 
        "@feature": "MusicInstrument", 
        "@startTime": "0-0-0-0-0-0", 
        "@endTime": "0-0-0-0-0-0", 
        "@text": "You can purchase music scores made by others and perform them."
      }, 
      {
        "@id": "294", 
        "@locale": "", 
        "@feature": "MusicInstrument", 
        "@startTime": "0-0-0-0-0-0", 
        "@endTime": "0-0-0-0-0-0", 
        "@text": "If you have an instrument, you can form an ensemble with nearby party members."
      }, 
      {
        "@id": "295", 
        "@locale": "", 
        "@feature": "MusicInstrument", 
        "@startTime": "0-0-0-0-0-0", 
        "@endTime": "0-0-0-0-0-0", 
        "@text": "You can use a blank music score to make your own unique song."
      }, 
      {
        "@id": "296", 
        "@locale": "", 
        "@feature": "MusicInstrument", 
        "@startTime": "0-0-0-0-0-0", 
        "@endTime": "0-0-0-0-0-0", 
        "@text": "When your mastery rises from performing, you'll do a flourish with your instrument."
      }, 
      {
        "@id": "297", 
        "@locale": "", 
        "@feature": "MusicInstrument", 
        "@startTime": "0-0-0-0-0-0", 
        "@endTime": "0-0-0-0-0-0", 
        "@text": "You can improvise your performance without a music score."
      }, 
      {
        "@id": "298", 
        "@locale": "", 
        "@feature": "MusicInstrument", 
        "@startTime": "0-0-0-0-0-0", 
        "@endTime": "0-0-0-0-0-0", 
        "@text": "You can use your instrument with a music score to perform."
      }, 
      {
        "@id": "299", 
        "@locale": "", 
        "@feature": "MusicInstrument", 
        "@startTime": "0-0-0-0-0-0", 
        "@endTime": "0-0-0-0-0-0", 
        "@text": "When you play an instrument, nearby players will hear your performance."
      }, 
      {
        "@id": "300", 
        "@locale": "", 
        "@feature": "MusicInstrument", 
        "@startTime": "0-0-0-0-0-0", 
        "@endTime": "0-0-0-0-0-0", 
        "@text": "If you don't want to hear the performance, lower the Instrument sound in the Sound tab under Environment Settings."
      }, 
      {
        "@id": "301", 
        "@locale": "", 
        "@feature": "MusicInstrument", 
        "@startTime": "0-0-0-0-0-0", 
        "@endTime": "0-0-0-0-0-0", 
        "@text": "You cannot hear the performances of blocked characters."
      }, 
      {
        "@id": "302", 
        "@locale": "", 
        "@feature": "MusicInstrument", 
        "@startTime": "0-0-0-0-0-0", 
        "@endTime": "0-0-0-0-0-0", 
        "@text": "$npcName:11001320$ in $map:02000001$ and $npcName:11001322$ in $map:02010002$ sell music scores for the piano and guitar."
      }, 
      {
        "@id": "303", 
        "@locale": "", 
        "@feature": "MusicInstrument", 
        "@startTime": "0-0-0-0-0-0", 
        "@endTime": "0-0-0-0-0-0", 
        "@text": "If you want to purchase performance goods, go find $npcName:11001320$ in $map:02000001$."
      }, 
      {
        "@id": "304", 
        "@locale": "", 
        "@feature": "MusicInstrument", 
        "@startTime": "0-0-0-0-0-0", 
        "@endTime": "0-0-0-0-0-0", 
        "@text": "If you want to purchase performance goods, go find $npcName:11001322$ in $map:02010002$."
      }, 
      {
        "@id": "305", 
        "@locale": "CN", 
        "@feature": "", 
        "@startTime": "0-0-0-0-0-0", 
        "@endTime": "0-0-0-0-0-0", 
        "@text": "China's special tool tip. No need to translate."
      }, 
      {
        "@id": "306", 
        "@locale": "CN", 
        "@feature": "", 
        "@startTime": "0-0-0-0-0-0", 
        "@endTime": "0-0-0-0-0-0", 
        "@text": "China's special tool tip. No need to translate."
      }, 
      {
        "@id": "307", 
        "@locale": "CN", 
        "@feature": "", 
        "@startTime": "0-0-0-0-0-0", 
        "@endTime": "0-0-0-0-0-0", 
        "@text": "China's special tool tip. No need to translate."
      }, 
      {
        "@id": "308", 
        "@locale": "CN", 
        "@feature": "", 
        "@startTime": "0-0-0-0-0-0", 
        "@endTime": "0-0-0-0-0-0", 
        "@text": "China's special tool tip. No need to translate."
      }, 
      {
        "@id": "309", 
        "@locale": "CN", 
        "@feature": "", 
        "@startTime": "0-0-0-0-0-0", 
        "@endTime": "0-0-0-0-0-0", 
        "@text": "China's special tool tip. No need to translate."
      }, 
      {
        "@id": "310", 
        "@locale": "CN", 
        "@feature": "", 
        "@startTime": "0-0-0-0-0-0", 
        "@endTime": "0-0-0-0-0-0", 
        "@text": "China's special tool tip. No need to translate."
      }, 
      {
        "@id": "311", 
        "@locale": "", 
        "@feature": "", 
        "@startTime": "0-0-0-0-0-0", 
        "@endTime": "0-0-0-0-0-0", 
        "@text": "After joining a guild, you can earn guild experience through various activities."
      }, 
      {
        "@id": "320", 
        "@locale": "", 
        "@feature": "", 
        "@startTime": "0-0-0-0-0-0", 
        "@endTime": "0-0-0-0-0-0", 
        "@text": "Guild skills take effect 24 hours after joining a guild."
      }, 
      {
        "@id": "321", 
        "@locale": "", 
        "@feature": "", 
        "@startTime": "0-0-0-0-0-0", 
        "@endTime": "0-0-0-0-0-0", 
        "@text": "Enjoy events alongside your guild members!"
      }, 
      {
        "@id": "322", 
        "@locale": "", 
        "@feature": "", 
        "@startTime": "0-0-0-0-0-0", 
        "@endTime": "0-0-0-0-0-0", 
        "@text": "Guild events can only occur to guilds that have existed for at least 24 hours."
      }, 
      {
        "@id": "324", 
        "@locale": "", 
        "@feature": "ItemSocketSystem", 
        "@startTime": "0-0-0-0-0-0", 
        "@endTime": "0-0-0-0-0-0", 
        "@text": "Gemstones can be dismantled into jewel motes, which are used for upgrades."
      }, 
      {
        "@id": "325", 
        "@locale": "", 
        "@feature": "ItemSocketSystem", 
        "@startTime": "0-0-0-0-0-0", 
        "@endTime": "0-0-0-0-0-0", 
        "@text": "Gemstones can be upgraded to higher grades."
      }, 
      {
        "@id": "326", 
        "@locale": "", 
        "@feature": "Mastery", 
        "@startTime": "0-0-0-0-0-0", 
        "@endTime": "0-0-0-0-0-0", 
        "@text": "The daily amount of ores that can be obtained through mining depends on the vein."
      }, 
      {
        "@id": "327", 
        "@locale": "", 
        "@feature": "Mastery", 
        "@startTime": "0-0-0-0-0-0", 
        "@endTime": "0-0-0-0-0-0", 
        "@text": "When your mining mastery rises, you'll be able to dig up more ores than before.  "
      }, 
      {
        "@id": "328", 
        "@locale": "", 
        "@feature": "Mastery", 
        "@startTime": "0-0-0-0-0-0", 
        "@endTime": "0-0-0-0-0-0", 
        "@text": "Mining mastery increases when you succeed in mining."
      }, 
      {
        "@id": "329", 
        "@locale": "", 
        "@feature": "Mastery", 
        "@startTime": "0-0-0-0-0-0", 
        "@endTime": "0-0-0-0-0-0", 
        "@text": "If you want to locate veins that can be mined, check the Mining tab in your Lifestyle menu."
      }, 
      {
        "@id": "330", 
        "@locale": "", 
        "@feature": "Mastery", 
        "@startTime": "0-0-0-0-0-0", 
        "@endTime": "0-0-0-0-0-0", 
        "@text": "When you dig up ore by mining, you will gain experience."
      }, 
      {
        "@id": "331", 
        "@locale": "", 
        "@feature": "Mastery", 
        "@startTime": "0-0-0-0-0-0", 
        "@endTime": "0-0-0-0-0-0", 
        "@text": "Check the World Map tooltip for available veins in different maps."
      }, 
      {
        "@id": "332", 
        "@locale": "", 
        "@feature": "Mastery", 
        "@startTime": "0-0-0-0-0-0", 
        "@endTime": "0-0-0-0-0-0", 
        "@text": "When you use a mining tool to mine, you'll get even more ores. "
      }, 
      {
        "@id": "333", 
        "@locale": "", 
        "@feature": "Mastery", 
        "@startTime": "0-0-0-0-0-0", 
        "@endTime": "0-0-0-0-0-0", 
        "@text": "Mining tools are made through smithing."
      }, 
      {
        "@id": "334", 
        "@locale": "", 
        "@feature": "Mastery", 
        "@startTime": "0-0-0-0-0-0", 
        "@endTime": "0-0-0-0-0-0", 
        "@text": "All veins have a set mastery tier for mining. "
      }, 
      {
        "@id": "335", 
        "@locale": "", 
        "@feature": "Mastery", 
        "@startTime": "0-0-0-0-0-0", 
        "@endTime": "0-0-0-0-0-0", 
        "@text": "The daily production from ranching depends on the animal."
      }, 
      {
        "@id": "336", 
        "@locale": "", 
        "@feature": "Mastery", 
        "@startTime": "0-0-0-0-0-0", 
        "@endTime": "0-0-0-0-0-0", 
        "@text": "When your ranching mastery rises, you'll get more goods from your livestock.  "
      }, 
      {
        "@id": "339", 
        "@locale": "", 
        "@feature": "Mastery", 
        "@startTime": "0-0-0-0-0-0", 
        "@endTime": "0-0-0-0-0-0", 
        "@text": "Collecting goods from ranching will earn you experience."
      }, 
      {
        "@id": "340", 
        "@locale": "", 
        "@feature": "Mastery", 
        "@startTime": "0-0-0-0-0-0", 
        "@endTime": "0-0-0-0-0-0", 
        "@text": "In the Ranching tab of the Furnishing menu, you can furnish your livestock pens. "
      }, 
      {
        "@id": "341", 
        "@locale": "", 
        "@feature": "Mastery", 
        "@startTime": "0-0-0-0-0-0", 
        "@endTime": "0-0-0-0-0-0", 
        "@text": "Using a ranching tool will get you more goods. "
      }, 
      {
        "@id": "342", 
        "@locale": "", 
        "@feature": "Mastery", 
        "@startTime": "0-0-0-0-0-0", 
        "@endTime": "0-0-0-0-0-0", 
        "@text": "Ranching tools are made through handicrafts."
      }, 
      {
        "@id": "343", 
        "@locale": "", 
        "@feature": "Mastery", 
        "@startTime": "0-0-0-0-0-0", 
        "@endTime": "0-0-0-0-0-0", 
        "@text": "All ranching livestock have a mastery tier for feeding. "
      }, 
      {
        "@id": "344", 
        "@locale": "", 
        "@feature": "Mastery", 
        "@startTime": "0-0-0-0-0-0", 
        "@endTime": "0-0-0-0-0-0", 
        "@text": "When smithing mastery increases, the amount of materials needing for crafting decreases."
      }, 
      {
        "@id": "345", 
        "@locale": "", 
        "@feature": "Mastery", 
        "@startTime": "0-0-0-0-0-0", 
        "@endTime": "0-0-0-0-0-0", 
        "@text": "Check the items that can be made through smithing in the Smithing tab of the Lifestyle menu."
      }, 
      {
        "@id": "346", 
        "@locale": "", 
        "@feature": "Mastery", 
        "@startTime": "0-0-0-0-0-0", 
        "@endTime": "0-0-0-0-0-0", 
        "@text": "You can earn experience by crafting items via smithing."
      }, 
      {
        "@id": "347", 
        "@locale": "", 
        "@feature": "Mastery", 
        "@startTime": "0-0-0-0-0-0", 
        "@endTime": "0-0-0-0-0-0", 
        "@text": "Smithing mastery increases when you craft items."
      }, 
      {
        "@id": "348", 
        "@locale": "", 
        "@feature": "Mastery", 
        "@startTime": "0-0-0-0-0-0", 
        "@endTime": "0-0-0-0-0-0", 
        "@text": "Materials to craft items via smithing can be found through mining or ranching."
      }, 
      {
        "@id": "350", 
        "@locale": "", 
        "@feature": "Mastery", 
        "@startTime": "0-0-0-0-0-0", 
        "@endTime": "0-0-0-0-0-0", 
        "@text": "View the items that can be made with handicrafting in the Handicraft tab of the Lifestyle menu."
      }, 
      {
        "@id": "351", 
        "@locale": "", 
        "@feature": "Mastery", 
        "@startTime": "0-0-0-0-0-0", 
        "@endTime": "0-0-0-0-0-0", 
        "@text": "You gain experience by crafting items with handicrafts."
      }, 
      {
        "@id": "352", 
        "@locale": "", 
        "@feature": "Mastery", 
        "@startTime": "0-0-0-0-0-0", 
        "@endTime": "0-0-0-0-0-0", 
        "@text": "Handicraft mastery increases when you craft items."
      }, 
      {
        "@id": "353", 
        "@locale": "", 
        "@feature": "Mastery", 
        "@startTime": "0-0-0-0-0-0", 
        "@endTime": "0-0-0-0-0-0", 
        "@text": "You can find handicraft materials through mining and ranching."
      }, 
      {
        "@id": "357", 
        "@locale": "", 
        "@feature": "MagicScroll01", 
        "@startTime": "0-0-0-0-0-0", 
        "@endTime": "0-0-0-0-0-0", 
        "@text": "Enchantment runes can be created using the Enchanting life skill."
      }, 
      {
        "@id": "363", 
        "@locale": "", 
        "@feature": "MagicScroll01", 
        "@startTime": "0-0-0-0-0-0", 
        "@endTime": "0-0-0-0-0-0", 
        "@text": "Enchantment runes raise gear to higher enchantment tiers."
      }, 
      {
        "@id": "366", 
        "@locale": "CN", 
        "@feature": "", 
        "@startTime": "0-0-0-0-0-0", 
        "@endTime": "0-0-0-0-0-0", 
        "@text": "Maids and butler have technology of cooking, making drinks, necklaces, making rings."
      }, 
      {
        "@id": "366", 
        "@locale": "NA", 
        "@feature": "", 
        "@startTime": "0-0-0-0-0-0", 
        "@endTime": "0-0-0-0-0-0", 
        "@text": "Each assistant is proficient in one of the following crafts: cooking, drink-mixing, necklace-making, or ring-making."
      }, 
      {
        "@id": "366", 
        "@locale": "JP", 
        "@feature": "", 
        "@startTime": "0-0-0-0-0-0", 
        "@endTime": "0-0-0-0-0-0", 
        "@text": "A maid or deacon has one specialty: cooking, beverage making, necklace making, and ring making."
      }, 
      {
        "@id": "366", 
        "@locale": "TH", 
        "@feature": "", 
        "@startTime": "0-0-0-0-0-0", 
        "@endTime": "0-0-0-0-0-0", 
        "@text": "A maid or deacon has one specialty: cooking, beverage making, necklace making, and ring making."
      }, 
      {
        "@id": "366", 
        "@locale": "TW", 
        "@feature": "", 
        "@startTime": "0-0-0-0-0-0", 
        "@endTime": "0-0-0-0-0-0", 
        "@text": "A maid or deacon has one specialty: cooking, beverage making, necklace making, and ring making."
      }, 
      {
        "@id": "367", 
        "@locale": "", 
        "@feature": "AdventureLevel", 
        "@startTime": "0-0-0-0-0-0", 
        "@endTime": "0-0-0-0-0-0", 
        "@text": "Once your character reaches level 50, you'll start earning prestige ranks."
      }, 
      {
        "@id": "368", 
        "@locale": "", 
        "@feature": "AdventureLevel", 
        "@startTime": "0-0-0-0-0-0", 
        "@endTime": "0-0-0-0-0-0", 
        "@text": "Your prestige rank is shared by all characters on your account."
      }, 
      {
        "@id": "369", 
        "@locale": "", 
        "@feature": "AdventureLevel", 
        "@startTime": "0-0-0-0-0-0", 
        "@endTime": "0-0-0-0-0-0", 
        "@text": "Characters Lv. 50+ make progress toward prestige ranks whenever they earn experience."
      }, 
      {
        "@id": "370", 
        "@locale": "", 
        "@feature": "AdventureLevel", 
        "@startTime": "0-0-0-0-0-0", 
        "@endTime": "0-0-0-0-0-0", 
        "@text": "Increasing your prestige rank unlocks reward boxes."
      }, 
      {
        "@id": "371", 
        "@locale": "", 
        "@feature": "AdventureLevel", 
        "@startTime": "0-0-0-0-0-0", 
        "@endTime": "0-0-0-0-0-0", 
        "@text": "The attribute points unlocked through prestige ranks can only be used on Lv. 50+ characters."
      }, 
      {
        "@id": "372", 
        "@locale": "", 
        "@feature": "AdventureLevel", 
        "@startTime": "0-0-0-0-0-0", 
        "@endTime": "0-0-0-0-0-0", 
        "@text": "Prestige rank perks apply to every character on your account."
      }, 
      {
        "@id": "373", 
        "@locale": "", 
        "@feature": "AdventureLevel", 
        "@startTime": "0-0-0-0-0-0", 
        "@endTime": "0-0-0-0-0-0", 
        "@text": "There's a limit to how much experience you can earn toward prestige ranks each day."
      }, 
      {
        "@id": "374", 
        "@locale": "", 
        "@feature": "EnchantReformation01", 
        "@startTime": "0-0-0-0-0-0", 
        "@endTime": "0-0-0-0-0-0", 
        "@text": "Equipment of higher than ideal grade requires enchant material from the 11th stage of the enchant \\nto the same equipment as the enchanted equipment."
      }, 
      {
        "@id": "375", 
        "@locale": "", 
        "@feature": "EnchantReformation01", 
        "@startTime": "0-0-0-0-0-0", 
        "@endTime": "0-0-0-0-0-0", 
        "@text": "If you fail to attempt an enchant, your enchantment probability will increase to enchant the equipment you attempted to enchant."
      }, 
      {
        "@id": "376", 
        "@locale": "", 
        "@feature": "EnchantReformation01", 
        "@startTime": "0-0-0-0-0-0", 
        "@endTime": "0-0-0-0-0-0", 
        "@text": "Todd's Grinding Stones have the same effect as equipment required for enchanted materials."
      }
    ]
  }
}