{
  "?xml": {
    "@version": "1.0", 
    "@encoding": "utf-8"
  }, 
  "ms2": {
    "key": [
      {
        "@id": "0", 
        "@name": "", 
        "@feature": "Season1"
      }, 
      {
        "@id": "11", 
        "@name": "Unlocked by reaching level 50 or higher.", 
        "@feature": "Season1"
      }, 
      {
        "@id": "1", 
        "@name": "Unlocked by equipping +12 epic or better gear.", 
        "@feature": "Season1"
      }, 
      {
        "@id": "2", 
        "@name": "Unlocked by earning the Top Designer title.", 
        "@feature": "Season1"
      }, 
      {
        "@id": "2", 
        "@name": "Unlocked by earning the Top Designer title.", 
        "@feature": "Season1", 
        "@locale": "NA"
      }, 
      {
        "@id": "3", 
        "@name": "Unlocked by earning the True Champion title.", 
        "@feature": "Season1"
      }, 
      {
        "@id": "4", 
        "@name": "Unlocked by earning the Star Architect title.", 
        "@feature": "Season1"
      }, 
      {
        "@id": "4", 
        "@name": "Unlocked by earning the Star Architect title.", 
        "@feature": "Season1", 
        "@locale": "NA"
      }, 
      {
        "@id": "5", 
        "@name": "Unlocked by earning the Trophy Master title.", 
        "@feature": "Season1"
      }, 
      {
        "@id": "6", 
        "@name": "Unlocked by earning the Fishing Champion title from the trophy Prize Angler.", 
        "@feature": "Fishing"
      }, 
      {
        "@id": "7", 
        "@name": "Unlocked by earning the Virtuoso title from the trophy A Musician with a Dream.", 
        "@feature": "MusicInstrument"
      }, 
      {
        "@id": "8", 
        "@name": "Mark of Evil Conqueror", 
        "@feature": "Balrogitem3rd"
      }, 
      {
        "@id": "9", 
        "@name": "Displayed when acquiring the title of the pioneer", 
        "@feature": "Season3", 
        "@locale": "KR"
      }, 
      {
        "@id": "10", 
        "@name": "Displayed when acquiring a mephographical star title", 
        "@feature": "Season3", 
        "@locale": "CN"
      }, 
      {
        "@id": "10", 
        "@name": "Displayed when acquiring a mephographical star title", 
        "@feature": "Season3", 
        "@locale": "KR"
      }, 
      {
        "@id": "12", 
        "@name": "Unlocked by becoming a Premium Club member.", 
        "@feature": "VIP"
      }, 
      {
        "@id": "13", 
        "@name": "Visible to Tencent VIP", 
        "@feature": "Season1", 
        "@locale": "CN"
      }, 
      {
        "@id": "14", 
        "@name": "Unlocked by earning the Maple Fanatic trophy", 
        "@feature": "Season1", 
        "@locale": "CN"
      }, 
      {
        "@id": "14", 
        "@name": "Unlocked by earning the Maple Fanatic trophy", 
        "@locale": "NA"
      }, 
      {
        "@id": "15", 
        "@name": "[Zachum conqueror] Displayed when acquiring trophy", 
        "@feature": "Zakum01"
      }, 
      {
        "@id": "16", 
        "@name": "Marked when two-year-old Merin gets title", 
        "@feature": "Season1", 
        "@locale": "KR"
      }, 
      {
        "@id": "17", 
        "@name": "Displayed when the game is launched via TGP", 
        "@locale": "CN"
      }, 
      {
        "@id": "18", 
        "@name": "GM exclusive mark", 
        "@locale": "CN"
      }, 
      {
        "@id": "19", 
        "@name": "Displayed at over 200 attempts", 
        "@feature": "ItemMerge"
      }, 
      {
        "@id": "20", 
        "@name": "Over 500 attempts", 
        "@feature": "ItemMerge"
      }, 
      {
        "@id": "21", 
        "@name": "Displayed at over 1,000 attempts", 
        "@feature": "ItemMerge"
      }, 
      {
        "@id": "22", 
        "@name": "Unlocked by earning the Warrior of Light title."
      }, 
      {
        "@id": "24", 
        "@name": "Return to the game after a long time to return to the character", 
        "@feature": "Mentoring"
      }, 
      {
        "@id": "26", 
        "@name": "Obtained when using exclusive supplies for elite agents", 
        "@feature": "FameContents", 
        "@locale": "KR"
      }, 
      {
        "@id": "26", 
        "@name": "Obtained when using exclusive supplies for elite agents", 
        "@feature": "FameContents", 
        "@locale": "CN"
      }, 
      {
        "@id": "27", 
        "@name": "Obtained when using the spring blessing box", 
        "@feature": "LunaYear2018"
      }, 
      {
        "@id": "28", 
        "@name": "Unlocked by defeating ten people in a single match of Mushking Royale.", 
        "@feature": "SurvivalContents01"
      }, 
      {
        "@id": "29", 
        "@name": "Unlocked by reaching prestige rank 100.", 
        "@feature": "AdventureLevel"
      }, 
      {
        "@id": "30", 
        "@name": "Show former sign", 
        "@feature": "JobChange_01"
      }, 
      {
        "@id": "31", 
        "@name": "Summer Burning Designated Character Only Mark", 
        "@locale": "KR"
      }, 
      {
        "@id": "31", 
        "@name": "Summer Burning Designated Character Only Mark", 
        "@locale": "CN"
      }, 
      {
        "@id": "32", 
        "@name": "Marked when three-year-old Merin won title", 
        "@locale": "KR"
      }, 
      {
        "@id": "33", 
        "@name": "Unlocked by becoming a Founder of MapleStory 2.", 
        "@locale": "NA"
      }, 
      {
        "@id": "35", 
        "@name": "Displayed when you won Title", 
        "@feature": "LapentaDungeon"
      }, 
      {
        "@id": "36", 
        "@name": "Displayed when the title that defeated Lenduvian was acquired", 
        "@feature": "LapentaDungeon"
      }, 
      {
        "@id": "37", 
        "@name": "Displayed when the title that defeated Euperia was acquired", 
        "@feature": "LapentaDungeon"
      }, 
      {
        "@id": "38", 
        "@name": "Obtained from the Joddy Squad Insignia Box."
      }, 
      {
        "@id": "39", 
        "@name": "Obtained when using a wild beast's box", 
        "@locale": "CN"
      }, 
      {
        "@id": "40", 
        "@name": "Acquired when using a bright moonlight box", 
        "@locale": "KR"
      }, 
      {
        "@id": "41", 
        "@name": "Obtained when using mark box for 1st anniversary", 
        "@locale": "CN"
      }, 
      {
        "@id": "42", 
        "@name": "Obtained when using the Pula Pulaski watch box", 
        "@locale": "CN"
      }, 
      {
        "@id": "43", 
        "@name": "Show when you get a pro angler title", 
        "@feature": "Fishing02"
      }, 
      {
        "@id": "44", 
        "@name": "Marked when acquiring champion angler title", 
        "@feature": "Fishing02"
      }, 
      {
        "@id": "45", 
        "@name": "10 successes in rappard synthesis", 
        "@feature": "Lapenshard01"
      }, 
      {
        "@id": "46", 
        "@name": "Obtained from the Strange New World Box"
      }, 
      {
        "@id": "47", 
        "@name": "Burning designated character only mark", 
        "@locale": "KR"
      }, 
      {
        "@id": "48", 
        "@name": "Acquired when using red box", 
        "@locale": "CN"
      }, 
      {
        "@id": "49", 
        "@name": "Obtained when using yellow box", 
        "@locale": "CN"
      }, 
      {
        "@id": "50", 
        "@name": "Acquired when using cherry song box", 
        "@locale": "KR"
      }
    ]
  }
}