{
  "?xml": {
    "@version": "1.0", 
    "@encoding": "utf-8"
  }, 
  "ms2": {
    "quest": [
      {
        "@questID": "70000001", 
        "@name": "Reach Level 10", 
        "@desc": "", 
        "@manual": "", 
        "@complete": "", 
        "@count": "", 
        "@locale": "", 
        "@locking": "0"
      }, 
      {
        "@questID": "70000002", 
        "@name": "Reach Level 15", 
        "@desc": "", 
        "@manual": "", 
        "@complete": "", 
        "@count": "", 
        "@locale": "", 
        "@locking": "0"
      }, 
      {
        "@questID": "70000003", 
        "@name": "Reach Level 20", 
        "@desc": "", 
        "@manual": "", 
        "@complete": "", 
        "@count": "", 
        "@locale": "", 
        "@locking": "0"
      }, 
      {
        "@questID": "70000004", 
        "@name": "Reach Level 25", 
        "@desc": "", 
        "@manual": "", 
        "@complete": "", 
        "@count": "", 
        "@locale": "", 
        "@locking": "0"
      }, 
      {
        "@questID": "70000005", 
        "@name": "Reach Level 30", 
        "@desc": "", 
        "@manual": "", 
        "@complete": "", 
        "@count": "", 
        "@locale": "", 
        "@locking": "0"
      }, 
      {
        "@questID": "70000006", 
        "@name": "Reach Level 35", 
        "@desc": "", 
        "@manual": "", 
        "@complete": "", 
        "@count": "", 
        "@locale": "", 
        "@locking": "0"
      }, 
      {
        "@questID": "70000007", 
        "@name": "Reach Level 40", 
        "@desc": "", 
        "@manual": "", 
        "@complete": "", 
        "@count": "", 
        "@locale": "", 
        "@locking": "0"
      }, 
      {
        "@questID": "70000008", 
        "@name": "Reach Level 45", 
        "@desc": "", 
        "@manual": "", 
        "@complete": "", 
        "@count": "", 
        "@locale": "", 
        "@locking": "0"
      }, 
      {
        "@questID": "70000009", 
        "@name": "Reach Level 50", 
        "@desc": "", 
        "@manual": "", 
        "@complete": "", 
        "@count": "", 
        "@locale": "", 
        "@locking": "0"
      }, 
      {
        "@questID": "70000010", 
        "@name": "Reach Level 52", 
        "@desc": "", 
        "@manual": "", 
        "@complete": "", 
        "@count": "", 
        "@locale": "", 
        "@locking": "0"
      }, 
      {
        "@questID": "70000011", 
        "@name": "Reach Level 54", 
        "@desc": "", 
        "@manual": "", 
        "@complete": "", 
        "@count": "", 
        "@locale": "", 
        "@locking": "0"
      }, 
      {
        "@questID": "70000012", 
        "@name": "Reach Level 56", 
        "@desc": "", 
        "@manual": "", 
        "@complete": "", 
        "@count": "", 
        "@locale": "", 
        "@locking": "0"
      }, 
      {
        "@questID": "70000013", 
        "@name": "Reach Level 58", 
        "@desc": "", 
        "@manual": "", 
        "@complete": "", 
        "@count": "", 
        "@locale": "", 
        "@locking": "0"
      }, 
      {
        "@questID": "70000014", 
        "@name": "Reach Level 60", 
        "@desc": "", 
        "@manual": "", 
        "@complete": "", 
        "@count": "", 
        "@locale": "", 
        "@locking": "0"
      }, 
      {
        "@questID": "70000015", 
        "@name": "Reach Level 5", 
        "@desc": "", 
        "@manual": "", 
        "@complete": "", 
        "@count": "", 
        "@locale": "", 
        "@locking": "0"
      }, 
      {
        "@questID": "70000016", 
        "@name": "Reach Level 62", 
        "@desc": "", 
        "@manual": "", 
        "@complete": "", 
        "@count": "", 
        "@locale": "", 
        "@locking": "0"
      }, 
      {
        "@questID": "70000017", 
        "@name": "Reach Level 64", 
        "@desc": "", 
        "@manual": "", 
        "@complete": "", 
        "@count": "", 
        "@locale": "", 
        "@locking": "0"
      }, 
      {
        "@questID": "70000018", 
        "@name": "Reach Level 66", 
        "@desc": "", 
        "@manual": "", 
        "@complete": "", 
        "@count": "", 
        "@locale": "", 
        "@locking": "0"
      }, 
      {
        "@questID": "70000019", 
        "@name": "Reach Level 68", 
        "@desc": "", 
        "@manual": "", 
        "@complete": "", 
        "@count": "", 
        "@locale": "", 
        "@locking": "0"
      }, 
      {
        "@questID": "70000020", 
        "@name": "Reach Level 70", 
        "@desc": "", 
        "@manual": "", 
        "@complete": "", 
        "@count": "", 
        "@locale": "", 
        "@locking": "0"
      }, 
      {
        "@questID": "70000021", 
        "@name": "Reach Level 72", 
        "@desc": "", 
        "@manual": "", 
        "@complete": "", 
        "@count": "", 
        "@locale": "", 
        "@locking": "0"
      }, 
      {
        "@questID": "70000022", 
        "@name": "Reach Level 74", 
        "@desc": "", 
        "@manual": "", 
        "@complete": "", 
        "@count": "", 
        "@locale": "", 
        "@locking": "0"
      }, 
      {
        "@questID": "70000023", 
        "@name": "Reach Level 76", 
        "@desc": "", 
        "@manual": "", 
        "@complete": "", 
        "@count": "", 
        "@locale": "", 
        "@locking": "0"
      }, 
      {
        "@questID": "70000024", 
        "@name": "Reach Level 78", 
        "@desc": "", 
        "@manual": "", 
        "@complete": "", 
        "@count": "", 
        "@locale": "", 
        "@locking": "0"
      }, 
      {
        "@questID": "70100000", 
        "@name": "Reach Level 25", 
        "@desc": "", 
        "@manual": "", 
        "@complete": "", 
        "@count": "", 
        "@locale": "", 
        "@locking": "0"
      }, 
      {
        "@questID": "70100001", 
        "@name": "Reach Level 35", 
        "@desc": "", 
        "@manual": "", 
        "@complete": "", 
        "@count": "", 
        "@locale": "", 
        "@locking": "0"
      }, 
      {
        "@questID": "70100002", 
        "@name": "Reach Level 45", 
        "@desc": "", 
        "@manual": "", 
        "@complete": "", 
        "@count": "", 
        "@locale": "", 
        "@locking": "0"
      }, 
      {
        "@questID": "70100003", 
        "@name": "Reach Level 55", 
        "@desc": "", 
        "@manual": "", 
        "@complete": "", 
        "@count": "", 
        "@locale": "", 
        "@locking": "0"
      }, 
      {
        "@questID": "70100004", 
        "@name": "Reach Level 65", 
        "@desc": "", 
        "@manual": "", 
        "@complete": "", 
        "@count": "", 
        "@locale": "", 
        "@locking": "0"
      }, 
      {
        "@questID": "70100005", 
        "@name": "Reach Level 15", 
        "@desc": "", 
        "@manual": "", 
        "@complete": "", 
        "@count": "", 
        "@locale": "", 
        "@locking": "0"
      }, 
      {
        "@questID": "70100006", 
        "@name": "Reach Level 25", 
        "@desc": "", 
        "@manual": "", 
        "@complete": "", 
        "@count": "", 
        "@locale": "", 
        "@locking": "0"
      }, 
      {
        "@questID": "70100007", 
        "@name": "Reach Level 35", 
        "@desc": "", 
        "@manual": "", 
        "@complete": "", 
        "@count": "", 
        "@locale": "", 
        "@locking": "0"
      }, 
      {
        "@questID": "70100008", 
        "@name": "Reach Level 45", 
        "@desc": "", 
        "@manual": "", 
        "@complete": "", 
        "@count": "", 
        "@locale": "", 
        "@locking": "0"
      }, 
      {
        "@questID": "70100009", 
        "@name": "Reach Level 50", 
        "@desc": "", 
        "@manual": "", 
        "@complete": "", 
        "@count": "", 
        "@locale": "", 
        "@locking": "0"
      }
    ]
  }
}