{
  "?xml": {
    "@version": "1.0", 
    "@encoding": "utf-8"
  }, 
  "ms2": {
    "key": [
      {
        "@id": "0", 
        "@name": "We must relocate to {0}$ppr$ right now"
      }, 
      {
        "@id": "1", 
        "@name": "Shall we get some support to relocate to {0}$ppr$?"
      }, 
      {
        "@id": "2", 
        "@name": "Now I need to move $ 10 to $ ppr: $."
      }
    ]
  }
}