{
  "?xml": {
    "@version": "1.0", 
    "@encoding": "utf-8"
  }, 
  "ms2": {
    "key": [
      {
        "@id": "1", 
        "@name": ""
      }, 
      {
        "@id": "2", 
        "@name": ""
      }, 
      {
        "@id": "3", 
        "@name": ""
      }, 
      {
        "@id": "4", 
        "@name": ""
      }, 
      {
        "@id": "5", 
        "@name": ""
      }, 
      {
        "@id": "6", 
        "@feature": "Fishing", 
        "@name": ""
      }, 
      {
        "@id": "7", 
        "@name": ""
      }, 
      {
        "@id": "8", 
        "@feature": "MeratMarket", 
        "@name": ""
      }, 
      {
        "@id": "9", 
        "@name": "Safe"
      }, 
      {
        "@id": "10", 
        "@name": ""
      }, 
      {
        "@id": "11", 
        "@name": "Balmy Farm"
      }, 
      {
        "@id": "12", 
        "@feature": "GuildSystem01", 
        "@name": ""
      }, 
      {
        "@id": "13", 
        "@feature": "ArcadeSystem", 
        "@name": ""
      }, 
      {
        "@id": "14", 
        "@name": "Doondun"
      }, 
      {
        "@id": "15", 
        "@name": ""
      }, 
      {
        "@id": "16", 
        "@name": ""
      }, 
      {
        "@id": "17", 
        "@name": ""
      }, 
      {
        "@id": "18", 
        "@name": "Giant Turtle"
      }, 
      {
        "@id": "19", 
        "@name": "Music", 
        "@feature": "MusicInstrument"
      }, 
      {
        "@id": "20", 
        "@name": "Enchantment"
      }, 
      {
        "@id": "21", 
        "@name": "Golma Apartments"
      }, 
      {
        "@id": "22", 
        "@name": ""
      }, 
      {
        "@id": "23", 
        "@name": ""
      }, 
      {
        "@id": "24", 
        "@name": ""
      }, 
      {
        "@id": "25", 
        "@name": ""
      }, 
      {
        "@id": "26", 
        "@name": "Devilin Warrior"
      }, 
      {
        "@id": "27", 
        "@name": ""
      }, 
      {
        "@id": "28", 
        "@name": ""
      }, 
      {
        "@id": "29", 
        "@name": "Griffin"
      }, 
      {
        "@id": "30", 
        "@name": ""
      }, 
      {
        "@id": "31", 
        "@name": "Devilin Chief"
      }, 
      {
        "@id": "32", 
        "@feature": "ShadowCataclysm", 
        "@name": ""
      }, 
      {
        "@id": "33", 
        "@name": ""
      }, 
      {
        "@id": "34", 
        "@name": "MK 52 Alpha"
      }, 
      {
        "@id": "35", 
        "@name": ""
      }, 
      {
        "@id": "36", 
        "@name": ""
      }, 
      {
        "@id": "37", 
        "@name": ""
      }, 
      {
        "@id": "38", 
        "@name": ""
      }, 
      {
        "@id": "39", 
        "@name": "Griffina"
      }, 
      {
        "@id": "40", 
        "@name": ""
      }, 
      {
        "@id": "41", 
        "@name": ""
      }, 
      {
        "@id": "42", 
        "@name": ""
      }, 
      {
        "@id": "43", 
        "@name": ""
      }, 
      {
        "@id": "44", 
        "@name": "Lo and Moomoo"
      }, 
      {
        "@id": "45", 
        "@name": "Vayar Gatekeeper"
      }, 
      {
        "@id": "46", 
        "@name": ""
      }, 
      {
        "@id": "47", 
        "@name": ""
      }, 
      {
        "@id": "48", 
        "@name": ""
      }, 
      {
        "@id": "49", 
        "@name": "Alpha Turtle"
      }, 
      {
        "@id": "50", 
        "@name": ""
      }, 
      {
        "@id": "51", 
        "@name": "Furious Baphomet"
      }, 
      {
        "@id": "52", 
        "@name": "Lernos"
      }, 
      {
        "@id": "53", 
        "@name": ""
      }, 
      {
        "@id": "54", 
        "@name": ""
      }, 
      {
        "@id": "55", 
        "@name": ""
      }, 
      {
        "@id": "56", 
        "@name": ""
      }, 
      {
        "@id": "57", 
        "@name": ""
      }, 
      {
        "@id": "58", 
        "@name": "Toh and Googoo"
      }, 
      {
        "@id": "59", 
        "@name": "The Lumiwind", 
        "@feature": "KarkarIsland"
      }, 
      {
        "@id": "60", 
        "@name": ""
      }, 
      {
        "@id": "61", 
        "@name": "Pekanos"
      }, 
      {
        "@id": "62", 
        "@name": "Amadon", 
        "@feature": "KarkarIsland"
      }, 
      {
        "@id": "63", 
        "@name": ""
      }, 
      {
        "@id": "64", 
        "@name": ""
      }, 
      {
        "@id": "65", 
        "@feature": "AricariDailyQ", 
        "@name": ""
      }, 
      {
        "@id": "67", 
        "@name": "Blue Star", 
        "@feature": "Season3"
      }, 
      {
        "@id": "68", 
        "@name": "Red Star", 
        "@feature": "Season3"
      }, 
      {
        "@id": "69", 
        "@name": "Twisted Pocket Realm", 
        "@feature": "ShadowCrack"
      }, 
      {
        "@id": "70", 
        "@name": "Traits", 
        "@feature": "CharacterAbility"
      }, 
      {
        "@id": "71", 
        "@name": "Gemstone", 
        "@feature": "ItemSocketSystem"
      }, 
      {
        "@id": "73", 
        "@name": ""
      }, 
      {
        "@id": "201", 
        "@name": "Ureus", 
        "@feature": "KarkarIsland"
      }, 
      {
        "@id": "202", 
        "@name": "Ikar Morde", 
        "@feature": "BattleField51to55"
      }, 
      {
        "@id": "203", 
        "@name": "Heartless Baphomet", 
        "@feature": "BattleField51to55"
      }, 
      {
        "@id": "204", 
        "@name": "Acreon", 
        "@feature": "KarkarIsland"
      }, 
      {
        "@id": "205", 
        "@name": ""
      }, 
      {
        "@id": "206", 
        "@name": ""
      }, 
      {
        "@id": "207", 
        "@name": ""
      }, 
      {
        "@id": "208", 
        "@feature": "TimeAttackDungeon", 
        "@name": ""
      }, 
      {
        "@id": "209", 
        "@name": ""
      }, 
      {
        "@id": "210", 
        "@name": ""
      }, 
      {
        "@id": "211", 
        "@name": ""
      }, 
      {
        "@id": "212", 
        "@name": ""
      }, 
      {
        "@id": "213", 
        "@name": ""
      }, 
      {
        "@id": "214", 
        "@name": ""
      }, 
      {
        "@id": "215", 
        "@name": ""
      }, 
      {
        "@id": "216", 
        "@name": ""
      }, 
      {
        "@id": "217", 
        "@name": ""
      }, 
      {
        "@id": "219", 
        "@name": ""
      }, 
      {
        "@id": "220", 
        "@name": ""
      }, 
      {
        "@id": "221", 
        "@name": ""
      }, 
      {
        "@id": "223", 
        "@name": ""
      }, 
      {
        "@id": "224", 
        "@name": ""
      }, 
      {
        "@id": "226", 
        "@name": ""
      }, 
      {
        "@id": "227", 
        "@name": ""
      }, 
      {
        "@id": "228", 
        "@name": ""
      }, 
      {
        "@id": "229", 
        "@name": ""
      }, 
      {
        "@id": "230", 
        "@name": ""
      }, 
      {
        "@id": "231", 
        "@name": ""
      }, 
      {
        "@id": "232", 
        "@name": ""
      }, 
      {
        "@id": "233", 
        "@name": ""
      }, 
      {
        "@id": "234"
      }, 
      {
        "@id": "235"
      }, 
      {
        "@id": "236"
      }, 
      {
        "@id": "237"
      }, 
      {
        "@id": "238"
      }, 
      {
        "@id": "239"
      }, 
      {
        "@id": "240"
      }, 
      {
        "@id": "241"
      }, 
      {
        "@id": "242", 
        "@name": "Former", 
        "@feature": "JobChange_01"
      }, 
      {
        "@id": "243", 
        "@name": "Lapenshard", 
        "@feature": "Lapenshard01"
      }, 
      {
        "@id": "244", 
        "@feature": "LapentaDungeon"
      }, 
      {
        "@id": "245", 
        "@feature": "LapentaDungeon"
      }, 
      {
        "@id": "246", 
        "@feature": "LapentaDungeon"
      }, 
      {
        "@id": "247", 
        "@feature": "LapentaDungeon"
      }, 
      {
        "@id": "248", 
        "@name": "Former", 
        "@feature": "JobChange_01"
      }, 
      {
        "@id": "249", 
        "@name": "Lapenshard", 
        "@feature": "Lapenshard01"
      }, 
      {
        "@id": "250", 
        "@feature": "LapentaDungeon"
      }, 
      {
        "@id": "251", 
        "@feature": "LapentaDungeon"
      }, 
      {
        "@id": "252", 
        "@feature": "LapentaDungeon"
      }, 
      {
        "@id": "253", 
        "@feature": "LapentaDungeon"
      }, 
      {
        "@id": "257"
      }, 
      {
        "@id": "258"
      }, 
      {
        "@id": "259"
      }, 
      {
        "@id": "260", 
        "@feature": "ItemPartyDungeon"
      }, 
      {
        "@id": "261", 
        "@feature": "GuildMinigame01"
      }, 
      {
        "@id": "262", 
        "@feature": "GuildQuest01"
      }, 
      {
        "@id": "263", 
        "@feature": "GuildHouse01"
      }, 
      {
        "@id": "264", 
        "@feature": "Club"
      }, 
      {
        "@id": "265", 
        "@feature": "Mastery"
      }, 
      {
        "@id": "266", 
        "@feature": "Mastery"
      }, 
      {
        "@id": "267", 
        "@feature": "UGCMapRenewal2"
      }, 
      {
        "@id": "268", 
        "@feature": "MagicScroll01"
      }, 
      {
        "@id": "269", 
        "@feature": "GuildRaid01"
      }, 
      {
        "@id": "271", 
        "@feature": "JobChange_02"
      }, 
      {
        "@id": "272", 
        "@feature": "Kritias_2018_12"
      }, 
      {
        "@id": "273", 
        "@feature": "Fieldwar01"
      }, 
      {
        "@id": "274", 
        "@feature": "Gigantica01"
      }, 
      {
        "@id": "275", 
        "@feature": "Kritias_Paika01"
      }, 
      {
        "@id": "276", 
        "@feature": "Kritias_Balrog01"
      }, 
      {
        "@id": "277", 
        "@feature": "Kritias_Zakum01"
      }, 
      {
        "@id": "278", 
        "@feature": "Kritias_Zakum01"
      }, 
      {
        "@id": "279", 
        "@feature": "Kritias_Inferno01"
      }, 
      {
        "@id": "280", 
        "@feature": "Kritias_Inferno01"
      }, 
      {
        "@id": "281", 
        "@feature": "Colosseum01"
      }, 
      {
        "@id": "297", 
        "@name": "Daily Quest"
      }, 
      {
        "@id": "298", 
        "@name": "Blue Star", 
        "@feature": "Season3"
      }, 
      {
        "@id": "299", 
        "@name": "Red Star", 
        "@feature": "Season3"
      }, 
      {
        "@id": "1001", 
        "@name": ""
      }, 
      {
        "@id": "1002", 
        "@name": ""
      }, 
      {
        "@id": "1003", 
        "@name": "Blue Star"
      }, 
      {
        "@id": "1004", 
        "@name": "Red Star"
      }, 
      {
        "@id": "1005", 
        "@name": "Ureus"
      }, 
      {
        "@id": "1006", 
        "@name": "Ikar Morde"
      }, 
      {
        "@id": "1007", 
        "@name": "Heartless Baphomet"
      }, 
      {
        "@id": "1008", 
        "@name": "Acreon"
      }, 
      {
        "@id": "1009", 
        "@name": ""
      }, 
      {
        "@id": "1010", 
        "@name": ""
      }, 
      {
        "@id": "1011", 
        "@name": ""
      }, 
      {
        "@id": "1012", 
        "@name": ""
      }, 
      {
        "@id": "1013", 
        "@name": ""
      }, 
      {
        "@id": "1014", 
        "@name": ""
      }, 
      {
        "@id": "1015", 
        "@name": ""
      }, 
      {
        "@id": "1016", 
        "@name": ""
      }, 
      {
        "@id": "1017", 
        "@name": ""
      }, 
      {
        "@id": "1018", 
        "@name": ""
      }, 
      {
        "@id": "1019", 
        "@name": ""
      }, 
      {
        "@id": "1020", 
        "@name": ""
      }, 
      {
        "@id": "1021", 
        "@name": ""
      }, 
      {
        "@id": "1022", 
        "@name": ""
      }, 
      {
        "@id": "1023", 
        "@name": ""
      }, 
      {
        "@id": "1024", 
        "@name": ""
      }, 
      {
        "@id": "1025", 
        "@name": ""
      }, 
      {
        "@id": "1026", 
        "@name": ""
      }
    ]
  }
}