{
  "?xml": {
    "@version": "1.0", 
    "@encoding": "utf-8"
  }, 
  "ms2": {
    "key": [
      {
        "@id": "0831180408000001", 
        "@feature": "", 
        "@locale": "", 
        "@npc": "갈색버섯", 
        "@name": "I don't want to fight!"
      }, 
      {
        "@id": "0831180408000002", 
        "@feature": "", 
        "@locale": "", 
        "@npc": "파랑버섯", 
        "@name": "I hate fighting!"
      }, 
      {
        "@id": "0831180408000003", 
        "@feature": "", 
        "@locale": "", 
        "@npc": "파랑 뿔버섯", 
        "@name": "Fighting's such a chore..."
      }, 
      {
        "@id": "0831180408000004", 
        "@feature": "", 
        "@locale": "", 
        "@npc": "호니부", 
        "@name": "My heart is at peace."
      }, 
      {
        "@id": "0831180408000005", 
        "@feature": "", 
        "@locale": "", 
        "@npc": "레드 호니부", 
        "@name": "I'm not going to fight!"
      }, 
      {
        "@id": "0831180408000006", 
        "@feature": "", 
        "@locale": "", 
        "@npc": "머쉬밍", 
        "@name": "Did something happen?"
      }, 
      {
        "@id": "0831180408000007", 
        "@feature": "", 
        "@locale": "", 
        "@npc": "펑키 피그", 
        "@name": "I'm hungry... Oink..."
      }, 
      {
        "@id": "0831180408000008", 
        "@feature": "", 
        "@locale": "", 
        "@npc": "파이어 보어", 
        "@name": "I'm a bit tired... Oink..."
      }, 
      {
        "@id": "0831180408000009", 
        "@feature": "", 
        "@locale": "", 
        "@npc": "아이언 호그", 
        "@name": "It's time to clean my helmet! Oink-oink!"
      }, 
      {
        "@id": "0831180408000010", 
        "@feature": "", 
        "@locale": "", 
        "@npc": "바키볼", 
        "@name": "Who are you? Who are you?"
      }, 
      {
        "@id": "0831180408000011", 
        "@feature": "", 
        "@locale": "", 
        "@npc": "동키볼", 
        "@name": "Cease fire! Cease fire!"
      }, 
      {
        "@id": "0831180408000012", 
        "@feature": "", 
        "@locale": "", 
        "@npc": "바키", 
        "@name": "Quack! Quack!"
      }, 
      {
        "@id": "0831180408000013", 
        "@feature": "", 
        "@locale": "", 
        "@npc": "케르베", 
        "@name": "Woof! Who are you?"
      }, 
      {
        "@id": "0831180408000014", 
        "@feature": "", 
        "@locale": "", 
        "@npc": "케로스", 
        "@name": "I hid the treasure, woof!"
      }, 
      {
        "@id": "0831180408000015", 
        "@feature": "", 
        "@locale": "", 
        "@npc": "버크", 
        "@name": "Baa, I only eat the red herbs, baa!"
      }, 
      {
        "@id": "0831180408000016", 
        "@feature": "", 
        "@locale": "", 
        "@npc": "브라운 버크", 
        "@name": "I'm not just any sheep, baaa!"
      }, 
      {
        "@id": "0831180408000017", 
        "@feature": "", 
        "@locale": "", 
        "@npc": "슬라임", 
        "@name": "..."
      }, 
      {
        "@id": "0831180408000018", 
        "@feature": "", 
        "@locale": "", 
        "@npc": "오렌지 슬라임", 
        "@name": "..."
      }, 
      {
        "@id": "0831180408000019", 
        "@feature": "", 
        "@locale": "", 
        "@npc": "퍼플 슬라임", 
        "@name": "..."
      }, 
      {
        "@id": "0831180408000020", 
        "@feature": "", 
        "@locale": "", 
        "@npc": "핑크 슬라임", 
        "@name": "..."
      }, 
      {
        "@id": "0831180408000021", 
        "@feature": "", 
        "@locale": "", 
        "@npc": "네펜투스", 
        "@name": "(Don't step on the flowers.)"
      }, 
      {
        "@id": "0831180408000022", 
        "@feature": "", 
        "@locale": "", 
        "@npc": "네펜데스", 
        "@name": "(Don't step on the flowers.)"
      }, 
      {
        "@id": "0831180408000023", 
        "@feature": "", 
        "@locale": "", 
        "@npc": "스텀프", 
        "@name": "Protect nature! Protect nature!"
      }, 
      {
        "@id": "0831180408000024", 
        "@feature": "", 
        "@locale": "", 
        "@npc": "다크 스텀프", 
        "@name": "Protect nature! Protect nature!"
      }, 
      {
        "@id": "0831180408000025", 
        "@feature": "", 
        "@locale": "", 
        "@npc": "엑스텀프", 
        "@name": "Axe... hurts... "
      }, 
      {
        "@id": "0831180408000026", 
        "@feature": "", 
        "@locale": "", 
        "@npc": "엘리누", 
        "@name": "Do you need healing?"
      }, 
      {
        "@id": "0831180408000027", 
        "@feature": "", 
        "@locale": "", 
        "@npc": "퓨어 엘리누", 
        "@name": "Our fairfolk doesn't like humans..."
      }, 
      {
        "@id": "0831180408000028", 
        "@feature": "", 
        "@locale": "", 
        "@npc": "퓨어 엘랑", 
        "@name": "Humans... scary!"
      }, 
      {
        "@id": "0831180408000029", 
        "@feature": "", 
        "@locale": "", 
        "@npc": "엘랑", 
        "@name": "Humans... don't trust them!"
      }, 
      {
        "@id": "0831180408000030", 
        "@feature": "", 
        "@locale": "", 
        "@npc": "블랑", 
        "@name": "Humans... go away!"
      }, 
      {
        "@id": "0831180408000031", 
        "@feature": "", 
        "@locale": "", 
        "@npc": "핑크 엘랑", 
        "@name": "Humans... leave me alone!"
      }, 
      {
        "@id": "0831180408000032", 
        "@feature": "", 
        "@locale": "", 
        "@npc": "커즈아이", 
        "@name": "Flies... I want to eat them... "
      }, 
      {
        "@id": "0831180408000033", 
        "@feature": "", 
        "@locale": "", 
        "@npc": "이블아이", 
        "@name": "Mosquitoes... I want to eat them... "
      }, 
      {
        "@id": "0831180408000034", 
        "@feature": "", 
        "@locale": "", 
        "@npc": "라바아이", 
        "@name": "Cockroaches... I want to eat them... "
      }, 
      {
        "@id": "0831180408000035", 
        "@feature": "", 
        "@locale": "", 
        "@npc": "스컬 크래비", 
        "@name": "Crabby corn dog? Is that... good?"
      }, 
      {
        "@id": "0831180408000036", 
        "@feature": "", 
        "@locale": "", 
        "@npc": "다크 크래비", 
        "@name": "Come visit my home... "
      }, 
      {
        "@id": "0831180408000037", 
        "@feature": "", 
        "@locale": "", 
        "@npc": "블루 크래비", 
        "@name": "Crabby walk forward..."
      }, 
      {
        "@id": "0831180408000038", 
        "@feature": "", 
        "@locale": "", 
        "@npc": "파랑 류호", 
        "@name": "Growl..."
      }, 
      {
        "@id": "0831180408000039", 
        "@feature": "", 
        "@locale": "", 
        "@npc": "붉은 류호", 
        "@name": "Growl..."
      }, 
      {
        "@id": "0831180408000040", 
        "@feature": "", 
        "@locale": "", 
        "@npc": "툼바 샤모스", 
        "@name": "This is the power of Lapenta!"
      }, 
      {
        "@id": "0831180408000041", 
        "@feature": "", 
        "@locale": "", 
        "@npc": "리카오", 
        "@name": "Woof!"
      }, 
      {
        "@id": "0831180408000042", 
        "@feature": "", 
        "@locale": "", 
        "@npc": "할리카오", 
        "@name": "Woof! Woof, woof!"
      }, 
      {
        "@id": "0831180408000043", 
        "@feature": "", 
        "@locale": "", 
        "@npc": "플라카", 
        "@name": "Dance with us!"
      }, 
      {
        "@id": "0831180408000044", 
        "@feature": "", 
        "@locale": "", 
        "@npc": "하투카", 
        "@name": "We'll show you an awesome dance!"
      }, 
      {
        "@id": "0831180408000045", 
        "@feature": "", 
        "@locale": "", 
        "@npc": "클루카", 
        "@name": "Want to dance?"
      }, 
      {
        "@id": "0831180408000046", 
        "@feature": "", 
        "@locale": "", 
        "@npc": "파파 키요", 
        "@name": "Caw! Have you seen my husband?"
      }, 
      {
        "@id": "0831180408000047", 
        "@feature": "", 
        "@locale": "", 
        "@npc": "마마 키요", 
        "@name": "Caw, caw! My wife nags so much!"
      }, 
      {
        "@id": "0831180408000048", 
        "@feature": "", 
        "@locale": "", 
        "@npc": "꿈틀이", 
        "@name": "..."
      }, 
      {
        "@id": "0831180408000049", 
        "@feature": "", 
        "@locale": "", 
        "@npc": "트릭스터", 
        "@name": "..."
      }, 
      {
        "@id": "0831180408000050", 
        "@feature": "", 
        "@locale": "", 
        "@npc": "코브라", 
        "@name": "Hiss, hiss..."
      }, 
      {
        "@id": "0831180408000051", 
        "@feature": "", 
        "@locale": "", 
        "@npc": "그루몽", 
        "@name": "Did you know that fairy water works as an antidote?"
      }, 
      {
        "@id": "0831180408000052", 
        "@feature": "", 
        "@locale": "", 
        "@npc": "다크 우디", 
        "@name": "I'm moving... "
      }, 
      {
        "@id": "0831180408000053", 
        "@feature": "", 
        "@locale": "", 
        "@npc": "다크 우다다", 
        "@name": "I'm talking... "
      }, 
      {
        "@id": "0831180408000054", 
        "@feature": "", 
        "@locale": "", 
        "@npc": "트윙코", 
        "@name": "Seen something shiny around?"
      }, 
      {
        "@id": "0831180408000055", 
        "@feature": "", 
        "@locale": "", 
        "@npc": "트윙카", 
        "@name": "That thing around your neck... Not bad..."
      }, 
      {
        "@id": "0831180408000056", 
        "@feature": "", 
        "@locale": "", 
        "@npc": "트윙키", 
        "@name": "The treasure is hidden."
      }, 
      {
        "@id": "0831180408000057", 
        "@feature": "", 
        "@locale": "", 
        "@npc": "트윙쿠", 
        "@name": "Seen something shiny?"
      }, 
      {
        "@id": "0831180408000058", 
        "@feature": "", 
        "@locale": "", 
        "@npc": "라바골렘", 
        "@name": "Soulless... existence..."
      }, 
      {
        "@id": "0831180408000059", 
        "@feature": "", 
        "@locale": "", 
        "@npc": "버려진 바야르 수호병", 
        "@name": "Leave... Vayar Mountain... "
      }, 
      {
        "@id": "0831180408000060", 
        "@feature": "", 
        "@locale": "", 
        "@npc": "아이볼", 
        "@name": "Squeak! Squeak!"
      }, 
      {
        "@id": "0831180408000061", 
        "@feature": "", 
        "@locale": "", 
        "@npc": "젤라임", 
        "@name": "Rumble, rumble..."
      }, 
      {
        "@id": "0831180408000062", 
        "@feature": "", 
        "@locale": "", 
        "@npc": "젤리비", 
        "@name": "The honey is all ours!"
      }, 
      {
        "@id": "0831180408000063", 
        "@feature": "", 
        "@locale": "", 
        "@npc": "마스크 블런트", 
        "@name": "Not enough exercise these days..."
      }, 
      {
        "@id": "0831180408000064", 
        "@feature": "", 
        "@locale": "", 
        "@npc": "마스크 블레이더", 
        "@name": "Hm... Are you a black belt?"
      }, 
      {
        "@id": "0831180408000065", 
        "@feature": "", 
        "@locale": "", 
        "@npc": "마스크 에스퍼", 
        "@name": "Best not to loiter around Golden Tower."
      }, 
      {
        "@id": "0831180408000066", 
        "@feature": "", 
        "@locale": "", 
        "@npc": "마스크 스팅어", 
        "@name": "If you find something suspicious, take it to Golden Tower."
      }, 
      {
        "@id": "0831180408000067", 
        "@feature": "", 
        "@locale": "", 
        "@npc": "포이즌 팔로스", 
        "@name": "Heeey... When does the calibration end?"
      }, 
      {
        "@id": "0831180408000068", 
        "@feature": "", 
        "@locale": "", 
        "@npc": "프로스트 팔로스", 
        "@name": "You think I'll carry you?"
      }, 
      {
        "@id": "0831180408000069", 
        "@feature": "", 
        "@locale": "", 
        "@npc": "디스트로보 R", 
        "@name": "System malfunction! System malfunction!"
      }, 
      {
        "@id": "0831180408000070", 
        "@feature": "", 
        "@locale": "", 
        "@npc": "오버로이 R", 
        "@name": "System error... Beep... "
      }, 
      {
        "@id": "0831180408000071", 
        "@feature": "", 
        "@locale": "", 
        "@npc": "디스트로보 B", 
        "@name": "System malfunction! System malfunction!"
      }, 
      {
        "@id": "0831180408000072", 
        "@feature": "", 
        "@locale": "", 
        "@npc": "오버로이 B", 
        "@name": "System error... Beep... "
      }, 
      {
        "@id": "0831180408000073", 
        "@feature": "", 
        "@locale": "", 
        "@npc": "디스트로보 D", 
        "@name": "System malfunction! System malfunction!"
      }, 
      {
        "@id": "0831180408000074", 
        "@feature": "", 
        "@locale": "", 
        "@npc": "오버로이 D", 
        "@name": "System error... Beep... "
      }, 
      {
        "@id": "0831180408000075", 
        "@feature": "", 
        "@locale": "", 
        "@npc": "루빅스", 
        "@name": "Screech, screech..."
      }, 
      {
        "@id": "0831180408000076", 
        "@feature": "", 
        "@locale": "", 
        "@npc": "아이스루빅스", 
        "@name": "Screech, screech..."
      }, 
      {
        "@id": "0831180408000077", 
        "@feature": "", 
        "@locale": "", 
        "@npc": "블랙 루빅스", 
        "@name": "Screech, screech..."
      }, 
      {
        "@id": "0831180408000078", 
        "@feature": "", 
        "@locale": "", 
        "@npc": "다크 스켈릭 소드맨", 
        "@name": "Death is relaxing... "
      }, 
      {
        "@id": "0831180408000079", 
        "@feature": "", 
        "@locale": "", 
        "@npc": "다크 스켈릭 워리어", 
        "@name": "Darkness and shadows unite... "
      }, 
      {
        "@id": "0831180408000080", 
        "@feature": "", 
        "@locale": "", 
        "@npc": "다크 스켈릭 제너럴", 
        "@name": "The voices of the dead cannot be silenced... "
      }, 
      {
        "@id": "0831180408000081", 
        "@feature": "", 
        "@locale": "", 
        "@npc": "머미", 
        "@name": "Death is a new beginning... "
      }, 
      {
        "@id": "0831180408000082", 
        "@feature": "", 
        "@locale": "", 
        "@npc": "리틀머미", 
        "@name": "I want to find... eternal rest... "
      }, 
      {
        "@id": "0831180408000083", 
        "@feature": "", 
        "@locale": "", 
        "@npc": "젬스톤 투가", 
        "@name": "Turtle eggs? Those aren't tasty!"
      }, 
      {
        "@id": "0831180408000084", 
        "@feature": "", 
        "@locale": "", 
        "@npc": "꼬꼬 더 쵸파", 
        "@name": "Cock-a-doodle-do! Sorry, was that loud?"
      }, 
      {
        "@id": "0831180408000085", 
        "@feature": "", 
        "@locale": "", 
        "@npc": "치킨 더 쵸파", 
        "@name": "Cluck cluck! Cluck!"
      }, 
      {
        "@id": "0831180408000086", 
        "@feature": "", 
        "@locale": "", 
        "@npc": "루스터 더 쵸파", 
        "@name": "Looks like you found something tasty... Stop staring!"
      }, 
      {
        "@id": "0831180408000087", 
        "@feature": "", 
        "@locale": "", 
        "@npc": "꼬꼬 더 피처", 
        "@name": "An egg has arrived! An egg!"
      }, 
      {
        "@id": "0831180408000088", 
        "@feature": "", 
        "@locale": "", 
        "@npc": "뚜러뻥 오리", 
        "@name": "These days I'm too stopped up... quack quack!"
      }, 
      {
        "@id": "0831180408000089", 
        "@feature": "", 
        "@locale": "", 
        "@npc": "뚜러뻥 꽥꽥이", 
        "@name": "So many darn flies! Quack quack!"
      }, 
      {
        "@id": "0831180408000090", 
        "@feature": "", 
        "@locale": "", 
        "@npc": "뚜러뻥 꽉꽉이", 
        "@name": "Call me if your toilet gets clogged, quack quack!"
      }, 
      {
        "@id": "0831180408000091", 
        "@feature": "", 
        "@locale": "", 
        "@npc": "뿌뿌 테니", 
        "@name": "Play with me... "
      }, 
      {
        "@id": "0831180408000092", 
        "@feature": "", 
        "@locale": "", 
        "@npc": "통통 레티", 
        "@name": "TA-DAAAAH!"
      }, 
      {
        "@id": "0831180408000093", 
        "@feature": "", 
        "@locale": "", 
        "@npc": "미스트 좀비맘", 
        "@name": "My head hurts so much... I can't remember... "
      }, 
      {
        "@id": "0831180408000094", 
        "@feature": "", 
        "@locale": "", 
        "@npc": "쿨리 좀비맘", 
        "@name": "Ahhhh... My head is killing me... "
      }, 
      {
        "@id": "0831180408000095", 
        "@feature": "", 
        "@locale": "", 
        "@npc": "사이즈 좀비맘", 
        "@name": "What happened to me... "
      }, 
      {
        "@id": "0831180408000096", 
        "@feature": "", 
        "@locale": "", 
        "@npc": "클로 좀비", 
        "@name": "Ehhh... My body...!"
      }, 
      {
        "@id": "0831180408000097", 
        "@feature": "", 
        "@locale": "", 
        "@npc": "파이프 좀비", 
        "@name": "Aaaah... it hurts... "
      }, 
      {
        "@id": "0831180408000098", 
        "@feature": "", 
        "@locale": "", 
        "@npc": "버섯 좀비", 
        "@name": "I can't take it anymore... "
      }, 
      {
        "@id": "0831180408000099", 
        "@feature": "", 
        "@locale": "", 
        "@npc": "데브로", 
        "@name": "Kee-aak! This strength...! What is it?"
      }, 
      {
        "@id": "0831180408000100", 
        "@feature": "", 
        "@locale": "", 
        "@npc": "데비아", 
        "@name": "Lapenta...!"
      }, 
      {
        "@id": "0831180408000101", 
        "@feature": "", 
        "@locale": "", 
        "@npc": "데블 스티지", 
        "@name": "Ahhhhhh... "
      }, 
      {
        "@id": "0831180408000102", 
        "@feature": "", 
        "@locale": "", 
        "@npc": "이블 스티지", 
        "@name": "Gahhhhhh... "
      }, 
      {
        "@id": "0831180408000103", 
        "@feature": "", 
        "@locale": "", 
        "@npc": "화이트 룩", 
        "@name": "I am the lord of this castle."
      }, 
      {
        "@id": "0831180408000104", 
        "@feature": "", 
        "@locale": "", 
        "@npc": "화이트 비숍", 
        "@name": "Is this strangeness the will of the gods? "
      }, 
      {
        "@id": "0831180408000105", 
        "@feature": "", 
        "@locale": "", 
        "@npc": "화이트 폰", 
        "@name": "Stop."
      }, 
      {
        "@id": "0831180408000106", 
        "@feature": "", 
        "@locale": "", 
        "@npc": "폰글랫", 
        "@name": "Shut up, I'm heading out."
      }, 
      {
        "@id": "0831180408000107", 
        "@feature": "", 
        "@locale": "", 
        "@npc": "폰글랫 바바", 
        "@name": "Meeeesoooo."
      }, 
      {
        "@id": "0831180408000108", 
        "@feature": "", 
        "@locale": "", 
        "@npc": "폰글랫 붐", 
        "@name": "Oh, my! I heard of something delicious... Was it called rib eye?"
      }, 
      {
        "@id": "0831180408000109", 
        "@feature": "", 
        "@locale": "", 
        "@npc": "달곰", 
        "@name": "Calling me a stupid animal... I hear everything."
      }, 
      {
        "@id": "0831180408000110", 
        "@feature": "", 
        "@locale": "", 
        "@npc": "인디곰", 
        "@name": "Vandalism? What are you talking about?"
      }, 
      {
        "@id": "0831180408000111", 
        "@feature": "", 
        "@locale": "", 
        "@npc": "판다곰", 
        "@name": "Mother said not to play with your food."
      }, 
      {
        "@id": "0831180408000112", 
        "@feature": "", 
        "@locale": "", 
        "@npc": "아기 인디곰", 
        "@name": "I picked up a hat on the road today."
      }, 
      {
        "@id": "0831180408000113", 
        "@feature": "", 
        "@locale": "", 
        "@npc": "아기 판다곰", 
        "@name": "I dream of becoming a dancer someday."
      }, 
      {
        "@id": "0831180408000114", 
        "@feature": "", 
        "@locale": "", 
        "@npc": "프로토이드-D", 
        "@name": "Switching to standby mode."
      }, 
      {
        "@id": "0831180408000115", 
        "@feature": "", 
        "@locale": "", 
        "@npc": "프로토이드-O", 
        "@name": "Switching to standby mode."
      }, 
      {
        "@id": "0831180408000116", 
        "@feature": "", 
        "@locale": "", 
        "@npc": "프로토이드-R", 
        "@name": "Switching to standby mode."
      }, 
      {
        "@id": "0831180408000117", 
        "@feature": "", 
        "@locale": "", 
        "@npc": "네오로이드-D", 
        "@name": "How can I help you?"
      }, 
      {
        "@id": "0831180408000118", 
        "@feature": "", 
        "@locale": "", 
        "@npc": "네오로이드-O", 
        "@name": "How can I help you?"
      }, 
      {
        "@id": "0831180408000119", 
        "@feature": "", 
        "@locale": "", 
        "@npc": "네오로이드-R", 
        "@name": "How can I help you?"
      }, 
      {
        "@id": "0831180408000120", 
        "@feature": "", 
        "@locale": "", 
        "@npc": "제노로이드-D", 
        "@name": "Just give the order!"
      }, 
      {
        "@id": "0831180408000121", 
        "@feature": "", 
        "@locale": "", 
        "@npc": "제노로이드-O", 
        "@name": "Just give the order!"
      }, 
      {
        "@id": "0831180408000122", 
        "@feature": "", 
        "@locale": "", 
        "@npc": "제노로이드-R", 
        "@name": "Just give the order!"
      }, 
      {
        "@id": "0831180408000123", 
        "@feature": "", 
        "@locale": "", 
        "@npc": "프릴드", 
        "@name": "Shoes? Shoes? Have you seen? Have you?"
      }, 
      {
        "@id": "0831180408000124", 
        "@feature": "", 
        "@locale": "", 
        "@npc": "프릴럼", 
        "@name": "What? Who is it? What's going on?"
      }, 
      {
        "@id": "0831180408000125", 
        "@feature": "", 
        "@locale": "", 
        "@npc": "주니어 프릴드", 
        "@name": "Krrrrrkkk... Krrrrrkkk... "
      }, 
      {
        "@id": "0831180408000126", 
        "@feature": "", 
        "@locale": "", 
        "@npc": "주니어 프릴럼", 
        "@name": "Krrrrrkkk... Krrrrrkkk... "
      }, 
      {
        "@id": "0831180408000127", 
        "@feature": "", 
        "@locale": "", 
        "@npc": "화염의 살라멘더", 
        "@name": "Lapenta! Lapenta!"
      }, 
      {
        "@id": "0831180408000128", 
        "@feature": "", 
        "@locale": "", 
        "@npc": "대지의 살라멘더", 
        "@name": "Lapenta! Lapenta!"
      }, 
      {
        "@id": "0831180408000129", 
        "@feature": "", 
        "@locale": "", 
        "@npc": "어니로비", 
        "@name": "Some call me... the onion knight."
      }, 
      {
        "@id": "0831180408000130", 
        "@feature": "", 
        "@locale": "", 
        "@npc": "어니링", 
        "@name": "The seeds of the world tree gave me strength."
      }, 
      {
        "@id": "0831180408000131", 
        "@feature": "", 
        "@locale": "", 
        "@npc": "포레스트 롤링 리버", 
        "@name": "Krrrkk... Krrrkk..."
      }, 
      {
        "@id": "0831180408000132", 
        "@feature": "", 
        "@locale": "", 
        "@npc": "마그마 롤링 리버", 
        "@name": "Krrrkk... Krrrkk..."
      }, 
      {
        "@id": "0831180408000133", 
        "@feature": "", 
        "@locale": "", 
        "@npc": "아쿠아 롤링 리버", 
        "@name": "Krrrkk... Krrrkk..."
      }, 
      {
        "@id": "0831180408000134", 
        "@feature": "", 
        "@locale": "", 
        "@npc": "마그마 톱스 리버", 
        "@name": "Krrrkk... Krrrkk..."
      }, 
      {
        "@id": "0831180408000135", 
        "@feature": "", 
        "@locale": "", 
        "@npc": "드레이코 보초병", 
        "@name": "All we have to do is follow their orders."
      }, 
      {
        "@id": "0831180408000136", 
        "@feature": "", 
        "@locale": "", 
        "@npc": "드라콘 순찰병", 
        "@name": "What is happening to the world?"
      }, 
      {
        "@id": "0831180408000137", 
        "@feature": "", 
        "@locale": "", 
        "@npc": "코볼크", 
        "@name": "Keuhehe... Want this...?"
      }, 
      {
        "@id": "0831180408000138", 
        "@feature": "", 
        "@locale": "", 
        "@npc": "코볼쿠", 
        "@name": "Kee hee hee... Don't interrupt..."
      }, 
      {
        "@id": "0831180408000139", 
        "@feature": "", 
        "@locale": "", 
        "@npc": "전마군 보초병", 
        "@name": "Kee... Lapenta... Not now!"
      }, 
      {
        "@id": "0831180408000140", 
        "@feature": "", 
        "@locale": "", 
        "@npc": "킹 블록 골렘 Y", 
        "@name": "It's a familiar power... "
      }, 
      {
        "@id": "0831180408000141", 
        "@feature": "", 
        "@locale": "", 
        "@npc": "킹 블록 골렘 B", 
        "@name": "Not strange at all..."
      }, 
      {
        "@id": "0831180408000142", 
        "@feature": "", 
        "@locale": "", 
        "@npc": "킹 블록 골렘 O", 
        "@name": "Find the pocket realm... "
      }, 
      {
        "@id": "0831180408000143", 
        "@feature": "", 
        "@locale": "", 
        "@npc": "블록 골렘 Y", 
        "@name": "I have to go back... "
      }, 
      {
        "@id": "0831180408000144", 
        "@feature": "", 
        "@locale": "", 
        "@npc": "블록 골렘 B", 
        "@name": "This land is unfamiliar..."
      }, 
      {
        "@id": "0831180408000145", 
        "@feature": "", 
        "@locale": "", 
        "@npc": "블록 골렘 O", 
        "@name": "I got lost in the Temporal Crevice... "
      }, 
      {
        "@id": "0831180408000146", 
        "@feature": "", 
        "@locale": "", 
        "@npc": "랍피온", 
        "@name": "How interesting... To be talking to a human..."
      }, 
      {
        "@id": "0831180408000147", 
        "@feature": "", 
        "@locale": "", 
        "@npc": "주니어 프로투스", 
        "@name": "Human... I suggest you not get ahead of yourself."
      }, 
      {
        "@id": "0831180408000148", 
        "@feature": "", 
        "@locale": "", 
        "@npc": "턱권단 입문생", 
        "@name": "I'll train as hard as I can, and then take revenge... Ow, owww!"
      }, 
      {
        "@id": "0831180408000149", 
        "@feature": "", 
        "@locale": "", 
        "@npc": "턱권단 수련생", 
        "@name": "Jawbreakers never give up!"
      }, 
      {
        "@id": "0831180408000150", 
        "@feature": "", 
        "@locale": "", 
        "@npc": "턱권단 사부", 
        "@name": "Hey, you! You wanna join the Jawbreakers?"
      }, 
      {
        "@id": "0831180408000151", 
        "@feature": "", 
        "@locale": "", 
        "@npc": "말괄량이 니꾸르", 
        "@name": "Kreee, kreeee! We await our prince!"
      }, 
      {
        "@id": "0831180408000152", 
        "@feature": "", 
        "@locale": "", 
        "@npc": "니꾸르 메이드", 
        "@name": "I was thrown out of Helping Hands! Kreee, kreeee!"
      }, 
      {
        "@id": "0831180408000153", 
        "@feature": "", 
        "@locale": "", 
        "@npc": "니꾸르 버틀러", 
        "@name": "Shall I bring a cup of warm tea? Oh, right, I finished it all. Kreee, kreeee!"
      }, 
      {
        "@id": "0831180408000154", 
        "@feature": "", 
        "@locale": "", 
        "@npc": "키파스 카", 
        "@name": "What mysterious strength..."
      }, 
      {
        "@id": "0831180408000155", 
        "@feature": "", 
        "@locale": "", 
        "@npc": "키로 카", 
        "@name": "These are surely the tricks of the unknown."
      }, 
      {
        "@id": "0831180408000156", 
        "@feature": "", 
        "@locale": "", 
        "@npc": "나파스 테", 
        "@name": "What mysterious strength..."
      }, 
      {
        "@id": "0831180408000157", 
        "@feature": "", 
        "@locale": "", 
        "@npc": "나로 테", 
        "@name": "These are surely the tricks of the unknown."
      }, 
      {
        "@id": "0831180408000158", 
        "@feature": "", 
        "@locale": "", 
        "@npc": "이파스 뮤", 
        "@name": "What mysterious strength..."
      }, 
      {
        "@id": "0831180408000159", 
        "@feature": "", 
        "@locale": "", 
        "@npc": "이로 뮤", 
        "@name": "These are surely the tricks of the unknown."
      }, 
      {
        "@id": "0831180408000160", 
        "@feature": "", 
        "@locale": "", 
        "@npc": "나무 스포아", 
        "@name": "I just want to live here with my friends in peace... "
      }, 
      {
        "@id": "0831180408000161", 
        "@feature": "", 
        "@locale": "", 
        "@npc": "고지대 스포아", 
        "@name": "Haven't you heard? Great things come in small packages!"
      }, 
      {
        "@id": "0831180408000162", 
        "@feature": "", 
        "@locale": "", 
        "@npc": "강가 스포아", 
        "@name": "A warm, damp area... This must be heaven!"
      }, 
      {
        "@id": "0831180408000163", 
        "@feature": "", 
        "@locale": "", 
        "@npc": "도굴꾼 트윙키", 
        "@name": "Grave robbing? There's no such thing."
      }, 
      {
        "@id": "0831180408000164", 
        "@feature": "", 
        "@locale": "", 
        "@npc": "보이드 골렘", 
        "@name": "Leave... "
      }, 
      {
        "@id": "0831180408000165", 
        "@feature": "", 
        "@locale": "", 
        "@npc": "숲속 젤리비", 
        "@name": "Such a sweet smell! I think it's somewhere around here... "
      }, 
      {
        "@id": "0831180408000166", 
        "@feature": "", 
        "@locale": "", 
        "@npc": "툼바 니바", 
        "@name": "Lapenta has unified us! We are one!"
      }, 
      {
        "@id": "0831180408000167", 
        "@feature": "", 
        "@locale": "", 
        "@npc": "럼블빈", 
        "@name": "Hiding here will ensure our safety."
      }, 
      {
        "@id": "0831180408000168", 
        "@feature": "", 
        "@locale": "", 
        "@npc": "럼블넛", 
        "@name": "I can't find it... Oriole?"
      }, 
      {
        "@id": "0831180408000169", 
        "@feature": "", 
        "@locale": "", 
        "@npc": "럼블쏜", 
        "@name": "Do you see me?"
      }, 
      {
        "@id": "0831180408000170", 
        "@feature": "", 
        "@locale": "", 
        "@npc": "스켈릭 소드맨", 
        "@name": "Have you ever been tombstoned?"
      }, 
      {
        "@id": "0831180408000171", 
        "@feature": "", 
        "@locale": "", 
        "@npc": "스켈릭 워리어", 
        "@name": "Do not fear death. "
      }, 
      {
        "@id": "0831180408000172", 
        "@feature": "", 
        "@locale": "", 
        "@npc": "스켈릭 제너럴", 
        "@name": "To meet the living face-to-face... "
      }, 
      {
        "@id": "0831180408000173", 
        "@feature": "", 
        "@locale": "", 
        "@npc": "용암 도구리", 
        "@name": "Robbing, robbing, rob-bing!"
      }, 
      {
        "@id": "0831180408000174", 
        "@feature": "", 
        "@locale": "", 
        "@npc": "용암 날구리", 
        "@name": "Digging, digging, dig-ging!"
      }, 
      {
        "@id": "0831180408000175", 
        "@feature": "", 
        "@locale": "", 
        "@npc": "용암 마구리", 
        "@name": "Taking, taking, ta-king!"
      }, 
      {
        "@id": "0831180408000176", 
        "@feature": "", 
        "@locale": "", 
        "@npc": "도구리", 
        "@name": "Robbing, robbing, rob-bing!"
      }, 
      {
        "@id": "0831180408000177", 
        "@feature": "", 
        "@locale": "", 
        "@npc": "날구리", 
        "@name": "Digging, digging, dig-ging!"
      }, 
      {
        "@id": "0831180408000178", 
        "@feature": "", 
        "@locale": "", 
        "@npc": "마구리", 
        "@name": "Taking, taking, ta-king!"
      }, 
      {
        "@id": "0831180408000179", 
        "@feature": "", 
        "@locale": "", 
        "@npc": "오크토마기", 
        "@name": "... "
      }, 
      {
        "@id": "0831180408000180", 
        "@feature": "", 
        "@locale": "", 
        "@npc": "체리토마기", 
        "@name": "... "
      }, 
      {
        "@id": "0831180408000181", 
        "@feature": "", 
        "@locale": "", 
        "@npc": "패닉 꼬마토끼", 
        "@name": "Hurts... hurts..."
      }, 
      {
        "@id": "0831180408000182", 
        "@feature": "", 
        "@locale": "", 
        "@npc": "패닉 대롱토끼", 
        "@name": "I've been tombstoned... "
      }, 
      {
        "@id": "0831180408000183", 
        "@feature": "", 
        "@locale": "", 
        "@npc": "패닉 곰토끼", 
        "@name": "Am I dead?"
      }, 
      {
        "@id": "0831180408000184", 
        "@feature": "", 
        "@locale": "", 
        "@npc": "이블 꼬마토끼", 
        "@name": "It hurts... "
      }, 
      {
        "@id": "0831180408000185", 
        "@feature": "", 
        "@locale": "", 
        "@npc": "이블 대롱토끼", 
        "@name": "I passed a strange gate... "
      }, 
      {
        "@id": "0831180408000186", 
        "@feature": "", 
        "@locale": "", 
        "@npc": "이블 곰토끼", 
        "@name": "I'm not a weak bunny anymore!"
      }, 
      {
        "@id": "0831180408000187", 
        "@feature": "", 
        "@locale": "", 
        "@npc": "호러 꼬마토끼", 
        "@name": "The pain won't go away... "
      }, 
      {
        "@id": "0831180408000188", 
        "@feature": "", 
        "@locale": "", 
        "@npc": "호러 대롱토끼", 
        "@name": "I fell from a cliff... "
      }, 
      {
        "@id": "0831180408000189", 
        "@feature": "", 
        "@locale": "", 
        "@npc": "호러 곰토끼", 
        "@name": "What happened...?"
      }, 
      {
        "@id": "0831180408000190", 
        "@feature": "", 
        "@locale": "", 
        "@npc": "툼바 코바", 
        "@name": "Lapenta will not resonate forever..."
      }, 
      {
        "@id": "0831180408000191", 
        "@feature": "", 
        "@locale": "", 
        "@npc": "오투몽", 
        "@name": "You know that fairies dislike humans, right? That means you!"
      }, 
      {
        "@id": "0831180408000192", 
        "@feature": "", 
        "@locale": "", 
        "@npc": "레투몽", 
        "@name": "Oh? You learn quickly, human!"
      }, 
      {
        "@id": "0831180408000193", 
        "@feature": "", 
        "@locale": "", 
        "@npc": "코볼칸", 
        "@name": "Constant exercise is the key to a healthy body."
      }, 
      {
        "@id": "0831180408000194", 
        "@feature": "", 
        "@locale": "", 
        "@npc": "코볼켄", 
        "@name": "Hey, you! Get out of the way!"
      }, 
      {
        "@id": "0831180408000195", 
        "@feature": "", 
        "@locale": "", 
        "@npc": "다이어 스티지", 
        "@name": "Keeeee... "
      }, 
      {
        "@id": "0831180408000196", 
        "@feature": "", 
        "@locale": "", 
        "@npc": "바야르의 수호병", 
        "@name": "No one is allowed inside Vayar Mountain... "
      }, 
      {
        "@id": "0831180408000197", 
        "@feature": "", 
        "@locale": "", 
        "@npc": "바야르의 수호병", 
        "@name": "Do not covet the ancient treasure... "
      }, 
      {
        "@id": "0831180408000198", 
        "@feature": "", 
        "@locale": "", 
        "@npc": "바야르의 수호병", 
        "@name": "Protect Vayar Mountain... "
      }, 
      {
        "@id": "0831180408000199", 
        "@feature": "", 
        "@locale": "", 
        "@npc": "바야르의 수호병", 
        "@name": "This is a holy land... "
      }, 
      {
        "@id": "0831180408000200", 
        "@feature": "", 
        "@locale": "", 
        "@npc": "지란트", 
        "@name": "Keee kee kee... "
      }, 
      {
        "@id": "0831180408000201", 
        "@feature": "", 
        "@locale": "", 
        "@npc": "로로의 네펜투스", 
        "@name": "(Don't step on the flowers.)"
      }, 
      {
        "@id": "1228151408000494", 
        "@feature": "", 
        "@locale": "", 
        "@npc": "카를", 
        "@name": "Kabo! I will heal you."
      }, 
      {
        "@id": "1228151408000495", 
        "@feature": "", 
        "@locale": "", 
        "@npc": "카를", 
        "@name": "Move! You're in the way of the healing!"
      }, 
      {
        "@id": "1228151408000496", 
        "@feature": "", 
        "@locale": "", 
        "@npc": "카를", 
        "@name": "Don't interrupt Kabo's treatment!"
      }, 
      {
        "@id": "0831180408000203", 
        "@feature": "", 
        "@locale": "", 
        "@npc": "데블린 주니어", 
        "@name": "Kee... This strength... I can't handle it..."
      }, 
      {
        "@id": "0831180408000204", 
        "@feature": "", 
        "@locale": "", 
        "@npc": "데보라크 주니어", 
        "@name": "Intruder!"
      }, 
      {
        "@id": "0831180408000205", 
        "@feature": "", 
        "@locale": "", 
        "@npc": "데보라크 주니어", 
        "@name": "Ah! Devorak!"
      }, 
      {
        "@id": "0916174708000439", 
        "@feature": "", 
        "@locale": "", 
        "@npc": "데보라크 주니어", 
        "@name": "Heal Devorak!"
      }, 
      {
        "@id": "1011145508000508", 
        "@feature": "", 
        "@locale": "", 
        "@npc": "데보라크 주니어", 
        "@name": "Heal Devorak!"
      }, 
      {
        "@id": "1011145508000509", 
        "@feature": "", 
        "@locale": "", 
        "@npc": "데보라크 주니어", 
        "@name": "Heal Devorak!"
      }, 
      {
        "@id": "0831180408000208", 
        "@feature": "", 
        "@locale": "", 
        "@npc": "데블린 주니어", 
        "@name": "It hurts to breathe... "
      }, 
      {
        "@id": "0831180408000210", 
        "@feature": "", 
        "@locale": "", 
        "@npc": "데블린 주니어", 
        "@name": "Ack! Should I back off for now? "
      }, 
      {
        "@id": "0831180408000211", 
        "@feature": "", 
        "@locale": "", 
        "@npc": "데블린 주니어", 
        "@name": "Argh... Lapenta's strength...!"
      }, 
      {
        "@id": "0831180408000212", 
        "@feature": "", 
        "@locale": "", 
        "@npc": "데블린 주니어", 
        "@name": "It's... It's probably best to back away!"
      }, 
      {
        "@id": "0831180408000213", 
        "@feature": "", 
        "@locale": "", 
        "@npc": "다이어 스티지", 
        "@name": "Get the interloper!"
      }, 
      {
        "@id": "0831180408000214", 
        "@feature": "", 
        "@locale": "", 
        "@npc": "다이어 스티지", 
        "@name": "Keeeee... "
      }, 
      {
        "@id": "0831180408000215", 
        "@feature": "", 
        "@locale": "", 
        "@npc": "경호원 검사", 
        "@name": "What seems to be the problem?"
      }, 
      {
        "@id": "0831180408000216", 
        "@feature": "", 
        "@locale": "", 
        "@npc": "경호원 검사", 
        "@name": "Come at me!"
      }, 
      {
        "@id": "0831180408000217", 
        "@feature": "", 
        "@locale": "", 
        "@npc": "경호원 검사", 
        "@name": "I won't let you get away!"
      }, 
      {
        "@id": "0831180408000218", 
        "@feature": "", 
        "@locale": "", 
        "@npc": "경호원 창병", 
        "@name": "What seems to be the problem?"
      }, 
      {
        "@id": "0831180408000219", 
        "@feature": "", 
        "@locale": "", 
        "@npc": "경호원 창병", 
        "@name": "Attacking fearlessly!"
      }, 
      {
        "@id": "0831180408000220", 
        "@feature": "", 
        "@locale": "", 
        "@npc": "경호원 창병", 
        "@name": "Eee-yap!"
      }, 
      {
        "@id": "0831180408000221", 
        "@feature": "", 
        "@locale": "", 
        "@npc": "경호원 창병", 
        "@name": "I want to job advance already! I want to get ON with it!"
      }, 
      {
        "@id": "0831180408000222", 
        "@feature": "", 
        "@locale": "", 
        "@npc": "경호원 창병", 
        "@name": "When can I job advance...?"
      }, 
      {
        "@id": "0831180408000223", 
        "@feature": "", 
        "@locale": "", 
        "@npc": "경호원 궁병", 
        "@name": "What seems to be the problem?"
      }, 
      {
        "@id": "0831180408000224", 
        "@feature": "", 
        "@locale": "", 
        "@npc": "경호원 궁병", 
        "@name": "You fools!"
      }, 
      {
        "@id": "0831180408000225", 
        "@feature": "", 
        "@locale": "", 
        "@npc": "경호원 궁병", 
        "@name": "Prepared to die?"
      }, 
      {
        "@id": "0909165608000435", 
        "@feature": "", 
        "@locale": "", 
        "@npc": "주술사 온령", 
        "@name": "Incredible talent."
      }, 
      {
        "@id": "0909165608000436", 
        "@feature": "", 
        "@locale": "", 
        "@npc": "주술사 온령", 
        "@name": "Wow, impressive."
      }, 
      {
        "@id": "0909165608000437", 
        "@feature": "", 
        "@locale": "", 
        "@npc": "주술사 온령", 
        "@name": "Good, very good!"
      }, 
      {
        "@id": "0909165608000438", 
        "@feature": "", 
        "@locale": "", 
        "@npc": "주술사 온령", 
        "@name": "Your skills are impressive."
      }, 
      {
        "@id": "0831180408000226", 
        "@feature": "", 
        "@locale": "", 
        "@npc": "트리스탄", 
        "@name": "What's the problem?"
      }, 
      {
        "@id": "0831180408000227", 
        "@feature": "", 
        "@locale": "", 
        "@npc": "트리스탄", 
        "@name": "I'm late!"
      }, 
      {
        "@id": "0831180408000228", 
        "@feature": "", 
        "@locale": "", 
        "@npc": "트리스탄", 
        "@name": "Just hold out a bit longer!"
      }, 
      {
        "@id": "0831180408000229", 
        "@feature": "", 
        "@locale": "", 
        "@npc": "트리스탄", 
        "@name": "They're getting weaker!"
      }, 
      {
        "@id": "0831180408000230", 
        "@feature": "", 
        "@locale": "", 
        "@npc": "트리스탄", 
        "@name": "Be careful, everyone!"
      }, 
      {
        "@id": "1011145608000508", 
        "@feature": "", 
        "@locale": "", 
        "@npc": "자경단원", 
        "@name": "Deploy the crossbows!"
      }, 
      {
        "@id": "1011145608000509", 
        "@feature": "", 
        "@locale": "", 
        "@npc": "자경단원", 
        "@name": "This crossbow is ready."
      }, 
      {
        "@id": "1011145608000510", 
        "@feature": "", 
        "@locale": "", 
        "@npc": "자경단원", 
        "@name": "The Green Hoods are here to help!"
      }, 
      {
        "@id": "1011145608000511", 
        "@feature": "", 
        "@locale": "", 
        "@npc": "자경단원", 
        "@name": "This crossbow can pierce his armor."
      }, 
      {
        "@id": "1011145608000512", 
        "@feature": "", 
        "@locale": "", 
        "@npc": "자경단원", 
        "@name": "This crossbow is ready."
      }, 
      {
        "@id": "1011145608000513", 
        "@feature": "", 
        "@locale": "", 
        "@npc": "자경단원", 
        "@name": "The Green Hoods are here to help!"
      }, 
      {
        "@id": "1011145608000514", 
        "@feature": "", 
        "@locale": "", 
        "@npc": "다크윈드 지휘관 진", 
        "@name": "We're here for you, captain!"
      }, 
      {
        "@id": "1011145608000515", 
        "@feature": "", 
        "@locale": "", 
        "@npc": "구르는 천둥", 
        "@name": "Devorak will fall!"
      }, 
      {
        "@id": "1027205908000440", 
        "@feature": "", 
        "@locale": "", 
        "@npc": "메린", 
        "@name": "Ugh..."
      }, 
      {
        "@id": "1027205908000441", 
        "@feature": "", 
        "@locale": "", 
        "@npc": "메린", 
        "@name": "Be careful!"
      }, 
      {
        "@id": "1027205908000442", 
        "@feature": "", 
        "@locale": "", 
        "@npc": "메린", 
        "@name": "Fight through the pain..."
      }, 
      {
        "@id": "1027205908000443", 
        "@feature": "", 
        "@locale": "", 
        "@npc": "메린", 
        "@name": "Rescue $npc:11001172[gender:1]$"
      }, 
      {
        "@id": "1027205908000444", 
        "@feature": "", 
        "@locale": "", 
        "@npc": "메린", 
        "@name": "$MyPCName$ will protect us!"
      }, 
      {
        "@id": "1027205908000445", 
        "@feature": "", 
        "@locale": "", 
        "@npc": "메린", 
        "@name": "$MyPCName$, you can do it!"
      }, 
      {
        "@id": "1027205908000446", 
        "@feature": "", 
        "@locale": "", 
        "@npc": "이지", 
        "@name": "Ugh..."
      }, 
      {
        "@id": "1027205908000447", 
        "@feature": "", 
        "@locale": "", 
        "@npc": "이지", 
        "@name": "Should I play dead?"
      }, 
      {
        "@id": "1027205908000448", 
        "@feature": "", 
        "@locale": "", 
        "@npc": "이지", 
        "@name": "Get away!"
      }, 
      {
        "@id": "1027205908000449", 
        "@feature": "", 
        "@locale": "", 
        "@npc": "이지", 
        "@name": "It hurts!"
      }, 
      {
        "@id": "1027205908000450", 
        "@feature": "", 
        "@locale": "", 
        "@npc": "이지", 
        "@name": "Grr!"
      }, 
      {
        "@id": "1027205908000451", 
        "@feature": "", 
        "@locale": "", 
        "@npc": "이지", 
        "@name": "Why you...!"
      }, 
      {
        "@id": "1027205908000452", 
        "@feature": "", 
        "@locale": "", 
        "@npc": "플린", 
        "@name": "Ugh..."
      }, 
      {
        "@id": "1027205908000453", 
        "@feature": "", 
        "@locale": "", 
        "@npc": "플린", 
        "@name": "How did this happen?"
      }, 
      {
        "@id": "1027205908000454", 
        "@feature": "", 
        "@locale": "", 
        "@npc": "플린", 
        "@name": "What now?"
      }, 
      {
        "@id": "1027205908000455", 
        "@feature": "", 
        "@locale": "", 
        "@npc": "플린", 
        "@name": "$npc:11001172[gender:1]$, are you okay?"
      }, 
      {
        "@id": "1027205908000456", 
        "@feature": "", 
        "@locale": "", 
        "@npc": "플린", 
        "@name": "Watch out."
      }, 
      {
        "@id": "1027205908000457", 
        "@feature": "", 
        "@locale": "", 
        "@npc": "플린", 
        "@name": "I shouldn't have come here."
      }, 
      {
        "@id": "1027205908000458", 
        "@feature": "", 
        "@locale": "", 
        "@npc": "스틴", 
        "@name": "Ugh..."
      }, 
      {
        "@id": "1027205908000459", 
        "@feature": "", 
        "@locale": "", 
        "@npc": "스틴", 
        "@name": "I miss my mom..."
      }, 
      {
        "@id": "1027205908000460", 
        "@feature": "", 
        "@locale": "", 
        "@npc": "스틴", 
        "@name": "Sniff, sniff... "
      }, 
      {
        "@id": "1027205908000461", 
        "@feature": "", 
        "@locale": "", 
        "@npc": "스틴", 
        "@name": "Sniff... "
      }, 
      {
        "@id": "1027205908000462", 
        "@feature": "", 
        "@locale": "", 
        "@npc": "스틴", 
        "@name": "I'm scared... "
      }, 
      {
        "@id": "1027205908000463", 
        "@feature": "", 
        "@locale": "", 
        "@npc": "스틴", 
        "@name": "I want to go home..."
      }, 
      {
        "@id": "1027205908000464", 
        "@feature": "", 
        "@locale": "", 
        "@npc": "토리", 
        "@name": "Ugh..."
      }, 
      {
        "@id": "1027205908000465", 
        "@feature": "", 
        "@locale": "", 
        "@npc": "토리", 
        "@name": "I'm scared!"
      }, 
      {
        "@id": "1027205908000466", 
        "@feature": "", 
        "@locale": "", 
        "@npc": "토리", 
        "@name": "I hate monsters!"
      }, 
      {
        "@id": "1027205908000467", 
        "@feature": "", 
        "@locale": "", 
        "@npc": "토리", 
        "@name": "Ahhh!"
      }, 
      {
        "@id": "1027205908000468", 
        "@feature": "", 
        "@locale": "", 
        "@npc": "토리", 
        "@name": "What should we do?"
      }, 
      {
        "@id": "1027205908000469", 
        "@feature": "", 
        "@locale": "", 
        "@npc": "토리", 
        "@name": "Waaah! Go away!"
      }, 
      {
        "@id": "0831180408000231", 
        "@feature": "", 
        "@locale": "", 
        "@npc": "루미나 해방군", 
        "@name": "Hold the line!"
      }, 
      {
        "@id": "0831180408000232", 
        "@feature": "", 
        "@locale": "", 
        "@npc": "루미나 해방군", 
        "@name": "We can't give up yet!"
      }, 
      {
        "@id": "0831180408000233", 
        "@feature": "", 
        "@locale": "", 
        "@npc": "루미나 해방군", 
        "@name": "Everyone, stay strong!"
      }, 
      {
        "@id": "0831180408000234", 
        "@feature": "", 
        "@locale": "", 
        "@npc": "루미나 해방군", 
        "@name": "Don't let them get away!"
      }, 
      {
        "@id": "0831180408000235", 
        "@feature": "", 
        "@locale": "", 
        "@npc": "루미나 해방군", 
        "@name": "The prisoners are waiting for us!"
      }, 
      {
        "@id": "1211110708000470", 
        "@feature": "", 
        "@locale": "", 
        "@npc": "바니걸", 
        "@name": "I promise a fantastic time!"
      }, 
      {
        "@id": "1211110708000471", 
        "@feature": "", 
        "@locale": "", 
        "@npc": "바니걸", 
        "@name": "The ultimate paradise is here, just for you!"
      }, 
      {
        "@id": "1215172808000478", 
        "@feature": "", 
        "@locale": "", 
        "@npc": "바니걸", 
        "@name": "Hello. How can I help you?"
      }, 
      {
        "@id": "1215172808000479", 
        "@feature": "", 
        "@locale": "", 
        "@npc": "바니걸", 
        "@name": "Have a wonderful time."
      }, 
      {
        "@id": "0831180408000236", 
        "@feature": "", 
        "@locale": "", 
        "@npc": "스텀피", 
        "@name": "Lapenta felt my ritual..."
      }, 
      {
        "@id": "0831180408000237", 
        "@feature": "", 
        "@locale": "", 
        "@npc": "깡패 바라하", 
        "@name": "What?"
      }, 
      {
        "@id": "0831180408000238", 
        "@feature": "", 
        "@locale": "", 
        "@npc": "깡패 바라하", 
        "@name": "Eee hee hee! I'm gonna hit you!"
      }, 
      {
        "@id": "0831180408000239", 
        "@feature": "", 
        "@locale": "", 
        "@npc": "깡패 바라하", 
        "@name": "What should I cook?"
      }, 
      {
        "@id": "0831180408000240", 
        "@feature": "", 
        "@locale": "", 
        "@npc": "깡패 바라하", 
        "@name": "I'll never be able to forget that day... "
      }, 
      {
        "@id": "0831180408000241", 
        "@feature": "", 
        "@locale": "", 
        "@npc": "닉시", 
        "@name": "Who is it?"
      }, 
      {
        "@id": "0831180408000242", 
        "@feature": "", 
        "@locale": "", 
        "@npc": "닉시", 
        "@name": "Attacking fearlessly!"
      }, 
      {
        "@id": "0831180408000243", 
        "@feature": "", 
        "@locale": "", 
        "@npc": "닉시", 
        "@name": "It... it can't be... "
      }, 
      {
        "@id": "0831180408000244", 
        "@feature": "", 
        "@locale": "", 
        "@npc": "닉시", 
        "@name": "Alberto is dead...? It can't be..."
      }, 
      {
        "@id": "0831180408000245", 
        "@feature": "", 
        "@locale": "", 
        "@npc": "에피", 
        "@name": "Who is it?"
      }, 
      {
        "@id": "0831180408000246", 
        "@feature": "", 
        "@locale": "", 
        "@npc": "에피", 
        "@name": "How's this?"
      }, 
      {
        "@id": "0831180408000247", 
        "@feature": "", 
        "@locale": "", 
        "@npc": "에피", 
        "@name": "Die!"
      }, 
      {
        "@id": "0831180408000248", 
        "@feature": "", 
        "@locale": "", 
        "@npc": "에피", 
        "@name": "What did I do wrong... "
      }, 
      {
        "@id": "0831180408000249", 
        "@feature": "", 
        "@locale": "", 
        "@npc": "에피", 
        "@name": "Roanna... I'm a bit... I'm a bit sorry."
      }, 
      {
        "@id": "0831180408000250", 
        "@feature": "", 
        "@locale": "", 
        "@npc": "자이언트 라바아이", 
        "@name": "Kee kee kee... "
      }, 
      {
        "@id": "0831180408000251", 
        "@feature": "", 
        "@locale": "", 
        "@npc": "바람술사 라팽", 
        "@name": "I know how to control the winds! And it's a seeeecret!"
      }, 
      {
        "@id": "0831180408000252", 
        "@feature": "", 
        "@locale": "", 
        "@npc": "우레우스", 
        "@name": "The strength of dark magic is amazing..."
      }, 
      {
        "@id": "0831180408000253", 
        "@feature": "", 
        "@locale": "", 
        "@npc": "레버넌트 좀비", 
        "@name": "Aaaaaah... My head... Who am I? "
      }, 
      {
        "@id": "0831180408000254", 
        "@feature": "", 
        "@locale": "", 
        "@npc": "우르자", 
        "@name": "Darn buzzies... What's wrong with sharing a little?"
      }, 
      {
        "@id": "0831180408000255", 
        "@feature": "", 
        "@locale": "", 
        "@npc": "우르스카", 
        "@name": "Doctor Kernel... An unforgettable name... Heh heh..."
      }, 
      {
        "@id": "0831180408000256", 
        "@feature": "", 
        "@locale": "", 
        "@npc": "우르판다", 
        "@name": "The path of a master is long and rough!"
      }, 
      {
        "@id": "0831180408000257", 
        "@feature": "", 
        "@locale": "", 
        "@npc": "어둠의 라바 나이트", 
        "@name": "Krrrrkkk... Krrrrkkk..."
      }, 
      {
        "@id": "0831180408000258", 
        "@feature": "", 
        "@locale": "", 
        "@npc": "대지의 라바 나이트", 
        "@name": "Krrrrkkk... Krrrrkkk..."
      }, 
      {
        "@id": "0831180408000259", 
        "@feature": "", 
        "@locale": "", 
        "@npc": "화염의 라바 나이트", 
        "@name": "Krrrrkkk... Krrrrkkk..."
      }, 
      {
        "@id": "0831180408000260", 
        "@feature": "", 
        "@locale": "", 
        "@npc": "아이스 지란트", 
        "@name": "Keee kee kee... "
      }, 
      {
        "@id": "0831180408000261", 
        "@feature": "", 
        "@locale": "", 
        "@npc": "다크 지란트", 
        "@name": "Keee kee kee... "
      }, 
      {
        "@id": "0831180408000262", 
        "@feature": "", 
        "@locale": "", 
        "@npc": "페카타", 
        "@name": "Do you wish to join the dead?"
      }, 
      {
        "@id": "0831180408000263", 
        "@feature": "", 
        "@locale": "", 
        "@npc": "칼키타", 
        "@name": "Do you wish to join the dead?"
      }, 
      {
        "@id": "0831180408000264", 
        "@feature": "", 
        "@locale": "", 
        "@npc": "레르타", 
        "@name": "Do you wish to join the dead?"
      }, 
      {
        "@id": "0831180408000265", 
        "@feature": "", 
        "@locale": "", 
        "@npc": "마노", 
        "@name": "This flower on my back will never wither."
      }, 
      {
        "@id": "0831180408000266", 
        "@feature": "", 
        "@locale": "", 
        "@npc": "파랑 마노", 
        "@name": "I know all there is to know in this world."
      }, 
      {
        "@id": "0831180408000267", 
        "@feature": "", 
        "@locale": "", 
        "@npc": "주황 마노", 
        "@name": "I've already lived 1438 years. It's not unusual for one to get tired of living after so long..."
      }, 
      {
        "@id": "0831180408000268", 
        "@feature": "", 
        "@locale": "", 
        "@npc": "파랑 머쉬맘", 
        "@name": "Don't bother the mushroom."
      }, 
      {
        "@id": "0831180408000269", 
        "@feature": "", 
        "@locale": "", 
        "@npc": "머쉬맘", 
        "@name": "My house is my house. Your house is your house!"
      }, 
      {
        "@id": "0831180408000270", 
        "@feature": "", 
        "@locale": "", 
        "@npc": "좀비머쉬맘", 
        "@name": "A man with a bamboo hat?"
      }, 
      {
        "@id": "0831180408000271", 
        "@feature": "", 
        "@locale": "", 
        "@npc": "소환술사 라툰", 
        "@name": "The person that gave me strength when I fell to a trap... Who was it?"
      }, 
      {
        "@id": "0831180408000272", 
        "@feature": "", 
        "@locale": "", 
        "@npc": "파토스", 
        "@name": "Ack... My head hurts... Who... Who am I...? What am I...?"
      }, 
      {
        "@id": "0831180408000273", 
        "@feature": "", 
        "@locale": "", 
        "@npc": "킹슬라임", 
        "@name": "Watch your manners in front of the king."
      }, 
      {
        "@id": "0831180408000274", 
        "@feature": "", 
        "@locale": "", 
        "@npc": "팬텀 디스트로이어", 
        "@name": "Switching to standby mode."
      }, 
      {
        "@id": "0831180408000275", 
        "@feature": "", 
        "@locale": "", 
        "@npc": "매드오네뜨", 
        "@name": "Want to play with me? Heh heh... "
      }, 
      {
        "@id": "0831180408000276", 
        "@feature": "", 
        "@locale": "", 
        "@npc": "매드오네뜨", 
        "@name": "Play with me!"
      }, 
      {
        "@id": "0831180408000277", 
        "@feature": "", 
        "@locale": "", 
        "@npc": "매드오네뜨", 
        "@name": "Why are you bothering me?"
      }, 
      {
        "@id": "0831180408000278", 
        "@feature": "", 
        "@locale": "", 
        "@npc": "매드오네뜨", 
        "@name": "Noooo..."
      }, 
      {
        "@id": "0831180408000279", 
        "@feature": "", 
        "@locale": "", 
        "@npc": "매드오네뜨", 
        "@name": "Maggie..."
      }, 
      {
        "@id": "0831180408000280", 
        "@feature": "", 
        "@locale": "", 
        "@npc": "프랑케네뜨", 
        "@name": "I don't want to be left behind again... "
      }, 
      {
        "@id": "0831180408000281", 
        "@feature": "", 
        "@locale": "", 
        "@npc": "모자장수", 
        "@name": "Ha ha ha... How fearless!"
      }, 
      {
        "@id": "0831180408000282", 
        "@feature": "", 
        "@locale": "", 
        "@npc": "요술토끼 파랑", 
        "@name": "Heh... I'm no longer a weakling!"
      }, 
      {
        "@id": "0831180408000283", 
        "@feature": "", 
        "@locale": "", 
        "@npc": "경비대장 차우", 
        "@name": "What?"
      }, 
      {
        "@id": "0831180408000284", 
        "@feature": "", 
        "@locale": "", 
        "@npc": "경비대장 차우", 
        "@name": "Why do you keep hanging around?"
      }, 
      {
        "@id": "0831180408000285", 
        "@feature": "", 
        "@locale": "", 
        "@npc": "경비대장 차우", 
        "@name": "You want a taste of my bat?"
      }, 
      {
        "@id": "0831180408000286", 
        "@feature": "", 
        "@locale": "", 
        "@npc": "경비대장 차우", 
        "@name": "How annoying... "
      }, 
      {
        "@id": "0831180408000287", 
        "@feature": "", 
        "@locale": "", 
        "@npc": "토토", 
        "@name": "Where's Googoo?"
      }, 
      {
        "@id": "0831180408000288", 
        "@feature": "", 
        "@locale": "", 
        "@npc": "로로", 
        "@name": "Where's Moomoo?"
      }, 
      {
        "@id": "0831180408000289", 
        "@feature": "", 
        "@locale": "", 
        "@npc": "토토", 
        "@name": "Where's Googoo?"
      }, 
      {
        "@id": "0831180408000290", 
        "@feature": "", 
        "@locale": "", 
        "@npc": "로로", 
        "@name": "Where's Moomoo?"
      }, 
      {
        "@id": "0831180408000291", 
        "@feature": "", 
        "@locale": "", 
        "@npc": "데블린 워리어", 
        "@name": "Keeee... This is the power of Lapenta!"
      }, 
      {
        "@id": "0831180408000296", 
        "@feature": "", 
        "@locale": "", 
        "@npc": "잊혀진 바야르", 
        "@name": "Vayar is a soulless existence... right?"
      }, 
      {
        "@id": "0831180408000297", 
        "@feature": "", 
        "@locale": "", 
        "@npc": "그림자술사 데보라크", 
        "@name": "Keeek! The shadow's strength is getting weaker..."
      }, 
      {
        "@id": "0831180408000298", 
        "@feature": "", 
        "@locale": "", 
        "@npc": "데블린 치프", 
        "@name": "Commander... We should retreat for now!"
      }, 
      {
        "@id": "0831180408000299", 
        "@feature": "", 
        "@locale": "", 
        "@npc": "알파 터틀", 
        "@name": "Water is the source of life... Don't mistreat it..."
      }, 
      {
        "@id": "0831180408000300", 
        "@feature": "", 
        "@locale": "", 
        "@npc": "자이언트 터틀", 
        "@name": "Water is the source of life... Don't mistreat it..."
      }, 
      {
        "@id": "0831180408000301", 
        "@feature": "", 
        "@locale": "", 
        "@npc": "그리폰", 
        "@name": "Once, I lived in peace with my family... "
      }, 
      {
        "@id": "0831180408000302", 
        "@feature": "", 
        "@locale": "", 
        "@npc": "그리피나", 
        "@name": "My egg! I won't forgive the thief..."
      }, 
      {
        "@id": "0831180408000303", 
        "@feature": "", 
        "@locale": "", 
        "@npc": "호루스", 
        "@name": "Wow, it's a truce."
      }, 
      {
        "@id": "0831180408000304", 
        "@feature": "", 
        "@locale": "", 
        "@npc": "분노의 바포메트", 
        "@name": "Who is it?"
      }, 
      {
        "@id": "0831180408000305", 
        "@feature": "", 
        "@locale": "", 
        "@npc": "분노의 바포메트", 
        "@name": "I'll engulf you in darkness!"
      }, 
      {
        "@id": "0831180408000306", 
        "@feature": "", 
        "@locale": "", 
        "@npc": "분노의 바포메트", 
        "@name": "My brothers will avenge me..."
      }, 
      {
        "@id": "0831180408000307", 
        "@feature": "", 
        "@locale": "", 
        "@npc": "분노의 바포메트", 
        "@name": "Keeeahh... It hurts..."
      }, 
      {
        "@id": "0831180408000308", 
        "@feature": "", 
        "@locale": "", 
        "@npc": "혼돈의 바포메트", 
        "@name": "Who is it?"
      }, 
      {
        "@id": "0831180408000309", 
        "@feature": "", 
        "@locale": "", 
        "@npc": "혼돈의 바포메트", 
        "@name": "I'll engulf you in darkness!"
      }, 
      {
        "@id": "0831180408000310", 
        "@feature": "", 
        "@locale": "", 
        "@npc": "혼돈의 바포메트", 
        "@name": "My brothers will avenge me..."
      }, 
      {
        "@id": "0831180408000311", 
        "@feature": "", 
        "@locale": "", 
        "@npc": "혼돈의 바포메트", 
        "@name": "The shadow's strength is getting weaker..."
      }, 
      {
        "@id": "0831180408000312", 
        "@feature": "", 
        "@locale": "", 
        "@npc": "냉혈한 바포메트", 
        "@name": "Who is it?"
      }, 
      {
        "@id": "0831180408000313", 
        "@feature": "", 
        "@locale": "", 
        "@npc": "냉혈한 바포메트", 
        "@name": "I'll engulf you in darkness!"
      }, 
      {
        "@id": "0831180408000314", 
        "@feature": "", 
        "@locale": "", 
        "@npc": "냉혈한 바포메트", 
        "@name": "My brothers will avenge me..."
      }, 
      {
        "@id": "0831180408000315", 
        "@feature": "", 
        "@locale": "", 
        "@npc": "냉혈한 바포메트", 
        "@name": "S-stop...! Stop now..."
      }, 
      {
        "@id": "0831180408000316", 
        "@feature": "", 
        "@locale": "", 
        "@npc": "슈슈와 부부스", 
        "@name": "Booboo! The human! Attack the human!"
      }, 
      {
        "@id": "0831180408000317", 
        "@feature": "", 
        "@locale": "", 
        "@npc": "슈슈와 부부스", 
        "@name": "So the thing is... Um... What was our plan, Booboo...?"
      }, 
      {
        "@id": "0831180408000318", 
        "@feature": "", 
        "@locale": "", 
        "@npc": "토토와 구구스", 
        "@name": "Googoo! The human! Attack the human!"
      }, 
      {
        "@id": "0831180408000319", 
        "@feature": "", 
        "@locale": "", 
        "@npc": "토토와 구구스", 
        "@name": "So the thing is... Um... What was our plan, Googoo...?"
      }, 
      {
        "@id": "0831180408000320", 
        "@feature": "", 
        "@locale": "", 
        "@npc": "로로와 무무스", 
        "@name": "Moomoo! The human! Attack the human!"
      }, 
      {
        "@id": "0831180408000321", 
        "@feature": "", 
        "@locale": "", 
        "@npc": "로로와 무무스", 
        "@name": "So the thing is... Um... What was our plan, Moomoo...?"
      }, 
      {
        "@id": "0831180408000322", 
        "@feature": "", 
        "@locale": "", 
        "@npc": "마크52 알파", 
        "@name": "MK 52 Alpha, Sleep Mode ON"
      }, 
      {
        "@id": "0831180408000323", 
        "@feature": "", 
        "@locale": "", 
        "@npc": "마크52 베타", 
        "@name": "MK 52 Beta, Sleep Mode ON"
      }, 
      {
        "@id": "0831180408000324", 
        "@feature": "", 
        "@locale": "", 
        "@npc": "마크52 오메가", 
        "@name": "MK 52 Omega, Sleep Mode ON"
      }, 
      {
        "@id": "0717175008000516", 
        "@feature": "", 
        "@locale": "", 
        "@npc": "핑크빈", 
        "@name": "No! No! I hate losing!"
      }, 
      {
        "@id": "0831180408000326", 
        "@feature": "", 
        "@locale": "", 
        "@npc": "바야르 수문장", 
        "@name": "A long time ago, the ancients created us..."
      }, 
      {
        "@id": "0831180408000327", 
        "@feature": "", 
        "@locale": "", 
        "@npc": "최후의 바야르", 
        "@name": "Complete the mission to protect Vayar Mountain..."
      }, 
      {
        "@id": "0831180408000328", 
        "@feature": "", 
        "@locale": "", 
        "@npc": "발록", 
        "@name": "Eek... S-stop...!"
      }, 
      {
        "@id": "1219115008000482", 
        "@feature": "", 
        "@locale": "", 
        "@npc": "잊혀진 바야르", 
        "@name": "Vayar is a soulless existence... right?"
      }, 
      {
        "@id": "1219115008000483", 
        "@feature": "", 
        "@locale": "", 
        "@npc": "그림자술사 데보라크", 
        "@name": "Keeek! The shadow's strength is getting weaker..."
      }, 
      {
        "@id": "1219115008000484", 
        "@feature": "", 
        "@locale": "", 
        "@npc": "혼돈의 바포메트", 
        "@name": "Who is it?"
      }, 
      {
        "@id": "1219115008000485", 
        "@feature": "", 
        "@locale": "", 
        "@npc": "혼돈의 바포메트", 
        "@name": "I'll engulf you in darkness!"
      }, 
      {
        "@id": "1219115008000486", 
        "@feature": "", 
        "@locale": "", 
        "@npc": "혼돈의 바포메트", 
        "@name": "My brothers will avenge me..."
      }, 
      {
        "@id": "1219115008000487", 
        "@feature": "", 
        "@locale": "", 
        "@npc": "혼돈의 바포메트", 
        "@name": "The shadow's strength is getting weaker..."
      }, 
      {
        "@id": "1219115008000488", 
        "@feature": "", 
        "@locale": "", 
        "@npc": "슈슈와 부부스", 
        "@name": "Booboo! The human! Attack the human!"
      }, 
      {
        "@id": "1219115008000489", 
        "@feature": "", 
        "@locale": "", 
        "@npc": "슈슈와 부부스", 
        "@name": "So the thing is... Um... What was our plan, Booboo...?"
      }, 
      {
        "@id": "1219115008000490", 
        "@feature": "", 
        "@locale": "", 
        "@npc": "마크52 베타", 
        "@name": "MK 52 Beta, Sleep Mode ON"
      }, 
      {
        "@id": "1219115008000491", 
        "@feature": "", 
        "@locale": "", 
        "@npc": "마크52 오메가", 
        "@name": "MK 52 Omega, Sleep Mode ON"
      }, 
      {
        "@id": "1219115008000492", 
        "@feature": "", 
        "@locale": "", 
        "@npc": "최후의 바야르", 
        "@name": "Complete the mission to protect Vayar Mountain..."
      }, 
      {
        "@id": "1219115008000493", 
        "@feature": "", 
        "@locale": "", 
        "@npc": "그림자술사 데보라크", 
        "@name": "Keeek! The shadow's strength is getting weaker..."
      }, 
      {
        "@id": "0831180408000329", 
        "@feature": "", 
        "@locale": "", 
        "@npc": "크윙카르본", 
        "@name": "Hands where I can see them!"
      }, 
      {
        "@id": "0831180408000330", 
        "@feature": "", 
        "@locale": "", 
        "@npc": "크윙카르본", 
        "@name": "Work! Work! Work!"
      }, 
      {
        "@id": "0831180408000331", 
        "@feature": "", 
        "@locale": "", 
        "@npc": "크윙쿠르본", 
        "@name": "These mines will be the last thing you ever see, slave!"
      }, 
      {
        "@id": "0831180408000332", 
        "@feature": "", 
        "@locale": "", 
        "@npc": "맘브리나", 
        "@name": "Die for Bella!"
      }, 
      {
        "@id": "0831180408001331", 
        "@feature": "PirateOcean", 
        "@locale": "", 
        "@npc": "머맨 로드", 
        "@name": "An intruder!"
      }, 
      {
        "@id": "0816084808000505", 
        "@feature": "", 
        "@locale": "", 
        "@npc": "틴차이", 
        "@name": "Come closer. I'll show you the way."
      }, 
      {
        "@id": "0831180408000333", 
        "@feature": "", 
        "@locale": "", 
        "@npc": "RED팀 대포", 
        "@name": "..."
      }, 
      {
        "@id": "0831180408000334", 
        "@feature": "", 
        "@locale": "", 
        "@npc": "BLUE팀 대포", 
        "@name": "Give me that apple!"
      }, 
      {
        "@id": "0831180408000383", 
        "@feature": "", 
        "@locale": "", 
        "@npc": "다크윈드 스파이", 
        "@name": "What?"
      }, 
      {
        "@id": "0831180408000384", 
        "@feature": "", 
        "@locale": "", 
        "@npc": "다크윈드 스파이", 
        "@name": "Managed to notice me..."
      }, 
      {
        "@id": "0831180408000385", 
        "@feature": "", 
        "@locale": "", 
        "@npc": "다크윈드 스파이", 
        "@name": "Uk... Hail the Shadow World... "
      }, 
      {
        "@id": "0831180408000386", 
        "@feature": "", 
        "@locale": "", 
        "@npc": "다크윈드 스파이", 
        "@name": "Aaaaack...! Lapenta's resonance... It hurts..."
      }, 
      {
        "@id": "0831180408000387", 
        "@feature": "", 
        "@locale": "", 
        "@npc": "꿈틀이", 
        "@name": "... "
      }, 
      {
        "@id": "0831180408000388", 
        "@feature": "", 
        "@locale": "", 
        "@npc": "미니핌", 
        "@name": "The power of darkness is waning..."
      }, 
      {
        "@id": "0831180408000389", 
        "@feature": "", 
        "@locale": "", 
        "@npc": "주술사 카단", 
        "@name": "Namid... It's not their fault..."
      }, 
      {
        "@id": "0831180408000390", 
        "@feature": "", 
        "@locale": "", 
        "@npc": "집거미", 
        "@name": "..."
      }, 
      {
        "@id": "0831180408000391", 
        "@feature": "", 
        "@locale": "", 
        "@npc": "어린 하투카", 
        "@name": "Dance, dance, revolution!"
      }, 
      {
        "@id": "0831180408000392", 
        "@feature": "", 
        "@locale": "", 
        "@npc": "몽키", 
        "@name": "Oooh ooh ooh!"
      }, 
      {
        "@id": "0831180408000393", 
        "@feature": "", 
        "@locale": "", 
        "@npc": "몽키", 
        "@name": "Kkyak! Apple, apple! It's mine! Kkyak!!"
      }, 
      {
        "@id": "0831180408000394", 
        "@feature": "", 
        "@locale": "", 
        "@npc": "몽키", 
        "@name": "Apple! Kkyak-kkyak! Yummy!"
      }, 
      {
        "@id": "0831180408000395", 
        "@feature": "", 
        "@locale": "", 
        "@npc": "몽키", 
        "@name": "Kkyak-kkyak-kak-kyak-kya-ka! Don't take it!!"
      }, 
      {
        "@id": "0831180408000396", 
        "@feature": "", 
        "@locale": "", 
        "@npc": "몽키", 
        "@name": "Apple... Want a taste?"
      }, 
      {
        "@id": "0831180408000397", 
        "@feature": "", 
        "@locale": "", 
        "@npc": "요정 러프", 
        "@name": "Snore..."
      }, 
      {
        "@id": "0831180408000398", 
        "@feature": "", 
        "@locale": "", 
        "@npc": "요정 러프", 
        "@name": "Eh... I just want to sleep... "
      }, 
      {
        "@id": "0831180408000399", 
        "@feature": "", 
        "@locale": "", 
        "@npc": "요정 러프", 
        "@name": "Time to sleep..."
      }, 
      {
        "@id": "0831180408000400", 
        "@feature": "", 
        "@locale": "", 
        "@npc": "요정 러프", 
        "@name": "I'm so sleepy..."
      }, 
      {
        "@id": "0831180408000401", 
        "@feature": "", 
        "@locale": "", 
        "@npc": "요정 러프", 
        "@name": "I'll sleep first and deal with it later..."
      }, 
      {
        "@id": "0831180408000402", 
        "@feature": "", 
        "@locale": "", 
        "@npc": "요정 러프", 
        "@name": "I feel like I've awoken from a dream..."
      }, 
      {
        "@id": "0831180408000403", 
        "@feature": "", 
        "@locale": "", 
        "@npc": "스톤 크래비", 
        "@name": "It's time to go home..."
      }, 
      {
        "@id": "0831180408000404", 
        "@feature": "", 
        "@locale": "", 
        "@npc": "마노", 
        "@name": "I feel refreshed."
      }, 
      {
        "@id": "0831180408000405", 
        "@feature": "", 
        "@locale": "", 
        "@npc": "마노", 
        "@name": "Huh? Did something happen?"
      }, 
      {
        "@id": "0831180408000406", 
        "@feature": "", 
        "@locale": "", 
        "@npc": "마노", 
        "@name": "That was a great rest."
      }, 
      {
        "@id": "0831180408000407", 
        "@feature": "", 
        "@locale": "", 
        "@npc": "마스크 스팅어", 
        "@name": "How dare you touch the safe... Fearless, aren't you? "
      }, 
      {
        "@id": "0831180408000408", 
        "@feature": "", 
        "@locale": "", 
        "@npc": "마스크 스팅어", 
        "@name": "It's a thief!"
      }, 
      {
        "@id": "0831180408000409", 
        "@feature": "", 
        "@locale": "", 
        "@npc": "마스크 스팅어", 
        "@name": "How dare they rob Ralph's safe!"
      }, 
      {
        "@id": "1216191208000481", 
        "@feature": "", 
        "@locale": "", 
        "@npc": "둔바", 
        "@name": "What?"
      }, 
      {
        "@id": "1216190608000480", 
        "@feature": "", 
        "@locale": "", 
        "@npc": "둔바", 
        "@name": "W-wait! Time out! Let's talk."
      }, 
      {
        "@id": "0623101708000497", 
        "@feature": "", 
        "@locale": "", 
        "@npc": "폭주기관차 실바", 
        "@name": "Ahh... I thought I'd be fighting a gallant warrior..."
      }, 
      {
        "@id": "0623101708000498", 
        "@feature": "", 
        "@locale": "", 
        "@npc": "불멸의 피닉스", 
        "@name": "Y-you just watch! \nI'll be back!"
      }, 
      {
        "@id": "0623101708000499", 
        "@feature": "", 
        "@locale": "", 
        "@npc": "롤링 더글라스", 
        "@name": "My nunchaku skills... failed me?! Impossible... "
      }, 
      {
        "@id": "0804131708000504", 
        "@feature": "", 
        "@locale": "", 
        "@npc": "커다란 검은 그림자", 
        "@name": "Never forget your roots, child."
      }, 
      {
        "@id": "0724095808000517", 
        "@feature": "", 
        "@locale": "", 
        "@npc": "GM 촬리", 
        "@name": "You're a lifesaver!"
      }, 
      {
        "@id": "0831180408000410", 
        "@feature": "", 
        "@locale": "", 
        "@npc": "발록", 
        "@name": "Eek... S-stop...!"
      }, 
      {
        "@id": "0831180408000411", 
        "@feature": "", 
        "@locale": "", 
        "@npc": "머쉬밍", 
        "@name": "Did something happen?"
      }, 
      {
        "@id": "0831180408000412", 
        "@feature": "", 
        "@locale": "", 
        "@npc": "네펜투스", 
        "@name": "(Don't step on the flowers.)"
      }, 
      {
        "@id": "0831180408000413", 
        "@feature": "", 
        "@locale": "", 
        "@npc": "엑스텀프", 
        "@name": "Axe... hurts... "
      }, 
      {
        "@id": "0831180408000414", 
        "@feature": "", 
        "@locale": "", 
        "@npc": "헤드 스켈레톤", 
        "@name": "Darkness and shadows are one..."
      }, 
      {
        "@id": "0831180408000415", 
        "@feature": "", 
        "@locale": "", 
        "@npc": "빅 스컬", 
        "@name": "I thought when you died... That was the end."
      }, 
      {
        "@id": "0831180408000416", 
        "@feature": "", 
        "@locale": "", 
        "@npc": "코브라", 
        "@name": "Hiss, hiss..."
      }, 
      {
        "@id": "0831180408000417", 
        "@feature": "", 
        "@locale": "", 
        "@npc": "애플 몽키", 
        "@name": "Give me the apple!"
      }, 
      {
        "@id": "0831180408000418", 
        "@feature": "", 
        "@locale": "", 
        "@npc": "사냥꾼 도구리", 
        "@name": "That looks good! ...Huh?"
      }, 
      {
        "@id": "0831180408000419", 
        "@feature": "", 
        "@locale": "", 
        "@npc": "사냥꾼 도구리", 
        "@name": "W-what's this game?"
      }, 
      {
        "@id": "0831180408000420", 
        "@feature": "", 
        "@locale": "", 
        "@npc": "사냥꾼 도구리", 
        "@name": "Hungry..."
      }, 
      {
        "@id": "0831180408000421", 
        "@feature": "", 
        "@locale": "", 
        "@npc": "사냥꾼 도구리", 
        "@name": "Robbing, robbing, rob-bing!"
      }, 
      {
        "@id": "0831180408000422", 
        "@feature": "", 
        "@locale": "", 
        "@npc": "펑펑 버블링", 
        "@name": "..."
      }, 
      {
        "@id": "0831180408000423", 
        "@feature": "", 
        "@locale": "", 
        "@npc": "펑펑 슬라임", 
        "@name": "..."
      }, 
      {
        "@id": "0831180408000424", 
        "@feature": "", 
        "@locale": "", 
        "@npc": "펑펑 퍼플 슬라임", 
        "@name": "..."
      }, 
      {
        "@id": "0831180408000425", 
        "@feature": "", 
        "@locale": "", 
        "@npc": "좀비 머쉬맘", 
        "@name": "A man with a bamboo hat?"
      }, 
      {
        "@id": "0831180408000426", 
        "@feature": "", 
        "@locale": "", 
        "@npc": "킹 슬라임", 
        "@name": "Watch your manners in front of the king."
      }, 
      {
        "@id": "0831180408000427", 
        "@feature": "", 
        "@locale": "", 
        "@npc": "펑펑 버블링", 
        "@name": "..."
      }, 
      {
        "@id": "0831180408000428", 
        "@feature": "", 
        "@locale": "", 
        "@npc": "바야르의 수호병", 
        "@name": "Don't taint the holy mountain..."
      }, 
      {
        "@id": "0831180408000429", 
        "@feature": "", 
        "@locale": "", 
        "@npc": "바야르의 수호병", 
        "@name": "I was created for the mission..."
      }, 
      {
        "@id": "0831180408000430", 
        "@feature": "", 
        "@locale": "", 
        "@npc": "소환된 네펜투스", 
        "@name": "(Don't step on the flowers.)"
      }, 
      {
        "@id": "0831180408000431", 
        "@feature": "", 
        "@locale": "", 
        "@npc": "소환된 바야르", 
        "@name": "Protect Vayar Mountain..."
      }, 
      {
        "@id": "0831180408000432", 
        "@feature": "", 
        "@locale": "", 
        "@npc": "바키볼", 
        "@name": "Who are you? Who are you?"
      }, 
      {
        "@id": "0831180408000433", 
        "@feature": "", 
        "@locale": "", 
        "@npc": "대나무", 
        "@name": "..."
      }, 
      {
        "@id": "0831180408000434", 
        "@feature": "", 
        "@locale": "", 
        "@npc": "레인보우", 
        "@name": "There aren't many of my people left..."
      }
    ]
  }
}