{
  "?xml": {
    "@version": "1.0", 
    "@encoding": "utf-8"
  }, 
  "ms2": {
    "key": [
      {
        "@id": "0523164601001340", 
        "@feature": "", 
        "@locale": "", 
        "@npc": "Shuen", 
        "@name": "Hello ~ <font color=\"#ffd200\">$MyPCName$</font> ! Do you know that strange things happen to maple world these days? Huh, I have a lot of work to do, so I need you to help me out a little bit in <font color=\"#ffd200\">$MyPCName$</font> guild."
      }, 
      {
        "@id": "0523164601001341", 
        "@feature": "", 
        "@locale": "", 
        "@npc": "Shuen", 
        "@name": "Can you get rid of the monsters that annoy the inhabitants of MapleWorld? Any monster in the field will be fine for any monster. I just want to ask the guild, so I would like you to carry out the mission with <font color=\"#ffd200\">more than three guild members</font> . Well, please!"
      }, 
      {
        "@id": "0523164601001342", 
        "@feature": "", 
        "@locale": "", 
        "@npc": "Shuen", 
        "@name": "Destroy the monsters that annoy the inhabitants of MapleWorld. Any monster in the field will be fine for any monster. I just want to ask the guild, so I would like you to carry out the mission with <font color=\"#ffd200\">more than three guild members</font> . Well, please!"
      }, 
      {
        "@id": "0523164601001343", 
        "@feature": "", 
        "@locale": "", 
        "@npc": "Shuen", 
        "@name": "And ~! <font color=\"#ffd200\">$MyPCName$</font> You have solved it quickly. Thank you. What I am offering now is a reward for your help today. If you find me again tomorrow, I will give you another favor."
      }, 
      {
        "@id": "0523164601001344", 
        "@feature": "", 
        "@locale": "", 
        "@npc": "Shuen", 
        "@name": "Hello ~ <font color=\"#ffd200\">$MyPCName$</font> ! Do you know that strange things happen to maple world these days? Huh, I have a lot of work to do, so I need you to help me out a little bit in <font color=\"#ffd200\">$MyPCName$</font> guild."
      }, 
      {
        "@id": "0523164601001345", 
        "@feature": "", 
        "@locale": "", 
        "@npc": "Shuen", 
        "@name": "Destroy the <font color=\"#ffd200\">mechanical monsters</font> that plague scientists. I just want to ask the guild, so I would like you to carry out the mission with <font color=\"#ffd200\">more than three guild members</font> . Well, please!"
      }, 
      {
        "@id": "0523164601001346", 
        "@feature": "", 
        "@locale": "", 
        "@npc": "Shuen", 
        "@name": "Destroy the <font color=\"#ffd200\">mechanical monsters</font> that plague scientists. I just want to ask the guild, so I would like you to carry out the mission with <font color=\"#ffd200\">more than three guild members</font> . Well, please!"
      }, 
      {
        "@id": "0523164601001347", 
        "@feature": "", 
        "@locale": "", 
        "@npc": "Shuen", 
        "@name": "And ~! <font color=\"#ffd200\">$MyPCName$</font> You have solved it quickly. Thank you. What I am offering now is a reward for your help today. If you find me again tomorrow, I will give you another favor."
      }, 
      {
        "@id": "0523164601001348", 
        "@feature": "", 
        "@locale": "", 
        "@npc": "Shuen", 
        "@name": "Hello ~ <font color=\"#ffd200\">$MyPCName$</font> ! Do you know that strange things happen to maple world these days? Huh, I have a lot of work to do, so I need you to help me out a little bit in <font color=\"#ffd200\">$MyPCName$</font> guild."
      }, 
      {
        "@id": "0523164601001349", 
        "@feature": "", 
        "@locale": "", 
        "@npc": "Shuen", 
        "@name": "There are beneficial insects, too. I think there are many really worms in the world. Can you help me with the <font color=\"#ffd200\">bug-type monster</font> ? I just want to ask the guild, so I would like you to carry out the mission with <font color=\"#ffd200\">more than three guild members</font> . Well, please!"
      }, 
      {
        "@id": "0523164601001350", 
        "@feature": "", 
        "@locale": "", 
        "@npc": "Shuen", 
        "@name": "Please help me to deal with a <font color=\"#ffd200\">bug-</font> wormed <font color=\"#ffd200\">monster</font> . I just want to ask the guild, so I would like you to carry out the mission with <font color=\"#ffd200\">more than three guild members</font> . Well, please!"
      }, 
      {
        "@id": "0523164601001351", 
        "@feature": "", 
        "@locale": "", 
        "@npc": "Shuen", 
        "@name": "And ~! <font color=\"#ffd200\">$MyPCName$</font> You have solved it quickly. Thank you. What I am offering now is a reward for your help today. If you find me again tomorrow, I will give you another favor."
      }, 
      {
        "@id": "0523164601001352", 
        "@feature": "", 
        "@locale": "", 
        "@npc": "Shuen", 
        "@name": "Hello ~ <font color=\"#ffd200\">$MyPCName$</font> ! Do you know that strange things happen to maple world these days? Huh, I have a lot of work to do, so I need you to help me out a little bit in <font color=\"#ffd200\">$MyPCName$</font> guild."
      }, 
      {
        "@id": "0523164601001353", 
        "@feature": "", 
        "@locale": "", 
        "@npc": "Shuen", 
        "@name": "Can you get rid of the <font color=\"#ffd200\">object-type monsters</font> who pretend to be <font color=\"#ffd200\">objects</font> and attack people? I just want to ask the guild, so I would like you to carry out the mission with <font color=\"#ffd200\">more than three guild members</font> . Well, please!"
      }, 
      {
        "@id": "0523164601001354", 
        "@feature": "", 
        "@locale": "", 
        "@npc": "Shuen", 
        "@name": "I want you to get rid of the <font color=\"#ffd200\">object type monsters</font> . I just want to ask the guild, so I would like you to carry out the mission with <font color=\"#ffd200\">more than three guild members</font> . Well, please!"
      }, 
      {
        "@id": "0523164601001355", 
        "@feature": "", 
        "@locale": "", 
        "@npc": "Shuen", 
        "@name": "And ~! <font color=\"#ffd200\">$MyPCName$</font> You have solved it quickly. Thank you. What I am offering now is a reward for your help today. If you find me again tomorrow, I will give you another favor."
      }, 
      {
        "@id": "0523164601001356", 
        "@feature": "", 
        "@locale": "", 
        "@npc": "Shuen", 
        "@name": "Hello ~ <font color=\"#ffd200\">$MyPCName$</font> ! Do you know that strange things happen to maple world these days? Huh, I have a lot of work to do, so I need you to help me out a little bit in <font color=\"#ffd200\">$MyPCName$</font> guild."
      }, 
      {
        "@id": "0523164601001357", 
        "@feature": "", 
        "@locale": "", 
        "@npc": "Shuen", 
        "@name": "I heard there are plants attacking people. Can you help me with the treatment of <font color=\"#ffd200\">plant-type monsters</font> ? I just want to ask the guild, so I would like you to carry out the mission with <font color=\"#ffd200\">more than three guild members</font> . Well, please!"
      }, 
      {
        "@id": "0523164601001358", 
        "@feature": "", 
        "@locale": "", 
        "@npc": "Shuen", 
        "@name": "Please help me to deal with <font color=\"#ffd200\">plant-type monsters</font> that hurt people. I just want to ask the guild, so I would like you to carry out the mission with <font color=\"#ffd200\">more than three guild members</font> . Well, please!"
      }, 
      {
        "@id": "0523164601001359", 
        "@feature": "", 
        "@locale": "", 
        "@npc": "Shuen", 
        "@name": "And ~! <font color=\"#ffd200\">$MyPCName$</font> You have solved it quickly. Thank you. What I am offering now is a reward for your help today. If you find me again tomorrow, I will give you another favor."
      }, 
      {
        "@id": "0523164601001360", 
        "@feature": "", 
        "@locale": "", 
        "@npc": "Shuen", 
        "@name": "Hello ~ <font color=\"#ffd200\">$MyPCName$</font> ! Do you know that strange things happen to maple world these days? Huh, I have a lot of work to do, so I need you to help me out a little bit in <font color=\"#ffd200\">$MyPCName$</font> guild."
      }, 
      {
        "@id": "0523164601001361", 
        "@feature": "", 
        "@locale": "", 
        "@npc": "Shuen", 
        "@name": "Everyone is not good enough. A complaint about a new- <font color=\"#ffd200\">type monster</font> attacking the inhabitants of <font color=\"#ffd200\">MapleWorld</font> is coming in. I just want to ask the guild, so I would like you to carry out the mission with <font color=\"#ffd200\">more than three guild members</font> . Well, please!"
      }, 
      {
        "@id": "0523164601001362", 
        "@feature": "", 
        "@locale": "", 
        "@npc": "Shuen", 
        "@name": "<font color=\"#ffd200\">Help the new-type monster</font> . I just want to ask the guild, so I would like you to carry out the mission with <font color=\"#ffd200\">more than three guild members</font> . Well, please!"
      }, 
      {
        "@id": "0523164601001363", 
        "@feature": "", 
        "@locale": "", 
        "@npc": "Shuen", 
        "@name": "And ~! <font color=\"#ffd200\">$MyPCName$</font> You have solved it quickly. Thank you. What I am offering now is a reward for your help today. If you find me again tomorrow, I will give you another favor."
      }, 
      {
        "@id": "0523164601001364", 
        "@feature": "", 
        "@locale": "", 
        "@npc": "Shuen", 
        "@name": "Hello ~ <font color=\"#ffd200\">$MyPCName$</font> ! Do you know that strange things happen to maple world these days? Huh, I have a lot of work to do, so I need you to help me out a little bit in <font color=\"#ffd200\">$MyPCName$</font> guild."
      }, 
      {
        "@id": "0523164601001365", 
        "@feature": "", 
        "@locale": "", 
        "@npc": "Shuen", 
        "@name": "I think the evil demons are getting more involved these days. Could you help us with the <font color=\"#ffd200\">demon monster</font> on our behalf? I just want to ask the guild, so I would like you to carry out the mission with <font color=\"#ffd200\">more than three guild members</font> . Well, please!"
      }, 
      {
        "@id": "0523164601001366", 
        "@feature": "", 
        "@locale": "", 
        "@npc": "Shuen", 
        "@name": "Destroy the evil <font color=\"#ffd200\">demon monster</font> . I just want to ask the guild, so I would like you to carry out the mission with <font color=\"#ffd200\">more than three guild members</font> . Well, please!"
      }, 
      {
        "@id": "0523164601001367", 
        "@feature": "", 
        "@locale": "", 
        "@npc": "Shuen", 
        "@name": "And ~! <font color=\"#ffd200\">$MyPCName$</font> You have solved it quickly. Thank you. What I am offering now is a reward for your help today. If you find me again tomorrow, I will give you another favor."
      }, 
      {
        "@id": "0523164601001368", 
        "@feature": "", 
        "@locale": "", 
        "@npc": "Shuen", 
        "@name": "Hello ~ <font color=\"#ffd200\">$MyPCName$</font> ! Do you know that strange things happen to maple world these days? Huh, I have a lot of work to do, so I need you to help me out a little bit in <font color=\"#ffd200\">$MyPCName$</font> guild."
      }, 
      {
        "@id": "0523164601001369", 
        "@feature": "", 
        "@locale": "", 
        "@npc": "Shuen", 
        "@name": "I think the recently-armed wild beasts are attacking the residents. Could you take away the <font color=\"#ffd200\">beast type monster</font> for us? I just want to ask the guild, so I would like you to carry out the mission with <font color=\"#ffd200\">more than three guild members</font> . Well, please!"
      }, 
      {
        "@id": "0523164601001370", 
        "@feature": "", 
        "@locale": "", 
        "@npc": "Shuen", 
        "@name": "Please help us to deal with a fierce beasted <font color=\"#ffd200\">monster</font> . I just want to ask the guild, so I would like you to carry out the mission with <font color=\"#ffd200\">more than three guild members</font> . Well, please!"
      }, 
      {
        "@id": "0523164601001371", 
        "@feature": "", 
        "@locale": "", 
        "@npc": "Shuen", 
        "@name": "And ~! <font color=\"#ffd200\">$MyPCName$</font> You have solved it quickly. Thank you. What I am offering now is a reward for your help today. If you find me again tomorrow, I will give you another favor."
      }, 
      {
        "@id": "0523164601001372", 
        "@feature": "", 
        "@locale": "", 
        "@npc": "Shuen", 
        "@name": "Hello ~ <font color=\"#ffd200\">$MyPCName$</font> ! Do you know that strange things happen to maple world these days? Huh, I have a lot of work to do, so I need you to help me out a little bit in <font color=\"#ffd200\">$MyPCName$</font> guild."
      }, 
      {
        "@id": "0523164601001373", 
        "@feature": "", 
        "@locale": "", 
        "@npc": "Shuen", 
        "@name": "Fearsome <font color=\"#ffd200\">undead monsters</font> they danindago I heard a lot around the fortress .. Can you help the Church? I just want to ask the guild, so I would like you to carry out the mission with <font color=\"#ffd200\">more than three guild members</font> . Well, please!"
      }, 
      {
        "@id": "0523164601001374", 
        "@feature": "", 
        "@locale": "", 
        "@npc": "Shuen", 
        "@name": "Help <font color=\"#ffd200\">undead monsters</font> kill. I just want to ask the guild, so I would like you to carry out the mission with <font color=\"#ffd200\">more than three guild members</font> . Well, please!"
      }, 
      {
        "@id": "0523164601001375", 
        "@feature": "", 
        "@locale": "", 
        "@npc": "Shuen", 
        "@name": "And ~! <font color=\"#ffd200\">$MyPCName$</font> You have solved it quickly. Thank you. What I am offering now is a reward for your help today. If you find me again tomorrow, I will give you another favor."
      }, 
      {
        "@id": "0523164601001376", 
        "@feature": "", 
        "@locale": "", 
        "@npc": "Shuen", 
        "@name": "Hello ~ <font color=\"#ffd200\">$MyPCName$</font> ! Do you know that strange things happen to maple world these days? Huh, I have a lot of work to do, so I need you to help me out a little bit in <font color=\"#ffd200\">$MyPCName$</font> guild."
      }, 
      {
        "@id": "0523164601001377", 
        "@feature": "", 
        "@locale": "", 
        "@npc": "Shuen", 
        "@name": "There is a complaint about the evil elves that harass the inhabitants. Can you help me with the <font color=\"#ffd200\">fairy monster</font> ? I just want to ask the guild, so I would like you to carry out the mission with <font color=\"#ffd200\">more than three guild members</font> . Well, please!"
      }, 
      {
        "@id": "0523164601001378", 
        "@feature": "", 
        "@locale": "", 
        "@npc": "Shuen", 
        "@name": "Help the <font color=\"#ffd200\">fairy monster</font> . I just want to ask the guild, so I would like you to carry out the mission with <font color=\"#ffd200\">more than three guild members</font> . Well, please!"
      }, 
      {
        "@id": "0523164601001379", 
        "@feature": "", 
        "@locale": "", 
        "@npc": "Shuen", 
        "@name": "And ~! <font color=\"#ffd200\">$MyPCName$</font> You have solved it quickly. Thank you. What I am offering now is a reward for your help today. If you find me again tomorrow, I will give you another favor."
      }, 
      {
        "@id": "0523164601001380", 
        "@feature": "", 
        "@locale": "", 
        "@npc": "Shuen", 
        "@name": "Hello ~ <font color=\"#ffd200\">$MyPCName$</font> ! Do you know that strange things happen to maple world these days? Huh, I have a lot of work to do, so I need you to help me out a little bit in <font color=\"#ffd200\">$MyPCName$</font> guild."
      }, 
      {
        "@id": "0523164601001381", 
        "@feature": "", 
        "@locale": "", 
        "@npc": "Shuen", 
        "@name": "Hmm, whose influence is more bad people are growing. Can you help me with the treatment of <font color=\"#ffd200\">humanoid monsters</font> ? I just want to ask the guild, so I would like you to carry out the mission with <font color=\"#ffd200\">more than three guild members</font> . Well, please!"
      }, 
      {
        "@id": "0523164601001382", 
        "@feature": "", 
        "@locale": "", 
        "@npc": "Shuen", 
        "@name": "I ask for the treatment of the <font color=\"#ffd200\">humanoid monster</font> , but it is requested to the guild, so I would like you to carry out the mission together with <font color=\"#ffd200\">three or more guild members</font> . Well, please!"
      }, 
      {
        "@id": "0523164601001383", 
        "@feature": "", 
        "@locale": "", 
        "@npc": "Shuen", 
        "@name": "And ~! <font color=\"#ffd200\">$MyPCName$</font> You have solved it quickly. Thank you. What I am offering now is a reward for your help today. If you find me again tomorrow, I will give you another favor."
      }, 
      {
        "@id": "0523164601001384", 
        "@feature": "", 
        "@locale": "", 
        "@npc": "Shuen", 
        "@name": "Hello ~ <font color=\"#ffd200\">$MyPCName$</font> ! Do you know that strange things happen to maple world these days? Huh, I have a lot of work to do, so I need you to help me out a little bit in <font color=\"#ffd200\">$MyPCName$</font> guild."
      }, 
      {
        "@id": "0523164601001385", 
        "@feature": "", 
        "@locale": "", 
        "@npc": "Shuen", 
        "@name": "There is a complaint about the spirits who have accepted the energy of nature wrong and changed badly. Can you help me with the <font color=\"#ffd200\">spirit monster</font> ? I just want to ask the guild, so I would like you to carry out the mission with <font color=\"#ffd200\">more than three guild members</font> . Well, please!"
      }, 
      {
        "@id": "0523164601001386", 
        "@feature": "", 
        "@locale": "", 
        "@npc": "Shuen", 
        "@name": "I need help with the <font color=\"#ffd200\">spirit monster</font> treatment. I just want to ask the guild, so I would like you to carry out the mission with <font color=\"#ffd200\">more than three guild members</font> . Well, please!"
      }, 
      {
        "@id": "0523164601001387", 
        "@feature": "", 
        "@locale": "", 
        "@npc": "Shuen", 
        "@name": "And ~! <font color=\"#ffd200\">$MyPCName$</font> You have solved it quickly. Thank you. What I am offering now is a reward for your help today. If you find me again tomorrow, I will give you another favor."
      }, 
      {
        "@id": "0523164601001388", 
        "@feature": "", 
        "@locale": "", 
        "@npc": "Shuen", 
        "@name": "Hello ~ <font color=\"#ffd200\">$MyPCName$</font> ! Do you know that strange things happen to maple world these days? Huh, I have a lot of work to do, so I need you to help me out a little bit in <font color=\"#ffd200\">$MyPCName$</font> guild."
      }, 
      {
        "@id": "0523164601001389", 
        "@feature": "", 
        "@locale": "", 
        "@npc": "Shuen", 
        "@name": "$MyPCName$ As you know, sometimes powerful boss monsters appear in the field. The boss monsters are attacking the passing Maple World population. Please process the <font color=\"#ffd200\">field boss</font> before more casualties are available. I just want to ask the guild, so I would like you to carry out the mission with <font color=\"#ffd200\">more than three guild members</font> . Well, please!"
      }, 
      {
        "@id": "0523164601001390", 
        "@feature": "", 
        "@locale": "", 
        "@npc": "Shuen", 
        "@name": "Please handle the <font color=\"#ffd200\">field boss</font> . I just want to ask the guild, so I would like you to carry out the mission with <font color=\"#ffd200\">more than three guild members</font> . Well, please!"
      }, 
      {
        "@id": "0523164601001391", 
        "@feature": "", 
        "@locale": "", 
        "@npc": "Shuen", 
        "@name": "And ~! <font color=\"#ffd200\">$MyPCName$</font> You have solved it quickly. Thank you. What I am offering now is a reward for your help today. If you find me again tomorrow, I will give you another favor."
      }, 
      {
        "@id": "0523164601001392", 
        "@feature": "", 
        "@locale": "", 
        "@npc": "Shuen", 
        "@name": "Hello ~ <font color=\"#ffd200\">$MyPCName$</font> ! How is your life in Guild? If you are not busy, can you help us a little? <font color=\"#ffd200\">$MyPCName$</font> Your guild will help you, and we will give you some compensation."
      }, 
      {
        "@id": "0523164601001393", 
        "@feature": "", 
        "@locale": "", 
        "@npc": "Shuen", 
        "@name": "We are constantly conducting water quality inspections at MapleWorld and we need to adjust the population to preserve the freshwater ecosystem. Today, just like <font color=\"#ffd200\">three or more guild members</font> , you just have to fish in <font color=\"#ffd200\">fresh water</font> . Is it simple? Well, I'll ask you."
      }, 
      {
        "@id": "0523164601001394", 
        "@feature": "", 
        "@locale": "", 
        "@npc": "Shuen", 
        "@name": "Just fishing with <font color=\"#ffd200\">three or more guild members in</font> <font color=\"#ffd200\">freshwater</font> will be a big help. Well, I'll ask you."
      }, 
      {
        "@id": "0523164601001395", 
        "@feature": "", 
        "@locale": "", 
        "@npc": "Shuen", 
        "@name": "And ~! <font color=\"#ffd200\">$MyPCName$</font> You have solved it quickly. Thank you. What I am offering now is a reward for your help today. If you find me again tomorrow, I will give you another favor."
      }, 
      {
        "@id": "0523164601001396", 
        "@feature": "", 
        "@locale": "", 
        "@npc": "Shuen", 
        "@name": "Hello ~ <font color=\"#ffd200\">$MyPCName$</font> ! How is your life in Guild? If you are not busy, can you help us a little? <font color=\"#ffd200\">$MyPCName$</font> Your guild will help you, and we will give you some compensation."
      }, 
      {
        "@id": "0523164601001397", 
        "@feature": "", 
        "@locale": "", 
        "@npc": "Shuen", 
        "@name": "We are continuing water quality testing at MapleWorld and we need to adjust the population to preserve the underwater ecosystem. All you need to do is to fish in the <font color=\"#ffd200\">waters</font> like <font color=\"#ffd200\">three or more guild members</font> today. Is it simple? Well, I'll ask you."
      }, 
      {
        "@id": "0523164601001398", 
        "@feature": "", 
        "@locale": "", 
        "@npc": "Shuen", 
        "@name": "It would be a great help if you were fishing with <font color=\"#ffd200\">more than three guild members in the</font> <font color=\"#ffd200\">sea</font> . Well, I'll ask you."
      }, 
      {
        "@id": "0523164601001399", 
        "@feature": "", 
        "@locale": "", 
        "@npc": "Shuen", 
        "@name": "And ~! <font color=\"#ffd200\">$MyPCName$</font> You have solved it quickly. Thank you. What I am offering now is a reward for your help today. If you find me again tomorrow, I will give you another favor."
      }, 
      {
        "@id": "0523164601001400", 
        "@feature": "", 
        "@locale": "", 
        "@npc": "Shuen", 
        "@name": "Hello ~ <font color=\"#ffd200\">$MyPCName$</font> ! How is your life in Guild? If you are not busy, can you help us a little? <font color=\"#ffd200\">$MyPCName$</font> Your guild will help you, and we will give you some compensation."
      }, 
      {
        "@id": "0523164601001401", 
        "@feature": "", 
        "@locale": "", 
        "@npc": "Shuen", 
        "@name": "We are continuing water quality testing at MapleWorld and we need to adjust the population to preserve the lava ecosystem. All you need to do is to fish in the <font color=\"#ffd200\">lava</font> with <font color=\"#ffd200\">three or more guild members</font> today. Is it simple? Well, I'll ask you."
      }, 
      {
        "@id": "0523164601001402", 
        "@feature": "", 
        "@locale": "", 
        "@npc": "Shuen", 
        "@name": "It would be a great help if you are fishing with <font color=\"#ffd200\">more than three guild members in the</font> <font color=\"#ffd200\">lava</font> . Well, I'll ask you."
      }, 
      {
        "@id": "0523164601001403", 
        "@feature": "", 
        "@locale": "", 
        "@npc": "Shuen", 
        "@name": "And ~! <font color=\"#ffd200\">$MyPCName$</font> You have solved it quickly. Thank you. What I am offering now is a reward for your help today. If you find me again tomorrow, I will give you another favor."
      }, 
      {
        "@id": "0523164601001404", 
        "@feature": "", 
        "@locale": "", 
        "@npc": "Shuen", 
        "@name": "Hello ~ <font color=\"#ffd200\">$MyPCName$</font> ! How is your life in Guild? If you are not busy, can you help us a little? <font color=\"#ffd200\">$MyPCName$</font> Your guild will help you, and we will give you some compensation."
      }, 
      {
        "@id": "0523164601001405", 
        "@feature": "", 
        "@locale": "", 
        "@npc": "Shuen", 
        "@name": "We are continuing water quality testing at MapleWorld and we need to control the population to preserve the ecosystem in the waters. All you have to do is to fish in the <font color=\"#ffd200\">venom</font> , like <font color=\"#ffd200\">three or more guild members</font> today. Is it simple? Well, I'll ask you."
      }, 
      {
        "@id": "0523164601001406", 
        "@feature": "", 
        "@locale": "", 
        "@npc": "Shuen", 
        "@name": "It would be a great help if you were fishing with <font color=\"#ffd200\">more than three guild members</font> from the <font color=\"#ffd200\">venom</font> . Well, I'll ask you."
      }, 
      {
        "@id": "0523164601001407", 
        "@feature": "", 
        "@locale": "", 
        "@npc": "Shuen", 
        "@name": "And ~! <font color=\"#ffd200\">$MyPCName$</font> You have solved it quickly. Thank you. What I am offering now is a reward for your help today. If you find me again tomorrow, I will give you another favor."
      }, 
      {
        "@id": "0523164601001408", 
        "@feature": "", 
        "@locale": "", 
        "@npc": "Shuen", 
        "@name": "Hello ~ <font color=\"#ffd200\">$MyPCName$</font> ! How is your life in Guild? If you are not busy, can you help us a little? <font color=\"#ffd200\">$MyPCName$</font> Your guild will help you, and we will give you some compensation."
      }, 
      {
        "@id": "0523164601001409", 
        "@feature": "", 
        "@locale": "", 
        "@npc": "Shuen", 
        "@name": "It is said that the residents of MapleWorld are under a lot of stress nowadays. I do not care where it is, so please tell me beautiful performances with the guild members. Just ask at the guild, please at <font color=\"#ffd200\">least three guild members</font> ."
      }, 
      {
        "@id": "0523164601001410", 
        "@feature": "", 
        "@locale": "", 
        "@npc": "Shuen", 
        "@name": "It is a big help for us to play anywhere in the Maple World. Just ask at the guild, please at least <font color=\"#ffd200\">three guild members</font> ."
      }, 
      {
        "@id": "0523164601001411", 
        "@feature": "", 
        "@locale": "", 
        "@npc": "Shuen", 
        "@name": "And ~! <font color=\"#ffd200\">$MyPCName$</font> You have solved it quickly. Thank you. What I am offering now is a reward for your help today. If you find me again tomorrow, I will give you another favor."
      }, 
      {
        "@id": "0523164601001412", 
        "@feature": "", 
        "@locale": "", 
        "@npc": "Shuen", 
        "@name": "Hello ~ <font color=\"#ffd200\">$MyPCName$</font> ! How is your life in Guild? If you are not busy, can you help us a little? <font color=\"#ffd200\">$MyPCName$</font> Your guild will help you, and we will give you some compensation."
      }, 
      {
        "@id": "0523164601001413", 
        "@feature": "", 
        "@locale": "", 
        "@npc": "Shuen", 
        "@name": "You know the <font color=\"#ffd200\">golden treasure chest</font> hidden in the fields? According to one source, the guild office says the necessary items are in the box. Oh, you do not have to bring anything, just open the treasure chest for us. However, please ask at least <font color=\"#ffd200\">three guild members</font> ."
      }, 
      {
        "@id": "0523164601001414", 
        "@feature": "", 
        "@locale": "", 
        "@npc": "Shuen", 
        "@name": "<font color=\"#ffd200\">All</font> you have to do is open a <font color=\"#ffd200\">golden treasure box</font> for us. However, please ask at <font color=\"#ffd200\">least three guild members</font> ."
      }, 
      {
        "@id": "0523164601001415", 
        "@feature": "", 
        "@locale": "", 
        "@npc": "Shuen", 
        "@name": "And ~! <font color=\"#ffd200\">$MyPCName$</font> You have solved it quickly. Thank you. What I am offering now is a reward for your help today. If you find me again tomorrow, I will give you another favor."
      }, 
      {
        "@id": "0523164601001416", 
        "@feature": "", 
        "@locale": "", 
        "@npc": "Shuen", 
        "@name": "Hello ~ <font color=\"#ffd200\">$MyPCName$</font> ! Do you know that strange things happen to maple world these days? Huh, I have a lot of work to do, so I need you to help me out a little bit in <font color=\"#ffd200\">$MyPCName$</font> guild."
      }, 
      {
        "@id": "0523164601001417", 
        "@feature": "", 
        "@locale": "", 
        "@npc": "Shuen", 
        "@name": "You know the <font color=\"#ffd200\">wooden treasure chest</font> hidden in the fields? According to one source, the guild office says the necessary items are in the box. Oh, you do not have to bring anything, just open the treasure chest for us. However, please ask at least <font color=\"#ffd200\">three guild members</font> ."
      }, 
      {
        "@id": "0523164601001418", 
        "@feature": "", 
        "@locale": "", 
        "@npc": "Shuen", 
        "@name": "<font color=\"#ffd200\">All</font> you have to do is open a <font color=\"#ffd200\">wooden treasure chest</font> instead. However, please ask at <font color=\"#ffd200\">least three guild members</font> ."
      }, 
      {
        "@id": "0523164601001419", 
        "@feature": "", 
        "@locale": "", 
        "@npc": "Shuen", 
        "@name": "And ~! <font color=\"#ffd200\">$MyPCName$</font> You have solved it quickly. Thank you. What I am offering now is a reward for your help today. If you find me again tomorrow, I will give you another favor."
      }, 
      {
        "@id": "0523164601001420", 
        "@feature": "", 
        "@locale": "", 
        "@npc": "Shuen", 
        "@name": "Hello ~ <font color=\"#ffd200\">$MyPCName$</font> ! Do you know that strange things happen to maple world these days? Huh, I have a lot of work to do, so I need you to help me out a little bit in <font color=\"#ffd200\">$MyPCName$</font> guild."
      }, 
      {
        "@id": "0523164601001421", 
        "@feature": "", 
        "@locale": "", 
        "@npc": "Shuen", 
        "@name": "Can you get rid of the monsters that annoy the inhabitants of MapleWorld? Any monster in the field will be fine for any monster. I just want to ask the guild, so I would like you to carry out the mission with <font color=\"#ffd200\">more than three guild members</font> . Well, please!"
      }, 
      {
        "@id": "0523164601001422", 
        "@feature": "", 
        "@locale": "", 
        "@npc": "Shuen", 
        "@name": "Destroy the monsters that annoy the inhabitants of MapleWorld. Any monster in the field will be fine for any monster. I just want to ask the guild, so I would like you to carry out the mission with <font color=\"#ffd200\">more than three guild members</font> . Well, please!"
      }, 
      {
        "@id": "0523164601001423", 
        "@feature": "", 
        "@locale": "", 
        "@npc": "Shuen", 
        "@name": "And ~! <font color=\"#ffd200\">$MyPCName$</font> You have solved it quickly. Thank you. What I am offering now is a reward for your help today. If you find me again tomorrow, I will give you another favor."
      }, 
      {
        "@id": "0523164601001424", 
        "@feature": "", 
        "@locale": "", 
        "@npc": "Shuen", 
        "@name": "Hello ~ <font color=\"#ffd200\">$MyPCName$</font> ! Do you know that strange things happen to maple world these days? Huh, I have a lot of work to do, so I need you to help me out a little bit in <font color=\"#ffd200\">$MyPCName$</font> guild."
      }, 
      {
        "@id": "0523164601001425", 
        "@feature": "", 
        "@locale": "", 
        "@npc": "Shuen", 
        "@name": "Destroy the <font color=\"#ffd200\">mechanical monsters</font> that plague scientists. I just want to ask the guild, so I would like you to carry out the mission with <font color=\"#ffd200\">more than three guild members</font> . Well, please!"
      }, 
      {
        "@id": "0523164601001426", 
        "@feature": "", 
        "@locale": "", 
        "@npc": "Shuen", 
        "@name": "Destroy the <font color=\"#ffd200\">mechanical monsters</font> that plague scientists. I just want to ask the guild, so I would like you to carry out the mission with <font color=\"#ffd200\">more than three guild members</font> . Well, please!"
      }, 
      {
        "@id": "0523164601001427", 
        "@feature": "", 
        "@locale": "", 
        "@npc": "Shuen", 
        "@name": "And ~! <font color=\"#ffd200\">$MyPCName$</font> You have solved it quickly. Thank you. What I am offering now is a reward for your help today. If you find me again tomorrow, I will give you another favor."
      }, 
      {
        "@id": "0523164601001428", 
        "@feature": "", 
        "@locale": "", 
        "@npc": "Shuen", 
        "@name": "Hello ~ <font color=\"#ffd200\">$MyPCName$</font> ! Do you know that strange things happen to maple world these days? Huh, I have a lot of work to do, so I need you to help me out a little bit in <font color=\"#ffd200\">$MyPCName$</font> guild."
      }, 
      {
        "@id": "0523164601001429", 
        "@feature": "", 
        "@locale": "", 
        "@npc": "Shuen", 
        "@name": "There are beneficial insects, too. I think there are many really worms in the world. Can you help me with the <font color=\"#ffd200\">bug-type monster</font> ? I just want to ask the guild, so I would like you to carry out the mission with <font color=\"#ffd200\">more than three guild members</font> . Well, please!"
      }, 
      {
        "@id": "0523164601001430", 
        "@feature": "", 
        "@locale": "", 
        "@npc": "Shuen", 
        "@name": "Please help me to deal with a <font color=\"#ffd200\">bug-</font> wormed <font color=\"#ffd200\">monster</font> . I just want to ask the guild, so I would like you to carry out the mission with <font color=\"#ffd200\">more than three guild members</font> . Well, please!"
      }, 
      {
        "@id": "0523164601001431", 
        "@feature": "", 
        "@locale": "", 
        "@npc": "Shuen", 
        "@name": "And ~! <font color=\"#ffd200\">$MyPCName$</font> You have solved it quickly. Thank you. What I am offering now is a reward for your help today. If you find me again tomorrow, I will give you another favor."
      }, 
      {
        "@id": "0523164601001432", 
        "@feature": "", 
        "@locale": "", 
        "@npc": "Shuen", 
        "@name": "Hello ~ <font color=\"#ffd200\">$MyPCName$</font> ! Do you know that strange things happen to maple world these days? Huh, I have a lot of work to do, so I need you to help me out a little bit in <font color=\"#ffd200\">$MyPCName$</font> guild."
      }, 
      {
        "@id": "0523164601001433", 
        "@feature": "", 
        "@locale": "", 
        "@npc": "Shuen", 
        "@name": "Can you get rid of the <font color=\"#ffd200\">object-type monsters</font> who pretend to be <font color=\"#ffd200\">objects</font> and attack people? I just want to ask the guild, so I would like you to carry out the mission with <font color=\"#ffd200\">more than three guild members</font> . Well, please!"
      }, 
      {
        "@id": "0523164601001434", 
        "@feature": "", 
        "@locale": "", 
        "@npc": "Shuen", 
        "@name": "I want you to get rid of the <font color=\"#ffd200\">object type monsters</font> . I just want to ask the guild, so I would like you to carry out the mission with <font color=\"#ffd200\">more than three guild members</font> . Well, please!"
      }, 
      {
        "@id": "0523164601001435", 
        "@feature": "", 
        "@locale": "", 
        "@npc": "Shuen", 
        "@name": "And ~! <font color=\"#ffd200\">$MyPCName$</font> You have solved it quickly. Thank you. What I am offering now is a reward for your help today. If you find me again tomorrow, I will give you another favor."
      }, 
      {
        "@id": "0523164601001436", 
        "@feature": "", 
        "@locale": "", 
        "@npc": "Shuen", 
        "@name": "Hello ~ <font color=\"#ffd200\">$MyPCName$</font> ! Do you know that strange things happen to maple world these days? Huh, I have a lot of work to do, so I need you to help me out a little bit in <font color=\"#ffd200\">$MyPCName$</font> guild."
      }, 
      {
        "@id": "0523164601001437", 
        "@feature": "", 
        "@locale": "", 
        "@npc": "Shuen", 
        "@name": "I heard there are plants attacking people. Can you help me with the treatment of <font color=\"#ffd200\">plant-type monsters</font> ? I just want to ask the guild, so I would like you to carry out the mission with <font color=\"#ffd200\">more than three guild members</font> . Well, please!"
      }, 
      {
        "@id": "0523164601001438", 
        "@feature": "", 
        "@locale": "", 
        "@npc": "Shuen", 
        "@name": "Please help me to deal with <font color=\"#ffd200\">plant-type monsters</font> that hurt people. I just want to ask the guild, so I would like you to carry out the mission with <font color=\"#ffd200\">more than three guild members</font> . Well, please!"
      }, 
      {
        "@id": "0523164601001439", 
        "@feature": "", 
        "@locale": "", 
        "@npc": "Shuen", 
        "@name": "And ~! <font color=\"#ffd200\">$MyPCName$</font> You have solved it quickly. Thank you. What I am offering now is a reward for your help today. If you find me again tomorrow, I will give you another favor."
      }, 
      {
        "@id": "0523164601001440", 
        "@feature": "", 
        "@locale": "", 
        "@npc": "Shuen", 
        "@name": "Hello ~ <font color=\"#ffd200\">$MyPCName$</font> ! Do you know that strange things happen to maple world these days? Huh, I have a lot of work to do, so I need you to help me out a little bit in <font color=\"#ffd200\">$MyPCName$</font> guild."
      }, 
      {
        "@id": "0523164601001441", 
        "@feature": "", 
        "@locale": "", 
        "@npc": "Shuen", 
        "@name": "Everyone is not good enough. A complaint about a new- <font color=\"#ffd200\">type monster</font> attacking the inhabitants of <font color=\"#ffd200\">MapleWorld</font> is coming in. I just want to ask the guild, so I would like you to carry out the mission with <font color=\"#ffd200\">more than three guild members</font> . Well, please!"
      }, 
      {
        "@id": "0523164601001442", 
        "@feature": "", 
        "@locale": "", 
        "@npc": "Shuen", 
        "@name": "<font color=\"#ffd200\">Help the new-type monster</font> . I just want to ask the guild, so I would like you to carry out the mission with <font color=\"#ffd200\">more than three guild members</font> . Well, please!"
      }, 
      {
        "@id": "0523164601001443", 
        "@feature": "", 
        "@locale": "", 
        "@npc": "Shuen", 
        "@name": "And ~! <font color=\"#ffd200\">$MyPCName$</font> You have solved it quickly. Thank you. What I am offering now is a reward for your help today. If you find me again tomorrow, I will give you another favor."
      }, 
      {
        "@id": "0523164601001444", 
        "@feature": "", 
        "@locale": "", 
        "@npc": "Shuen", 
        "@name": "Hello ~ <font color=\"#ffd200\">$MyPCName$</font> ! Do you know that strange things happen to maple world these days? Huh, I have a lot of work to do, so I need you to help me out a little bit in <font color=\"#ffd200\">$MyPCName$</font> guild."
      }, 
      {
        "@id": "0523164601001445", 
        "@feature": "", 
        "@locale": "", 
        "@npc": "Shuen", 
        "@name": "I think the evil demons are getting more involved these days. Could you help us with the <font color=\"#ffd200\">demon monster</font> on our behalf? I just want to ask the guild, so I would like you to carry out the mission with <font color=\"#ffd200\">more than three guild members</font> . Well, please!"
      }, 
      {
        "@id": "0523164601001446", 
        "@feature": "", 
        "@locale": "", 
        "@npc": "Shuen", 
        "@name": "Destroy the evil <font color=\"#ffd200\">demon monster</font> . I just want to ask the guild, so I would like you to carry out the mission with <font color=\"#ffd200\">more than three guild members</font> . Well, please!"
      }, 
      {
        "@id": "0523164601001447", 
        "@feature": "", 
        "@locale": "", 
        "@npc": "Shuen", 
        "@name": "And ~! <font color=\"#ffd200\">$MyPCName$</font> You have solved it quickly. Thank you. What I am offering now is a reward for your help today. If you find me again tomorrow, I will give you another favor."
      }, 
      {
        "@id": "0523164601001448", 
        "@feature": "", 
        "@locale": "", 
        "@npc": "Shuen", 
        "@name": "Hello ~ <font color=\"#ffd200\">$MyPCName$</font> ! Do you know that strange things happen to maple world these days? Huh, I have a lot of work to do, so I need you to help me out a little bit in <font color=\"#ffd200\">$MyPCName$</font> guild."
      }, 
      {
        "@id": "0523164601001449", 
        "@feature": "", 
        "@locale": "", 
        "@npc": "Shuen", 
        "@name": "I think the recently-armed wild beasts are attacking the residents. Could you take away the <font color=\"#ffd200\">beast type monster</font> for us? I just want to ask the guild, so I would like you to carry out the mission with <font color=\"#ffd200\">more than three guild members</font> . Well, please!"
      }, 
      {
        "@id": "0523164601001450", 
        "@feature": "", 
        "@locale": "", 
        "@npc": "Shuen", 
        "@name": "Please help us to deal with a fierce beasted <font color=\"#ffd200\">monster</font> . I just want to ask the guild, so I would like you to carry out the mission with <font color=\"#ffd200\">more than three guild members</font> . Well, please!"
      }, 
      {
        "@id": "0523164601001451", 
        "@feature": "", 
        "@locale": "", 
        "@npc": "Shuen", 
        "@name": "And ~! <font color=\"#ffd200\">$MyPCName$</font> You have solved it quickly. Thank you. What I am offering now is a reward for your help today. If you find me again tomorrow, I will give you another favor."
      }, 
      {
        "@id": "0523164601001452", 
        "@feature": "", 
        "@locale": "", 
        "@npc": "Shuen", 
        "@name": "Hello ~ <font color=\"#ffd200\">$MyPCName$</font> ! Do you know that strange things happen to maple world these days? Huh, I have a lot of work to do, so I need you to help me out a little bit in <font color=\"#ffd200\">$MyPCName$</font> guild."
      }, 
      {
        "@id": "0523164601001453", 
        "@feature": "", 
        "@locale": "", 
        "@npc": "Shuen", 
        "@name": "Fearsome <font color=\"#ffd200\">undead monsters</font> they danindago I heard a lot around the fortress .. Can you help the Church? I just want to ask the guild, so I would like you to carry out the mission with <font color=\"#ffd200\">more than three guild members</font> . Well, please!"
      }, 
      {
        "@id": "0523164601001454", 
        "@feature": "", 
        "@locale": "", 
        "@npc": "Shuen", 
        "@name": "Help <font color=\"#ffd200\">undead monsters</font> kill. I just want to ask the guild, so I would like you to carry out the mission with <font color=\"#ffd200\">more than three guild members</font> . Well, please!"
      }, 
      {
        "@id": "0523164601001455", 
        "@feature": "", 
        "@locale": "", 
        "@npc": "Shuen", 
        "@name": "And ~! <font color=\"#ffd200\">$MyPCName$</font> You have solved it quickly. Thank you. What I am offering now is a reward for your help today. If you find me again tomorrow, I will give you another favor."
      }, 
      {
        "@id": "0523164601001456", 
        "@feature": "", 
        "@locale": "", 
        "@npc": "Shuen", 
        "@name": "Hello ~ <font color=\"#ffd200\">$MyPCName$</font> ! Do you know that strange things happen to maple world these days? Huh, I have a lot of work to do, so I need you to help me out a little bit in <font color=\"#ffd200\">$MyPCName$</font> guild."
      }, 
      {
        "@id": "0523164601001457", 
        "@feature": "", 
        "@locale": "", 
        "@npc": "Shuen", 
        "@name": "There is a complaint about the evil elves that harass the inhabitants. Can you help me with the <font color=\"#ffd200\">fairy monster</font> ? I just want to ask the guild, so I would like you to carry out the mission with <font color=\"#ffd200\">more than three guild members</font> . Well, please!"
      }, 
      {
        "@id": "0523164601001458", 
        "@feature": "", 
        "@locale": "", 
        "@npc": "Shuen", 
        "@name": "Help the <font color=\"#ffd200\">fairy monster</font> . I just want to ask the guild, so I would like you to carry out the mission with <font color=\"#ffd200\">more than three guild members</font> . Well, please!"
      }, 
      {
        "@id": "0523164601001459", 
        "@feature": "", 
        "@locale": "", 
        "@npc": "Shuen", 
        "@name": "And ~! <font color=\"#ffd200\">$MyPCName$</font> You have solved it quickly. Thank you. What I am offering now is a reward for your help today. If you find me again tomorrow, I will give you another favor."
      }, 
      {
        "@id": "0523164601001460", 
        "@feature": "", 
        "@locale": "", 
        "@npc": "Shuen", 
        "@name": "Hello ~ <font color=\"#ffd200\">$MyPCName$</font> ! Do you know that strange things happen to maple world these days? Huh, I have a lot of work to do, so I need you to help me out a little bit in <font color=\"#ffd200\">$MyPCName$</font> guild."
      }, 
      {
        "@id": "0523164601001461", 
        "@feature": "", 
        "@locale": "", 
        "@npc": "Shuen", 
        "@name": "Hmm, whose influence is more bad people are growing. Can you help me with the treatment of <font color=\"#ffd200\">humanoid monsters</font> ? I just want to ask the guild, so I would like you to carry out the mission with <font color=\"#ffd200\">more than three guild members</font> . Well, please!"
      }, 
      {
        "@id": "0523164601001462", 
        "@feature": "", 
        "@locale": "", 
        "@npc": "Shuen", 
        "@name": "I ask for the treatment of the <font color=\"#ffd200\">humanoid monster</font> , but it is requested to the guild, so I would like you to carry out the mission together with <font color=\"#ffd200\">three or more guild members</font> . Well, please!"
      }, 
      {
        "@id": "0523164601001463", 
        "@feature": "", 
        "@locale": "", 
        "@npc": "Shuen", 
        "@name": "And ~! <font color=\"#ffd200\">$MyPCName$</font> You have solved it quickly. Thank you. What I am offering now is a reward for your help today. If you find me again tomorrow, I will give you another favor."
      }, 
      {
        "@id": "0523164601001464", 
        "@feature": "", 
        "@locale": "", 
        "@npc": "Shuen", 
        "@name": "Hello ~ <font color=\"#ffd200\">$MyPCName$</font> ! Do you know that strange things happen to maple world these days? Huh, I have a lot of work to do, so I need you to help me out a little bit in <font color=\"#ffd200\">$MyPCName$</font> guild."
      }, 
      {
        "@id": "0523164601001465", 
        "@feature": "", 
        "@locale": "", 
        "@npc": "Shuen", 
        "@name": "There is a complaint about the spirits who have accepted the energy of nature wrong and changed badly. Can you help me with the <font color=\"#ffd200\">spirit monster</font> ? I just want to ask the guild, so I would like you to carry out the mission with <font color=\"#ffd200\">more than three guild members</font> . Well, please!"
      }, 
      {
        "@id": "0523164601001466", 
        "@feature": "", 
        "@locale": "", 
        "@npc": "Shuen", 
        "@name": "I need help with the <font color=\"#ffd200\">spirit monster</font> treatment. I just want to ask the guild, so I would like you to carry out the mission with <font color=\"#ffd200\">more than three guild members</font> . Well, please!"
      }, 
      {
        "@id": "0523164601001467", 
        "@feature": "", 
        "@locale": "", 
        "@npc": "Shuen", 
        "@name": "And ~! <font color=\"#ffd200\">$MyPCName$</font> You have solved it quickly. Thank you. What I am offering now is a reward for your help today. If you find me again tomorrow, I will give you another favor."
      }, 
      {
        "@id": "0523164601001468", 
        "@feature": "", 
        "@locale": "", 
        "@npc": "Shuen", 
        "@name": "Hello ~ <font color=\"#ffd200\">$MyPCName$</font> ! Do you know that strange things happen to maple world these days? Huh, I have a lot of work to do, so I need you to help me out a little bit in <font color=\"#ffd200\">$MyPCName$</font> guild."
      }, 
      {
        "@id": "0523164601001469", 
        "@feature": "", 
        "@locale": "", 
        "@npc": "Shuen", 
        "@name": "$MyPCName$ As you know, sometimes powerful boss monsters appear in the field. The boss monsters are attacking the passing Maple World population. Please process the <font color=\"#ffd200\">field boss</font> before more casualties are available. I just want to ask the guild, so I would like you to carry out the mission with <font color=\"#ffd200\">more than three guild members</font> . Well, please!"
      }, 
      {
        "@id": "0523164601001470", 
        "@feature": "", 
        "@locale": "", 
        "@npc": "Shuen", 
        "@name": "Please handle the <font color=\"#ffd200\">field boss</font> . I just want to ask the guild, so I would like you to carry out the mission with <font color=\"#ffd200\">more than three guild members</font> . Well, please!"
      }, 
      {
        "@id": "0523164601001471", 
        "@feature": "", 
        "@locale": "", 
        "@npc": "Shuen", 
        "@name": "And ~! <font color=\"#ffd200\">$MyPCName$</font> You have solved it quickly. Thank you. What I am offering now is a reward for your help today. If you find me again tomorrow, I will give you another favor."
      }, 
      {
        "@id": "0523164601001472", 
        "@feature": "", 
        "@locale": "", 
        "@npc": "Shuen", 
        "@name": "Hello ~ <font color=\"#ffd200\">$MyPCName$</font> ! How is your life in Guild? If you are not busy, can you help us a little? <font color=\"#ffd200\">$MyPCName$</font> Your guild will help you, and we will give you some compensation."
      }, 
      {
        "@id": "0523164601001473", 
        "@feature": "", 
        "@locale": "", 
        "@npc": "Shuen", 
        "@name": "We are constantly conducting water quality inspections at MapleWorld and we need to adjust the population to preserve the freshwater ecosystem. Today, just like <font color=\"#ffd200\">three or more guild members</font> , you just have to fish in <font color=\"#ffd200\">fresh water</font> . Is it simple? Well, I'll ask you."
      }, 
      {
        "@id": "0523164601001474", 
        "@feature": "", 
        "@locale": "", 
        "@npc": "Shuen", 
        "@name": "Just fishing with <font color=\"#ffd200\">three or more guild members in</font> <font color=\"#ffd200\">freshwater</font> will be a big help. Well, I'll ask you."
      }, 
      {
        "@id": "0523164601001475", 
        "@feature": "", 
        "@locale": "", 
        "@npc": "Shuen", 
        "@name": "And ~! <font color=\"#ffd200\">$MyPCName$</font> You have solved it quickly. Thank you. What I am offering now is a reward for your help today. If you find me again tomorrow, I will give you another favor."
      }, 
      {
        "@id": "0523164601001476", 
        "@feature": "", 
        "@locale": "", 
        "@npc": "Shuen", 
        "@name": "Hello ~ <font color=\"#ffd200\">$MyPCName$</font> ! How is your life in Guild? If you are not busy, can you help us a little? <font color=\"#ffd200\">$MyPCName$</font> Your guild will help you, and we will give you some compensation."
      }, 
      {
        "@id": "0523164601001477", 
        "@feature": "", 
        "@locale": "", 
        "@npc": "Shuen", 
        "@name": "We are continuing water quality testing at MapleWorld and we need to adjust the population to preserve the underwater ecosystem. All you need to do is to fish in the <font color=\"#ffd200\">waters</font> like <font color=\"#ffd200\">three or more guild members</font> today. Is it simple? Well, I'll ask you."
      }, 
      {
        "@id": "0523164601001478", 
        "@feature": "", 
        "@locale": "", 
        "@npc": "Shuen", 
        "@name": "It would be a great help if you were fishing with <font color=\"#ffd200\">more than three guild members in the</font> <font color=\"#ffd200\">sea</font> . Well, I'll ask you."
      }, 
      {
        "@id": "0523164601001479", 
        "@feature": "", 
        "@locale": "", 
        "@npc": "Shuen", 
        "@name": "And ~! <font color=\"#ffd200\">$MyPCName$</font> You have solved it quickly. Thank you. What I am offering now is a reward for your help today. If you find me again tomorrow, I will give you another favor."
      }, 
      {
        "@id": "0523164601001480", 
        "@feature": "", 
        "@locale": "", 
        "@npc": "Shuen", 
        "@name": "Hello ~ <font color=\"#ffd200\">$MyPCName$</font> ! How is your life in Guild? If you are not busy, can you help us a little? <font color=\"#ffd200\">$MyPCName$</font> Your guild will help you, and we will give you some compensation."
      }, 
      {
        "@id": "0523164601001481", 
        "@feature": "", 
        "@locale": "", 
        "@npc": "Shuen", 
        "@name": "We are continuing water quality testing at MapleWorld and we need to adjust the population to preserve the lava ecosystem. All you need to do is to fish in the <font color=\"#ffd200\">lava</font> with <font color=\"#ffd200\">three or more guild members</font> today. Is it simple? Well, I'll ask you."
      }, 
      {
        "@id": "0523164601001482", 
        "@feature": "", 
        "@locale": "", 
        "@npc": "Shuen", 
        "@name": "It would be a great help if you are fishing with <font color=\"#ffd200\">more than three guild members in the</font> <font color=\"#ffd200\">lava</font> . Well, I'll ask you."
      }, 
      {
        "@id": "0523164601001483", 
        "@feature": "", 
        "@locale": "", 
        "@npc": "Shuen", 
        "@name": "And ~! <font color=\"#ffd200\">$MyPCName$</font> You have solved it quickly. Thank you. What I am offering now is a reward for your help today. If you find me again tomorrow, I will give you another favor."
      }, 
      {
        "@id": "0523164601001484", 
        "@feature": "", 
        "@locale": "", 
        "@npc": "Shuen", 
        "@name": "Hello ~ <font color=\"#ffd200\">$MyPCName$</font> ! How is your life in Guild? If you are not busy, can you help us a little? <font color=\"#ffd200\">$MyPCName$</font> Your guild will help you, and we will give you some compensation."
      }, 
      {
        "@id": "0523164601001485", 
        "@feature": "", 
        "@locale": "", 
        "@npc": "Shuen", 
        "@name": "We are continuing water quality testing at MapleWorld and we need to control the population to preserve the ecosystem in the waters. All you have to do is to fish in the <font color=\"#ffd200\">venom</font> , like <font color=\"#ffd200\">three or more guild members</font> today. Is it simple? Well, I'll ask you."
      }, 
      {
        "@id": "0523164601001486", 
        "@feature": "", 
        "@locale": "", 
        "@npc": "Shuen", 
        "@name": "It would be a great help if you were fishing with <font color=\"#ffd200\">more than three guild members</font> from the <font color=\"#ffd200\">venom</font> . Well, I'll ask you."
      }, 
      {
        "@id": "0523164601001487", 
        "@feature": "", 
        "@locale": "", 
        "@npc": "Shuen", 
        "@name": "And ~! <font color=\"#ffd200\">$MyPCName$</font> You have solved it quickly. Thank you. What I am offering now is a reward for your help today. If you find me again tomorrow, I will give you another favor."
      }, 
      {
        "@id": "0523164601001488", 
        "@feature": "", 
        "@locale": "", 
        "@npc": "Shuen", 
        "@name": "Hello ~ <font color=\"#ffd200\">$MyPCName$</font> ! How is your life in Guild? If you are not busy, can you help us a little? <font color=\"#ffd200\">$MyPCName$</font> Your guild will help you, and we will give you some compensation."
      }, 
      {
        "@id": "0523164601001489", 
        "@feature": "", 
        "@locale": "", 
        "@npc": "Shuen", 
        "@name": "It is said that the residents of MapleWorld are under a lot of stress nowadays. I do not care where it is, so please tell me beautiful performances with the guild members. Just ask at the guild, please at <font color=\"#ffd200\">least three guild members</font> ."
      }, 
      {
        "@id": "0523164601001490", 
        "@feature": "", 
        "@locale": "", 
        "@npc": "Shuen", 
        "@name": "It is a big help for us to play anywhere in the Maple World. Just ask at the guild, please at least <font color=\"#ffd200\">three guild members</font> ."
      }, 
      {
        "@id": "0523164601001491", 
        "@feature": "", 
        "@locale": "", 
        "@npc": "Shuen", 
        "@name": "And ~! <font color=\"#ffd200\">$MyPCName$</font> You have solved it quickly. Thank you. What I am offering now is a reward for your help today. If you find me again tomorrow, I will give you another favor."
      }, 
      {
        "@id": "0523164601001492", 
        "@feature": "", 
        "@locale": "", 
        "@npc": "Shuen", 
        "@name": "Hello ~ <font color=\"#ffd200\">$MyPCName$</font> ! How is your life in Guild? If you are not busy, can you help us a little? <font color=\"#ffd200\">$MyPCName$</font> Your guild will help you, and we will give you some compensation."
      }, 
      {
        "@id": "0523164601001493", 
        "@feature": "", 
        "@locale": "", 
        "@npc": "Shuen", 
        "@name": "You know the <font color=\"#ffd200\">golden treasure chest</font> hidden in the fields? According to one source, the guild office says the necessary items are in the box. Oh, you do not have to bring anything, just open the treasure chest for us. However, please ask at least <font color=\"#ffd200\">three guild members</font> ."
      }, 
      {
        "@id": "0523164601001494", 
        "@feature": "", 
        "@locale": "", 
        "@npc": "Shuen", 
        "@name": "<font color=\"#ffd200\">All</font> you have to do is open a <font color=\"#ffd200\">golden treasure box</font> for us. However, please ask at <font color=\"#ffd200\">least three guild members</font> ."
      }, 
      {
        "@id": "0523164601001495", 
        "@feature": "", 
        "@locale": "", 
        "@npc": "Shuen", 
        "@name": "And ~! <font color=\"#ffd200\">$MyPCName$</font> You have solved it quickly. Thank you. What I am offering now is a reward for your help today. If you find me again tomorrow, I will give you another favor."
      }, 
      {
        "@id": "0523164601001496", 
        "@feature": "", 
        "@locale": "", 
        "@npc": "Shuen", 
        "@name": "Hello ~ <font color=\"#ffd200\">$MyPCName$</font> ! How is your life in Guild? If you are not busy, can you help us a little? <font color=\"#ffd200\">$MyPCName$</font> Your guild will help you, and we will give you some compensation."
      }, 
      {
        "@id": "0523164601001497", 
        "@feature": "", 
        "@locale": "", 
        "@npc": "Shuen", 
        "@name": "You know the <font color=\"#ffd200\">wooden treasure chest</font> hidden in the fields? According to one source, the guild office says the necessary items are in the box. Oh, you do not have to bring anything, just open the treasure chest for us. However, please ask at least <font color=\"#ffd200\">three guild members</font> ."
      }, 
      {
        "@id": "0523164601001498", 
        "@feature": "", 
        "@locale": "", 
        "@npc": "Shuen", 
        "@name": "<font color=\"#ffd200\">All</font> you have to do is open a <font color=\"#ffd200\">wooden treasure chest</font> instead. However, please ask at <font color=\"#ffd200\">least three guild members</font> ."
      }, 
      {
        "@id": "0523164601001499", 
        "@feature": "", 
        "@locale": "", 
        "@npc": "Shuen", 
        "@name": "And ~! <font color=\"#ffd200\">$MyPCName$</font> You have solved it quickly. Thank you. What I am offering now is a reward for your help today. If you find me again tomorrow, I will give you another favor."
      }, 
      {
        "@id": "0522215601001300", 
        "@feature": "", 
        "@locale": "", 
        "@npc": "Shuen", 
        "@name": "welcome! <font color=\"#ffd200\">$MyPCName$</font> sir! It is good to enjoy the leisure time with the guild members, but why do not you go on an adventure together with your expedition?"
      }, 
      {
        "@id": "0523155301001330", 
        "@feature": "", 
        "@locale": "", 
        "@npc": "Shuen", 
        "@name": "<font color=\"#ffd200\">Party</font> this week with <font color=\"#ffd200\">3 or more of</font> the <font color=\"#ffd200\">guild members and</font> fire a hot fireball in the fire hell <font color=\"#ffd200\">$map:02000311$</font> <font color=\"#ffd200\">$npc:23000011$</font>$pp:를,을$ kill! $MyPCName$ I think that the guilt of the guilds with you can cool the huge dragon fever in an instant!"
      }, 
      {
        "@id": "0522215601001301", 
        "@feature": "", 
        "@locale": "", 
        "@npc": "Shuen", 
        "@name": "<font color=\"#ffd200\">Party</font> this week with <font color=\"#ffd200\">3 or more of</font> the <font color=\"#ffd200\">guild members and</font> fire a hot fireball in the fire hell <font color=\"#ffd200\">$map:02000311$</font> <font color=\"#ffd200\">$npc:23000011$</font>$pp:를,을$ kill!"
      }, 
      {
        "@id": "0522215601001302", 
        "@feature": "", 
        "@locale": "", 
        "@npc": "Shuen", 
        "@name": "Wow! Also!! It's amazing! If you're with guilds, you can not be afraid, can not you?"
      }, 
      {
        "@id": "0522215601001303", 
        "@feature": "", 
        "@locale": "", 
        "@npc": "Shuen", 
        "@name": "welcome! <font color=\"#ffd200\">$MyPCName$</font> sir! It is good to enjoy the leisure time with the guild members, but why do not you go on an adventure together with your expedition?"
      }, 
      {
        "@id": "0523155301001331", 
        "@feature": "", 
        "@locale": "", 
        "@npc": "Shuen", 
        "@name": "This week you will have <font color=\"#ffd200\">a party with 3 or more of</font> the <font color=\"#ffd200\">guild members</font> to reveal the black shadow on <font color=\"#ffd200\">$dungeonTitle:20016002$</font> and kick the shadows! $MyPCName$ I believe that the wisdom and courage of guild members with you will bring back a bright light!"
      }, 
      {
        "@id": "0522215601001304", 
        "@feature": "", 
        "@locale": "", 
        "@npc": "Shuen", 
        "@name": "This week you will have <font color=\"#ffd200\">a party with 3 or more of</font> the <font color=\"#ffd200\">guild members</font> to reveal the black shadow on <font color=\"#ffd200\">$dungeonTitle:20016002$</font> and kick the shadows!"
      }, 
      {
        "@id": "0522215601001305", 
        "@feature": "", 
        "@locale": "", 
        "@npc": "Shuen", 
        "@name": "Wow! Also!! It's amazing! If you're with guilds, you can not be afraid, can not you?"
      }, 
      {
        "@id": "0522215601001306", 
        "@feature": "", 
        "@locale": "", 
        "@npc": "Shuen", 
        "@name": "welcome! <font color=\"#ffd200\">$MyPCName$</font> sir! It is good to enjoy the leisure time with the guild members, but why do not you go on an adventure together with your expedition?"
      }, 
      {
        "@id": "0523155301001332", 
        "@feature": "", 
        "@locale": "", 
        "@npc": "Shuen", 
        "@name": "This week we have <font color=\"#ffd200\">a party with three or more of</font> the <font color=\"#ffd200\">guild members and</font> stop the dangerous research that threatens the world in <font color=\"#ffd200\">$dungeonTitle:20020002$</font> <font color=\"#ffd200\">$npc:23000082[gender:0]$</font>$pp:를,을$! $MyPCName$ The courage of guild members with you will save the world!"
      }, 
      {
        "@id": "0522215601001307", 
        "@feature": "", 
        "@locale": "", 
        "@npc": "Shuen", 
        "@name": "This week we have <font color=\"#ffd200\">a party with three or more of</font> the <font color=\"#ffd200\">guild members and</font> stop the dangerous research that threatens the world in <font color=\"#ffd200\">$dungeonTitle:20020002$</font> <font color=\"#ffd200\">$npc:23000082[gender:0]$</font>$pp:를,을$!"
      }, 
      {
        "@id": "0522215601001308", 
        "@feature": "", 
        "@locale": "", 
        "@npc": "Shuen", 
        "@name": "Wow! Also!! It's amazing! If you're with guilds, you can not be afraid, can not you?"
      }, 
      {
        "@id": "0522215601001309", 
        "@feature": "", 
        "@locale": "", 
        "@npc": "Shuen", 
        "@name": "welcome! <font color=\"#ffd200\">$MyPCName$</font> sir! It is good to enjoy the leisure time with the guild members, but why do not you go on an adventure together with your expedition?"
      }, 
      {
        "@id": "0523155301001333", 
        "@feature": "", 
        "@locale": "", 
        "@npc": "Shuen", 
        "@name": "This week we have <font color=\"#ffd200\">a party with three or more of</font> the <font color=\"#ffd200\">guild members and</font> kill <font color=\"#ffd200\">$npc:23200068[gender:0]$</font>$pp:를,을$, which is a dangerous conspiracy in <font color=\"#ffd200\">$dungeonTitle:20018002$</font> ! $MyPCName$ The courage of guild members with you will save the world!"
      }, 
      {
        "@id": "0522215601001310", 
        "@feature": "", 
        "@locale": "", 
        "@npc": "Shuen", 
        "@name": "This week we have <font color=\"#ffd200\">a party with three or more of</font> the <font color=\"#ffd200\">guild members and</font> kill <font color=\"#ffd200\">$npc:23200068[gender:0]$</font>$pp:를,을$, which is a dangerous conspiracy in <font color=\"#ffd200\">$dungeonTitle:20018002$</font> !"
      }, 
      {
        "@id": "0522215601001311", 
        "@feature": "", 
        "@locale": "", 
        "@npc": "Shuen", 
        "@name": "Wow! Also!! It's amazing! If you're with guilds, you can not be afraid, can not you?"
      }, 
      {
        "@id": "0522215601001312", 
        "@feature": "", 
        "@locale": "", 
        "@npc": "Shuen", 
        "@name": "welcome! <font color=\"#ffd200\">$MyPCName$</font> sir! It is good to enjoy the leisure time with the guild members, but why do not you go on an adventure together with your expedition?"
      }, 
      {
        "@id": "0523155301001334", 
        "@feature": "", 
        "@locale": "", 
        "@npc": "Shuen", 
        "@name": "This week you will have <font color=\"#ffd200\">a party with 3 or more of</font> the <font color=\"#ffd200\">guild members and go</font> to $ <font color=\"#ffd200\">$dungeonTitle:20019002$</font> pp2 for $! Wait for the descendants of the runes, wake up the sleeping beings and stop those who want to get them. $MyPCName$ The courage of guild members with you will save the world!"
      }, 
      {
        "@id": "0522215601001313", 
        "@feature": "", 
        "@locale": "", 
        "@npc": "Shuen", 
        "@name": "This week you will have <font color=\"#ffd200\">a party with 3 or more of</font> the <font color=\"#ffd200\">guild members and go</font> to $ <font color=\"#ffd200\">$dungeonTitle:20019002$</font> pp2 for $! Wait for the descendants of the runes, wake up the sleeping beings and stop those who want to get them."
      }, 
      {
        "@id": "0522215601001314", 
        "@feature": "", 
        "@locale": "", 
        "@npc": "Shuen", 
        "@name": "Wow! Also!! It's amazing! If you're with guilds, you can not be afraid, can not you?"
      }, 
      {
        "@id": "0522215601001315", 
        "@feature": "", 
        "@locale": "", 
        "@npc": "Shuen", 
        "@name": "welcome! <font color=\"#ffd200\">$MyPCName$</font> sir! It is good to enjoy the leisure time with the guild members, but why do not you go on an adventure together with your expedition?"
      }, 
      {
        "@id": "0523155301001335", 
        "@feature": "", 
        "@locale": "", 
        "@npc": "Shuen", 
        "@name": "<font color=\"#ffd200\">Party</font> this week with <font color=\"#ffd200\">3 or more of</font> the <font color=\"#ffd200\">guild members and</font> fire a hot fireball in the fire hell <font color=\"#ffd200\">$map:02000311$</font> <font color=\"#ffd200\">$npc:23000011$</font>$pp:를,을$ kill! $MyPCName$ I think that the guilt of the guilds with you can cool the huge dragon fever in an instant!"
      }, 
      {
        "@id": "0522215601001316", 
        "@feature": "", 
        "@locale": "", 
        "@npc": "Shuen", 
        "@name": "<font color=\"#ffd200\">Party</font> this week with <font color=\"#ffd200\">3 or more of</font> the <font color=\"#ffd200\">guild members and</font> fire a hot fireball in the fire hell <font color=\"#ffd200\">$map:02000311$</font> <font color=\"#ffd200\">$npc:23000011$</font>$pp:를,을$ kill!"
      }, 
      {
        "@id": "0522215601001317", 
        "@feature": "", 
        "@locale": "", 
        "@npc": "Shuen", 
        "@name": "Wow! Also!! It's amazing! If you're with guilds, you can not be afraid, can not you?"
      }, 
      {
        "@id": "0522215601001318", 
        "@feature": "", 
        "@locale": "", 
        "@npc": "Shuen", 
        "@name": "welcome! <font color=\"#ffd200\">$MyPCName$</font> sir! It is good to enjoy the leisure time with the guild members, but why do not you go on an adventure together with your expedition?"
      }, 
      {
        "@id": "0523155301001336", 
        "@feature": "", 
        "@locale": "", 
        "@npc": "Shuen", 
        "@name": "This week you will have <font color=\"#ffd200\">a party with 3 or more of</font> the <font color=\"#ffd200\">guild members</font> to reveal the black shadow on <font color=\"#ffd200\">$dungeonTitle:20016002$</font> and kick the shadows! $MyPCName$ I believe that the wisdom and courage of guild members with you will bring back a bright light!"
      }, 
      {
        "@id": "0522215601001319", 
        "@feature": "", 
        "@locale": "", 
        "@npc": "Shuen", 
        "@name": "This week you will have <font color=\"#ffd200\">a party with 3 or more of</font> the <font color=\"#ffd200\">guild members</font> to reveal the black shadow on <font color=\"#ffd200\">$dungeonTitle:20016002$</font> and kick the shadows!"
      }, 
      {
        "@id": "0522215601001320", 
        "@feature": "", 
        "@locale": "", 
        "@npc": "Shuen", 
        "@name": "Wow! Also!! It's amazing! If you're with guilds, you can not be afraid, can not you?"
      }, 
      {
        "@id": "0522215601001321", 
        "@feature": "", 
        "@locale": "", 
        "@npc": "Shuen", 
        "@name": "welcome! <font color=\"#ffd200\">$MyPCName$</font> sir! It is good to enjoy the leisure time with the guild members, but why do not you go on an adventure together with your expedition?"
      }, 
      {
        "@id": "0523155301001337", 
        "@feature": "", 
        "@locale": "", 
        "@npc": "Shuen", 
        "@name": "This week we have <font color=\"#ffd200\">a party with three or more of</font> the <font color=\"#ffd200\">guild members and</font> stop the dangerous research that threatens the world in <font color=\"#ffd200\">$dungeonTitle:20020002$</font> <font color=\"#ffd200\">$npc:23000082[gender:0]$</font>$pp:를,을$! $MyPCName$ The courage of guild members with you will save the world!"
      }, 
      {
        "@id": "0522215601001322", 
        "@feature": "", 
        "@locale": "", 
        "@npc": "Shuen", 
        "@name": "This week we have <font color=\"#ffd200\">a party with three or more of</font> the <font color=\"#ffd200\">guild members and</font> stop the dangerous research that threatens the world in <font color=\"#ffd200\">$dungeonTitle:20020002$</font> <font color=\"#ffd200\">$npc:23000082[gender:0]$</font>$pp:를,을$!"
      }, 
      {
        "@id": "0522215601001323", 
        "@feature": "", 
        "@locale": "", 
        "@npc": "Shuen", 
        "@name": "Wow! Also!! It's amazing! If you're with guilds, you can not be afraid, can not you?"
      }, 
      {
        "@id": "0522215601001324", 
        "@feature": "", 
        "@locale": "", 
        "@npc": "Shuen", 
        "@name": "welcome! <font color=\"#ffd200\">$MyPCName$</font> sir! It is good to enjoy the leisure time with the guild members, but why do not you go on an adventure together with your expedition?"
      }, 
      {
        "@id": "0523155301001338", 
        "@feature": "", 
        "@locale": "", 
        "@npc": "Shuen", 
        "@name": "This week we have <font color=\"#ffd200\">a party with three or more of</font> the <font color=\"#ffd200\">guild members and</font> kill <font color=\"#ffd200\">$npc:23200068[gender:0]$</font>$pp:를,을$, which is a dangerous conspiracy in <font color=\"#ffd200\">$dungeonTitle:20018002$</font> ! $MyPCName$ The courage of guild members with you will save the world!"
      }, 
      {
        "@id": "0522215601001325", 
        "@feature": "", 
        "@locale": "", 
        "@npc": "Shuen", 
        "@name": "This week we have <font color=\"#ffd200\">a party with three or more of</font> the <font color=\"#ffd200\">guild members and</font> kill <font color=\"#ffd200\">$npc:23200068[gender:0]$</font>$pp:를,을$, which is a dangerous conspiracy in <font color=\"#ffd200\">$dungeonTitle:20018002$</font> !"
      }, 
      {
        "@id": "0522215601001326", 
        "@feature": "", 
        "@locale": "", 
        "@npc": "Shuen", 
        "@name": "Wow! Also!! It's amazing! If you're with guilds, you can not be afraid, can not you?"
      }, 
      {
        "@id": "0522215601001327", 
        "@feature": "", 
        "@locale": "", 
        "@npc": "Shuen", 
        "@name": "welcome! <font color=\"#ffd200\">$MyPCName$</font> sir! It is good to enjoy the leisure time with the guild members, but why do not you go on an adventure together with your expedition?"
      }, 
      {
        "@id": "0523155301001339", 
        "@feature": "", 
        "@locale": "", 
        "@npc": "Shuen", 
        "@name": "This week you will have <font color=\"#ffd200\">a party with 3 or more of</font> the <font color=\"#ffd200\">guild members and go</font> to $ <font color=\"#ffd200\">$dungeonTitle:20019002$</font> pp2 for $! Wait for the descendants of the runes, wake up the sleeping beings and stop those who want to get them. $MyPCName$ The courage of guild members with you will save the world!"
      }, 
      {
        "@id": "0522215601001328", 
        "@feature": "", 
        "@locale": "", 
        "@npc": "Shuen", 
        "@name": "This week you will have <font color=\"#ffd200\">a party with 3 or more of</font> the <font color=\"#ffd200\">guild members and go</font> to $ <font color=\"#ffd200\">$dungeonTitle:20019002$</font> pp2 for $! Wait for the descendants of the runes, wake up the sleeping beings and stop those who want to get them."
      }, 
      {
        "@id": "0522215601001329", 
        "@feature": "", 
        "@locale": "", 
        "@npc": "Shuen", 
        "@name": "Wow! Also!! It's amazing! If you're with guilds, you can not be afraid, can not you?"
      }
    ]
  }
}