{
  "?xml": {
    "@version": "1.0", 
    "@encoding": "utf-8"
  }, 
  "ms2": {
    "key": [
      {
        "@id": "0831174302000001", 
        "@feature": "", 
        "@locale": "", 
        "@npc": "Santiago", 
        "@name": "It is ... <font color=\"#ffd200\">$npc:11000054[gender:0]$</font> I do not know where this guy went ..."
      }, 
      {
        "@id": "0831174302000002", 
        "@feature": "", 
        "@locale": "", 
        "@npc": "pc", 
        "@name": "Ask $npc:11000054[gender:0]$ who you are."
      }, 
      {
        "@id": "0831174302000003", 
        "@feature": "", 
        "@locale": "", 
        "@npc": "Santiago", 
        "@name": "Oh, my youngest grandchild. $npcName:11000075[gender:1]$ $ npcTitle: 11000075 [gender: 1] I heard the news that $ 's alibi is going to open,"
      }, 
      {
        "@id": "0831174302000004", 
        "@feature": "", 
        "@locale": "", 
        "@npc": "Santiago", 
        "@name": "I wonder if you are crying in the corner of the village storehouse ... Go to <font color=\"#ffd200\">$npc:11000148[gender:0]$</font> managing the village warehouse and ask if you did not see my grandson."
      }, 
      {
        "@id": "0831174302000005", 
        "@feature": "", 
        "@locale": "", 
        "@npc": "Santiago", 
        "@name": "Go to <font color=\"#ffd200\">$npc:11000148[gender:0]$</font> managing the village warehouse and ask if you did not see my grandson."
      }, 
      {
        "@id": "0831174302000006", 
        "@feature": "", 
        "@locale": "", 
        "@npc": "Kavan", 
        "@name": "Huh? Who are you looking for?"
      }, 
      {
        "@id": "0831174302000007", 
        "@feature": "", 
        "@locale": "", 
        "@npc": "pc", 
        "@name": "Say that he is looking for the grandson of $npc:11000021[gender:0]$."
      }, 
      {
        "@id": "0831174302000008", 
        "@feature": "", 
        "@locale": "", 
        "@npc": "Kavan", 
        "@name": "Oh ~ <font color=\"#ffd200\">$npc:11000054[gender:0]$</font> ? I came here and went to find a new box of crackers on the rocky peaks."
      }, 
      {
        "@id": "0831174302000009", 
        "@feature": "", 
        "@locale": "", 
        "@npc": "Mimi", 
        "@name": "Awesome, awesome! $MyPCName$ Do not you want to go to Hyejeong Al Hwang?"
      }, 
      {
        "@id": "0831174302000010", 
        "@feature": "", 
        "@locale": "", 
        "@npc": "Mimi", 
        "@name": "It's the <font color=\"#ffd200\">first time</font> I've <font color=\"#ffd200\">ever been</font> able to attend even ordinary people like us. $MyPCName$ Why do not you go to the continent on this occasion? It's a good chance to go to a wider world."
      }, 
      {
        "@id": "0831174302000011", 
        "@feature": "", 
        "@locale": "", 
        "@npc": "Mimi", 
        "@name": "It's the <font color=\"#ffd200\">first time</font> I've <font color=\"#ffd200\">ever been</font> able to attend even ordinary people like us. $MyPCName$ Why do not you go to the continent on this occasion? It's a good chance to go to a wider world."
      }, 
      {
        "@id": "0831174302000012", 
        "@feature": "", 
        "@locale": "", 
        "@npc": "Decay", 
        "@name": "$MyPCName$, you are here too! I just arrived. Here it comes."
      }, 
      {
        "@id": "0831174302000013", 
        "@feature": "", 
        "@locale": "", 
        "@npc": "Mimi", 
        "@name": "$MyPCName$ It was you !! I'm glad to see you here. $ $map:02000001$ $ pp2: Opening the formula, will you go straight to $?"
      }, 
      {
        "@id": "0831174302000014", 
        "@feature": "", 
        "@locale": "", 
        "@npc": "pc", 
        "@name": "That said."
      }, 
      {
        "@id": "0831174302000015", 
        "@feature": "", 
        "@locale": "", 
        "@npc": "Mimi", 
        "@name": "<font color=\"#ffd200\">From $map:02000062$ to $map:02000001$, you are connected</font> to <font color=\"#ffd200\">the Royal Road</font> so you can get there quickly."
      }, 
      {
        "@id": "0831174302000016", 
        "@feature": "", 
        "@locale": "", 
        "@npc": "Mimi", 
        "@name": "When I go to my dad 's restroom, I will go straight to Tria. When you first arrive, please take our seat so that you can see it close to you. Hehet."
      }, 
      {
        "@id": "0831174302000017", 
        "@feature": "", 
        "@locale": "", 
        "@npc": "Mimi", 
        "@name": "When I go to my dad 's restroom, I will go straight to Tria. When you first arrive, please take our seat so that you can see it close to you. Hehet."
      }, 
      {
        "@id": "0831174302000018", 
        "@feature": "", 
        "@locale": "", 
        "@npc": "Neapolitan", 
        "@name": "nice to meet you. $map:02000001$ is $npc:11000160[gender:1]$. How can I help you?"
      }, 
      {
        "@id": "0831174302000019", 
        "@feature": "", 
        "@locale": "", 
        "@npc": "pc", 
        "@name": "He wants to attend the ceremony."
      }, 
      {
        "@id": "0831174302000020", 
        "@feature": "", 
        "@locale": "", 
        "@npc": "Neapolitan", 
        "@name": "$npcName:11000075[gender:1]$ $ npcTitle: 11000075 [gender: 1] Is this $? You have not heard yet ... Unfortunately, the <font color=\"#ffd200\">expression was canceled</font> ."
      }, 
      {
        "@id": "0831174302000021", 
        "@feature": "", 
        "@locale": "", 
        "@npc": "pc", 
        "@name": "Ask why."
      }, 
      {
        "@id": "0831174302000022", 
        "@feature": "", 
        "@locale": "", 
        "@npc": "Neapolitan", 
        "@name": "<font color=\"#ffd200\">An</font> official letter came from the royal family <font color=\"#ffd200\">because of sudden natural disasters and concerns about the safety of the residents</font> . I can not tell you anything more."
      }, 
      {
        "@id": "0831174302000064", 
        "@feature": "", 
        "@locale": "", 
        "@npc": "Gary", 
        "@name": "I was looking for someone to help us ... I'm well done."
      }, 
      {
        "@id": "0831174302000065", 
        "@feature": "", 
        "@locale": "", 
        "@npc": "pc", 
        "@name": "I ask what is going on."
      }, 
      {
        "@id": "0831174302000066", 
        "@feature": "", 
        "@locale": "", 
        "@npc": "Gary", 
        "@name": "We are porters who deliver the goods necessary for the alms. $map:02000062$$pp:와,과$ $map:02000001$$pp:를,을$ The Royal Road that caused the earthquake disappeared because of the earthquake, and as soon as I hurried, I came into the forest carrying only important things."
      }, 
      {
        "@id": "0831174302000067", 
        "@feature": "", 
        "@locale": "", 
        "@npc": "Gary", 
        "@name": "Oh, no ... If you see the porters in the woods trapped in thorn bushes and unable to move, please help me. Please."
      }, 
      {
        "@id": "0831174302000068", 
        "@feature": "", 
        "@locale": "", 
        "@npc": "Gary", 
        "@name": "If you see the porters in the woods locked in thorn bushes, please help me. Please."
      }, 
      {
        "@id": "0831174302000069", 
        "@feature": "", 
        "@locale": "", 
        "@npc": "Alvin", 
        "@name": "Oh, did you see any porters like me on the way? I was a little ahead of my time, so I started off ... I have waited here a long time, but no one has arrived."
      }, 
      {
        "@id": "0831174302000070", 
        "@feature": "", 
        "@locale": "", 
        "@npc": "pc", 
        "@name": "Tell the situation of the porters."
      }, 
      {
        "@id": "0831174302000071", 
        "@feature": "", 
        "@locale": "", 
        "@npc": "Alvin", 
        "@name": "How did this happen ... Was anyone injured?"
      }, 
      {
        "@id": "0831174302000072", 
        "@feature": "", 
        "@locale": "", 
        "@npc": "pc", 
        "@name": "That said."
      }, 
      {
        "@id": "0831174302000073", 
        "@feature": "", 
        "@locale": "", 
        "@npc": "Alvin", 
        "@name": "I'm really glad. I'll be busy on my way to help you ... Thank you very much."
      }, 
      {
        "@id": "0831174302000074", 
        "@feature": "", 
        "@locale": "", 
        "@npc": "Alvin", 
        "@name": "Oh, how about $map:02000117$ $ pp2: on the way to $?"
      }, 
      {
        "@id": "0831174302000075", 
        "@feature": "", 
        "@locale": "", 
        "@npc": "pc", 
        "@name": "That said."
      }, 
      {
        "@id": "0831174302000076", 
        "@feature": "", 
        "@locale": "", 
        "@npc": "Alvin", 
        "@name": "Oh, please just listen to me one favor. There is already a <font color=\"#ffd200\">porter who left $ $map:02000117$ $ pp2</font> . Could you tell him to talk about the matter and ask him to wait a minute?"
      }, 
      {
        "@id": "0831174302000077", 
        "@feature": "", 
        "@locale": "", 
        "@npc": "Alvin", 
        "@name": "There is already a <font color=\"#ffd200\">porter who left $ $map:02000117$ $ pp2</font> . Could you tell him to talk about the matter and ask him to wait a minute?"
      }, 
      {
        "@id": "0831174302000078", 
        "@feature": "", 
        "@locale": "", 
        "@npc": "Luba", 
        "@name": "I beg your pardon? Why did not you come to me like this? Sheesh. Are you all right?"
      }, 
      {
        "@id": "0831174302000079", 
        "@feature": "", 
        "@locale": "", 
        "@npc": "pc", 
        "@name": "That said."
      }, 
      {
        "@id": "0831174302000080", 
        "@feature": "", 
        "@locale": "", 
        "@npc": "Luba", 
        "@name": "All right, then. I move quickly and fast ... Sheep ... I have to wait for a while."
      }, 
      {
        "@id": "0831174302000258", 
        "@feature": "", 
        "@locale": "", 
        "@npc": "Lucy", 
        "@name": "Where did he go ... ? Obviously I was holding my hand ... surely… This guy ... I went to the Royal Road ..."
      }, 
      {
        "@id": "0831174302000259", 
        "@feature": "", 
        "@locale": "", 
        "@npc": "pc", 
        "@name": "I ask what is going on."
      }, 
      {
        "@id": "0831174302000260", 
        "@feature": "", 
        "@locale": "", 
        "@npc": "Lucy", 
        "@name": "My sister ... I've been gone again ... If <font color=\"#ffd200\">I could not go</font> to <font color=\"#ffd200\">$map:02000001$ because of</font> this <font color=\"#ffd200\">earthquake, I</font> 'm just going to stay home. Ah… Really… I have to be up here with him even though I have to ... Hugh ..."
      }, 
      {
        "@id": "0831174302000261", 
        "@feature": "", 
        "@locale": "", 
        "@npc": "Lucy", 
        "@name": "If you see a kid named <font color=\"#ffd200\">$npc:11000114[gender:0]$</font> when you pass by, please tell your sister that you are waiting at $map:02000114$."
      }, 
      {
        "@id": "0831174302000262", 
        "@feature": "", 
        "@locale": "", 
        "@npc": "Lucy", 
        "@name": "If you see a kid named <font color=\"#ffd200\">$npc:11000114[gender:0]$</font> when you pass by, please tell your sister that you are waiting at $map:02000114$."
      }, 
      {
        "@id": "0831174302000263", 
        "@feature": "", 
        "@locale": "", 
        "@npc": "Formulation", 
        "@name": "OMG… I'm really scared ... Did you see here underneath? I think the monster will pop up."
      }, 
      {
        "@id": "0831174302000264", 
        "@feature": "", 
        "@locale": "", 
        "@npc": "pc", 
        "@name": "$npc:11000107[gender:1]$ Ask if your brother is right."
      }, 
      {
        "@id": "0831174302000265", 
        "@feature": "", 
        "@locale": "", 
        "@npc": "Formulation", 
        "@name": "Yes, that is correct. But why?"
      }, 
      {
        "@id": "0831174302000266", 
        "@feature": "", 
        "@locale": "", 
        "@npc": "pc", 
        "@name": "She says she is looking."
      }, 
      {
        "@id": "0831174302000267", 
        "@feature": "", 
        "@locale": "", 
        "@npc": "Formulation", 
        "@name": "Ah… right! I promised to stay close to your sister ... I forgot ... I'll go over here a little more and see you."
      }, 
      {
        "@id": "0831174302000272", 
        "@feature": "", 
        "@locale": "", 
        "@npc": "Bee boss", 
        "@name": "Burnt. <font color=\"#ffd200\">$npc:22000022$</font>$pp:가,이$ Our friends have taken away all the honey they have collected so hard."
      }, 
      {
        "@id": "0831174302000273", 
        "@feature": "", 
        "@locale": "", 
        "@npc": "Bee boss", 
        "@name": "There in the honeycomb under the rocky roof $npc:22000022$$pp:가,이$ We poured our honey. We must find honey. Bamboo shoots !!"
      }, 
      {
        "@id": "0831174302000274", 
        "@feature": "", 
        "@locale": "", 
        "@npc": "Bee boss", 
        "@name": "There in the honeycomb under the rocky roof $npc:22000022$$pp:가,이$ We poured our honey. We must find honey. Bamboo shoots !!"
      }, 
      {
        "@id": "0831174302000275", 
        "@feature": "", 
        "@locale": "", 
        "@npc": "Bee boss", 
        "@name": "Thank you. Bullshit! You are a friend of a bee now. Bullshit!"
      }, 
      {
        "@id": "0831174302000379", 
        "@feature": "", 
        "@locale": "", 
        "@npc": "Decay", 
        "@name": "$npc:11000151[gender:1]$$pp:가,이$ I would wait a lot ... $MyPCName$! Can you help me?"
      }, 
      {
        "@id": "0831174302000380", 
        "@feature": "", 
        "@locale": "", 
        "@npc": "Decay", 
        "@name": "Could you get me <font color=\"#ffd200\">$npc:21000059$</font>$pp:를,을$ and get <font color=\"#ffd200\">$item:30000011$ out</font> there? It takes too long because I try to catch it alone."
      }, 
      {
        "@id": "0831174302000381", 
        "@feature": "", 
        "@locale": "", 
        "@npc": "Decay", 
        "@name": "Could you get me <font color=\"#ffd200\">$npc:21000059$</font>$pp:를,을$ and get <font color=\"#ffd200\">$item:30000011$ out</font> there? It takes too long because I try to catch it alone."
      }, 
      {
        "@id": "0831174302000382", 
        "@feature": "", 
        "@locale": "", 
        "@npc": "Decay", 
        "@name": "Thanks, really! If you sell it to a merchant who is in town <font color=\"#ffd200\">$item:30000011$</font>$pp:를,을$, it will cost you."
      }, 
      {
        "@id": "0831174302000383", 
        "@feature": "", 
        "@locale": "", 
        "@npc": "Decay", 
        "@name": "If you go to <font color=\"#ffd200\">$item:30000011$</font>$pp:는,은$ continent filled with flesh, it will be used as a very valuable food material."
      }, 
      {
        "@id": "0831174302000384", 
        "@feature": "", 
        "@locale": "", 
        "@npc": "Decay", 
        "@name": "If you want to go to the continent and attend the alumni ceremony, sell goods to the merchants like me and make money."
      }, 
      {
        "@id": "0831174302000385", 
        "@feature": "", 
        "@locale": "", 
        "@npc": "Cecilia", 
        "@name": "Why not ..."
      }, 
      {
        "@id": "0831174302000386", 
        "@feature": "", 
        "@locale": "", 
        "@npc": "pc", 
        "@name": "Ask who you are waiting for."
      }, 
      {
        "@id": "0831174302000387", 
        "@feature": "", 
        "@locale": "", 
        "@npc": "Cecilia", 
        "@name": "$npc:11000098[gender:0]$, my boyfriend."
      }, 
      {
        "@id": "0831174302000388", 
        "@feature": "", 
        "@locale": "", 
        "@npc": "pc", 
        "@name": "He asks where his boyfriend is."
      }, 
      {
        "@id": "0831174302000389", 
        "@feature": "", 
        "@locale": "", 
        "@npc": "Cecilia", 
        "@name": "$map:63000002$."
      }, 
      {
        "@id": "0831174302000390", 
        "@feature": "", 
        "@locale": "", 
        "@npc": "pc", 
        "@name": "I ask where it is."
      }, 
      {
        "@id": "0831174302000391", 
        "@feature": "", 
        "@locale": "", 
        "@npc": "Cecilia", 
        "@name": "Press <font color=\"#ffd200\">M</font> to go directly."
      }, 
      {
        "@id": "0831174302000392", 
        "@feature": "", 
        "@locale": "", 
        "@npc": "Cecilia", 
        "@name": "Press it. <font color=\"#ffd200\">M</font> !!"
      }, 
      {
        "@id": "0831174302000393", 
        "@feature": "", 
        "@locale": "", 
        "@npc": "Decay", 
        "@name": "Huh? What did you just say to me?"
      }, 
      {
        "@id": "0831174302000394", 
        "@feature": "", 
        "@locale": "", 
        "@npc": "pc", 
        "@name": "Ask if your $npc:11000151[gender:1]$ boyfriend is right."
      }, 
      {
        "@id": "0831174302000395", 
        "@feature": "", 
        "@locale": "", 
        "@npc": "Decay", 
        "@name": "Oh, yeah! $npc:11000151[gender:1]$$pp:가,이$ My girlfriend."
      }, 
      {
        "@id": "0831174302000396", 
        "@feature": "", 
        "@locale": "", 
        "@npc": "pc", 
        "@name": "I ask why you came here."
      }, 
      {
        "@id": "0831174302000397", 
        "@feature": "", 
        "@locale": "", 
        "@npc": "pc", 
        "@name": "My girlfriend asks me whether it is so blunt."
      }, 
      {
        "@id": "0831174302000398", 
        "@feature": "", 
        "@locale": "", 
        "@npc": "Decay", 
        "@name": "I came to make money for $npc:11000151[gender:1]$. $npc:21000059$ of $item:30000011$$pp:가,이$ It sells pretty expensive."
      }, 
      {
        "@id": "0831174302000399", 
        "@feature": "", 
        "@locale": "", 
        "@npc": "Decay", 
        "@name": "$npc:11000151[gender:1]$$pp:가,이$ Are you blunt? Nonsense! In front of me, I always smile with the sound of a bell. How lovely!"
      }, 
      {
        "@id": "0831174302000400", 
        "@feature": "", 
        "@locale": "", 
        "@npc": "pc", 
        "@name": "I ask my girlfriend what I am doing here."
      }, 
      {
        "@id": "0831174302000401", 
        "@feature": "", 
        "@locale": "", 
        "@npc": "Clippin", 
        "@name": "Before the merchant leaves the island, you must collect <font color=\"#ffd200\">$item:30000008$</font>$pp:를,을$ and sell it soon ... I can not scratch the shell with my hands ..."
      }, 
      {
        "@id": "0831174302000402", 
        "@feature": "", 
        "@locale": "", 
        "@npc": "Clippin", 
        "@name": "$MyPCName$ ... I'm really sorry ... Here I'll share everything together <font color=\"#ffd200\">$item:30000008$</font>$pp:를,을$ casserole shellfish around the coast?"
      }, 
      {
        "@id": "0831174302000403", 
        "@feature": "", 
        "@locale": "", 
        "@npc": "Clippin", 
        "@name": "$MyPCName$ ... I'm really sorry ... Here I'll share everything together <font color=\"#ffd200\">$item:30000008$</font>$pp:를,을$ casserole shellfish around the coast?"
      }, 
      {
        "@id": "0831174302000404", 
        "@feature": "", 
        "@locale": "", 
        "@npc": "Clippin", 
        "@name": "Is it already collected?"
      }, 
      {
        "@id": "0831174302000405", 
        "@feature": "", 
        "@locale": "", 
        "@npc": "pc", 
        "@name": "Pass $item:30000008$."
      }, 
      {
        "@id": "0831174302000406", 
        "@feature": "", 
        "@locale": "", 
        "@npc": "Clippin", 
        "@name": "Wow ~ look at this color ... I have just collected something really beautiful. A little bit wrong, it scratches or breaks ... It's great. Seems to be good for catching shellfish."
      }, 
      {
        "@id": "0831174302000407", 
        "@feature": "", 
        "@locale": "", 
        "@npc": "Clippin", 
        "@name": "Anyway thanks to <font color=\"#ffd200\">$item:30000008$ I got</font>$pp:를,을$ as I needed. I think I will have enough to pay for the money I have accumulated in the meantime."
      }, 
      {
        "@id": "0831174302000408", 
        "@feature": "", 
        "@locale": "", 
        "@npc": "Lujan", 
        "@name": "Have you seen <font color=\"#ffd200\">$npc:22300149$</font> ?"
      }, 
      {
        "@id": "0831174302000409", 
        "@feature": "", 
        "@locale": "", 
        "@npc": "pc", 
        "@name": "."
      }, 
      {
        "@id": "0831174302000410", 
        "@feature": "", 
        "@locale": "", 
        "@npc": "pc", 
        "@name": "I do not."
      }, 
      {
        "@id": "0831174302000411", 
        "@feature": "", 
        "@locale": "", 
        "@npc": "pc", 
        "@name": "I do not know what it is."
      }, 
      {
        "@id": "0831174302000412", 
        "@feature": "", 
        "@locale": "", 
        "@npc": "Lujan", 
        "@name": "Shake it! Really? Have you already been to the turtle hill? You are really brave!"
      }, 
      {
        "@id": "0831174302000413", 
        "@feature": "", 
        "@locale": "", 
        "@npc": "Lujan", 
        "@name": "I mean, you've already been to a turtle hill ... Can not you just bring me <font color=\"#ffd200\">$item:20000013$</font> ? I think you can go to see the boats if you take it and sell it ..."
      }, 
      {
        "@id": "0831174302000414", 
        "@feature": "", 
        "@locale": "", 
        "@npc": "Lujan", 
        "@name": "<font color=\"#ffd200\">$item:20000013$</font>$pp:는,은$ <font color=\"#ffd200\">$npc:22300149$$pp:가,이$</font> Look through the <font color=\"#ffd200\">hills</font> of the <font color=\"#ffd200\">coming turtles</font> and find them. Will you save it?"
      }, 
      {
        "@id": "0831174302000415", 
        "@feature": "", 
        "@locale": "", 
        "@npc": "Lujan", 
        "@name": "Ah… Yes? Beyond this stone wall is the tortoise hill. If you look there ... <font color=\"#ffd200\">$npc:22300149$</font> with the big broccoli on the carapace$pp:가,이$."
      }, 
      {
        "@id": "0831174302000416", 
        "@feature": "", 
        "@locale": "", 
        "@npc": "Lujan", 
        "@name": "When you have time <font color=\"#ffd200\">$npc:22300149$$pp:가,이$</font> Go to <font color=\"#ffd200\">the turtle hill coming out</font> , can you bring only <font color=\"#ffd200\">$item:20000013$</font> ? If you sell it and sell it, you will be able to collect money to go to boating and seeing it!"
      }, 
      {
        "@id": "0831174302000417", 
        "@feature": "", 
        "@locale": "", 
        "@npc": "Lujan", 
        "@name": "When you have time <font color=\"#ffd200\">$npc:22300149$$pp:가,이$</font> Go to <font color=\"#ffd200\">the turtle hill coming out</font> , can you bring only <font color=\"#ffd200\">$item:20000013$</font> ? If you sell it and sell it, you will be able to collect money to go to boating and seeing it!"
      }, 
      {
        "@id": "0831174302000418", 
        "@feature": "", 
        "@locale": "", 
        "@npc": "Lujan", 
        "@name": "Wow! You have a real <font color=\"#ffd200\">$item:20000013$</font>$pp:를,을$! Awesome! But this is ... It looks really delicious ... Let's just eat one before we sell it ?"
      }, 
      {
        "@id": "0831174302000419", 
        "@feature": "", 
        "@locale": "", 
        "@npc": "Lujan", 
        "@name": "쩝쩝 ... It's frustrating ... Delicious, delicious ... Soft and soft ... Kyya ~ <font color=\"#ffd200\">$item:20000013$</font>$pp:가,이$ I know why it is expensive!"
      }, 
      {
        "@id": "0831174302000420", 
        "@feature": "", 
        "@locale": "", 
        "@npc": "Caprio", 
        "@name": "<font color=\"#ffd200\">$map:02000062$</font> $ pp2: as there are a lot of people leaving for $, so ... ? <font color=\"#ffd200\">$npc:11000016[gender:0]$</font> When you told me you were ready to talk, you said nothing, but ..."
      }, 
      {
        "@id": "0831174302000421", 
        "@feature": "", 
        "@locale": "", 
        "@npc": "Caprio", 
        "@name": "I'm sorry, but go to the <font color=\"#ffd200\">$map:63000002$</font> marina and give <font color=\"#ffd200\">$npc:11000016[gender:0]$</font> <font color=\"#ffd200\">$ $map:02000062$ pp2</font> to your uncle."
      }, 
      {
        "@id": "0831174302000422", 
        "@feature": "", 
        "@locale": "", 
        "@npc": "Caprio", 
        "@name": "I'm sorry, but go to the <font color=\"#ffd200\">$map:63000002$</font> marina and give <font color=\"#ffd200\">$npc:11000016[gender:0]$</font> <font color=\"#ffd200\">$ $map:02000062$ pp2</font> to your uncle."
      }, 
      {
        "@id": "0831174302000423", 
        "@feature": "", 
        "@locale": "", 
        "@npc": "True", 
        "@name": "What's going on?"
      }, 
      {
        "@id": "0831174302000424", 
        "@feature": "", 
        "@locale": "", 
        "@npc": "pc", 
        "@name": "$npc:11000099[gender:0]$."
      }, 
      {
        "@id": "0831174302000425", 
        "@feature": "", 
        "@locale": "", 
        "@npc": "True", 
        "@name": "Oh ~ oh ~ I did not see him. The boat is just ready."
      }, 
      {
        "@id": "0831174302000426", 
        "@feature": "", 
        "@locale": "", 
        "@npc": "True", 
        "@name": "I have to tell <font color=\"#ffd200\">$npc:11000099[gender:0]$</font> . I will go and tell you in person."
      }, 
      {
        "@id": "0831174302000752", 
        "@feature": "", 
        "@locale": "", 
        "@npc": "Kavan", 
        "@name": "I ... You are $MyPCName$, right? Do not you remember me? The warehouse management from $map:63000001$ ..."
      }, 
      {
        "@id": "0831174302000753", 
        "@feature": "", 
        "@locale": "", 
        "@npc": "pc", 
        "@name": "I remember it."
      }, 
      {
        "@id": "0831174302000754", 
        "@feature": "", 
        "@locale": "", 
        "@npc": "pc", 
        "@name": "I do not know."
      }, 
      {
        "@id": "0831174302000755", 
        "@feature": "", 
        "@locale": "", 
        "@npc": "Kavan", 
        "@name": "Yeah. You helped me move a pile of straw. I also finished the $npc:11000113[gender:0]$$pp:가,이$ warehouse, so I came on a boat to Rudas Port."
      }, 
      {
        "@id": "0831174302000756", 
        "@feature": "", 
        "@locale": "", 
        "@npc": "Kavan", 
        "@name": "By the way… On the way to see the hungry monster ... I accidentally poured $item:30000054$ bags from $map:63000001$."
      }, 
      {
        "@id": "0831174302000757", 
        "@feature": "", 
        "@locale": "", 
        "@npc": "Kavan", 
        "@name": "$map:02000001$ I would be able to make quite a bit of money if I sold it to the merchants ... This is where I meet again. $MyPCName$! Can you go and find some $item:30000054$ monsters picked up?"
      }, 
      {
        "@id": "0831174302000758", 
        "@feature": "", 
        "@locale": "", 
        "@npc": "Kavan", 
        "@name": "Oh, I see… You moved a stack of straws instead of me to the village warehouse ... What… I was so busy with the thought of coming out to the continent to watch the game. Things like that happen, too."
      }, 
      {
        "@id": "0831174302000759", 
        "@feature": "", 
        "@locale": "", 
        "@npc": "Kavan", 
        "@name": "Anyway, I met this kind of relationship. $MyPCName$! Can not you help me? I'm having a hard time right now ..."
      }, 
      {
        "@id": "0831174302000760", 
        "@feature": "", 
        "@locale": "", 
        "@npc": "pc", 
        "@name": "I ask what is going on."
      }, 
      {
        "@id": "0831174302000761", 
        "@feature": "", 
        "@locale": "", 
        "@npc": "Kavan", 
        "@name": "On the way to see the hungry monster ... I accidentally poured $item:30000054$ bags from $map:63000001$."
      }, 
      {
        "@id": "0831174302000762", 
        "@feature": "", 
        "@locale": "", 
        "@npc": "Kavan", 
        "@name": "$map:02000001$ I would be able to make quite a bit of money if I sold it to the merchants ... This is where I meet again. $MyPCName$! Can you go and find some $item:30000054$ monsters picked up?"
      }, 
      {
        "@id": "0831174302000763", 
        "@feature": "", 
        "@locale": "", 
        "@npc": "Kavan", 
        "@name": "$map:02000001$ I would be able to make quite a bit of money if I sold it to the merchants ... This is where I meet again. $MyPCName$! Can you go and find some $item:30000054$ monsters picked up?"
      }, 
      {
        "@id": "0831174302000764", 
        "@feature": "", 
        "@locale": "", 
        "@npc": "Kavan", 
        "@name": "Thank you, really! I always seem to touch you."
      }, 
      {
        "@id": "0831174302000765", 
        "@feature": "", 
        "@locale": "", 
        "@npc": "pole", 
        "@name": "This is true ... I do not know what's going on. It is in front of the nose of an alpine diet that an earthquake has happened ..."
      }, 
      {
        "@id": "0831174302000766", 
        "@feature": "", 
        "@locale": "", 
        "@npc": "pc", 
        "@name": "Ask what is the cause of the earthquake."
      }, 
      {
        "@id": "0831174302000767", 
        "@feature": "", 
        "@locale": "", 
        "@npc": "pole", 
        "@name": "I do not know yet. Even <font color=\"#ffd200\">so, the equipment to identify the cause of the earthquake has just arrived</font> ."
      }, 
      {
        "@id": "0831174302000768", 
        "@feature": "", 
        "@locale": "", 
        "@npc": "pole", 
        "@name": "I had to stack the equipment temporarily, but I need to move it to a wider place. Could you <font color=\"#ffd200\">move down the stack of equipment boxes next to</font> you?"
      }, 
      {
        "@id": "0831174302000769", 
        "@feature": "", 
        "@locale": "", 
        "@npc": "pole", 
        "@name": "I had to stack the equipment temporarily, but I need to move it to a wider place. Could you <font color=\"#ffd200\">move down the stack of equipment boxes next to</font> you?"
      }, 
      {
        "@id": "0831174302000770", 
        "@feature": "", 
        "@locale": "", 
        "@npc": "pole", 
        "@name": "Thank you for helping me."
      }, 
      {
        "@id": "0831174302000771", 
        "@feature": "", 
        "@locale": "", 
        "@npc": "Bruno", 
        "@name": "It is really hard to work the boundary line."
      }, 
      {
        "@id": "0831174302000772", 
        "@feature": "", 
        "@locale": "", 
        "@npc": "pc", 
        "@name": "Ask why."
      }, 
      {
        "@id": "0831174302000773", 
        "@feature": "", 
        "@locale": "", 
        "@npc": "Bruno", 
        "@name": "It is also necessary to <font color=\"#ffd200\">deal with the monsters</font> that <font color=\"#ffd200\">flap</font> every day, and they often shake off the guards. This time, I <font color=\"#ffd200\">shook</font> off the <font color=\"#ffd200\">guardian emergency food box</font> ."
      }, 
      {
        "@id": "0831174302000774", 
        "@feature": "", 
        "@locale": "", 
        "@npc": "Bruno", 
        "@name": "To battle hard every day, even if it eats properly, it must eat properly, but it is not only troubling because they shake emergency food. There is no power to fight now."
      }, 
      {
        "@id": "0831174302000775", 
        "@feature": "", 
        "@locale": "", 
        "@npc": "Bruno", 
        "@name": "So I mean ... <font color=\"#ffd200\">Can you find $item:20000014$.1.1 that monsters have cleared?</font> It will be a great help to our men."
      }, 
      {
        "@id": "0831174302000776", 
        "@feature": "", 
        "@locale": "", 
        "@npc": "Bruno", 
        "@name": "<font color=\"#ffd200\">Can you find $item:20000014$.1.1 that monsters have cleared?</font> It will be a great help to our men."
      }, 
      {
        "@id": "0831174302000777", 
        "@feature": "", 
        "@locale": "", 
        "@npc": "Bruno", 
        "@name": "thank you! It is more precious than this $item:20000014$$pp:가,이$ weapon in the exhibition situation."
      }, 
      {
        "@id": "0831174302001426", 
        "@feature": "", 
        "@locale": "", 
        "@npc": "burnt", 
        "@name": "There is one salty pocket money ... I do not think anyone should be able to talk about it because it's not easy to do."
      }, 
      {
        "@id": "0831174302001427", 
        "@feature": "", 
        "@locale": "", 
        "@npc": "pc", 
        "@name": "I ask what is going on."
      }, 
      {
        "@id": "0831174302001428", 
        "@feature": "", 
        "@locale": "", 
        "@npc": "burnt", 
        "@name": "I do not want to make you shed tears from the sky without me grumbling ... Eight, I do not know. I will tell you that it is not my style to put out a horse and shove it."
      }, 
      {
        "@id": "0831174302001429", 
        "@feature": "", 
        "@locale": "", 
        "@npc": "burnt", 
        "@name": "A man named <font color=\"#ffd200\">$npc:11000546[gender:0]$</font> is saving the wolf hide. I have already received a lot of requests, but I could not refuse because I asked for it."
      }, 
      {
        "@id": "0831174302001430", 
        "@feature": "", 
        "@locale": "", 
        "@npc": "burnt", 
        "@name": "If you are confident, do it instead of me. <font color=\"#ffd200\">$npc:21000062$ Leather</font> is the finest item among wolf leather, and pocket money will be earned."
      }, 
      {
        "@id": "0831174302001431", 
        "@feature": "", 
        "@locale": "", 
        "@npc": "burnt", 
        "@name": "A man named <font color=\"#ffd200\">$npc:11000546[gender:0]$</font> is saving the wolf hide. If you are confident, do it instead of me. <font color=\"#ffd200\">$npc:21000062$ Leather</font> is the best among wolf leather, and pocket money will be earned."
      }, 
      {
        "@id": "0831174302001432", 
        "@feature": "", 
        "@locale": "", 
        "@npc": "Evi", 
        "@name": "<font color=\"#ffd200\">The</font> leather I asked for <font color=\"#ffd200\">$npc:11000374$</font> ! I am a good friend too. I'll give you this soon!"
      }, 
      {
        "@id": "0831174302001433", 
        "@feature": "", 
        "@locale": "", 
        "@npc": "pc", 
        "@name": "The person who saved the leather is me."
      }, 
      {
        "@id": "0831174302001434", 
        "@feature": "", 
        "@locale": "", 
        "@npc": "Evi", 
        "@name": "You are joking too well. Haha, I see. Let's do what you asked for."
      }, 
      {
        "@id": "0831174302001435", 
        "@feature": "", 
        "@locale": "", 
        "@npc": "Evi", 
        "@name": "It would be hard for me to deliver it to here."
      }, 
      {
        "@id": "0831174302001436", 
        "@feature": "", 
        "@locale": "", 
        "@npc": "Luba", 
        "@name": "Hey. $MyPCName$, do you want to deal with me?"
      }, 
      {
        "@id": "0831174302001437", 
        "@feature": "", 
        "@locale": "", 
        "@npc": "pc", 
        "@name": "I ask what the deal is."
      }, 
      {
        "@id": "0831174302001438", 
        "@feature": "", 
        "@locale": "", 
        "@npc": "Luba", 
        "@name": "I saw here that there are so many rare herbs in this gorge. Among them, the <font color=\"#ffd200\">mushroom</font> is called ... There were mushrooms growing only in clean areas that were not in the hands of people."
      }, 
      {
        "@id": "0831174302001439", 
        "@feature": "", 
        "@locale": "", 
        "@npc": "Luba", 
        "@name": "If you bring it here after <font color=\"#ffd200\">$item:20000058$</font>$pp:를,을$, I'll buy it at a good price. how is it?"
      }, 
      {
        "@id": "0831174302001440", 
        "@feature": "", 
        "@locale": "", 
        "@npc": "Luba", 
        "@name": "If you bring it here after <font color=\"#ffd200\">$item:20000058$</font>$pp:를,을$, I'll buy it at a good price. how is it?"
      }, 
      {
        "@id": "0831174302001441", 
        "@feature": "", 
        "@locale": "", 
        "@npc": "Luba", 
        "@name": "This goose mushroom is good enough to raise a small cattle when it is ripe."
      }, 
      {
        "@id": "0831174302001442", 
        "@feature": "", 
        "@locale": "", 
        "@npc": "Luba", 
        "@name": "I will give you the value as promised. I'll put a $item:13000013$ specially made for the royal porter."
      }, 
      {
        "@id": "0831174302001443", 
        "@feature": "", 
        "@locale": "", 
        "@npc": "Luba", 
        "@name": "If you go to another merchant, you know, this is good."
      }, 
      {
        "@id": "0831174302001518", 
        "@feature": "", 
        "@locale": "", 
        "@npc": "Kavan", 
        "@name": "$MyPCName$! Help me before I go!"
      }, 
      {
        "@id": "0831174302001519", 
        "@feature": "", 
        "@locale": "", 
        "@npc": "pc", 
        "@name": "I ask what is going on."
      }, 
      {
        "@id": "0831174302001520", 
        "@feature": "", 
        "@locale": "", 
        "@npc": "Kavan", 
        "@name": "I have moved all the piles of straw from the $map:63000004$ to the continent here, because the boat to Victoria Island is coming soon, and $npc:11000016[gender:0]$ does not know when the boat will leave suddenly."
      }, 
      {
        "@id": "0831174302001521", 
        "@feature": "", 
        "@locale": "", 
        "@npc": "Kavan", 
        "@name": "If you put a straw pile right here, the sea salt worms will eat everything. I think I should move back to $map:63000004$ anyway, because I moved this to here and I had to clean my waist ..."
      }, 
      {
        "@id": "0831174302001522", 
        "@feature": "", 
        "@locale": "", 
        "@npc": "Kavan", 
        "@name": "$MyPCName$, are you here <font color=\"#ffd200\">$item:30000130$</font>$pp:를,을$ <font color=\"#ffd200\">$map:63000004$</font> Could you move me back in the future? I'll give you a lot of money."
      }, 
      {
        "@id": "0831174302001523", 
        "@feature": "", 
        "@locale": "", 
        "@npc": "Kavan", 
        "@name": "$MyPCName$, are you here <font color=\"#ffd200\">$item:30000130$</font>$pp:를,을$ <font color=\"#ffd200\">$map:63000004$</font> Could you move me back in the future? I'll give you a lot of money."
      }, 
      {
        "@id": "0831174302001524", 
        "@feature": "", 
        "@locale": "", 
        "@npc": "Kavan", 
        "@name": "Thanks. Good work. I relaxed my back with exercise and now I think I can move the rest."
      }, 
      {
        "@id": "0901101205000002", 
        "@feature": "", 
        "@locale": "", 
        "@npc": "Kavan", 
        "@name": "I'm sorry to keep asking you. <font color=\"#ffd200\">$npc:11000021[gender:0]$ If</font> you will meet me, tell me my word."
      }, 
      {
        "@id": "0901101205000003", 
        "@feature": "", 
        "@locale": "", 
        "@npc": "pc", 
        "@name": "Ask what you mean."
      }, 
      {
        "@id": "0901101205000004", 
        "@feature": "", 
        "@locale": "", 
        "@npc": "Kavan", 
        "@name": "actually… ... Later on, I decided to cooperate with you. But now you know that my waist is not normal. I'll probably postpone next time, so tell the inspiration well."
      }, 
      {
        "@id": "0901101205000005", 
        "@feature": "", 
        "@locale": "", 
        "@npc": "Kavan", 
        "@name": "Tell my story so quickly that you do not get sick."
      }, 
      {
        "@id": "0901101205000006", 
        "@feature": "", 
        "@locale": "", 
        "@npc": "Santiago", 
        "@name": "<font color=\"#ffd200\">$npc:11000054[gender:0]$ The</font> guy! I told you a couple of times I should not go there because it's dangerous ... ... I do not need to organize the garage, so I have to go find my grandchild."
      }, 
      {
        "@id": "0901101205000007", 
        "@feature": "", 
        "@locale": "", 
        "@npc": "Benchertz", 
        "@name": "$MyPCName$, Have you ever tried Tropical Juice? yet? Huh, it's lonely. I need you to take that away so I can go back to $map:63000001$ and fuck with the others."
      }, 
      {
        "@id": "0901101205000008", 
        "@feature": "", 
        "@locale": "", 
        "@npc": "Benchertz", 
        "@name": "Oh, beside the tropical juice vending machine, there was a tramp who never saw him in the village. I was surprised and I passed it, but now that I think about it, I would give you a few coins."
      }, 
      {
        "@id": "0901101205000009", 
        "@feature": "", 
        "@locale": "", 
        "@npc": "Benchertz", 
        "@name": "I have to look around every corner of the $map:02000062$, so ask yourself if you can help the boomer with the enemy."
      }, 
      {
        "@id": "0901101205000010", 
        "@feature": "", 
        "@locale": "", 
        "@npc": "Benchertz", 
        "@name": "I wonder how it looks in the cold. Huh? Do you want to go see me myself? I have to look around this place a little bit and have no time because I have to go to $map:02000001$ as soon as possible!"
      }, 
      {
        "@id": "0901101205000011", 
        "@feature": "", 
        "@locale": "", 
        "@npc": "Colombo", 
        "@name": "Uh ... Uh ... Uh ... Where is this place? Oh, he must have lost his mind."
      }, 
      {
        "@id": "0901101205000012", 
        "@feature": "", 
        "@locale": "", 
        "@npc": "Formulation", 
        "@name": "I got it! In the western sky, the owner lost a balloon."
      }, 
      {
        "@id": "0901101205000013", 
        "@feature": "", 
        "@locale": "", 
        "@npc": "Formulation", 
        "@name": "The balloon owner is <font color=\"#ffd200\">$npc:11000389[gender:0]$</font>$pp:라,이라$ minutes, considering the name tag hanging on the string that tied the balloon is <font color=\"#ffd200\">$npc:11000389[gender:0]$</font>$pp:라,이라$."
      }, 
      {
        "@id": "0901101205000014", 
        "@feature": "", 
        "@locale": "", 
        "@npc": "Formulation", 
        "@name": "Would not the balloon owner be discouraged? I have to go back to my sister, so $MyPCName$ will bring this balloon to <font color=\"#ffd200\">$npc:11000389[gender:0]$</font> ."
      }, 
      {
        "@id": "0901101205000015", 
        "@feature": "", 
        "@locale": "", 
        "@npc": "Formulation", 
        "@name": "The owner of the balloon would be upset."
      }, 
      {
        "@id": "0901101205000016", 
        "@feature": "", 
        "@locale": "", 
        "@npc": "pc", 
        "@name": "<font color=\"#909090\">(Spreading out one hand)</font> that he seems to have missed the balloon."
      }, 
      {
        "@id": "0901101205000017", 
        "@feature": "", 
        "@locale": "", 
        "@npc": "pc", 
        "@name": "Do not worry."
      }, 
      {
        "@id": "0901101205000018", 
        "@feature": "", 
        "@locale": "", 
        "@npc": "Formulation", 
        "@name": "I'll fly this way, I got it. Get it here."
      }, 
      {
        "@id": "0901101205000019", 
        "@feature": "", 
        "@locale": "", 
        "@npc": "Formulation", 
        "@name": "Oh, you're in the other hand. You did not even know you were holding it because it was too light."
      }, 
      {
        "@id": "0901101205000020", 
        "@feature": "", 
        "@locale": "", 
        "@npc": "Formulation", 
        "@name": "What did you hear in your hands? The bag seems to be full."
      }, 
      {
        "@id": "0901101205000021", 
        "@feature": "", 
        "@locale": "", 
        "@npc": "Formulation", 
        "@name": "Yes, I believe you'll find your owner in a hurry."
      }, 
      {
        "@id": "0901101205000022", 
        "@feature": "", 
        "@locale": "", 
        "@npc": "TiVo", 
        "@name": "It is important to secure quantity in high season when people are gathering. No balloons. Thank you for finding me."
      }, 
      {
        "@id": "0901101205000023", 
        "@feature": "", 
        "@locale": "", 
        "@npc": "love", 
        "@name": "uh? Did not you see the little lady here?"
      }, 
      {
        "@id": "0901101205000024", 
        "@feature": "", 
        "@locale": "", 
        "@npc": "love", 
        "@name": "I ordered juice and it disappeared. I'm done with the calculation."
      }, 
      {
        "@id": "0901101205000025", 
        "@feature": "", 
        "@locale": "", 
        "@npc": "pc", 
        "@name": "Ask what it looks like."
      }, 
      {
        "@id": "0901101205000026", 
        "@feature": "", 
        "@locale": "", 
        "@npc": "love", 
        "@name": "The head was tied up in a toe. Well??? It looks like I wore a dress with a pocket."
      }, 
      {
        "@id": "0901101205000027", 
        "@feature": "", 
        "@locale": "", 
        "@npc": "pc", 
        "@name": "I say I think I've seen it."
      }, 
      {
        "@id": "0901101205000028", 
        "@feature": "", 
        "@locale": "", 
        "@npc": "love", 
        "@name": "Good for you. Can you bring this <font color=\"#ffd200\">$item:30000195$</font>$pp:를,을$ to the child?"
      }, 
      {
        "@id": "0901101205000029", 
        "@feature": "", 
        "@locale": "", 
        "@npc": "love", 
        "@name": "What happened?"
      }, 
      {
        "@id": "0901101205000030", 
        "@feature": "", 
        "@locale": "", 
        "@npc": "pc", 
        "@name": "He says that he shed his juice on the slippery wind."
      }, 
      {
        "@id": "0901101205000031", 
        "@feature": "", 
        "@locale": "", 
        "@npc": "pc", 
        "@name": "She says she can not find her child."
      }, 
      {
        "@id": "0901101205000032", 
        "@feature": "", 
        "@locale": "", 
        "@npc": "love", 
        "@name": "Now that you've created it, do not pour it on the road this time."
      }, 
      {
        "@id": "0901101205000033", 
        "@feature": "", 
        "@locale": "", 
        "@npc": "love", 
        "@name": "I did not spend a lot, either. It 's almost new, so you can just bring it."
      }, 
      {
        "@id": "0901101205000034", 
        "@feature": "", 
        "@locale": "", 
        "@npc": "love", 
        "@name": "Do you look heavy? Let's get rid of what you do not need!"
      }, 
      {
        "@id": "0901101205000035", 
        "@feature": "", 
        "@locale": "", 
        "@npc": "love", 
        "@name": "How far did the little girl go? <font color=\"#ffd200\">$map:2000062$</font> Somewhere in the world."
      }, 
      {
        "@id": "0901101205000036", 
        "@feature": "", 
        "@locale": "", 
        "@npc": "Mimi", 
        "@name": "right! I had forgotten the juice! Thank you for bringing it!"
      }, 
      {
        "@id": "0901101205000037", 
        "@feature": "", 
        "@locale": "", 
        "@npc": "Gerard", 
        "@name": "What a difference!"
      }, 
      {
        "@id": "0901101205000038", 
        "@feature": "", 
        "@locale": "", 
        "@npc": "pc", 
        "@name": "Ask what they are doing."
      }, 
      {
        "@id": "0901101205000039", 
        "@feature": "", 
        "@locale": "", 
        "@npc": "Gerard", 
        "@name": "The earth is shaking, the wheel is broken, and the cart is falling. I'm trying to get it up again, will you help me? Let me set one. I'll do the rest."
      }, 
      {
        "@id": "0901101205000040", 
        "@feature": "", 
        "@locale": "", 
        "@npc": "Gerard", 
        "@name": "Why? Are you confident? Just as I did before, put in the fancy, and try to lift it as hard as you can."
      }, 
      {
        "@id": "0901101205000041", 
        "@feature": "", 
        "@locale": "", 
        "@npc": "Gerard", 
        "@name": "Power is more business than it looks."
      }, 
      {
        "@id": "0901101205000042", 
        "@feature": "", 
        "@locale": "", 
        "@npc": "Gerard", 
        "@name": "If you're going to walk along this bridge, give it to my wife on the way."
      }, 
      {
        "@id": "0901101205000043", 
        "@feature": "", 
        "@locale": "", 
        "@npc": "Gerard", 
        "@name": "Stop looking for someone to help you get back quickly. He said he was looking for someone to raise a fallen wagon, and he is not thinking of coming."
      }, 
      {
        "@id": "0901101205000044", 
        "@feature": "", 
        "@locale": "", 
        "@npc": "Gerard", 
        "@name": "I can not find it. It will come."
      }, 
      {
        "@id": "0901101205000045", 
        "@feature": "", 
        "@locale": "", 
        "@npc": "Gerard", 
        "@name": "When I asked you to call my wife, how come you are coming? Well, that woman at the end of the street is my wife."
      }, 
      {
        "@id": "0901101205000046", 
        "@feature": "", 
        "@locale": "", 
        "@npc": "Jeanne", 
        "@name": "Hoho ho ... I've already come here. I have to go back. Dude! Cue!"
      }, 
      {
        "@id": "0901101205000047", 
        "@feature": "", 
        "@locale": "", 
        "@npc": "Terence", 
        "@name": "My legs are broken and the roads are broken, so complaints will come in here and there that I feel uncomfortable."
      }, 
      {
        "@id": "0901101205000048", 
        "@feature": "", 
        "@locale": "", 
        "@npc": "Terence", 
        "@name": "First of all, I have been looking at the destroyed ladder, but I am in a situation where the material is insufficient. I lost all of them to <font color=\"#ffd200\">$item:30000196$</font>$pp:를,을$ $npc:21000007$ in the warehouse."
      }, 
      {
        "@id": "0901101205000049", 
        "@feature": "", 
        "@locale": "", 
        "@npc": "Terence", 
        "@name": "$npc:21000007$ $ pp2: as it is for the residents of this place, will you get <font color=\"#ffd200\">$item:30000196$</font>$pp:를,을$ back from $ 11?"
      }, 
      {
        "@id": "0901101205000050", 
        "@feature": "", 
        "@locale": "", 
        "@npc": "Terence", 
        "@name": "<font color=\"#ffd200\">$item:30000196$</font>$pp:를,을$ I know that it is not easy to obtain. Give me a little more strength."
      }, 
      {
        "@id": "0901101205000051", 
        "@feature": "", 
        "@locale": "", 
        "@npc": "Terence", 
        "@name": "You've come to the rescue soon. I would like to ask you for help. I have some support staff, so I have to work hard."
      }, 
      {
        "@id": "0901101205000052", 
        "@feature": "", 
        "@locale": "", 
        "@npc": "pole", 
        "@name": "Is it okay to give me another favor?"
      }, 
      {
        "@id": "0901101205000053", 
        "@feature": "", 
        "@locale": "", 
        "@npc": "pc", 
        "@name": "Ask what you ask."
      }, 
      {
        "@id": "0901101205000054", 
        "@feature": "", 
        "@locale": "", 
        "@npc": "pole", 
        "@name": "I have a crew member who goes out to the survey site first. You'll be waiting for your research equipment to arrive."
      }, 
      {
        "@id": "0901101205000055", 
        "@feature": "", 
        "@locale": "", 
        "@npc": "pole", 
        "@name": "However, due to the shortage of our manpower, we are not able to arrange the equipment yet."
      }, 
      {
        "@id": "0901101205000056", 
        "@feature": "", 
        "@locale": "", 
        "@npc": "pole", 
        "@name": "Could you tell <font color=\"#ffd200\">$npc:11000617[gender:0]$</font> at the earthquake investigation site that you want to investigate yourself and write a report?"
      }, 
      {
        "@id": "0901101205000057", 
        "@feature": "", 
        "@locale": "", 
        "@npc": "pole", 
        "@name": "He is going to be pretty frustrated now. I hope you hurry up a little."
      }, 
      {
        "@id": "0901101205000058", 
        "@feature": "", 
        "@locale": "", 
        "@npc": "Stupid", 
        "@name": "This is true, it is hard to do what to do."
      }, 
      {
        "@id": "0901101205000059", 
        "@feature": "", 
        "@locale": "", 
        "@npc": "Stupid", 
        "@name": "<font color=\"#909090\">(Salty clit ......)</font> This is true, my feet are gone and I can not even go any closer, and this is ... ..."
      }, 
      {
        "@id": "0901101205000060", 
        "@feature": "", 
        "@locale": "", 
        "@npc": "pc", 
        "@name": "Ask what is happening."
      }, 
      {
        "@id": "0901101205000061", 
        "@feature": "", 
        "@locale": "", 
        "@npc": "Stupid", 
        "@name": "You see that? There 's still a shaking floor because a big earthquake is happening. I want you to look over there, this is ... ..."
      }, 
      {
        "@id": "0901101205000062", 
        "@feature": "", 
        "@locale": "", 
        "@npc": "Stupid", 
        "@name": "I do not know what to do if the floor goes off when I'm close to it. ..."
      }, 
      {
        "@id": "0901101205000063", 
        "@feature": "", 
        "@locale": "", 
        "@npc": "pc", 
        "@name": "Ask if you can go instead."
      }, 
      {
        "@id": "0901101205000064", 
        "@feature": "", 
        "@locale": "", 
        "@npc": "Stupid", 
        "@name": "What do you say I want to go? This is true, I never asked you to go."
      }, 
      {
        "@id": "0901101205000065", 
        "@feature": "", 
        "@locale": "", 
        "@npc": "Stupid", 
        "@name": "<font color=\"#909090\">(They pretend to be nails, and they do not like nails.)</font>"
      }, 
      {
        "@id": "0901101205000066", 
        "@feature": "", 
        "@locale": "", 
        "@npc": "Stupid", 
        "@name": "Steaming from the floor may also come out. When you reach Kim, people are flying. If you want to write a report, this is ... ..."
      }, 
      {
        "@id": "0901101205000067", 
        "@feature": "", 
        "@locale": "", 
        "@npc": "pc", 
        "@name": "He says he was almost hurt."
      }, 
      {
        "@id": "0901101205000068", 
        "@feature": "", 
        "@locale": "", 
        "@npc": "Stupid", 
        "@name": "Be careful because you can get hurt when you get close. I can write."
      }, 
      {
        "@id": "0901101205000069", 
        "@feature": "", 
        "@locale": "", 
        "@npc": "pc", 
        "@name": "I shake my head jerky."
      }, 
      {
        "@id": "0901101205000070", 
        "@feature": "", 
        "@locale": "", 
        "@npc": "Stupid", 
        "@name": "I will complete the report."
      }, 
      {
        "@id": "0901101205000071", 
        "@feature": "", 
        "@locale": "", 
        "@npc": "Tommy", 
        "@name": "$MyPCName$, there is one more favor."
      }, 
      {
        "@id": "0901101205000072", 
        "@feature": "", 
        "@locale": "", 
        "@npc": "pc", 
        "@name": "I ask what it is."
      }, 
      {
        "@id": "0901101205000073", 
        "@feature": "", 
        "@locale": "", 
        "@npc": "Tommy", 
        "@name": "I would like to bring this to <font color=\"#ffd200\">$item:30000070$</font>$pp:를,을$ <font color=\"#ffd200\">$npc:11000157[gender:0]$</font> . $map:02000001$ $ pp2: I need to hurry to deliver it, so I can pack it for $."
      }, 
      {
        "@id": "0901101205000074", 
        "@feature": "", 
        "@locale": "", 
        "@npc": "Tommy", 
        "@name": "Let me see if there are more food items available here."
      }, 
      {
        "@id": "0901101205000075", 
        "@feature": "", 
        "@locale": "", 
        "@npc": "Tommy", 
        "@name": "You're back."
      }, 
      {
        "@id": "0901101205000076", 
        "@feature": "", 
        "@locale": "", 
        "@npc": "pc", 
        "@name": "$item:30000070$$pp:를,을$ Say you lost it."
      }, 
      {
        "@id": "0901101205000077", 
        "@feature": "", 
        "@locale": "", 
        "@npc": "pc", 
        "@name": "Ask for the location of $npc:11000157[gender:0]$."
      }, 
      {
        "@id": "0901101205000078", 
        "@feature": "", 
        "@locale": "", 
        "@npc": "Tommy", 
        "@name": "$item:30000070$$pp:를,을$ You were shed on the floor. I picked it up."
      }, 
      {
        "@id": "0901101205000079", 
        "@feature": "", 
        "@locale": "", 
        "@npc": "Tommy", 
        "@name": "The bag looks pretty heavy ... Wait. Check it out. Haha ... I guess you did not have a mind because of the monster."
      }, 
      {
        "@id": "0901101205000080", 
        "@feature": "", 
        "@locale": "", 
        "@npc": "Tommy", 
        "@name": "Fortunately, I picked it up. But the bag is full. There is no place to go."
      }, 
      {
        "@id": "0901101205000081", 
        "@feature": "", 
        "@locale": "", 
        "@npc": "Tommy", 
        "@name": "If you follow this road all the time, there is our place. You will be able to meet $npc:11000157[gender:0]$$pp:를,을$ there."
      }, 
      {
        "@id": "0901101205000082", 
        "@feature": "", 
        "@locale": "", 
        "@npc": "pole", 
        "@name": "I was worried that I would have lost all of my food, but I'm glad I saved this."
      }, 
      {
        "@id": "0228151924003322", 
        "@feature": "Colosseum01", 
        "@locale": "", 
        "@npc": "MC gear", 
        "@name": "Hi? <font color=\"#ffd200\">The Queen Kubbin rumble</font> 's host, $npcName:11004288[gender:0]$! Nice adventurer!"
      }, 
      {
        "@id": "0228151924003323", 
        "@feature": "Colosseum01", 
        "@locale": "", 
        "@npc": "MC gear", 
        "@name": "Finally, <font color=\"#ffd200\">$npcName:11004285[gender:1]$ from</font> Hong Kong's queen! You came to Maple World."
      }, 
      {
        "@id": "0228151924003324", 
        "@feature": "Colosseum01", 
        "@locale": "", 
        "@npc": "MC gear", 
        "@name": "As much as you are the Queen! <font size=\"40\">We held a big event called <font color=\"#ffd200\">Queen Kubbin Rumble</font> !!!</font> Huge prize money and players. Is not your heart pounding already?"
      }, 
      {
        "@id": "0228151924003325", 
        "@feature": "Colosseum01", 
        "@locale": "", 
        "@npc": "MC gear", 
        "@name": "Instead, as much as the Queen is holding ... It will be a little different from the previous games. I would like to hear more about <font color=\"#ffd200\">$npcName:11004287[gender:0]$</font> !"
      }, 
      {
        "@id": "0228151924003326", 
        "@feature": "Colosseum01", 
        "@locale": "", 
        "@npc": "MC gear", 
        "@name": "I have to prepare to go ahead and I'll go back. <font color=\"#ffd200\">$npcName:11004287[gender:0]$</font> Mr. is in '11 <font color=\"#ffd200\">.1</font> '! You can navigate using <font color=\"#ffd200\">Dungeon Search</font> ."
      }, 
      {
        "@id": "0228154524003348", 
        "@feature": "", 
        "@locale": "", 
        "@npc": "MC gear", 
        "@name": "Well, good luck!"
      }, 
      {
        "@id": "0228151924003327", 
        "@feature": "Colosseum01", 
        "@locale": "", 
        "@npc": "MC gear", 
        "@name": "I have to prepare to go ahead and I'll go back. <font color=\"#ffd200\">$npcName:11004287[gender:0]$</font> Mr. is in '11 <font color=\"#ffd200\">.1</font> '! Well, good luck!"
      }, 
      {
        "@id": "0228151924003328", 
        "@feature": "Colosseum01", 
        "@locale": "", 
        "@npc": "Alberto Bin", 
        "@name": "Well? Five… ! You're going to be part of the <font color=\"#ffd200\">Queen Kubbin Rumble</font> . I can feel unusual speculation."
      }, 
      {
        "@id": "0228151924003329", 
        "@feature": "Colosseum01", 
        "@locale": "", 
        "@npc": "PC", 
        "@name": "($npcName:11004285[gender:1]$)$pp:가,이$ Ask who you are."
      }, 
      {
        "@id": "0228151924003330", 
        "@feature": "Colosseum01", 
        "@locale": "", 
        "@npc": "Alberto Bin", 
        "@name": "?! To omit our respect for our queen ... He is very courageous. More ... <font color=\"#ffd200\">$npcName:11004285[gender:1]$ Do</font> not you know?"
      }, 
      {
        "@id": "0228151924003331", 
        "@feature": "Colosseum01", 
        "@locale": "", 
        "@npc": "Alberto Bin", 
        "@name": "It's very exciting, but ... <font size=\"40\">So, where do you live in the cave?</font>"
      }, 
      {
        "@id": "0228151924003332", 
        "@feature": "Colosseum01", 
        "@locale": "", 
        "@npc": "Alberto Bin", 
        "@name": "If you did not live in the cave, it's strange. There is no one in Maple World these days. ... Uh ... I can not help but explain."
      }, 
      {
        "@id": "0228151924003333", 
        "@feature": "Colosseum01", 
        "@locale": "", 
        "@npc": "Alberto Bin", 
        "@name": "Our <font color=\"#ffd200\">Queen of Pink Beans</font> , $npcName:11004285[gender:1]$, is the one who enjoys all kinds of fun. There is a ' <font color=\"#ffd200\">Min Hong Kong Circus</font> ' for the Queen."
      }, 
      {
        "@id": "0228151924003334", 
        "@feature": "Colosseum01", 
        "@locale": "", 
        "@npc": "PC", 
        "@name": "<font color=\"#909090\">(Min Hong Kong Circus ...?)</font>"
      }, 
      {
        "@id": "0228151924003335", 
        "@feature": "Colosseum01", 
        "@locale": "", 
        "@npc": "Alberto Bin", 
        "@name": "But nowadays, it's also an idiosyncratic ... That's what we prepared to please the Queen! <font color=\"#ffd200\">It's</font> a big event called the <font color=\"#ffd200\">Queen Kubbin Rumble</font> ."
      }, 
      {
        "@id": "0228151924003336", 
        "@feature": "Colosseum01", 
        "@locale": "", 
        "@npc": "Alberto Bin", 
        "@name": "Anyone who smiles the queen can get a lot of money. It's simple to see a smile ... <font color=\"#ffd200\">Victory</font> in each round, or is to <font color=\"#ffd200\">win</font> the competition."
      }, 
      {
        "@id": "0228151924003337", 
        "@feature": "Colosseum01", 
        "@locale": "", 
        "@npc": "PC", 
        "@name": "(It is said to be interesting.)"
      }, 
      {
        "@id": "0228151924003338", 
        "@feature": "Colosseum01", 
        "@locale": "", 
        "@npc": "Alberto Bin", 
        "@name": "Oh, sure ... Now I can feel the intensity of my eyes. I think you can expect this."
      }, 
      {
        "@id": "0228151924003339", 
        "@feature": "Colosseum01", 
        "@locale": "", 
        "@npc": "Alberto Bin", 
        "@name": "Oh, sure ... Now I can feel the intensity of my eyes. I think you can expect this."
      }, 
      {
        "@id": "0228151924003340", 
        "@feature": "Colosseum01", 
        "@locale": "", 
        "@npc": "PC", 
        "@name": "(Everyone here asks if they are players.)"
      }, 
      {
        "@id": "0228151924003341", 
        "@feature": "Colosseum01", 
        "@locale": "", 
        "@npc": "Alberto Bin", 
        "@name": "You noticed. That's right."
      }, 
      {
        "@id": "0228151924003342", 
        "@feature": "Colosseum01", 
        "@locale": "", 
        "@npc": "Alberto Bin", 
        "@name": "Our <font color=\"#ffd200\">Queen Kubbin Rumble</font> ! <font size=\"35\">For the Queen's laugh!</font> <font size=\"45\">For the challenger's growth!</font> I scoured the <font color=\"#ffd200\">knights</font> of MapleWorld."
      }, 
      {
        "@id": "0228151924003343", 
        "@feature": "Colosseum01", 
        "@locale": "", 
        "@npc": "Alberto Bin", 
        "@name": "Of course, it took a lot of effort ... It's nothing for the Queen's smile."
      }, 
      {
        "@id": "0228151924003344", 
        "@feature": "Colosseum01", 
        "@locale": "", 
        "@npc": "Alberto Bin", 
        "@name": "The players who will fight in the Queen Kubbin Rumble think that you are familiar with the adventurer who lived in ' <font color=\"#ffd200\">Cave</font> '. They are famous people."
      }, 
      {
        "@id": "0228151924003345", 
        "@feature": "Colosseum01", 
        "@locale": "", 
        "@npc": "PC", 
        "@name": "<font color=\"#909090\">(... you're just being crazy, are not you?)</font>"
      }, 
      {
        "@id": "0228151924003346", 
        "@feature": "Colosseum01", 
        "@locale": "", 
        "@npc": "Alberto Bin", 
        "@name": "If you participate in the game, you will be guided by Queen Qubin Rumble's host, <font color=\"#ffd200\">$npcName:11004288[gender:0]$</font> . I'm looking forward to your adventure."
      }, 
      {
        "@id": "0228151924003347", 
        "@feature": "Colosseum01", 
        "@locale": "", 
        "@npc": "Alberto Bin", 
        "@name": "If you enter the <font color=\"#ffd200\">entrance</font> behind me, you can enter the game immediately. <font size=\"40\">Now, win all rounds and show the Queen's smile!</font>"
      }
    ]
  }
}