{
  "?xml": {
    "@version": "1.0", 
    "@encoding": "utf-8"
  }, 
  "ms2": {
    "key": [
      {
        "@id": "201001", 
        "@name": "Stinging Flurry", 
        "@feature": "ShadowExpedition"
      }, 
      {
        "@id": "201002", 
        "@name": "Deep Wounds", 
        "@feature": "ShadowExpedition"
      }, 
      {
        "@id": "201003", 
        "@name": "Extended Stab Reach", 
        "@feature": "ShadowExpedition"
      }, 
      {
        "@id": "201004", 
        "@name": "Shield Slap", 
        "@feature": "ShadowExpedition"
      }, 
      {
        "@id": "201005", 
        "@name": "Faltering", 
        "@feature": "ShadowExpedition"
      }, 
      {
        "@id": "201006", 
        "@name": "Custom Shield", 
        "@feature": "ShadowExpedition"
      }, 
      {
        "@id": "201007", 
        "@name": "Stormy", 
        "@feature": "ShadowExpedition"
      }, 
      {
        "@id": "201008", 
        "@name": "Tornado Slash", 
        "@feature": "ShadowExpedition"
      }, 
      {
        "@id": "201009", 
        "@name": "Thunderous Will", 
        "@feature": "ShadowExpedition"
      }, 
      {
        "@id": "201010", 
        "@name": "Giant", 
        "@feature": "ShadowExpedition"
      }, 
      {
        "@id": "202001", 
        "@name": "Blue Vortex", 
        "@feature": "ShadowExpedition"
      }, 
      {
        "@id": "202002", 
        "@name": "Madness", 
        "@feature": "ShadowExpedition"
      }, 
      {
        "@id": "202003", 
        "@name": "Trance", 
        "@feature": "ShadowExpedition"
      }, 
      {
        "@id": "202004", 
        "@name": "Frenzied", 
        "@feature": "ShadowExpedition"
      }, 
      {
        "@id": "202005", 
        "@name": "Unleashed", 
        "@feature": "ShadowExpedition"
      }, 
      {
        "@id": "202006", 
        "@name": "Ferocity", 
        "@feature": "ShadowExpedition"
      }, 
      {
        "@id": "202007", 
        "@name": "Bloody Tremor", 
        "@feature": "ShadowExpedition"
      }, 
      {
        "@id": "202008", 
        "@name": "Critical Wound", 
        "@feature": "ShadowExpedition"
      }, 
      {
        "@id": "202009", 
        "@name": "Carnage", 
        "@feature": "ShadowExpedition"
      }, 
      {
        "@id": "202010", 
        "@name": "Blood Oath", 
        "@feature": "ShadowExpedition"
      }, 
      {
        "@id": "203001", 
        "@name": "Relentless Lightning", 
        "@feature": "ShadowExpedition"
      }, 
      {
        "@id": "203002", 
        "@name": "Dry Lightning", 
        "@feature": "ShadowExpedition"
      }, 
      {
        "@id": "203003", 
        "@name": "Overload", 
        "@feature": "ShadowExpedition"
      }, 
      {
        "@id": "203004", 
        "@name": "Fireball", 
        "@feature": "ShadowExpedition"
      }, 
      {
        "@id": "203005", 
        "@name": "Backdraft", 
        "@feature": "ShadowExpedition"
      }, 
      {
        "@id": "203006", 
        "@name": "Flame Orb", 
        "@feature": "ShadowExpedition"
      }, 
      {
        "@id": "203007", 
        "@name": "Icicle", 
        "@feature": "ShadowExpedition"
      }, 
      {
        "@id": "203008", 
        "@name": "Ice Storm", 
        "@feature": "ShadowExpedition"
      }, 
      {
        "@id": "203009", 
        "@name": "Glacier Impact", 
        "@feature": "ShadowExpedition"
      }, 
      {
        "@id": "203010", 
        "@name": "Mana Protection", 
        "@feature": "ShadowExpedition"
      }, 
      {
        "@id": "204001", 
        "@name": "Divine Path", 
        "@feature": "ShadowExpedition"
      }, 
      {
        "@id": "204002", 
        "@name": "Faithful Oath", 
        "@feature": "ShadowExpedition"
      }, 
      {
        "@id": "204003", 
        "@name": "Holy Relic", 
        "@feature": "ShadowExpedition"
      }, 
      {
        "@id": "204004", 
        "@name": "Reinforced Shield of the Archon", 
        "@feature": "ShadowExpedition"
      }, 
      {
        "@id": "204005", 
        "@name": "Harsh Light", 
        "@feature": "ShadowExpedition"
      }, 
      {
        "@id": "204006", 
        "@name": "Reinforced Holy Blast", 
        "@feature": "ShadowExpedition"
      }, 
      {
        "@id": "204007", 
        "@name": "Reinforced Scourging Wave", 
        "@feature": "ShadowExpedition"
      }, 
      {
        "@id": "204008", 
        "@name": "Holy Explosion", 
        "@feature": "ShadowExpedition"
      }, 
      {
        "@id": "204009", 
        "@name": "Reinforced Relic", 
        "@feature": "ShadowExpedition"
      }, 
      {
        "@id": "204010", 
        "@name": "Brilliant Shield", 
        "@feature": "ShadowExpedition"
      }, 
      {
        "@id": "205001", 
        "@name": "Glacier Arrow", 
        "@feature": "ShadowExpedition"
      }, 
      {
        "@id": "205002", 
        "@name": "Reinforced Ice Arrow", 
        "@feature": "ShadowExpedition"
      }, 
      {
        "@id": "205003", 
        "@name": "Chilling Wave", 
        "@feature": "ShadowExpedition"
      }, 
      {
        "@id": "205004", 
        "@name": "Blazing Arrow", 
        "@feature": "ShadowExpedition"
      }, 
      {
        "@id": "205005", 
        "@name": "Targeted", 
        "@feature": "ShadowExpedition"
      }, 
      {
        "@id": "205006", 
        "@name": "Mobilizing", 
        "@feature": "ShadowExpedition"
      }, 
      {
        "@id": "205007", 
        "@name": "Bowmaster", 
        "@feature": "ShadowExpedition"
      }, 
      {
        "@id": "205008", 
        "@name": "Nimble Stance", 
        "@feature": "ShadowExpedition"
      }, 
      {
        "@id": "205009", 
        "@name": "Multi Drive", 
        "@feature": "ShadowExpedition"
      }, 
      {
        "@id": "205010", 
        "@name": "Evasion", 
        "@feature": "ShadowExpedition"
      }, 
      {
        "@id": "206001", 
        "@name": "Mad Bomber", 
        "@feature": "ShadowExpedition"
      }, 
      {
        "@id": "206002", 
        "@name": "Blast Jump", 
        "@feature": "ShadowExpedition"
      }, 
      {
        "@id": "206003", 
        "@name": "Dynamic Reload", 
        "@feature": "ShadowExpedition"
      }, 
      {
        "@id": "206004", 
        "@name": "Barrage", 
        "@feature": "ShadowExpedition"
      }, 
      {
        "@id": "206005", 
        "@name": "Primed and Ready", 
        "@feature": "ShadowExpedition"
      }, 
      {
        "@id": "206006", 
        "@name": "Reinforced Rocket Launcher", 
        "@feature": "ShadowExpedition"
      }, 
      {
        "@id": "206007", 
        "@name": "Reinforced Troops", 
        "@feature": "ShadowExpedition"
      }, 
      {
        "@id": "206008", 
        "@name": "Reinforced Electric Blast", 
        "@feature": "ShadowExpedition"
      }, 
      {
        "@id": "206009", 
        "@name": "Charge Up", 
        "@feature": "ShadowExpedition"
      }, 
      {
        "@id": "206010", 
        "@name": "Smoke Screen", 
        "@feature": "ShadowExpedition"
      }, 
      {
        "@id": "207001", 
        "@name": "First Dagger", 
        "@feature": "ShadowExpedition"
      }, 
      {
        "@id": "207002", 
        "@name": "Second Dagger", 
        "@feature": "ShadowExpedition"
      }, 
      {
        "@id": "207003", 
        "@name": "Precise Thrust", 
        "@feature": "ShadowExpedition"
      }, 
      {
        "@id": "207004", 
        "@name": "Topsy-turvy", 
        "@feature": "ShadowExpedition"
      }, 
      {
        "@id": "207005", 
        "@name": "Deadly Poison Pouch", 
        "@feature": "ShadowExpedition"
      }, 
      {
        "@id": "207006", 
        "@name": "Primal Ferocity", 
        "@feature": "ShadowExpedition"
      }, 
      {
        "@id": "207007", 
        "@name": "Deadly Poison Knowledge", 
        "@feature": "ShadowExpedition"
      }, 
      {
        "@id": "207008", 
        "@name": "Poison Explosion", 
        "@feature": "ShadowExpedition"
      }, 
      {
        "@id": "207009", 
        "@name": "Poised", 
        "@feature": "ShadowExpedition"
      }, 
      {
        "@id": "207010", 
        "@name": "Superreactive", 
        "@feature": "ShadowExpedition"
      }, 
      {
        "@id": "208001", 
        "@name": "Annihilator", 
        "@feature": "ShadowExpedition"
      }, 
      {
        "@id": "208002", 
        "@name": "Viciousness", 
        "@feature": "ShadowExpedition"
      }, 
      {
        "@id": "208003", 
        "@name": "Ruthless", 
        "@feature": "ShadowExpedition"
      }, 
      {
        "@id": "208004", 
        "@name": "Darting Shadow", 
        "@feature": "ShadowExpedition"
      }, 
      {
        "@id": "208005", 
        "@name": "Group Hunt", 
        "@feature": "ShadowExpedition"
      }, 
      {
        "@id": "208006", 
        "@name": "Devil's Bargain", 
        "@feature": "ShadowExpedition"
      }, 
      {
        "@id": "208007", 
        "@name": "Bloodlust", 
        "@feature": "ShadowExpedition"
      }, 
      {
        "@id": "208008", 
        "@name": "Shuriken Master", 
        "@feature": "ShadowExpedition"
      }, 
      {
        "@id": "208009", 
        "@name": "Rogue Instincts", 
        "@feature": "ShadowExpedition"
      }, 
      {
        "@id": "208010", 
        "@name": "Agile", 
        "@feature": "ShadowExpedition"
      }, 
      {
        "@id": "209001", 
        "@name": "Divider Switch", 
        "@feature": "ShadowExpedition"
      }, 
      {
        "@id": "209002", 
        "@name": "Overdrive", 
        "@feature": "ShadowExpedition"
      }, 
      {
        "@id": "209003", 
        "@name": "Empowered Divide", 
        "@feature": "ShadowExpedition"
      }, 
      {
        "@id": "209004", 
        "@name": "Blade", 
        "@feature": "ShadowExpedition"
      }, 
      {
        "@id": "209005", 
        "@name": "Rune Power", 
        "@feature": "ShadowExpedition"
      }, 
      {
        "@id": "209006", 
        "@name": "Reinforced Illusory Blades", 
        "@feature": "ShadowExpedition"
      }, 
      {
        "@id": "209007", 
        "@name": "Triple Cut", 
        "@feature": "ShadowExpedition"
      }, 
      {
        "@id": "209008", 
        "@name": "Infinite Splitter", 
        "@feature": "ShadowExpedition"
      }, 
      {
        "@id": "209009", 
        "@name": "Spirit Charge", 
        "@feature": "ShadowExpedition"
      }, 
      {
        "@id": "209010", 
        "@name": "Runic Regeneration", 
        "@feature": "ShadowExpedition"
      }, 
      {
        "@id": "210001", 
        "@name": "Rampaging", 
        "@feature": "ShadowExpedition"
      }, 
      {
        "@id": "210002", 
        "@name": "Condensed", 
        "@feature": "ShadowExpedition"
      }, 
      {
        "@id": "210003", 
        "@name": "Iron Physique", 
        "@feature": "ShadowExpedition"
      }, 
      {
        "@id": "210004", 
        "@name": "Kick Chain", 
        "@feature": "ShadowExpedition"
      }, 
      {
        "@id": "210005", 
        "@name": "Kick Combo", 
        "@feature": "ShadowExpedition"
      }, 
      {
        "@id": "210006", 
        "@name": "Kick Assault", 
        "@feature": "ShadowExpedition"
      }, 
      {
        "@id": "210007", 
        "@name": "Dempsey Roll", 
        "@feature": "ShadowExpedition"
      }, 
      {
        "@id": "210008", 
        "@name": "Weaving", 
        "@feature": "ShadowExpedition"
      }, 
      {
        "@id": "210009", 
        "@name": "Fancy Footwork", 
        "@feature": "ShadowExpedition"
      }, 
      {
        "@id": "210010", 
        "@name": "Endurance Training", 
        "@feature": "ShadowExpedition"
      }, 
      {
        "@id": "211001", 
        "@name": "Reinforcement", 
        "@feature": "SoulBinder"
      }, 
      {
        "@id": "211002", 
        "@name": "Concentration of horsepower", 
        "@feature": "SoulBinder"
      }, 
      {
        "@id": "211003", 
        "@name": "Anime explosion", 
        "@feature": "SoulBinder"
      }, 
      {
        "@id": "211004", 
        "@name": "Expansion ball reinforcement", 
        "@feature": "SoulBinder"
      }, 
      {
        "@id": "211005", 
        "@name": "release", 
        "@feature": "SoulBinder"
      }, 
      {
        "@id": "211006", 
        "@name": "Discharge", 
        "@feature": "SoulBinder"
      }, 
      {
        "@id": "211007", 
        "@name": "Strengthen flash strike", 
        "@feature": "SoulBinder"
      }, 
      {
        "@id": "211008", 
        "@name": "Avatar", 
        "@feature": "SoulBinder"
      }, 
      {
        "@id": "211009", 
        "@name": "Residual of concentration", 
        "@feature": "SoulBinder"
      }, 
      {
        "@id": "211010", 
        "@name": "Endless circulation", 
        "@feature": "SoulBinder"
      }, 
      {
        "@id": "100001", 
        "@name": "Tenacity", 
        "@feature": "ShadowExpedition"
      }, 
      {
        "@id": "100002", 
        "@name": "Nimbleness", 
        "@feature": "ShadowExpedition"
      }, 
      {
        "@id": "100003", 
        "@name": "Cleverness", 
        "@feature": "ShadowExpedition"
      }, 
      {
        "@id": "100004", 
        "@name": "Luck", 
        "@feature": "ShadowExpedition"
      }, 
      {
        "@id": "100005", 
        "@name": "Extreme Vitality", 
        "@feature": "ShadowExpedition"
      }, 
      {
        "@id": "100006", 
        "@name": "Leeching", 
        "@feature": "ShadowExpedition"
      }, 
      {
        "@id": "100007", 
        "@name": "Mental Discipline", 
        "@feature": "ShadowExpedition"
      }, 
      {
        "@id": "100008", 
        "@name": "Sturdiness", 
        "@feature": "ShadowExpedition"
      }, 
      {
        "@id": "100009", 
        "@name": "Warrior's Spirit", 
        "@feature": "ShadowExpedition"
      }, 
      {
        "@id": "100010", 
        "@name": "Vitality ", 
        "@feature": "ShadowExpedition"
      }, 
      {
        "@id": "100011", 
        "@name": "Focus", 
        "@feature": "ShadowExpedition"
      }, 
      {
        "@id": "100012", 
        "@name": "Acuity", 
        "@feature": "ShadowExpedition"
      }, 
      {
        "@id": "100013", 
        "@name": "Precision", 
        "@feature": "ShadowExpedition"
      }, 
      {
        "@id": "100014", 
        "@name": "Lethality", 
        "@feature": "ShadowExpedition"
      }, 
      {
        "@id": "100015", 
        "@name": "Passion", 
        "@feature": "ShadowExpedition"
      }, 
      {
        "@id": "100016", 
        "@name": "Zeal", 
        "@feature": "ShadowExpedition"
      }, 
      {
        "@id": "", 
        "@name": ""
      }
    ]
  }
}