{
  "?xml": {
    "@version": "1.0", 
    "@encoding": "utf-8"
  }, 
  "ms2": {
    "key": [
      {
        "@id": "10300001", 
        "@name": "Magic Claw"
      }, 
      {
        "@id": "10300011", 
        "@name": "Fire Tornado"
      }, 
      {
        "@id": "10300021", 
        "@name": "Flame Wave"
      }, 
      {
        "@id": "10300031", 
        "@name": "Chain Lightning"
      }, 
      {
        "@id": "10300041", 
        "@name": "Energy Explosion I"
      }, 
      {
        "@id": "10300043", 
        "@name": "Energy Explosion I", 
        "@feature": "JobChange_02"
      }, 
      {
        "@id": "10300051", 
        "@name": "Ice Spear"
      }, 
      {
        "@id": "10300061", 
        "@name": "Mana Recovery"
      }, 
      {
        "@id": "10300071", 
        "@name": "Thunderbolt"
      }, 
      {
        "@id": "10300081", 
        "@name": "Teleport"
      }, 
      {
        "@id": "10300091", 
        "@name": "Focus circle"
      }, 
      {
        "@id": "10300101", 
        "@name": "Lord of the Flames"
      }, 
      {
        "@id": "10300111", 
        "@name": "A ruler of the cold"
      }, 
      {
        "@id": "10300121", 
        "@name": "Ruler of the blizzard"
      }, 
      {
        "@id": "10300131", 
        "@name": "Magic armor"
      }, 
      {
        "@id": "10300141", 
        "@name": "Ice Strike"
      }, 
      {
        "@id": "10300151", 
        "@name": "Elemental Master"
      }, 
      {
        "@id": "10300161", 
        "@name": "Mana Drift"
      }, 
      {
        "@id": "10300171", 
        "@name": "Mana control", 
        "@feature": "JobChange_01"
      }, 
      {
        "@id": "10300181", 
        "@name": "Dual cast", 
        "@feature": "JobChange_01"
      }, 
      {
        "@id": "10300182", 
        "@name": "Dual cast", 
        "@feature": "JobChange_01"
      }, 
      {
        "@id": "10300183", 
        "@name": "Dual cast", 
        "@feature": "JobChange_01"
      }, 
      {
        "@id": "10300191", 
        "@name": "Ice cream time!", 
        "@feature": "JobChange_01"
      }, 
      {
        "@id": "10300193", 
        "@name": "Lightning sensor", 
        "@feature": "JobChange_01"
      }, 
      {
        "@id": "10300198", 
        "@name": "Ice cream time!", 
        "@feature": "JobChange_01"
      }, 
      {
        "@id": "10300201", 
        "@name": "Magnetic field", 
        "@feature": "JobChange_01"
      }, 
      {
        "@id": "10300203", 
        "@name": "Call Lightning", 
        "@feature": "JobChange_01"
      }, 
      {
        "@id": "10300211", 
        "@name": "Shrink", 
        "@feature": "JobChange_01"
      }, 
      {
        "@id": "10300221", 
        "@name": "Fire", 
        "@feature": "JobChange_01"
      }, 
      {
        "@id": "10300222", 
        "@name": "Fire", 
        "@feature": "JobChange_01"
      }, 
      {
        "@id": "10300223", 
        "@name": "Fire", 
        "@feature": "JobChange_01"
      }, 
      {
        "@id": "10300224", 
        "@name": "Fire", 
        "@feature": "JobChange_01"
      }, 
      {
        "@id": "10300231", 
        "@name": "BBQ party", 
        "@feature": "JobChange_01"
      }, 
      {
        "@id": "10300232", 
        "@name": "BBQ party", 
        "@feature": "JobChange_01"
      }, 
      {
        "@id": "10300233", 
        "@name": "BBQ party", 
        "@feature": "JobChange_01"
      }, 
      {
        "@id": "10300234", 
        "@name": "BBQ party", 
        "@feature": "JobChange_01"
      }, 
      {
        "@id": "10300235", 
        "@name": "BBQ party", 
        "@feature": "JobChange_01"
      }, 
      {
        "@id": "10300241", 
        "@name": "Fire", 
        "@feature": "JobChange_01"
      }, 
      {
        "@id": "10300251", 
        "@name": "Little Meteor", 
        "@feature": "JobChange_01"
      }, 
      {
        "@id": "10300252", 
        "@name": "Little Meteor", 
        "@feature": "JobChange_01"
      }, 
      {
        "@id": "10300253", 
        "@name": "Little Meteor", 
        "@feature": "JobChange_01"
      }, 
      {
        "@id": "10300254", 
        "@name": "Little Meteor", 
        "@feature": "JobChange_01"
      }, 
      {
        "@id": "10300255", 
        "@name": "Little Meteor", 
        "@feature": "JobChange_01"
      }, 
      {
        "@id": "10300261", 
        "@name": "Bigpole", 
        "@feature": "JobChange_02"
      }, 
      {
        "@id": "10300262", 
        "@name": "Ice chest", 
        "@feature": "JobChange_02"
      }, 
      {
        "@id": "10300266", 
        "@name": "Paul Skate", 
        "@feature": "JobChange_02"
      }, 
      {
        "@id": "10300271", 
        "@name": "Hurricane Alert", 
        "@feature": "JobChange_02"
      }, 
      {
        "@id": "10300281", 
        "@name": "Complete combustion", 
        "@feature": "JobChange_02"
      }, 
      {
        "@id": "10300291", 
        "@name": "Wildfire", 
        "@feature": "JobChange_02"
      }
    ]
  }
}