{
  "?xml": {
    "@version": "1.0", 
    "@encoding": "utf-8"
  }, 
  "ms2": {
    "key": [
      {
        "@id": "10000001", 
        "@name": "Hammering"
      }, 
      {
        "@id": "10000011", 
        "@name": "Power Strike"
      }, 
      {
        "@id": "10000021", 
        "@name": "Throwing a snail"
      }, 
      {
        "@id": "10000031", 
        "@name": "butt"
      }, 
      {
        "@id": "10000041", 
        "@name": "Forward"
      }, 
      {
        "@id": "10000051", 
        "@name": "refreshment"
      }, 
      {
        "@id": "10000061", 
        "@name": "Low power of the unemployed"
      }, 
      {
        "@id": "19900001", 
        "@name": "GM's referee"
      }, 
      {
        "@id": "19900011", 
        "@name": "High-speed flight"
      }, 
      {
        "@id": "19900021", 
        "@name": "Spoon up"
      }, 
      {
        "@id": "19900031", 
        "@name": "GM's love"
      }, 
      {
        "@id": "19900032", 
        "@name": "GM love splash"
      }, 
      {
        "@id": "19900041", 
        "@name": "GM's support"
      }, 
      {
        "@id": "19900042", 
        "@name": "GM's cheering splash"
      }, 
      {
        "@id": "19900051", 
        "@name": "GM's anthem"
      }, 
      {
        "@id": "19900052", 
        "@name": "GM's Ankle Splash"
      }, 
      {
        "@id": "19900061", 
        "@name": "GM Strike"
      }, 
      {
        "@id": "19999991", 
        "@name": "Camera shooting"
      }
    ]
  }
}