{
  "?xml": {
    "@version": "1.0", 
    "@encoding": "utf-8"
  }, 
  "ms2": {
    "key": [
      {
        "@id": "1", 
        "@name": "Field boss drop rate is doubled!", 
        "@locale": "CN"
      }, 
      {
        "@id": "2", 
        "@name": "Exciting adventure Dungeon hot time! From 16 o'clock to 23 o'clock adventure dungeon reward items are doubled!", 
        "@locale": "CN"
      }, 
      {
        "@id": "3", 
        "@name": "A fun day planning sheet! 12 o'clock - 15 o'clock, double the experience value earned by life skills!", 
        "@locale": "CN"
      }, 
      {
        "@id": "4", 
        "@name": "A fun day planning sheet! From 15 o'clock to 19 o'clock, 20% discount on construction materials!", 
        "@locale": "CN"
      }, 
      {
        "@id": "5", 
        "@name": "A fun day planning sheet! From 19 o'clock to 22 o'clock, commemorative photo shooting, indoors, Coco Island, Tri ah, Henesys fishing experience doubled!", 
        "@locale": "CN"
      }, 
      {
        "@id": "6", 
        "@name": "A fun day planning sheet! 22 o'clock to 23 o'clock, 10% discount on the material when changing equipment / accessories and other options!", 
        "@locale": "CN"
      }, 
      {
        "@id": "7", 
        "@name": "An exciting weekly schedule! Monday yen Daily Quest Experience value, land, meso acquisition amount doubled!", 
        "@locale": "CN"
      }, 
      {
        "@id": "8", 
        "@name": "An exciting weekly schedule! Tuesday yen playing experience doubled!", 
        "@locale": "CN"
      }, 
      {
        "@id": "9", 
        "@name": "An exciting weekly schedule! On Wednesday meso doubles when field hunting!", 
        "@locale": "CN"
      }, 
      {
        "@id": "10", 
        "@name": "An exciting weekly schedule! Thursday yen world / channel conversation 20% discount!", 
        "@locale": "CN"
      }, 
      {
        "@id": "11", 
        "@name": "An exciting weekly schedule! Friday yen Hair 20% discount!", 
        "@locale": "CN"
      }, 
      {
        "@id": "12", 
        "@name": "An exciting weekly schedule! On Saturday the field boss drop rate is doubled!", 
        "@locale": "CN"
      }, 
      {
        "@id": "13", 
        "@name": "An exciting weekly schedule! On Sunday the sign of the Arena Brawl is doubled!", 
        "@locale": "CN"
      }, 
      {
        "@id": "14", 
        "@name": "Burning hot time! Fishing, playing, field monster hunting experience value is doubled from 16 o'clock to 23 o'clock!", 
        "@locale": "CN"
      }, 
      {
        "@id": "15", 
        "@name": "With Hell Lever Nikker 1 channel now, joint construction is in progress!", 
        "@locale": "CN"
      }, 
      {
        "@id": "16", 
        "@name": "Ray OX time now! If you win the OX quiz, you can take Reiko ~!", 
        "@locale": "CN"
      }, 
      {
        "@id": "17", 
        "@name": "now! A lot of premium goods arrived to the wanderers!", 
        "@locale": "CN"
      }, 
      {
        "@id": "18", 
        "@name": "now! Special debris event from $map:63000057$ to $npc:11003471$ is in progress!", 
        "@locale": "CN"
      }, 
      {
        "@id": "19", 
        "@name": "An exciting weekly schedule! Monday Yen Adventure Dungeon Rewards Earned 1 Added!", 
        "@locale": "CN"
      }, 
      {
        "@id": "20", 
        "@name": "An exciting weekly schedule! Tuesday yen fishing experience doubled!", 
        "@locale": "CN"
      }, 
      {
        "@id": "21", 
        "@name": "An exciting weekly schedule! Wednesday yen world / channel conversation 20% discount!", 
        "@locale": "CN"
      }, 
      {
        "@id": "22", 
        "@name": "An exciting weekly schedule! On Thursday you gain double the experience value by living skill!", 
        "@locale": "CN"
      }, 
      {
        "@id": "23", 
        "@name": "An exciting weekly schedule! 20% discount on Friday yen molding!", 
        "@locale": "CN"
      }, 
      {
        "@id": "24", 
        "@name": "A fun day planning sheet! From 12 o'clock to 15 o'clock, the experience value of MC acquired at K event doubles!", 
        "@locale": "CN"
      }, 
      {
        "@id": "25", 
        "@name": "A fun day planning sheet! From 19 o'clock to 22 o'clock, commemorative photo shooting, indoors, Coco Island, Try Ah, Hennessys, Land Delhi City playing experience doubled!", 
        "@locale": "CN"
      }, 
      {
        "@id": "26", 
        "@name": "A fun day planning sheet! 22 o'clock to 23 o'clock, 10% discount on Ofera's Enchantment Material!", 
        "@locale": "CN"
      }, 
      {
        "@id": "27", 
        "@name": "now! You can purchase goods at a wandering shop or get special gifts with certain probability at the time of re-arrival!", 
        "@locale": "CN"
      }, 
      {
        "@id": "28", 
        "@name": "Crazy runner to enjoy in Shanghai! $item:30000855$ times increase payment from 16 o'clock to 23 o'clock!", 
        "@locale": "CN"
      }, 
      {
        "@id": "29", 
        "@name": "A fun day planning sheet! From 14 o'clock to 17 o'clock, the experience value of MC acquired at K event doubles!", 
        "@locale": "CN"
      }, 
      {
        "@id": "30", 
        "@name": "A fun day planning sheet! 17 o'clock - 19 o'clock, memorial photography, indoors, Coco Island, Try Ah, Hennessys, Land Delhi City Experience value doubled!", 
        "@locale": "CN"
      }, 
      {
        "@id": "31", 
        "@name": "A fun day planning sheet! From 19 o'clock to 21 o'clock, the shining hat, ant Hell, twisted space appearance probability increase!", 
        "@locale": "CN"
      }, 
      {
        "@id": "32", 
        "@name": "A fun day planning sheet! 21 o'clock to 23 o'clock, 30% discount on gem stone upgrade material!", 
        "@locale": "CN"
      }, 
      {
        "@id": "33", 
        "@name": "An exciting weekly schedule! Fishing experience double on Thursday!", 
        "@locale": "CN"
      }, 
      {
        "@id": "34", 
        "@name": "An exciting weekly schedule! 30% discount on Merot Construction Material on Wednesday!", 
        "@locale": "CN"
      }, 
      {
        "@id": "35", 
        "@name": "An exciting weekly schedule! Friday Yen Adventure Dungeon Rewards Earned 1 Added!", 
        "@locale": "CN"
      }, 
      {
        "@id": "36", 
        "@name": "An exciting weekly schedule! 20% discount on world / channel conversation on Saturday!", 
        "@locale": "CN"
      }, 
      {
        "@id": "37", 
        "@name": "Friendly weekend event to a kind brave! Kind article Double coin event in progress ~", 
        "@locale": "CN"
      }, 
      {
        "@id": "38", 
        "@name": "A fun day planning sheet! From 17 o'clock to 19 o'clock, the field boss drop rate is doubled!", 
        "@locale": "CN"
      }, 
      {
        "@id": "39", 
        "@name": "A fun day planning sheet! 21 o'clock - 23 o'clock, 30% discount on material when changing equipment / accessories and other options!", 
        "@locale": "CN"
      }, 
      {
        "@id": "40", 
        "@name": "An exciting weekly schedule! On the Wednesday the guild fund you earn with guild quest, the guild experience doubles!", 
        "@locale": "CN"
      }, 
      {
        "@id": "41", 
        "@name": "An exciting weekly schedule! 50% discount on beauty on Saturday! (However, special hair is excluded)", 
        "@locale": "CN"
      }, 
      {
        "@id": "42", 
        "@name": "Sweet weekend pet hot time! From 15 o'clock to 19 o'clock pet capture 2 pet acquisition!", 
        "@locale": "CN"
      }, 
      {
        "@id": "43", 
        "@name": "An exciting weekly schedule! Monday Yen Merot Construction Material 30% discount!", 
        "@locale": "CN"
      }, 
      {
        "@id": "44", 
        "@name": "A fun day planning sheet! From 12 o'clock to 14 o'clock, commemorative photo shooting, indoors, Coco Island, Tria Oh, Hennessys, Land Delhi City Experience value doubled!", 
        "@locale": "CN"
      }, 
      {
        "@id": "45", 
        "@name": "A fun day planning sheet! From 19 o'clock to 21 o'clock, kind article coins twice!", 
        "@locale": "CN"
      }, 
      {
        "@id": "46", 
        "@name": "An exciting weekly schedule! Monday yen Double experience value to earn with life skills!", 
        "@locale": "CN"
      }, 
      {
        "@id": "47", 
        "@name": "An exciting weekly schedule! Tuesday yen memorial photography, indoors, Coco Island, Queenstown, Try Ah, Hennessys, Land Delhi City Experience value double the experience!", 
        "@locale": "CN"
      }, 
      {
        "@id": "48", 
        "@name": "An exciting weekly schedule! Commemorative photo shoot on Thursday, indoors, Coco Island, Tri ah, Henesis fishing experience doubled!", 
        "@locale": "CN"
      }, 
      {
        "@id": "49", 
        "@name": "A fun day planning sheet! From 12 o'clock to 14 o'clock, memorial photography, indoors, Queenstown, Coco Island, Try Ah, Hennessish, Land Delhi City Experience value doubled!", 
        "@locale": "CN"
      }, 
      {
        "@id": "50", 
        "@name": "An exciting weekly schedule! Maple studio 50% discount on Saturday!", 
        "@locale": "CN"
      }, 
      {
        "@id": "51", 
        "@name": "On the weekend you can move the character attribution skin item to another character through the bank's safe! Do not miss the monster's skin movement event!", 
        "@locale": "CN"
      }, 
      {
        "@id": "52", 
        "@name": "A warm winter beauty present! From 17 o'clock to 23 o'clock on weekends, make-up free!", 
        "@locale": "CN"
      }, 
      {
        "@id": "53", 
        "@name": "A warm winter beauty present! From 17 o'clock to 23 o'clock on the weekend, molding is free!", 
        "@locale": "CN"
      }, 
      {
        "@id": "54", 
        "@name": "A fun day planning sheet! From 12 o'clock to 14 o'clock, commemorative photo shoot, indoors, Coco Island, Tri ah, Henesis fishing experience double!", 
        "@locale": "CN"
      }, 
      {
        "@id": "55", 
        "@name": "A fun day planning sheet! 21 o'clock - 23 o'clock, 20% discount on material at the time of changing equipment / accessories and other options!", 
        "@locale": "CN"
      }, 
      {
        "@id": "56", 
        "@name": "An exciting weekly schedule! 30% discount on Merot Construction Material on Saturday!", 
        "@locale": "CN"
      }, 
      {
        "@id": "57", 
        "@name": "An exciting weekly schedule! Monday yen doubling of the water acquired production of living technology!", 
        "@locale": "CN"
      }, 
      {
        "@id": "58", 
        "@name": "A fun day planning sheet! From 12 o'clock to 14 o'clock, commemorative photography, indoors, Coco Island, Queenstown, Tria Oh, Hennessys, Land Delhi City Experience value doubled!", 
        "@locale": "CN"
      }, 
      {
        "@id": "59", 
        "@name": "A fun day planning sheet! 21 o'clock to 23 o'clock, 30% discount on gem stone upgrade material!", 
        "@locale": "CN"
      }, 
      {
        "@id": "60", 
        "@name": "A fun day planning sheet! From 19 o'clock to 21 o'clock, event dungeon coins twice!", 
        "@locale": "CN"
      }, 
      {
        "@id": "61", 
        "@name": "An exciting weekly schedule! Monday yen molding 20% ​​discount!", 
        "@locale": "CN"
      }, 
      {
        "@id": "62", 
        "@name": "An exciting weekly schedule! Tuesday yen memorial photography, indoors, Coco Island, Queenstown, Try Ah, Hennessys, Land Delhi City Experience value double the experience!", 
        "@locale": "CN"
      }, 
      {
        "@id": "63", 
        "@name": "An exciting weekly schedule! Kindly article twice as many as Saturday!", 
        "@locale": "CN"
      }, 
      {
        "@id": "64", 
        "@name": "An exciting weekly schedule! 50% discount on guild skills on Sunday!", 
        "@locale": "CN"
      }, 
      {
        "@id": "65", 
        "@name": "February 8 - February 28 Equipment / accessories 50% discount on material at the time of changing other options!", 
        "@locale": "CN"
      }, 
      {
        "@id": "66", 
        "@name": "<font color = '# FF0000' size = '16'> Spring Festival limited event is ongoing! </font> \\n <font color = '# 2 E 2 E 2 E' </font> \\n \\n <font color = '# 2 E 2 E 2 E' size = '16'> February 8 after inspection ~ size = '15'> when purchasing items </font> <font color = '# DF 7401' size = '16'> $item:30001065$ </font> <font color = '# 2 E 2 E 2 E' size = '15'>! \\n <font color = '# 3A01 DF' size = '16'> \\n 20% of the purchase price of the Spring Festival limited items \\n 10% of general mero sale goods purchase price </font>", 
        "@locale": "CN"
      }, 
      {
        "@id": "67", 
        "@name": "February 8 - February 28 When enchanted from Ophelia, 3 - step 9 Enchantment success probability 2 times!", 
        "@locale": "CN"
      }, 
      {
        "@id": "68", 
        "@name": "Exciting Kiyomi clause hot time event! On April 6, the reward of random adventure dungeon doubles!", 
        "@locale": "CN"
      }, 
      {
        "@id": "69", 
        "@name": "An exciting weekly schedule! On Saturday, daily mission experience doubles! (Excluding site duties everyday)", 
        "@locale": "CN"
      }, 
      {
        "@id": "70", 
        "@name": "Friendly articles from April 14th to 15th Twice the number of coins acquisition!", 
        "@locale": "CN"
      }, 
      {
        "@id": "71", 
        "@name": "An exciting weekly schedule! Friday yen premium dungeon meso compensation 3 times!", 
        "@locale": "CN"
      }, 
      {
        "@id": "72", 
        "@name": "Workshop templates are free during closed beta! Create your very own designs!", 
        "@locale": "NA"
      }, 
      {
        "@id": "73", 
        "@name": "Furnishing materials are free during closed beta! Decorate your house however you want!", 
        "@locale": "NA"
      }, 
      {
        "@id": "74", 
        "@name": "An exciting weekly schedule! Friday yen Adventure experience two times!", 
        "@locale": "CN"
      }, 
      {
        "@id": "75", 
        "@name": "A fun day planning sheet! 17 o'clock - 19 o'clock, event dungeon coins twice!", 
        "@locale": "CN"
      }, 
      {
        "@id": "76", 
        "@name": "Want a public address for your home? Housing plots are 95% off during the closed beta! ", 
        "@locale": "NA"
      }, 
      {
        "@id": "77", 
        "@name": "An exciting weekly schedule! Friday yen Merot Construction material 30% discount!", 
        "@locale": "CN"
      }, 
      {
        "@id": "78", 
        "@name": "An exciting weekly schedule! On Saturday the sign of the arena is brave double!", 
        "@locale": "CN"
      }, 
      {
        "@id": "79", 
        "@name": "An exciting weekly schedule! On Sunday doubles coales coal you get to daily mission! (Excluding site duties everyday)", 
        "@locale": "CN"
      }, 
      {
        "@id": "80", 
        "@name": "From June 16 to 18, you can move the character attribution skin item to another character through the bank's safe! Do not miss the monster's skin movement event!", 
        "@locale": "CN"
      }, 
      {
        "@id": "81", 
        "@name": "From 16th to 18th June, the reward of Chaos Raid Dungeon doubles!", 
        "@locale": "CN"
      }, 
      {
        "@id": "82", 
        "@name": "Exciting weekly schedule! 30% discount on maple workshop on Friday!", 
        "@locale": "CN"
      }, 
      {
        "@id": "83", 
        "@name": "Exciting weekly schedule! On Saturday, experience experience doubles!", 
        "@locale": "CN"
      }, 
      {
        "@id": "84", 
        "@name": "Exciting weekly schedule! 50% off guild skill on Saturday!", 
        "@locale": "CN"
      }, 
      {
        "@id": "85", 
        "@name": "Exciting weekly schedule! Sunday is a friendly article coin twice!", 
        "@locale": "CN"
      }, 
      {
        "@id": "86", 
        "@name": "(UTC basis) 7/28 00:00 ~ 7/29 23:59 50% discount on all beauty!", 
        "@locale": "NA"
      }, 
      {
        "@id": "87", 
        "@name": "Enjoyable daily schedule! From 14:00 to 17:00 commemorative photography indoor, Coco island, tria, Hennessy fishing experience double!", 
        "@locale": "CN"
      }, 
      {
        "@id": "88", 
        "@name": "Exciting weekly schedule! Experience experience doubled on MC k events on Monday!", 
        "@locale": "CN"
      }, 
      {
        "@id": "89", 
        "@name": "Exciting weekly schedule! Living technology production on Wednesday won twice the production!", 
        "@locale": "CN"
      }, 
      {
        "@id": "90", 
        "@name": "Exciting weekly schedule! 50% off guild skill on Friday!", 
        "@locale": "CN"
      }, 
      {
        "@id": "91", 
        "@name": "Enjoyable daily schedule! 60% discount on accessory sculpture synthesis cost from 19:00 to 21:00!", 
        "@locale": "CN"
      }, 
      {
        "@id": "92", 
        "@name": "Exciting weekly schedule! 30% discount on construction materials on Sunday!", 
        "@locale": "CN"
      }, 
      {
        "@id": "93", 
        "@name": "Exciting weekly schedule! Guild funds acquired on Saturday by Guild Quest, twice the guild experience!", 
        "@locale": "CN"
      }, 
      {
        "@id": "94", 
        "@name": "Enjoyable daily schedule! From 21:00 to 23:00, 30% discount on materials when pet additional option is changed!", 
        "@locale": "CN"
      }, 
      {
        "@id": "95", 
        "@name": "Steam launching commemorative ~! If you enjoy MC K events, I will double your keiko!", 
        "@locale": "NA"
      }, 
      {
        "@id": "96", 
        "@name": "Exciting weekly schedule! On Monday, Coco Island, Queenstown, Triana, Hennessy, and Rudelig City experience twice the experience!", 
        "@locale": "NA"
      }, 
      {
        "@id": "97", 
        "@name": "Exciting weekly schedule! Living technology production on Tuesday is twice as earned!", 
        "@locale": "NA"
      }, 
      {
        "@id": "98", 
        "@name": "Exciting weekly schedule! 20% discount on world and channel chat on Wednesday!", 
        "@locale": "NA"
      }, 
      {
        "@id": "99", 
        "@name": "Exciting weekly schedule! Coco island, triana, Hennessys fishing experience experience twice on Thursday!", 
        "@locale": "NA"
      }, 
      {
        "@id": "100", 
        "@name": "Exciting weekly schedule! On Friday, the chance of appearing in a shining hat, ant hell, twisted space increases!", 
        "@locale": "NA"
      }, 
      {
        "@id": "101", 
        "@name": "Exciting weekly schedule! 30% off Merat construction materials on Saturday!", 
        "@locale": "NA"
      }, 
      {
        "@id": "102", 
        "@name": "Exciting weekly schedule! Sunday is twice as long as field hunting!", 
        "@locale": "NA"
      }, 
      {
        "@id": "103", 
        "@name": "Enjoyable daily schedule! From 17:00 to 19:00, the chance of appearing in a luminous hat, ant hell, twisted space increases!", 
        "@locale": "CN"
      }, 
      {
        "@id": "104", 
        "@name": "Exciting weekly schedule! On Wednesday, we get double coins for daily missions! (Except for daily field missions)", 
        "@locale": "CN"
      }, 
      {
        "@id": "105", 
        "@name": "Exciting weekly schedule! Life technology production on Sunday is doubled!", 
        "@locale": "CN"
      }, 
      {
        "@id": "106", 
        "@name": "now! $map:02000358$ and $map:02000360$ have a special event!", 
        "@locale": "CN"
      }, 
      {
        "@id": "107", 
        "@name": "Enjoyable daily schedule! From 17:00 to 19:00, the union coin obtained by a daily mission is doubled! (Except for daily field missions)", 
        "@locale": "CN"
      }, 
      {
        "@id": "108", 
        "@name": "Enjoyable daily schedule! Between 19:00 and 21:00, field boss drop rate is doubled!", 
        "@locale": "CN"
      }, 
      {
        "@id": "109", 
        "@name": "Exciting weekly schedule! On Mondays, there is a growing chance of a shining hat, ant hell, twisted space!", 
        "@locale": "CN"
      }, 
      {
        "@id": "110", 
        "@name": "Exciting weekly schedule! Wednesday is twice the experience experience!", 
        "@locale": "CN"
      }, 
      {
        "@id": "111", 
        "@name": "20% discount on all beauty now! Visit the beauty salons, plastic surgeons and dyeing workshops now.", 
        "@locale": "NA"
      }, 
      {
        "@id": "112", 
        "@name": "Go to $map:02000064$ now and meet $npc:11001002$! Dungeon events are in progress!", 
        "@locale": "CN"
      }, 
      {
        "@id": "113", 
        "@name": "Weekend event in December! At the weekend, the guild funds acquired by the guild quest, the experience of the guild twice!", 
        "@locale": "NA"
      }, 
      {
        "@id": "114", 
        "@name": "Saturday? Guild Quest Day! The guild experience is twice as long as it gets!", 
        "@locale": "NA"
      }, 
      {
        "@id": "115", 
        "@name": "50% discount on accessory piece synthesis costs!", 
        "@locale": "NA"
      }, 
      {
        "@id": "116", 
        "@name": "Construction Mode Commemorative New Commemoration! (UTC) 1/10 15:30 ~ 1/31 15:30 Earth-friendly property 90% off!", 
        "@locale": "NA"
      }, 
      {
        "@id": "117", 
        "@name": "Enjoy the newly renovated construction mode. (UTC) 1/10 15:30 ~ 1/31 15:30 Construction materials 50% discount and construction package extra discount!", 
        "@locale": "NA"
      }, 
      {
        "@id": "118", 
        "@name": "From 19:00 to 22:00 daily until January 23, 50% discount on accessory sculpture synthesis fee!", 
        "@locale": "CN"
      }, 
      {
        "@id": "119", 
        "@name": "50% discount on accessory sculpture synthesis cost from 14:00 to 16:00!", 
        "@locale": "CN"
      }, 
      {
        "@id": "120", 
        "@name": "Crazy runner enjoying in Shanghai! Every 15 minutes, every 45 minutes!", 
        "@locale": "NA"
      }, 
      {
        "@id": "121", 
        "@name": "<font color='#FF0000' size='16'>The Lunar New Year event is underway!</font> \\n \\nAfter <font color='#2E2E2E' size='16'>checking on Jan. 24 ~ Feb. 28 before checkup</font> \\nPlease give <font color='#DF7401' size='16'>$item:30001304$</font> <font color='#2E2E2E' size='15'>for</font> <font color='#2E2E2E' size='15'>purchases</font> <font color='#2E2E2E' size='15'>! \\n <font color='#3A01DF' size='16'>\\nPayment of 20% for purchase of Lunar Limited Edition</font> \\n <font color='#3A01DF' size='16'>\\ 10% Payments</font></font>", 
        "@locale": "CN"
      }, 
      {
        "@id": "122", 
        "@name": "It is now 50% discount for all the construction materials of Meso and Merut! Get a discount on construction packages at Merut Market!", 
        "@locale": "CN"
      }, 
      {
        "@id": "123", 
        "@name": "Let's make blue print once? 90% off land-based real estate and 50% discount on construction materials Extended event period! (UTC) 1/31 15:30 ~ 2/28 15:30", 
        "@locale": "NA"
      }, 
      {
        "@id": "124", 
        "@name": "St. Patrick Day celebration event! During the event, you can get a green hat if you only get one hit per account when you clear the cachemart part-time dungeon! (UTC) 3/16 00:00 ~ 3/17 23:59", 
        "@locale": "NA"
      }, 
      {
        "@id": "125", 
        "@name": "Up to 3 times per day per account, you get 1 petal per pet capture! There is a 50% discount on Pet Synthesis method!", 
        "@locale": "CN"
      }, 
      {
        "@id": "126", 
        "@name": "April 1st! How is April Fool&#39;s OX Quiz different? Participate and check it out.", 
        "@locale": "NA"
      }, 
      {
        "@id": "127", 
        "@name": "Sky fortress reward 2 times in progress!", 
        "@locale": "NA"
      }, 
      {
        "@id": "128", 
        "@name": "Chaos Raid Dungeon Reward 2 times in progress!", 
        "@locale": "NA"
      }
    ]
  }
}