{
  "?xml": {
    "@version": "1.0", 
    "@encoding": "utf-8"
  }, 
  "ms2": {
    "key": [
      {
        "@id": "1", 
        "@name": "2015 Season 1"
      }, 
      {
        "@id": "2", 
        "@name": "2015 Season 2"
      }, 
      {
        "@id": "3", 
        "@name": "2015 Season 3"
      }, 
      {
        "@id": "4", 
        "@name": "2015 Season 3 Part II"
      }, 
      {
        "@id": "5", 
        "@name": "2016 Spring Guild Battle"
      }, 
      {
        "@id": "6", 
        "@name": "2016 Fall Battle"
      }, 
      {
        "@id": "7", 
        "@name": "2017 Spring Guild Battle"
      }
    ]
  }
}