{
  "?xml": {
    "@version": "1.0", 
    "@encoding": "utf-8"
  }, 
  "ms2": {
    "key": [
      {
        "@id": "nutaman_hello", 
        "@name": "Hello. I am Nutaman."
      }, 
      {
        "@id": "AITest", 
        "@name": "initialCooltime bug has occurred."
      }, 
      {
        "@id": "AISummonTest01", 
        "@name": "Enemies are continuing to appear."
      }, 
      {
        "@id": "AISummonTest02", 
        "@name": "The enemies have been wiped out. Simulation complete."
      }, 
      {
        "@id": "BullArmorRed_DashAttack", 
        "@name": "Trick Pamokan into ramming the pillars."
      }, 
      {
        "@id": "DevilHugeBlue_Crossbow", 
        "@name": "Use the Green Hood Crossbows to attack Devorak"
      }, 
      {
        "@id": "DevilHugeBlue_BrokenBarrier", 
        "@name": "Devorak's shield has been removed"
      }, 
      {
        "@id": "DevilHugeBlue_HealSummon", 
        "@name": "Defeat the Junior Devoraks to stop them from healing Devorak"
      }, 
      {
        "@id": "SandstoneGiant_Grab", 
        "@name": "Press the action key to grab onto Vayar."
      }, 
      {
        "@id": "GriffonPharaoh01Boss_Grab", 
        "@name": "Press the action key to grab onto Horus."
      }, 
      {
        "@id": "Mark52_Beta01", 
        "@name": "MK 52 Beta moved to a different rooftop.\nTrack it on the minimap."
      }, 
      {
        "@id": "Mark52_Beta02", 
        "@name": "Avoid the land mines!"
      }, 
      {
        "@id": "KanduraBigBurster_DarkSoulAbsorb", 
        "@name": "Kandura absorbed a Shade's lifeforce."
      }, 
      {
        "@id": "BarkhantBlue_SummonAttackRed", 
        "@name": "The red clone must attack Varrekant."
      }, 
      {
        "@id": "BarkhantBlue_SummonAttackWhite", 
        "@name": "The white clone must attack Varrekant."
      }, 
      {
        "@id": "SnowQueen_BuffAlarm", 
        "@name": "You received a blessing from $npcName:11003067$."
      }, 
      {
        "@id": "SnowFairy_Appearance", 
        "@name": "$npcName:11003051$ has appeared."
      }, 
      {
        "@id": "HugeKnightStatue_Purify", 
        "@name": "$npcName:11003051$ purified a Corrupted Knight."
      }, 
      {
        "@id": "SnowKing_OneselfDamage", 
        "@name": "$npcName:11003075$ took damage from his phantom being defeated."
      }, 
      {
        "@id": "ChimeraGrab_Appearance", 
        "@name": "$npcName:11003144$ is about to take off. Grab on tight!"
      }, 
      {
        "@id": "MadriaCloseUpperOff_Appearance", 
        "@name": "Stay close or $npcName:11001698$ will attack your friends from above."
      }, 
      {
        "@id": "MadriaKillUpperOff_Appearance", 
        "@name": "Attack $npcName:11001698$ to weaken her, and $npcName:11003144$ will return to the ground."
      }, 
      {
        "@id": "MadriaKillBuffOff_Appearance", 
        "@name": "Attack $npcName:11001698$ to weaken her, and $npcName:11003144$'s Shadow Flame will lose power."
      }, 
      {
        "@id": "MadriaFianlAttack_Appearance", 
        "@name": "You are taking damage from the spreading corruption $npcName:11001698$."
      }, 
      {
        "@id": "ZakumArmBroken_Warning", 
        "@name": "The Covenant Altar shakes as Zakum's arm is destroyed."
      }, 
      {
        "@id": "ZakumBody_BoogieWhite", 
        "@name": "Boogie has empowered Zakum's body."
      }, 
      {
        "@id": "StatueDeath_Appearance", 
        "@name": "The statue was destroyed."
      }, 
      {
        "@id": "Pinkbean_BiggerNotice", 
        "@name": "Break the two statues in the center to reduce my size."
      }, 
      {
        "@id": "Pinkbean_PogoStick", 
        "@name": "Bring $npc:23000088$ near the speaker."
      }, 
      {
        "@id": "Pinkbean_Reflection", 
        "@name": "Destroy all the statues to remove $npc:23000088$'s attack reflection effect."
      }, 
      {
        "@id": "CaptainHookFish01_Warning", 
        "@name": "Quickly, prepare for $npc:23000015$'s AoE stun attack."
      }, 
      {
        "@id": "Balrog_TargetWarnningSystem", 
        "@name": "$npc:23090005$ is moving to $npc:21400036$."
      }, 
      {
        "@id": "BarkhantBlue_BarrierMode", 
        "@name": "With this power, I can't lose."
      }, 
      {
        "@id": "BarkhantBlue_DamageMode", 
        "@name": "Oh no... The trauma from before..."
      }, 
      {
        "@id": "SnowQueen_Order", 
        "@name": "Defeat them."
      }, 
      {
        "@id": "SnowQueen_1PhaseEnd", 
        "@name": "Ugh... Not bad..."
      }, 
      {
        "@id": "SnowQueenEventDead", 
        "@name": "I was caught off guard...! Retreat for now..."
      }, 
      {
        "@id": "SnowQueen_Appear", 
        "@name": "$npcName:11003075$... You have been corrupted by darkness. This must end."
      }, 
      {
        "@id": "SnowQueen_Warning01", 
        "@name": "$npcName:11003075$... Open your eyes!"
      }, 
      {
        "@id": "SnowQueen_Warning02", 
        "@name": "Stop this fighting!"
      }, 
      {
        "@id": "SnowQueen_SnowKingDead", 
        "@name": "$npcName:11003075$... I had no choice. You had to be stopped."
      }, 
      {
        "@id": "Seolnunyi_FirstAttack", 
        "@name": "Let's get these guys first."
      }, 
      {
        "@id": "Seolnunyi_FireCircle", 
        "@name": "You can get rid of their ice shields with this fire."
      }, 
      {
        "@id": "Seolnunyi_FollowMe", 
        "@name": "This way. Hang on to me!"
      }, 
      {
        "@id": "Seolnunyi_Buff", 
        "@name": "I'll give it the power of flame."
      }, 
      {
        "@id": "Seolnunyi_BossRoomGo", 
        "@name": "Let's go in this way."
      }, 
      {
        "@id": "Seolnunyi_Elevator", 
        "@name": "I'll take care of this. Hurry up!"
      }, 
      {
        "@id": "Seolnunyi_Hang", 
        "@name": "Hurry, hang on to me!"
      }, 
      {
        "@id": "Seolnunyi_SOS", 
        "@name": "Ugh... Take care of these guys, please."
      }, 
      {
        "@id": "IceSoldierShieldBlue01", 
        "@name": "We will protect the empress!"
      }, 
      {
        "@id": "SnowFairy_Greeting", 
        "@name": "Hey, I like you! I'm $npcName:11003051$."
      }, 
      {
        "@id": "SnowFairy_HiThankyou", 
        "@name": "You freed me! Thank you."
      }, 
      {
        "@id": "SnowFairy_Buff", 
        "@name": "I will give you power."
      }, 
      {
        "@id": "SnowFairy_Purify", 
        "@name": "Dark curse, be gone!"
      }, 
      {
        "@id": "SnowFairy_Dead01", 
        "@name": "$npcName:11003051$ is hurt."
      }, 
      {
        "@id": "SnowFairy_Dead02", 
        "@name": "$npcName:11003051$ needs to rest."
      }, 
      {
        "@id": "HugeKnightStatue_PurifyThankyou", 
        "@name": "Thank you for lifting the curse."
      }, 
      {
        "@id": "HugeKnightStatue_Anger", 
        "@name": "Infuriating! They've corrupted my people."
      }, 
      {
        "@id": "HugeKnightStatue_Dead01", 
        "@name": "Please avenge my kin!"
      }, 
      {
        "@id": "HugeKnightStatue_Dead02", 
        "@name": "So powerless... To fail like this..."
      }, 
      {
        "@id": "Pinkbean_Summon01", 
        "@name": "Come out, guys!"
      }, 
      {
        "@id": "Pinkbean_Summon02", 
        "@name": "I'm bored. Come play with me."
      }, 
      {
        "@id": "Pinkbean_Bore01", 
        "@name": "I'll listen to some music, I think."
      }, 
      {
        "@id": "Pinkbean_Bore02", 
        "@name": "Ah, I'm so bored."
      }, 
      {
        "@id": "Pinkbean_Bore03", 
        "@name": "Put up a fight!"
      }, 
      {
        "@id": "Pinkbean_BoreAttack01", 
        "@name": "Let's play a game!"
      }, 
      {
        "@id": "Pinkbean_BoreAttack02", 
        "@name": "Have fun!"
      }, 
      {
        "@id": "Pinkbean_Provoke01", 
        "@name": "Go ahead, try to hit me."
      }, 
      {
        "@id": "Pinkbean_Provoke02", 
        "@name": "Something fun will happen if you hit me. Really."
      }, 
      {
        "@id": "Pinkbean_Controller", 
        "@name": "Let's get this party started."
      }, 
      {
        "@id": "Pinkbean_Rolling01", 
        "@name": "Vroom, vroom! Here I come."
      }, 
      {
        "@id": "Pinkbean_Rolling02", 
        "@name": "Vroom! Get ready!"
      }, 
      {
        "@id": "Pinkbean_Rolling03", 
        "@name": "Now, where to?"
      }, 
      {
        "@id": "Pinkbean_Dance01", 
        "@name": "Dance! Dance!"
      }, 
      {
        "@id": "Pinkbean_Dance02", 
        "@name": "Want to dance with me?"
      }, 
      {
        "@id": "Pinkbean_Yoyo01", 
        "@name": "How fun!"
      }, 
      {
        "@id": "Pinkbean_Yoyo02", 
        "@name": "I'm having so much fun!"
      }, 
      {
        "@id": "Pinkbean_Loudspeaker01", 
        "@name": "I said dance!"
      }, 
      {
        "@id": "Pinkbean_Loudspeaker02", 
        "@name": "Don't stop dancing, $male:boy,female:girl$."
      }, 
      {
        "@id": "Pinkbean_PogoStickStart", 
        "@name": "Doesn't this look fun?"
      }, 
      {
        "@id": "Pinkbean_PogoStickReStart", 
        "@name": "I won't mess up again!"
      }, 
      {
        "@id": "Pinkbean_PogoStickStay", 
        "@name": "Don't be scared, now come!"
      }, 
      {
        "@id": "Pinkbean_PogoStickStun", 
        "@name": "I'm insulted!"
      }, 
      {
        "@id": "Pinkbean_Guitar", 
        "@name": "Let's have some fun!"
      }, 
      {
        "@id": "Pinkbean_Bigger", 
        "@name": "Hey, I grew!"
      }, 
      {
        "@id": "Pinkbean_BiggerDance", 
        "@name": "Hey, feels good to be big!"
      }, 
      {
        "@id": "Pinkbean_BiggerPogoStickStart", 
        "@name": "Whee!"
      }, 
      {
        "@id": "Pinkbean_BiggerOff", 
        "@name": "Aww... But I was having so much fun."
      }, 
      {
        "@id": "Pinkbean_HPOneAttack", 
        "@name": "Now I'm angry!"
      }, 
      {
        "@id": "Pinkbean_FinalPhase01", 
        "@name": "Spin, spin!"
      }, 
      {
        "@id": "Pinkbean_FinalPhase02", 
        "@name": "Destroy everything!"
      }, 
      {
        "@id": "Pinkbean_FinalPhase03", 
        "@name": "So... dizzy... Must keep spinning!"
      }, 
      {
        "@id": "Pinkbean_FinalPhase04", 
        "@name": "Be gone!"
      }, 
      {
        "@id": "Pinkbean_FinalPhase05", 
        "@name": "Dance, dance, then be gone!"
      }, 
      {
        "@id": "Balrog_HookSmash", 
        "@name": "I'll smash you all!"
      }, 
      {
        "@id": "Balrog_Runaway", 
        "@name": "Is that where you've been hiding?"
      }, 
      {
        "@id": "Balrog_PushOut", 
        "@name": "Back, you pests!"
      }, 
      {
        "@id": "Balrog_SummonCall", 
        "@name": "Aid me!"
      }, 
      {
        "@id": "Balrog_TargetWarnning", 
        "@name": "How pathetic... I'll take you down."
      }, 
      {
        "@id": "Balrog_PowerUp", 
        "@name": "Your attacks tickle me."
      }, 
      {
        "@id": "Balrog_PillarBeCareful", 
        "@name": "Hmph. I know what you're up to."
      }, 
      {
        "@id": "Balrog_PillarBroken", 
        "@name": "Should have watched out for that pillar..."
      }, 
      {
        "@id": "Balrog_TristanBroken01", 
        "@name": "Grrr... How dare you get in my way."
      }, 
      {
        "@id": "Balrog_TristanBroken02", 
        "@name": "Oh no... We were supposed to get rid of that first..."
      }, 
      {
        "@id": "Balrog_BurstWarnning", 
        "@name": "I'll show you true suffering."
      }, 
      {
        "@id": "Balrog_FinalBroken01", 
        "@name": "Wahaha! I'm going to destroy everything!"
      }, 
      {
        "@id": "Balrog_FinalBroken02", 
        "@name": "There is nowhere to run. This place will be your grave."
      }, 
      {
        "@id": "Balrog_CannonBroken01", 
        "@name": "That cannon ...", 
        "@feature": "Kritias_Balrog01"
      }, 
      {
        "@id": "Balrog_CannonBroken02", 
        "@name": "It's a really annoying toy.", 
        "@feature": "Kritias_Balrog01"
      }, 
      {
        "@id": "Balrog_CannonBroken03", 
        "@name": "I will destroy everything!", 
        "@feature": "Kritias_Balrog01"
      }, 
      {
        "@id": "Balrog_Kritias_Dead", 
        "@name": "A new force was in front of my nose ... !!", 
        "@feature": "Kritias_Balrog01"
      }, 
      {
        "@id": "Balrog_Test01", 
        "@name": "Triangle Block Check_test"
      }, 
      {
        "@id": "Balrog_Test02", 
        "@name": "Random Target_test"
      }, 
      {
        "@id": "Tristan_TargetAppearance", 
        "@name": "This is bad..."
      }, 
      {
        "@id": "Tristan_SOS", 
        "@name": "Hurry and take care of this one so I can stop Balrog!"
      }, 
      {
        "@id": "Tristan_EmergencyBattle", 
        "@name": "Oh no, we're all doomed..."
      }, 
      {
        "@id": "Tristan_StunAttack01", 
        "@name": "End your cowardly assault this instant."
      }, 
      {
        "@id": "Tristan_StunAttack02", 
        "@name": "I'm not going to leave you alone."
      }, 
      {
        "@id": "Tristan_StunAttack03", 
        "@name": "Give it up, Balrog."
      }, 
      {
        "@id": "Tristan_Fail", 
        "@name": "How inconvenient..."
      }, 
      {
        "@id": "Tristan_Panic", 
        "@name": "This is bad! We could get wiped out at any moment."
      }, 
      {
        "@id": "Tristan_Relief", 
        "@name": "Whew, I'm saved... Thank you very much."
      }, 
      {
        "@id": "Tristan_ClearThankyou", 
        "@name": "We couldn't have done it without you. Thank you."
      }, 
      {
        "@id": "Conder_BattleStart", 
        "@name": "Get your clanging metal contraption off our ship!"
      }, 
      {
        "@id": "BalrogMagicBursterEventAppearance", 
        "@name": "Do you really think you can defeat me?"
      }, 
      {
        "@id": "BalrogMagicBurster_CrossbowTargetChange", 
        "@name": "I'm going to teach you a lesson."
      }, 
      {
        "@id": "BalrogMagicBurster_CrossbowTargetChange02", 
        "@name": "I've grown tired of your futile antics."
      }, 
      {
        "@id": "BalrogMagicBurster_CannonTargetChange", 
        "@name": "I can't leave you alone..."
      }, 
      {
        "@id": "BalrogMagicBurster_CannonTargetChange02", 
        "@name": "I've had enough of those cannons..."
      }, 
      {
        "@id": "BalrogMagicBursterEventLeave01", 
        "@name": "Hahaha!"
      }, 
      {
        "@id": "BalrogMagicBursterEventLeave02", 
        "@name": "Do you think that puny beam can—"
      }, 
      {
        "@id": "BalrogMagicBurster_Kritias_TargetWarining01", 
        "@name": "You!", 
        "@feature": "Kritias_Inferno01"
      }, 
      {
        "@id": "BalrogMagicBurster_Kritias_TargetWarining02", 
        "@name": "It's really annoying.", 
        "@feature": "Kritias_Inferno01"
      }, 
      {
        "@id": "BalrogMagicBurster_Kritias_TargetWarining03", 
        "@name": "You'll be my special partner.", 
        "@feature": "Kritias_Inferno01"
      }, 
      {
        "@id": "Tristan_BalrogMagicBurster_Start", 
        "@name": "There's an Inferno in there. Quickly!", 
        "@feature": "Kritias_Inferno01"
      }, 
      {
        "@id": "Tristan_BalrogMagicBurster_Warning", 
        "@name": "The curse of Inferno's eyes is intense ....", 
        "@feature": "Kritias_Inferno01"
      }, 
      {
        "@id": "Tristan_BalrogMagicBurster_Go2Stage", 
        "@name": "Now ~ Do not move fast!", 
        "@feature": "Kritias_Inferno01"
      }, 
      {
        "@id": "Tristan_BalrogMagicBurster_Go3Stage", 
        "@name": "There are too many troublesome enemies ....", 
        "@feature": "Kritias_Inferno01"
      }, 
      {
        "@id": "Tristan_BalrogMagicBurster_ProtectCircle", 
        "@name": "Cleanse the curse here.", 
        "@feature": "Kritias_Inferno01"
      }, 
      {
        "@id": "Tristan_BalrogMagicBurster_ProtectThrow0401", 
        "@name": "We can purify up to four people!", 
        "@feature": "Kritias_Inferno01"
      }, 
      {
        "@id": "Tristan_BalrogMagicBurster_ProtectThrow0402", 
        "@name": "Please get cleaned up ~", 
        "@feature": "Kritias_Inferno01"
      }, 
      {
        "@id": "Tristan_BalrogMagicBurster_ProtectThrow0301", 
        "@name": "We can purify up to three people!", 
        "@feature": "Kritias_Inferno01"
      }, 
      {
        "@id": "Tristan_BalrogMagicBurster_ProtectThrow0302", 
        "@name": "Please get cleaned up ~", 
        "@feature": "Kritias_Inferno01"
      }, 
      {
        "@id": "Tristan_BalrogMagicBurster_StunWarning01", 
        "@name": "That Crimson Ballack is only aiming for me.", 
        "@feature": "Kritias_Inferno01"
      }, 
      {
        "@id": "Tristan_BalrogMagicBurster_StunWarning02", 
        "@name": "I can not ... cleanse the curse ...", 
        "@feature": "Kritias_Inferno01"
      }, 
      {
        "@id": "Tristan_BalrogMagicBurster_1PhaseStartMove", 
        "@name": "Quickly follow the Inferno ~", 
        "@feature": "Kritias_Inferno01"
      }, 
      {
        "@id": "Tristan_BalrogMagicBurster_2PhaseStartMove", 
        "@name": "This place will soon be destroyed!", 
        "@feature": "Kritias_Inferno01"
      }, 
      {
        "@id": "Tristan_BalrogMagicBurster_3PhaseStartMove", 
        "@name": "Be careful as soon as it is destroyed!", 
        "@feature": "Kritias_Inferno01"
      }, 
      {
        "@id": "Tristan_BalrogMagicBurster_BattleEnd", 
        "@name": "Did you finally kill Inferno ......", 
        "@feature": "Kritias_Inferno01"
      }, 
      {
        "@id": "AirshipBalrogCrimson_Center", 
        "@name": "Move to center"
      }, 
      {
        "@id": "AirshipBalrogCrimson_Left", 
        "@name": "Move to left"
      }, 
      {
        "@id": "AirshipBalrogCrimson_Right", 
        "@name": "Move to right"
      }, 
      {
        "@id": "AirshipBalrogCrimson_HalfwayPoint", 
        "@name": "Halfway point"
      }, 
      {
        "@id": "AirshipBalrogCrimsonFlame_Appearance", 
        "@name": "Start Phase 2"
      }, 
      {
        "@id": "AirshipBalrogCrimsonBroken_CannonAttack", 
        "@name": "Infernog's Battleship is firing its cannons."
      }, 
      {
        "@id": "AirshipBalrogCrimsonBroken_CannonAttack02", 
        "@name": "Infernog's battleship is firing its cannons.", 
        "@feature": "CrimsonBalrog01"
      }, 
      {
        "@id": "IshuraRbladerDark_Break_IshuraDamage", 
        "@name": "큭 ... I can not stop this ...", 
        "@feature": "LapentaDungeon"
      }, 
      {
        "@id": "IshuraRbladerDark_Break_IshuraAttack", 
        "@name": "This is the limit of yours !!", 
        "@feature": "LapentaDungeon"
      }, 
      {
        "@id": "IshuraRbladerDarkEventLeave01", 
        "@name": "It's a recipe .... I'll be waiting in hell!", 
        "@feature": "LapentaDungeon"
      }, 
      {
        "@id": "IshuraRbladerDark_FinalChaos_EventLeave01", 
        "@name": "The next place will be your grave.", 
        "@feature": "LapentaDungeon"
      }, 
      {
        "@id": "RenduebianRbladerDark_FinalChaos_EventLeave01", 
        "@name": "I will not admit it.", 
        "@feature": "LapentaDungeon"
      }, 
      {
        "@id": "YuperiaRbladerDark_FinalChaos_EventLeave01", 
        "@name": "Let me feel hell soon.", 
        "@feature": "LapentaDungeon"
      }, 
      {
        "@id": "YuperiaRbladerDark_TwoStage_LongCheck", 
        "@name": "If there is no one around me, I would be in trouble!", 
        "@feature": "LapentaDungeon"
      }, 
      {
        "@id": "YuperiaRbladerDark_TwoStage_CloseCheck", 
        "@name": "Get away! Do not interrupt me!", 
        "@feature": "LapentaDungeon"
      }, 
      {
        "@id": "MapleGuardSpearKritias_InstallInterruption01", 
        "@name": "Please handle these guys quickly!", 
        "@feature": "Kritias_Balrog01"
      }, 
      {
        "@id": "MapleGuardSpearKritias_InstallInterruption02", 
        "@name": "Please help me.", 
        "@feature": "Kritias_Balrog01"
      }, 
      {
        "@id": "MapleGuardSpearKritias_InstallInterruption03", 
        "@name": "I need to install it soon .... Help!", 
        "@feature": "Kritias_Balrog01"
      }, 
      {
        "@id": "MapleGuardSpearKritias_InstallBroken", 
        "@name": "I'll have to reinstall this ...", 
        "@feature": "Kritias_Balrog01"
      }, 
      {
        "@id": "MapleGuardSpearKritias_InstallStart", 
        "@name": "Installation progress!", 
        "@feature": "Kritias_Balrog01"
      }, 
      {
        "@id": "MapleGuardSpearKritias_InstallAction", 
        "@name": "Installation work in progress ~", 
        "@feature": "Kritias_Balrog01"
      }, 
      {
        "@id": "MapleGuardSpearKritias_InstallComplete", 
        "@name": "installed! Use this quickly", 
        "@feature": "Kritias_Balrog01"
      }, 
      {
        "@id": "BalrogCrimsonKritias_BalrogBossGuard", 
        "@name": "I will destroy the cannon instead of Balrog!", 
        "@feature": "Kritias_Balrog01"
      }, 
      {
        "@id": "BalrogCrimsonKritias_BalrogBossGuard02", 
        "@name": "We have to keep that guard from installing the cannon!", 
        "@feature": "Kritias_Balrog01"
      }, 
      {
        "@id": "BalrogCrimsonKritias_InfernoSoilderGuard", 
        "@name": "Take my protection!", 
        "@feature": "Kritias_Inferno01"
      }, 
      {
        "@id": "BalrogCrimsonKritias_InfernoGuard04", 
        "@name": "One is not enough! I'll deal with four people.", 
        "@feature": "Kritias_Inferno01"
      }, 
      {
        "@id": "BalrogCrimsonKritias_InfernoGuard03", 
        "@name": "One is not enough! I will deal with up to three people.", 
        "@feature": "Kritias_Inferno01"
      }, 
      {
        "@id": "BalrogCrimsonKritias_InfernoGuard02", 
        "@name": "One is not enough! I'll deal with two people.", 
        "@feature": "Kritias_Inferno01"
      }, 
      {
        "@id": "BalrogCrimsonKritias_TristanAttack", 
        "@name": "If you stop Tristan, you're done!", 
        "@feature": "Kritias_Inferno01"
      }, 
      {
        "@id": "Paika_Phase03", 
        "@name": "These cheeky ... soldiers, help me.", 
        "@feature": "Kritias_Paika01"
      }, 
      {
        "@id": "Paika_Phase04", 
        "@name": "Damn it!", 
        "@feature": "Kritias_Paika01"
      }, 
      {
        "@id": "Paika_LastSkill", 
        "@name": "Now die. Aaaq", 
        "@feature": "Kritias_Paika01"
      }, 
      {
        "@id": "AI__AI_ALEX_ANCHORLIZARD__0", 
        "@name": "Ye can swim, but ye can't hide!"
      }, 
      {
        "@id": "AI__AI_ALEX_ANCHORLIZARD__1", 
        "@name": "Croak..."
      }, 
      {
        "@id": "AI__AI_ALEX_ANCHORLIZARD__2", 
        "@name": "Croak croak..."
      }, 
      {
        "@id": "AI__AI_ALEX_ANCHORLIZARD__3", 
        "@name": "Croak..."
      }, 
      {
        "@id": "AI__AI_ALEX_ANCHORLIZARD__4", 
        "@name": "Croak croak..."
      }, 
      {
        "@id": "AI__AI_ALEX_ANCHORLIZARD__5", 
        "@name": "Ugh, my head..."
      }, 
      {
        "@id": "AI__AI_ALEX_ANCHORLIZARD__6", 
        "@name": "Eat wake, bilge rat!"
      }, 
      {
        "@id": "AI__AI_ALEX_ANCHORLIZARD__7", 
        "@name": "Now I'm flat... too..."
      }, 
      {
        "@id": "AI__AI_ALEX_ANCHORLIZARD__8", 
        "@name": "Croak..."
      }, 
      {
        "@id": "AI__AI_ALEX_ANCHORLIZARD__9", 
        "@name": "Croak croak..."
      }, 
      {
        "@id": "AI__AI_ALEX_ANCHORLIZARD__10", 
        "@name": "Ugh, my head..."
      }, 
      {
        "@id": "AI__AI_ALEX_ANCHORLIZARD__11", 
        "@name": "Ugh, my head..."
      }, 
      {
        "@id": "AI__AI_ALEX_ANCHORLIZARD__12", 
        "@name": "Ugh, my head..."
      }, 
      {
        "@id": "AI__AI_ALEX_ANCHORLIZARD__13", 
        "@name": "Eat wake, bilge rat!"
      }, 
      {
        "@id": "AI__AI_ALEX_ANCHORLIZARD__14", 
        "@name": "Defeated by these... flat creatures..."
      }, 
      {
        "@id": "AI__AI_PATOS_QUEST01__0", 
        "@name": "Begone!"
      }, 
      {
        "@id": "AI__AI_PATOS_QUEST01__1", 
        "@name": "Away!"
      }, 
      {
        "@id": "AI__AI_SIREN_HARP__0", 
        "@name": "What are you doing here? Cheeky devil! You'll be punished for this!"
      }, 
      {
        "@id": "AI__AI_SIREN_HARP__1", 
        "@name": "Cheer up, everyone!"
      }, 
      {
        "@id": "AI__AI_SIREN_HARP__2", 
        "@name": "You look sleepy."
      }, 
      {
        "@id": "AI__AI_SIREN_HARP__3", 
        "@name": "Listen to my voice."
      }, 
      {
        "@id": "AI__AI_SIREN_HARP__4", 
        "@name": "Let the waves carry you away."
      }, 
      {
        "@id": "AI__AI_SIREN_HARP__5", 
        "@name": "Cheer up, everyone!"
      }, 
      {
        "@id": "AI__AI_SIREN_HARP__6", 
        "@name": "You look sleepy."
      }, 
      {
        "@id": "AI__AI_SIREN_HARP__7", 
        "@name": "Listen to my voice."
      }, 
      {
        "@id": "AI__AI_SIREN_HARP__8", 
        "@name": "Let the waves carry you away."
      }, 
      {
        "@id": "AI__AI_SIREN_HARP__9", 
        "@name": "Oh no..."
      }, 
      {
        "@id": "AI__AI_SIREN_TRIDENT__0", 
        "@name": "You dare mess with my sister?"
      }, 
      {
        "@id": "AI__AI_SIREN_TRIDENT__1", 
        "@name": "Take this!"
      }, 
      {
        "@id": "AI__AI_SIREN_TRIDENT__2", 
        "@name": "Die!"
      }, 
      {
        "@id": "AI__AI_SIREN_TRIDENT__3", 
        "@name": "Worthless humans."
      }, 
      {
        "@id": "AI__AI_SIREN_TRIDENT__4", 
        "@name": "You'll never leave here alive..."
      }, 
      {
        "@id": "AI__AI_SIREN_TRIDENT__5", 
        "@name": "I'll tear you apart..."
      }, 
      {
        "@id": "AI__AI_SIREN_TRIDENT__6", 
        "@name": "Worthless humans."
      }, 
      {
        "@id": "AI__AI_SIREN_TRIDENT__7", 
        "@name": "Worthless humans."
      }, 
      {
        "@id": "AI__AI_SIREN_TRIDENT__8", 
        "@name": "I'll tear you apart..."
      }, 
      {
        "@id": "AI__AI_SIREN_TRIDENT__9", 
        "@name": "You'll never leave here alive..."
      }, 
      {
        "@id": "AI__AI_SIREN_TRIDENT__10", 
        "@name": "Die."
      }, 
      {
        "@id": "AI__AI_SIREN_TRIDENT__11", 
        "@name": "Worthless humans."
      }, 
      {
        "@id": "AI__AI_SIREN_TRIDENT__12", 
        "@name": "I'll tear you apart..."
      }, 
      {
        "@id": "AI__AI_SIREN_TRIDENT__13", 
        "@name": "You'll never leave here alive..."
      }, 
      {
        "@id": "AI__AI_SIREN_TRIDENT__14", 
        "@name": "I'll tear you apart..."
      }, 
      {
        "@id": "AI__AI_SIREN_TRIDENT__15", 
        "@name": "Worthless humans."
      }, 
      {
        "@id": "AI__AI_SIREN_TRIDENT__16", 
        "@name": "Worthless humans."
      }, 
      {
        "@id": "AI__AI_SIREN_TRIDENT__17", 
        "@name": "I'll tear you apart..."
      }, 
      {
        "@id": "AI__AI_SIREN_TRIDENT__18", 
        "@name": "You'll never leave here alive..."
      }, 
      {
        "@id": "AI__AI_SIREN_TRIDENT__19", 
        "@name": "Worthless humans."
      }, 
      {
        "@id": "AI__AI_SIREN_TRIDENT__20", 
        "@name": "I'll tear you apart..."
      }, 
      {
        "@id": "AI__AI_SIREN_TRIDENT__21", 
        "@name": "You'll never leave here alive..."
      }, 
      {
        "@id": "AI__AI_SIREN_TRIDENT__22", 
        "@name": "S-stop..."
      }, 
      {
        "@id": "AI__AI_MEVIDIC_PARTYDUNGEON__0", 
        "@name": "Let's finish this!"
      }, 
      {
        "@id": "AI__AI_MEVIDIC_PARTYDUNGEON__1", 
        "@name": "Landwalkers... I'll never forgive you!"
      }, 
      {
        "@id": "AI__AI_MEVIDIC_PARTYDUNGEON__2", 
        "@name": "Return to your land!"
      }, 
      {
        "@id": "AI__AI_MEVIDIC_PARTYDUNGEON__3", 
        "@name": "Humans. Dreadful!"
      }, 
      {
        "@id": "AI__AI_MEVIDIC_PARTYDUNGEON__4", 
        "@name": "Humans are beyond help."
      }, 
      {
        "@id": "AI__AI_MEVIDIC_PARTYDUNGEON__5", 
        "@name": "Your own destruction is on your head!"
      }, 
      {
        "@id": "AI__AI_MEVIDIC_PARTYDUNGEON__6", 
        "@name": "You're not worthy of joining us!"
      }, 
      {
        "@id": "AI__AI_MEVIDIC_PARTYDUNGEON__7", 
        "@name": "You'll regret this!"
      }, 
      {
        "@id": "AI__AI_MEVIDIC_PARTYDUNGEON__8", 
        "@name": "Your greed will be your downfall!"
      }, 
      {
        "@id": "AI__AI_MEVIDIC_PARTYDUNGEON__9", 
        "@name": "Attack the humans!"
      }, 
      {
        "@id": "AI__AI_MEVIDIC_PARTYDUNGEON__10", 
        "@name": "You can kill me, but not the hope in my heart!"
      }, 
      {
        "@id": "AI__AI_MEVIDIC_PARTYDUNGEON__11", 
        "@name": "It's over!"
      }, 
      {
        "@id": "AI__AI_MEVIDIC_PARTYDUNGEON__12", 
        "@name": "Begone!"
      }, 
      {
        "@id": "AI__AI_MEVIDIC_PARTYDUNGEON__13", 
        "@name": "Did I misunderstand the humans...? "
      }, 
      {
        "@id": "AI__AI_GIGANTICMADRONSPARTOI__0", 
        "@name": "Destroy..."
      }, 
      {
        "@id": "AI__AI_GIGANTICMADRONSPARTOI__1", 
        "@name": "Recall..."
      }, 
      {
        "@id": "AI__AI_GIGANTICMADRONSPARTOI__2", 
        "@name": "Destruct..."
      }, 
      {
        "@id": "AI__AI_GIGANTICMADRONSPARTOI__3", 
        "@name": "Destruct..."
      }, 
      {
        "@id": "AI__AI_GIGANTICMADRONSPARTOI__4", 
        "@name": "Delete..."
      }, 
      {
        "@id": "AI__AI_GIGANTICMADRONSPARTOI__5", 
        "@name": "Self-destruction... in progress..."
      }, 
      {
        "@id": "AI__AI_LIZARDDRAGONFIRE__0", 
        "@name": "Scalding heat is pouring from Pyrros Fard's maw."
      }, 
      {
        "@id": "AI__AI_LIZARDDRAGONFIRE__1", 
        "@name": "Grrrr!"
      }, 
      {
        "@id": "AI__AI_LIZARDDRAGONFIRE__2", 
        "@name": "Scalding heat is pouring from Pyrros Fard's maw."
      }, 
      {
        "@id": "AI__AI_LIZARDDRAGONFIRE__3", 
        "@name": "Grrrr!"
      }, 
      {
        "@id": "AI__AI_LIZARDDRAGONFIRE__4", 
        "@name": "Scalding heat is pouring from Pyrros Fard's maw."
      }, 
      {
        "@id": "AI__AI_LIZARDDRAGONFIRE__5", 
        "@name": "Grrrr!"
      }, 
      {
        "@id": "AI__AI_LIZARDDRAGONFIRE__6", 
        "@name": "Scalding heat is pouring from Pyrros Fard's maw."
      }, 
      {
        "@id": "AI__AI_LIZARDDRAGONFIRE__7", 
        "@name": "Grrrr!"
      }, 
      {
        "@id": "AI__AI_LIZARDDRAGONFIRE__8", 
        "@name": "Scalding heat is pouring from Pyrros Fard's maw."
      }, 
      {
        "@id": "AI__AI_LIZARDDRAGONFIRE__9", 
        "@name": "Grrrr!"
      }, 
      {
        "@id": "AI__AI_LIZARDDRAGONFIRE__10", 
        "@name": "Scalding heat is pouring from Pyrros Fard's maw."
      }, 
      {
        "@id": "AI__AI_LIZARDDRAGONFIRE__11", 
        "@name": "Grrrr!"
      }, 
      {
        "@id": "AI__AI_LIZARDDRAGONFIRE__12", 
        "@name": "Scalding heat is pouring from Pyrros Fard's maw."
      }, 
      {
        "@id": "AI__AI_LIZARDDRAGONFIRE__13", 
        "@name": "Grrrr!"
      }, 
      {
        "@id": "AI__AI_LIZARDDRAGONFIRE__14", 
        "@name": "Scalding heat is pouring from Pyrros Fard's maw."
      }, 
      {
        "@id": "AI__AI_LIZARDDRAGONFIRE__15", 
        "@name": "Grrrr!"
      }, 
      {
        "@id": "AI__AI_LIZARDDRAGONFIRE__16", 
        "@name": "Scalding heat is pouring from Pyrros Fard's maw."
      }, 
      {
        "@id": "AI__AI_LIZARDDRAGONFIRE__17", 
        "@name": "Grrrr!"
      }, 
      {
        "@id": "AI__AI_LIZARDDRAGONFIRE__18", 
        "@name": "Scalding heat is pouring from Pyrros Fard's maw."
      }, 
      {
        "@id": "AI__AI_LIZARDDRAGONFIRE__19", 
        "@name": "Grrrr!"
      }, 
      {
        "@id": "AI__AI_LIZARDDRAGONFIRE__20", 
        "@name": "Scalding heat is pouring from Pyrros Fard's maw."
      }, 
      {
        "@id": "AI__AI_LIZARDDRAGONFIRE__21", 
        "@name": "Grrrr!"
      }, 
      {
        "@id": "AI__AI_LIZARDDRAGONFIRE__22", 
        "@name": "Scalding heat is pouring from Pyrros Fard's maw."
      }, 
      {
        "@id": "AI__AI_LIZARDDRAGONFIRE__23", 
        "@name": "Grrrr!"
      }, 
      {
        "@id": "AI__AI_LIZARDDRAGONFIRE__24", 
        "@name": "Scalding heat is pouring from Pyrros Fard's maw."
      }, 
      {
        "@id": "AI__AI_LIZARDDRAGONFIRE__25", 
        "@name": "Grrrr!"
      }, 
      {
        "@id": "AI__AI_LIZARDDRAGONFIRE__26", 
        "@name": "Scalding heat is pouring from Pyrros Fard's maw."
      }, 
      {
        "@id": "AI__AI_LIZARDDRAGONFIRE__27", 
        "@name": "Grrrr!"
      }, 
      {
        "@id": "AI__AI_LIZARDDRAGONFIRE__28", 
        "@name": "Scalding heat is pouring from Pyrros Fard's maw."
      }, 
      {
        "@id": "AI__AI_LIZARDDRAGONFIRE__29", 
        "@name": "Grrrr!"
      }, 
      {
        "@id": "AI__AI_LIZARDDRAGONFIRE__30", 
        "@name": "Scalding heat is pouring from Pyrros Fard's maw."
      }, 
      {
        "@id": "AI__AI_LIZARDDRAGONFIRE__31", 
        "@name": "Grrrr!"
      }, 
      {
        "@id": "AI__AI_ORDE__0", 
        "@name": "I won't go down easily!"
      }, 
      {
        "@id": "AI__AI_ORDE__1", 
        "@name": "Here. A present!"
      }, 
      {
        "@id": "AI__AI_ORDE__2", 
        "@name": "Take a look at this!"
      }, 
      {
        "@id": "AI__AI_ORDE__3", 
        "@name": "Don't move!"
      }, 
      {
        "@id": "AI__AI_ORDE__4", 
        "@name": "I won't be defeated...!"
      }, 
      {
        "@id": "AI__AI_ORDE__5", 
        "@name": "This is nothing!"
      }, 
      {
        "@id": "AI__AI_ORDE__6", 
        "@name": "Try this!"
      }, 
      {
        "@id": "SnowKing__AI_SNOWKING_QUEST__0", 
        "@name": "Enough!"
      }, 
      {
        "@id": "SnowKing__AI_SNOWKING_QUEST__1", 
        "@name": "I will reclaim the Lost Kingdom!"
      }, 
      {
        "@id": "SnowKing__AI_SNOWKING_QUEST__2", 
        "@name": "You abandoned me, too?!"
      }, 
      {
        "@id": "SnowKing__AI_SNOWKING_QUEST__3", 
        "@name": "You abandoned me... too..."
      }, 
      {
        "@id": "SnowQueen__AI_SNOWQUEEN_QUEST_FRIENDLY__0", 
        "@name": "I will not allow another life to be lost... even if it means stopping you, Bjorn."
      }, 
      {
        "@id": "AI__AI_TombEvent__0", 
        "@name": "Oh! Adventurer, please save me...."
      }, 
      {
        "@id": "AI__AI_CABINGRANDFATHER__0", 
        "@name": "Take this!"
      }, 
      {
        "@id": "AI__AI_CABINGRANDFATHER__1", 
        "@name": "You're too soft."
      }, 
      {
        "@id": "AI__AI_CABINGRANDFATHER__2", 
        "@name": "You're too soft."
      }, 
      {
        "@id": "AI__AI_CAITLYN__0", 
        "@name": "Take this!"
      }, 
      {
        "@id": "AI__AI_CAITLYN__1", 
        "@name": "You moron!"
      }, 
      {
        "@id": "Arena__AI_PIGGOBLIN__0", 
        "@name": "I guess I'll have to show off my strength"
      }, 
      {
        "@id": "Arena__AI_PIGGOBLIN__1", 
        "@name": "Oiiinnnkkk!!"
      }, 
      {
        "@id": "AI__AI_BLICHE_FR_MOONSLASH__0", 
        "@name": "Victory belongs to the swift!"
      }, 
      {
        "@id": "AI__AI_CONDER_FR_LV1__0", 
        "@name": "Let's move this to a more appropriate arena!"
      }, 
      {
        "@id": "AI__AI_CONDER_FR_LV1__1", 
        "@name": "Let's heat things up!"
      }, 
      {
        "@id": "AI__AI_CONDER_FR_LV1__2", 
        "@name": "We're not done yet. Try and keep up, kid!"
      }, 
      {
        "@id": "AI__AI_CONDER_FR_LV1__3", 
        "@name": "End of the line, kid. You should be proud just to have made it this far!"
      }, 
      {
        "@id": "AI__AI_MASON_FR_LV1__0", 
        "@name": "How about a change of scenery?"
      }, 
      {
        "@id": "Bliche__AI_BLICHE_FR_LV2__0", 
        "@name": "Keep moving if you want to survive!"
      }, 
      {
        "@id": "Bliche__AI_BLICHE_FR_LV2__1", 
        "@name": "Engaging zone control system!"
      }, 
      {
        "@id": "Bliche__AI_BLICHE_FR_LV2__2", 
        "@name": "Not bad. Let's speed things up, shall we?"
      }, 
      {
        "@id": "Bliche__AI_BLICHE_FR_LV2__3", 
        "@name": "Keep moving if you want to survive!"
      }, 
      {
        "@id": "Bliche__AI_BLICHE_FR_LV2__4", 
        "@name": "Engaging zone control system!"
      }, 
      {
        "@id": "Bliche__AI_BLICHE_FR_LV2__5", 
        "@name": "Victory belongs to the swift!"
      }, 
      {
        "@id": "Bliche__AI_BLICHE_FR_LV2__6", 
        "@name": "En garde!"
      }, 
      {
        "@id": "Bliche__AI_BLICHE_FR_LV2__7", 
        "@name": "Keep moving if you want to survive!"
      }, 
      {
        "@id": "Bliche__AI_BLICHE_FR_LV2__8", 
        "@name": "Engaging zone control system!"
      }, 
      {
        "@id": "Bliche__AI_BLICHE_FR_LV2__9", 
        "@name": "Victory belongs to the swift!"
      }, 
      {
        "@id": "Bliche__AI_BLICHE_FR_LV2__10", 
        "@name": "En garde!"
      }, 
      {
        "@id": "Bliche__AI_BLICHE_FR_LV2__11", 
        "@name": "Keep moving if you want to survive!"
      }, 
      {
        "@id": "Bliche__AI_BLICHE_FR_LV2__12", 
        "@name": "Engaging zone control system!"
      }, 
      {
        "@id": "Bliche__AI_BLICHE_FR_LV2__13", 
        "@name": "Victory belongs to the swift!"
      }, 
      {
        "@id": "Bliche__AI_BLICHE_FR_LV2__14", 
        "@name": "En garde!"
      }, 
      {
        "@id": "Bliche__AI_BLICHE_FR_LV2__15", 
        "@name": "Keep moving if you want to survive!"
      }, 
      {
        "@id": "Bliche__AI_BLICHE_FR_LV2__16", 
        "@name": "Engaging zone control system!"
      }, 
      {
        "@id": "Bliche__AI_BLICHE_FR_LV2__17", 
        "@name": "Victory belongs to the swift!"
      }, 
      {
        "@id": "Bliche__AI_BLICHE_FR_LV2__18", 
        "@name": "En garde!"
      }, 
      {
        "@id": "Bliche__AI_BLICHE_FR_LV2__19", 
        "@name": "It's been some time since I've faced such a challenge."
      }, 
      {
        "@id": "Bliche__AI_BLICHE_FR_LV2__20", 
        "@name": "Keep moving if you want to survive!"
      }, 
      {
        "@id": "Bliche__AI_BLICHE_FR_LV2__21", 
        "@name": "Engaging zone control system!"
      }, 
      {
        "@id": "Bliche__AI_BLICHE_FR_LV2__22", 
        "@name": "Victory belongs to the swift!"
      }, 
      {
        "@id": "Bliche__AI_BLICHE_FR_LV2__23", 
        "@name": "En garde!"
      }, 
      {
        "@id": "Bliche__AI_BLICHE_FR_LV2__24", 
        "@name": "Keep moving if you want to survive!"
      }, 
      {
        "@id": "Bliche__AI_BLICHE_FR_LV2__25", 
        "@name": "Engaging zone control system!"
      }, 
      {
        "@id": "Bliche__AI_BLICHE_FR_LV2__26", 
        "@name": "Victory belongs to the swift!"
      }, 
      {
        "@id": "Bliche__AI_BLICHE_FR_LV2__27", 
        "@name": "En garde!"
      }, 
      {
        "@id": "Bliche__AI_BLICHE_FR_LV2__28", 
        "@name": "Keep moving if you want to survive!"
      }, 
      {
        "@id": "Bliche__AI_BLICHE_FR_LV2__29", 
        "@name": "Engaging zone control system!"
      }, 
      {
        "@id": "Bliche__AI_BLICHE_FR_LV2__30", 
        "@name": "Victory belongs to the swift!"
      }, 
      {
        "@id": "Bliche__AI_BLICHE_FR_LV2__31", 
        "@name": "En garde!"
      }, 
      {
        "@id": "Bliche__AI_BLICHE_FR_LV2__32", 
        "@name": "Keep moving if you want to survive!"
      }, 
      {
        "@id": "Bliche__AI_BLICHE_FR_LV2__33", 
        "@name": "Engaging zone control system!"
      }, 
      {
        "@id": "Bliche__AI_BLICHE_FR_LV2__34", 
        "@name": "Victory belongs to the swift!"
      }, 
      {
        "@id": "Schatten__AI_SCHATTEN_FR_LV2__0", 
        "@name": "Here's a gift that'll blow your mind!"
      }, 
      {
        "@id": "Schatten__AI_SCHATTEN_FR_LV2__1", 
        "@name": "Hold still!"
      }, 
      {
        "@id": "Schatten__AI_SCHATTEN_FR_LV2__2", 
        "@name": "Playtime is over."
      }, 
      {
        "@id": "Schatten__AI_SCHATTEN_FR_LV2__3", 
        "@name": "Not bad. Now let's have some real fun."
      }, 
      {
        "@id": "Schatten__AI_SCHATTEN_FR_LV2__4", 
        "@name": "Here's a gift that'll blow your mind!"
      }, 
      {
        "@id": "Schatten__AI_SCHATTEN_FR_LV2__5", 
        "@name": "Hold still!"
      }, 
      {
        "@id": "Schatten__AI_SCHATTEN_FR_LV2__6", 
        "@name": "Playtime is over."
      }, 
      {
        "@id": "AI__AI_SHADOWCLAW_QUEST__0", 
        "@name": "This isn't over..."
      }, 
      {
        "@id": "AI__AI_MEVIDIC_PARTYDUNGEON_EPIC__0", 
        "@name": "The power of darkness will devour you!", 
        "@feature": "LapentaFrontierQuest"
      }, 
      {
        "@id": "AI__AI_MEVIDIC_PARTYDUNGEON_EPIC__1", 
        "@name": "Foolish humans ... The world will be surrounded by darkness ...", 
        "@feature": "LapentaFrontierQuest"
      }, 
      {
        "@id": "AI__AI_MEVIDIC_PARTYDUNGEON_EPIC__2", 
        "@name": "Darkness is my strength!", 
        "@feature": "LapentaFrontierQuest"
      }, 
      {
        "@id": "AI__AI_MEVIDIC_PARTYDUNGEON_EPIC__3", 
        "@name": "Uh ... The darkness is eroding!", 
        "@feature": "LapentaFrontierQuest"
      }, 
      {
        "@id": "AI__AI_MEVIDIC_PARTYDUNGEON_EPIC__4", 
        "@name": "Hate everyone!", 
        "@feature": "LapentaFrontierQuest"
      }, 
      {
        "@id": "AI__AI_MEVIDIC_PARTYDUNGEON_EPIC__5", 
        "@name": "Mind… It's full of darkness ...", 
        "@feature": "LapentaFrontierQuest"
      }, 
      {
        "@id": "AI__AI_MEVIDIC_PARTYDUNGEON_EPIC__6", 
        "@name": "Only the darkness can be seen!", 
        "@feature": "LapentaFrontierQuest"
      }, 
      {
        "@id": "AI__AI_MEVIDIC_PARTYDUNGEON_EPIC__7", 
        "@name": "I am the fountain to leave me alone in the dark!", 
        "@feature": "LapentaFrontierQuest"
      }, 
      {
        "@id": "AI__AI_MEVIDIC_PARTYDUNGEON_EPIC__8", 
        "@name": "Let's fall into the darkness with me!", 
        "@feature": "LapentaFrontierQuest"
      }, 
      {
        "@id": "AI__AI_MEVIDIC_PARTYDUNGEON_EPIC__9", 
        "@name": "Attack the humans!", 
        "@feature": "LapentaFrontierQuest"
      }, 
      {
        "@id": "AI__AI_MEVIDIC_PARTYDUNGEON_EPIC__10", 
        "@name": "Let it die in the darkness!", 
        "@feature": "LapentaFrontierQuest"
      }, 
      {
        "@id": "AI__AI_MEVIDIC_PARTYDUNGEON_EPIC__11", 
        "@name": "That's it!", 
        "@feature": "LapentaFrontierQuest"
      }, 
      {
        "@id": "AI__AI_MEVIDIC_PARTYDUNGEON_EPIC__12", 
        "@name": "Now stop disappearing!", 
        "@feature": "LapentaFrontierQuest"
      }, 
      {
        "@id": "AI__AI_MEVIDIC_PARTYDUNGEON_EPIC__13", 
        "@name": "Uh ... What have I done…", 
        "@feature": "LapentaFrontierQuest"
      }, 
      {
        "@id": "SnowKing__AI_SNOWKING_QUEST_EPIC__0", 
        "@name": "stop!", 
        "@feature": "LapentaFrontierQuest"
      }, 
      {
        "@id": "SnowKing__AI_SNOWKING_QUEST_EPIC__1", 
        "@name": "With this power we will make a kingdom that will never fall!", 
        "@feature": "LapentaFrontierQuest"
      }, 
      {
        "@id": "SnowKing__AI_SNOWKING_QUEST_EPIC__2", 
        "@name": "You do not even want to leave me!", 
        "@feature": "LapentaFrontierQuest"
      }, 
      {
        "@id": "SnowKing__AI_SNOWKING_QUEST_EPIC__3", 
        "@name": "How do you ... $", 
        "@feature": "LapentaFrontierQuest"
      }, 
      {
        "@id": "SnowQueen__AI_SNOWQUEEN_QUEST_FRIENDLY_EPIC__0", 
        "@name": "I will protect Frozen Crystal's seal. ... Vieren, stopping you!", 
        "@feature": "LapentaFrontierQuest"
      }, 
      {
        "@id": "EYEOFLAPENTA__AI_RENDUEBIANRBLADERDARK__0", 
        "@name": "I will guide you into the path of darkness with my new strength!", 
        "@feature": "LapentaDungeon"
      }, 
      {
        "@id": "EYEOFLAPENTA__AI_RENDUEBIANRBLADERDARK__1", 
        "@name": "Black ... It's a recipe.", 
        "@feature": "LapentaDungeon"
      }, 
      {
        "@id": "EYEOFLAPENTA__AI_RENDUEBIANRBLADERDARK__2", 
        "@name": "I'll show you hell again!", 
        "@feature": "LapentaDungeon"
      }, 
      {
        "@id": "EYEOFLAPENTA__AI_RENDUEBIANRBLADERDARK__3", 
        "@name": "큭, sticky.", 
        "@feature": "LapentaDungeon"
      }, 
      {
        "@id": "EYEOFLAPENTA__AI_RENDUEBIANRBLADERDARK__4", 
        "@name": "Hahaha!", 
        "@feature": "LapentaDungeon"
      }, 
      {
        "@id": "EYEOFLAPENTA__AI_RENDUEBIANRBLADERDARK__5", 
        "@name": "Try harder?", 
        "@feature": "LapentaDungeon"
      }, 
      {
        "@id": "EYEOFLAPENTA__AI_RENDUEBIANRBLADERDARK__6", 
        "@name": "This is the last time !!", 
        "@feature": "LapentaDungeon"
      }, 
      {
        "@id": "EYEOFLAPENTA__AI_RENDUEBIANRBLADERDARK__7", 
        "@name": "It's a ...", 
        "@feature": "LapentaDungeon"
      }, 
      {
        "@id": "EYEOFLAPENTA__AI_RENDUEBIANRBLADERDARK__8", 
        "@name": "Come out, my men!", 
        "@feature": "LapentaDungeon"
      }, 
      {
        "@id": "EYEOFLAPENTA__AI_RENDUEBIANRBLADERDARK__9", 
        "@name": "I'll swallow your good-looking pickles!", 
        "@feature": "LapentaDungeon"
      }, 
      {
        "@id": "EYEOFLAPENTA__AI_YUPERIARBLADERDARK__0", 
        "@name": "This time, I will not get that life!", 
        "@feature": "LapentaDungeon"
      }, 
      {
        "@id": "EYEOFLAPENTA__AI_YUPERIARBLADERDARK__1", 
        "@name": "Can not you feel life is overflowing?", 
        "@feature": "LapentaDungeon"
      }, 
      {
        "@id": "EYEOFLAPENTA__AI_YUPERIARBLADERDARK__2", 
        "@name": "This time, I will not get that life!", 
        "@feature": "LapentaDungeon"
      }, 
      {
        "@id": "EYEOFLAPENTA__AI_YUPERIARBLADERDARK__3", 
        "@name": "If it's a life to be used as such, why do not you give it to me?", 
        "@feature": "LapentaDungeon"
      }, 
      {
        "@id": "EYEOFLAPENTA__AI_YUPERIARBLADERDARK__4", 
        "@name": "So far ... Goodbye.", 
        "@feature": "LapentaDungeon"
      }, 
      {
        "@id": "EYEOFLAPENTA__AI_YUPERIARBLADERDARK__5", 
        "@name": "Uh ... Failing ...", 
        "@feature": "LapentaDungeon"
      }, 
      {
        "@id": "EYEOFLAPENTA__AI_YUPERIARBLADERDARK__6", 
        "@name": "That's great! Then, this time, I will pick one person and plague it!", 
        "@feature": "LapentaDungeon"
      }, 
      {
        "@id": "EYEOFLAPENTA__AI_YUPERIARBLADERDARK__7", 
        "@name": "That's great! Then, this time, I will pick one person and plague it!", 
        "@feature": "LapentaDungeon"
      }, 
      {
        "@id": "EYEOFLAPENTA__AI_YUPERIARBLADERDARK__8", 
        "@name": "So far ... I'll see you next time.", 
        "@feature": "LapentaDungeon"
      }, 
      {
        "@id": "EYEOFLAPENTA__AI_YUPERIARBLADERDARK__9", 
        "@name": "Uh ... Failing ...", 
        "@feature": "LapentaDungeon"
      }, 
      {
        "@id": "EYEOFLAPENTA__AI_YUPERIARBLADERDARK__10", 
        "@name": "I can not take it anymore ...!", 
        "@feature": "LapentaDungeon"
      }, 
      {
        "@id": "EYEOFLAPENTA__AI_YUPERIARBLADERDARK__11", 
        "@name": "I'll be tied up in roots and choke it !!!", 
        "@feature": "LapentaDungeon"
      }, 
      {
        "@id": "EYEOFLAPENTA__AI_DEATHFLOWER__0", 
        "@name": "My colleague was tied to the flower of death !! If you do not handle flowers, you will lose your co-workers !!", 
        "@feature": "LapentaDungeon"
      }, 
      {
        "@id": "LEGIONBATTLE__AI_LEGION_FINALBOSS__0", 
        "@name": "The annoying guys ... Let's finish here.", 
        "@feature": "Fieldwar01"
      }, 
      {
        "@id": "LEGIONBATTLE__AI_LEGION_FINALBOSS__1", 
        "@name": "This is a recipe.", 
        "@feature": "Fieldwar01"
      }, 
      {
        "@id": "AI__AI_GIGANTIKAHEAD_PHASE_6__0", 
        "@name": "Period Tika is moving away like this! Thank you very much!", 
        "@feature": "Gigantica01"
      }, 
      {
        "@id": "AI__AI_GIGANTIKA_SUBBOSS__0", 
        "@name": "good! Take this guy and drill the gloves of Dhitika!", 
        "@feature": "Gigantica01"
      }, 
      {
        "@id": "LEGIONBATTLE__AI_LEGION_FINALBOSS2__0", 
        "@name": "Kihihihi, this will be your grave.", 
        "@feature": "Fieldwar01"
      }, 
      {
        "@id": "LEGIONBATTLE__AI_LEGION_FINALBOSS2__1", 
        "@name": "Keychick, it's not over yet!", 
        "@feature": "Fieldwar01"
      }, 
      {
        "@id": "LEGIONBATTLE__AI_LEGION_FINALBOSS3__0", 
        "@name": "If you guys are struggling ...", 
        "@feature": "Fieldwar02"
      }, 
      {
        "@id": "LEGIONBATTLE__AI_LEGION_FINALBOSS3__1", 
        "@name": "Do not let it hurt.", 
        "@feature": "Fieldwar02"
      }, 
      {
        "@id": "LEGIONBATTLE__AI_LEGION_FINALBOSS4__0", 
        "@name": "How about this one!", 
        "@feature": "Fieldwar02"
      }, 
      {
        "@id": "LEGIONBATTLE__AI_LEGION_FINALBOSS4__1", 
        "@name": "Parisians ...", 
        "@feature": "Fieldwar02"
      }, 
      {
        "@id": "COLOSSEUM__AI_MIKAWADES_COLOSSEUM__0", 
        "@name": "what? It's a recipe !?", 
        "@feature": "Colosseum01"
      }, 
      {
        "@id": "COLOSSEUM__AI_MIKAWADES_COLOSSEUM__1", 
        "@name": "More persistent than you think?", 
        "@feature": "Colosseum01"
      }, 
      {
        "@id": "COLOSSEUM__AI_MIKAWADES_COLOSSEUM__2", 
        "@name": "It's too early to be relieved!", 
        "@feature": "Colosseum01"
      }, 
      {
        "@id": "COLOSSEUM__AI_MIKAWADES_COLOSSEUM__3", 
        "@name": "Will you be hurt when you have spare time?", 
        "@feature": "Colosseum01"
      }, 
      {
        "@id": "COLOSSEUM__AI_MIKAWADES_COLOSSEUM__4", 
        "@name": "Haha ... It's too much!", 
        "@feature": "Colosseum01"
      }, 
      {
        "@id": "COLOSSEUM__AI_PATOS2_COLOSSEUM__0", 
        "@name": "It's quite reasonable. But it 's been a while.", 
        "@feature": "Colosseum01"
      }, 
      {
        "@id": "COLOSSEUM__AI_PATOS2_COLOSSEUM__1", 
        "@name": "If so, this time.", 
        "@feature": "Colosseum01"
      }, 
      {
        "@id": "COLOSSEUM__AI_PATOS2_COLOSSEUM__2", 
        "@name": "I wonder if I can prevent this too!", 
        "@feature": "Colosseum01"
      }, 
      {
        "@id": "COLOSSEUM__AI_PATOS_COLOSSEUM__0", 
        "@name": "I'll show you something new.", 
        "@feature": "Colosseum01"
      }, 
      {
        "@id": "COLOSSEUM__AI_PATOS_COLOSSEUM__1", 
        "@name": "This time will be a little different.", 
        "@feature": "Colosseum01"
      }, 
      {
        "@id": "COLOSSEUM__AI_PATOS_COLOSSEUM__2", 
        "@name": "It will hurt a little.", 
        "@feature": "Colosseum01"
      }, 
      {
        "@id": "COLOSSEUM__AI_PATOS_COLOSSEUM__3", 
        "@name": "I can not stop me that much!", 
        "@feature": "Colosseum01"
      }, 
      {
        "@id": "COLOSSEUM__AI_ROVE_COLOSSEUM__0", 
        "@name": "It's a recipe. So how about this?", 
        "@feature": "Colosseum01"
      }, 
      {
        "@id": "COLOSSEUM__AI_ROVE_COLOSSEUM__1", 
        "@name": "I'll make you crazy.", 
        "@feature": "Colosseum01"
      }, 
      {
        "@id": "COLOSSEUM__AI_VASARACHEN_COLOSSEUM__0", 
        "@name": "It's a recipe. Let's see what this is about!", 
        "@feature": "Colosseum01"
      }, 
      {
        "@id": "COLOSSEUM__AI_VASARACHEN_COLOSSEUM__1", 
        "@name": "I wonder if I can stop this?", 
        "@feature": "Colosseum01"
      }, 
      {
        "@id": "COLOSSEUM__AI_VASARACHEN_COLOSSEUM__2", 
        "@name": "Pretty much than you think. But this time is different.", 
        "@feature": "Colosseum01"
      }
    ]
  }
}