{
  "?xml": {
    "@version": "1.0", 
    "@encoding": "utf-8"
  }, 
  "ms2": {
    "key": [
      {
        "@id": "1001", 
        "@name": "Standard Membership (30 Days)"
      }, 
      {
        "@id": "1002", 
        "@name": "Week Pass (7 Days)"
      }, 
      {
        "@id": "1003", 
        "@name": "Multi-pass (3 Days)"
      }, 
      {
        "@id": "1101", 
        "@name": "Seven-day Trial"
      }, 
      {
        "@id": "2001", 
        "@name": "First Time Membership (30 Day)"
      }, 
      {
        "@id": "2002", 
        "@name": "Standard Membership (30 Days)"
      }, 
      {
        "@id": "2003", 
        "@name": "Standard Membership (30 Days)"
      }, 
      {
        "@id": "2004", 
        "@name": "Standard Membership (7 Days)"
      }, 
      {
        "@id": "2005", 
        "@name": "Standard Membership (7 Days)"
      }, 
      {
        "@id": "3001", 
        "@name": "First-time Premium Club membership (30 days)", 
        "@locale": "NA"
      }, 
      {
        "@id": "3002", 
        "@name": "Premium Club Membership (30 days)", 
        "@locale": "NA"
      }, 
      {
        "@id": "3003", 
        "@name": "Premium Club Membership (30 days)", 
        "@locale": "NA"
      }, 
      {
        "@id": "3004", 
        "@name": "Premium Club Membership (7 days)", 
        "@locale": "NA"
      }, 
      {
        "@id": "3005", 
        "@name": "Premium Club Membership (7 days)", 
        "@locale": "NA"
      }, 
      {
        "@id": "3006", 
        "@name": "Premium Club Membership (3 days)", 
        "@locale": "NA"
      }, 
      {
        "@id": "3007", 
        "@name": "Premium Club Membership (3 days)", 
        "@locale": "NA"
      }
    ]
  }
}