{
  "?xml": {
    "@version": "1.0", 
    "@encoding": "utf-8"
  }, 
  "ms2": {
    "key": [
      {
        "@id": "1", 
        "@name": "/w\n/world\n/ㅈ\n/월\n/월드\n/월드확성기"
      }, 
      {
        "@id": "11", 
        "@name": "/sw\n/superworld\n/슈퍼\n/슈퍼월드\n/슈퍼월드채팅", 
        "@feature": "SuperWorldChat"
      }, 
      {
        "@id": "101", 
        "@name": "/c\n/channel\n/ㅊ\n/채\n/채널\n/채널확성기"
      }, 
      {
        "@id": "201", 
        "@name": "/s\n/sapce\n/ㄴ\n/지\n/지역"
      }, 
      {
        "@id": "301", 
        "@name": "/p\n/party\n/ㅔ\n/파\n/파티"
      }, 
      {
        "@id": "401", 
        "@name": "/g\n/guild\n/ㅎ\n/길\n/길드"
      }, 
      {
        "@id": "501", 
        "@name": "/guildmegaphone\n/길드확성기"
      }, 
      {
        "@id": "601", 
        "@name": "/r\n/whisper\n/ㄱ\n/귓\n/귓말\n/귓속말"
      }, 
      {
        "@id": "701", 
        "@name": "/동아리\n/club", 
        "@feature": "Club"
      }, 
      {
        "@id": "10001", 
        "@name": "/파티초대\n/partyInvite\n/pInvite"
      }, 
      {
        "@id": "11001", 
        "@name": "/파티탈퇴\n/partyLeave\n/pLeave"
      }, 
      {
        "@id": "12001", 
        "@name": "/ Ready to party"
      }, 
      {
        "@id": "20001", 
        "@name": "/길드초대\n/guildInvite\n/gInvite"
      }, 
      {
        "@id": "21001", 
        "@name": "/길드탈퇴\n/guildLeave\n/gLeave"
      }, 
      {
        "@id": "30001", 
        "@name": "/검색\n/search"
      }, 
      {
        "@id": "40001", 
        "@name": "/채널이동\n/moveChannel"
      }, 
      {
        "@id": "40002", 
        "@name": "/이전채널\n/movePrevChannel"
      }, 
      {
        "@id": "40003", 
        "@name": "/다음채널\n/moveNextChannel"
      }, 
      {
        "@id": "50001", 
        "@name": "/집초대\n/HomeInvite"
      }, 
      {
        "@id": "60001", 
        "@name": "/roll"
      }, 
      {
        "@id": "70001", 
        "@name": "/survey"
      }, 
      {
        "@id": "80001", 
        "@name": "/HostAlarm", 
        "@feature": "UGCMapFun"
      }, 
      {
        "@id": "80002", 
        "@name": "/HostTombstone", 
        "@feature": "UGCMapFun"
      }, 
      {
        "@id": "80003", 
        "@name": "/HostRevive", 
        "@feature": "UGCMapFun"
      }, 
      {
        "@id": "80004", 
        "@name": "/HostKick", 
        "@feature": "UGCMapFun"
      }, 
      {
        "@id": "80005", 
        "@name": "/HostGravity", 
        "@feature": "UGCMapFun"
      }, 
      {
        "@id": "80006", 
        "@name": "/HostBall", 
        "@feature": "UGCMapFun"
      }, 
      {
        "@id": "80007", 
        "@name": "/Card", 
        "@feature": "UGCMapFun"
      }, 
      {
        "@id": "80008", 
        "@name": "/RandomUser", 
        "@feature": "UGCMapFun"
      }, 
      {
        "@id": "80009", 
        "@name": "/RandomGroup", 
        "@feature": "UGCMapFun"
      }, 
      {
        "@id": "9999991", 
        "@name": "/help\n/?\n/h"
      }
    ]
  }
}