{
  "?xml": {
    "@version": "1.0", 
    "@encoding": "utf-8"
  }, 
  "ms2": {
    "key": [
      {
        "@id": "1", 
        "@name": "First —TheOneAndOnly"
      }, 
      {
        "@id": "2", 
        "@name": "Y'all leave the new $male:guy,female:gal$ alone. I got this one. —TopShade"
      }, 
      {
        "@id": "3", 
        "@name": "Newbie looks familiar... —eagle_eye"
      }, 
      {
        "@id": "4", 
        "@name": "I KNOW WHO THAT IS!!! —anonymous"
      }, 
      {
        "@id": "5", 
        "@name": "Welcome to the cool kids club! —CoolKid83"
      }, 
      {
        "@id": "6", 
        "@name": "New kid is tough but not boss level. —DaBigShot"
      }, 
      {
        "@id": "7", 
        "@name": "tfw the rookie clears the mission before you.... —anonymous"
      }, 
      {
        "@id": "8", 
        "@name": "Taking bets on how long the new $male:guy,female:gal$ lasts. —GrimCreeper"
      }, 
      {
        "@id": "9", 
        "@name": "Making the rest of us look bad... smh —xDarkxHunterx"
      }, 
      {
        "@id": "10", 
        "@name": "Newcomer bringing the fire! —ThaDarkness"
      }, 
      {
        "@id": "11", 
        "@name": "Everybody here getting #schooled by the new kid lol —babygate"
      }, 
      {
        "@id": "12", 
        "@name": "HOW IS POSSIBLE?!??!?!! —DefaultUsername8456"
      }, 
      {
        "@id": "13", 
        "@name": "WOW. I almost feel bad for the bad guys. —Kerning_Volleyball_Queen"
      }, 
      {
        "@id": "14", 
        "@name": "Where have you been all my life??? —LetsGetTactical"
      }, 
      {
        "@id": "15", 
        "@name": "$MyPCName$ did not come to play. —UmbralTeapot"
      }, 
      {
        "@id": "16", 
        "@name": "Perfect mission 10/10 —MrEverything"
      }, 
      {
        "@id": "17", 
        "@name": "$male:He,female:She$ is all of us right now! —beefynachos"
      }, 
      {
        "@id": "18", 
        "@name": "Off to a good start! Don't let me down! —Schatten"
      }, 
      {
        "@id": "19", 
        "@name": "Don't play with my heart Schatten, I was here first —AgentSweets"
      }, 
      {
        "@id": "20", 
        "@name": "I always had a good feeling about $MyPCName$! —Denver"
      }, 
      {
        "@id": "21", 
        "@name": "BREAKING: $MyPCName$?, hero of the Siege of Tria, has joined the cause!  —Eyes_on_Oska"
      }, 
      {
        "@id": "22", 
        "@name": "$male:He's,female:She's$ the one who stood up to Madria! O_O —EVANS1097"
      }, 
      {
        "@id": "23", 
        "@name": "yeah ok $male:he's,female:she's$ pretty good but they can't touch my record —missionman"
      }, 
      {
        "@id": "24", 
        "@name": "The new dark horse of Dark Wind / takin' care of baddies what sinned! —TopRhymes"
      }, 
      {
        "@id": "25", 
        "@name": "Congrats to $MyPCName$ for appearing in the Tria News, you have arrived. —Daily_Tria_Reader"
      }, 
      {
        "@id": "26", 
        "@name": "#pleaseclap for the hero of Dark Wind! —Obsidian_Hound"
      }, 
      {
        "@id": "27", 
        "@name": "A thread about $MyPCName$ (1/87) —imthechatman"
      }, 
      {
        "@id": "28", 
        "@name": "Keep up the pace, boys! We don't wanna fall behind! #schattenislife —oschattenmyschatten"
      }, 
      {
        "@id": "29", 
        "@name": "The board goes crazy for every new recruit. This too will pass. —Cyniclone"
      }, 
      {
        "@id": "30", 
        "@name": "YOUR V.GOOD AT DIS —dabestfrendz"
      }, 
      {
        "@id": "31", 
        "@name": "$male:He,female:She$ makes us all look like trash... /rant —eternalsunshine08"
      }, 
      {
        "@id": "32", 
        "@name": "Now try that against some real monsters. —BAUSMANN"
      }, 
      {
        "@id": "33", 
        "@name": "A+ performance, 10/10, would watch beat monsters again —CriticalBowl"
      }, 
      {
        "@id": "34", 
        "@name": "what is even happening —razzzzberry"
      }, 
      {
        "@id": "35", 
        "@name": "Big thanks to $MyPCName$ for making things a little easier on all of us! —greenthumb"
      }, 
      {
        "@id": "36", 
        "@name": "cool cool very cool!!! —KarkarCarrie"
      }, 
      {
        "@id": "37", 
        "@name": "The hero we need, not the one we deserve. —Legendairy"
      }, 
      {
        "@id": "38", 
        "@name": "NOW THAT'S WHAT I CALL A HERO —NOTAHERO"
      }, 
      {
        "@id": "39", 
        "@name": "I saw $male:him,female:her$ in action! BEST DAY EVAAAAA —AllforOne"
      }, 
      {
        "@id": "40", 
        "@name": "$MyPCName$ rocks! $MyPCName$ rocks! $MyPCName$ rocks! —$MyPCName$_No1_Fan"
      }, 
      {
        "@id": "41", 
        "@name": "Is this real life?? Did that really just happen?? —1nhum4n"
      }, 
      {
        "@id": "42", 
        "@name": "No words... —MeatNPotatoz"
      }, 
      {
        "@id": "43", 
        "@name": "At Last............... A Worthy Opponent...!!! —FallenAngle9999"
      }, 
      {
        "@id": "44", 
        "@name": "Hey $MyPCName$, I'm your newest follower, follow me back! <3 —Frendsetter"
      }, 
      {
        "@id": "45", 
        "@name": "$MyPCName$ is so dreamy!!!!!!!!!!! —ultimate$male:waifu,female:husbando$"
      }, 
      {
        "@id": "46", 
        "@name": "me: imma do a mission   you: I DID IT 20 MINS AGO LOLLLLLLLL   —errydayloaner"
      }, 
      {
        "@id": "47", 
        "@name": "You've got guts, $MyPCName$, I'll give you that! —DailyCliches"
      }, 
      {
        "@id": "48", 
        "@name": "new recruit be like Oh you need this done, I did it yesterday —anonymous"
      }, 
      {
        "@id": "49", 
        "@name": "Schatten I know the newbie is super good BUT DON'T FORGET ABOUT ME OK —UtterlySchatten"
      }, 
      {
        "@id": "50", 
        "@name": "There must be a mathematical reason why the new recruit is so lit —sciencehat"
      }, 
      {
        "@id": "51", 
        "@name": "$MyPCName$ is an inspiration to all of Maple World. —Empress_Ereve"
      }, 
      {
        "@id": "52", 
        "@name": "Not everyday you see a legend rise. —DarkEye043"
      }, 
      {
        "@id": "53", 
        "@name": "$MyPCName$ and Schatten... Are the rumors true??? —ShadoWing76"
      }, 
      {
        "@id": "54", 
        "@name": "This is what a #hero looks like. —bubble1"
      }, 
      {
        "@id": "55", 
        "@name": "just watching this dude makes me tired —KeepItReal105"
      }, 
      {
        "@id": "56", 
        "@name": "Hello officer Id like to report a hero —CitizenKeen"
      }, 
      {
        "@id": "57", 
        "@name": "I've seen real heroes, and you, $male:sir,female:madam$, are no hero.  —conniescending"
      }, 
      {
        "@id": "58", 
        "@name": "$MyPCName$ #praise —PraiseIt00"
      }, 
      {
        "@id": "59", 
        "@name": "$MyPCName$, love your work! Let's do a collab sometime? —WellConnected"
      }, 
      {
        "@id": "60", 
        "@name": "Where has this great hero been hiding all this time? —Denver"
      }, 
      {
        "@id": "61", 
        "@name": "Hey $MyPCName$ remember me? We fought against Madria's together! You looked at me once! —guard1195"
      }, 
      {
        "@id": "62", 
        "@name": "Daily reminder that we have a true hero among us. —TheWiseOne"
      }, 
      {
        "@id": "63", 
        "@name": "THANK YOU $MyPCName$!!!!! —billmaple68"
      }, 
      {
        "@id": "64", 
        "@name": "Anyone doing anything tonight? My plans include microwaving and eating a pizza. - flysolo"
      }, 
      {
        "@id": "65", 
        "@name": "The first time I saw $MyPCName$ in Tria, I knew they were destined for greatness! - Napolieee"
      }, 
      {
        "@id": "66", 
        "@name": "Big mood $MyPCName$ —guardito99"
      }, 
      {
        "@id": "67", 
        "@name": "Our newbie is getting too hot to handle! —Schatten"
      }, 
      {
        "@id": "68", 
        "@name": "$MyPCName$ has always had the look of a hero. - Sylviaahhh"
      }, 
      {
        "@id": "69", 
        "@name": "Yo $MyPCName$ my next singles for you - BLAKE"
      }, 
      {
        "@id": "70", 
        "@name": "We are witnessing history in the making. I join the citizens of Tria in honoring our hero. —RealKarlVidrem"
      }, 
      {
        "@id": "71", 
        "@name": "$MyPCName$: A Life of Questing - COMING SOON to a bookseller near you! —MaplePublishing"
      }, 
      {
        "@id": "72", 
        "@name": "what's so great about $MyPCName$ anyway - guard432"
      }, 
      {
        "@id": "73", 
        "@name": "Heroes should be treated as such. Join our exclusive VIP club here: —GoldusVIP"
      }, 
      {
        "@id": "74", 
        "@name": "My favorite thing about $MyPCName$ is how they're always smiling! —Cantatatata"
      }, 
      {
        "@id": "75", 
        "@name": "IF YOU LIVE IN TRIA YOU OWE YOUR LIFE TO THIS PERSON —SaintSentinel"
      }, 
      {
        "@id": "76", 
        "@name": "When I think \"functional human\" I think of $MyPCName$. —ExtremelyNormalPerson"
      }, 
      {
        "@id": "77", 
        "@name": "Our long nightmare is finally ending thanks to $MyPCName$. —SteppinUp"
      }, 
      {
        "@id": "78", 
        "@name": "A wild hero has appeared! —TheVeryBest"
      }, 
      {
        "@id": "79", 
        "@name": "Hey $MyPCName$, no hard feelings about that last enchanment... right? <3<3<3 —Ophelia"
      }, 
      {
        "@id": "80", 
        "@name": "They're writing books about you, $MyPCName$! You're so lucky! —LibrumElliana"
      }, 
      {
        "@id": "81", 
        "@name": "Whatever that was all baby stuff —Armano1"
      }, 
      {
        "@id": "82", 
        "@name": "hey guys ive been asleep for 3 days whats going on —lizzyday"
      }, 
      {
        "@id": "83", 
        "@name": "I've never seen a new recruit like this. —RoverRove"
      }, 
      {
        "@id": "84", 
        "@name": "Heroes have earned their place, and you're at the TOP! —scootyboots"
      }, 
      {
        "@id": "85", 
        "@name": "This is the one to watch. —GuardoMarco"
      }, 
      {
        "@id": "86", 
        "@name": "If a monster falls in the woods, and no one is around, does it drop mesos? - A_Thought_A_Day"
      }, 
      {
        "@id": "87", 
        "@name": "$MyPCName$ is my hero! PLEASE LIKE THIS! —Nannanana"
      }, 
      {
        "@id": "88", 
        "@name": "Who is this $MyPCName$? everyone's talking about —Kirara01"
      }, 
      {
        "@id": "89", 
        "@name": "This dude came outta NOWHERE —VelVelte"
      }, 
      {
        "@id": "90", 
        "@name": "We will be watching your every move. —DefinitelyNotDarkWind"
      }, 
      {
        "@id": "91", 
        "@name": "\"New recruit\" doesn't fit with the evidence. WHAT IS SKY FORTRESS HIDING??? —anonymous0842"
      }, 
      {
        "@id": "92", 
        "@name": "Want to be like $MyPCName$? Join the Tria Navy and train for greatness! —NAVYofficial"
      }, 
      {
        "@id": "93", 
        "@name": "Some day we'll ask, \"Where were you when $MyPCName$ make their mark?\" —4wardthinker"
      }, 
      {
        "@id": "94", 
        "@name": "A real hero would have more trophies. —Bethyball"
      }, 
      {
        "@id": "95", 
        "@name": "You're an inspiration to unmoving guards everywhere! —RGuard6434"
      }, 
      {
        "@id": "96", 
        "@name": "This ain't your grandma's hero. —qwikshawt"
      }, 
      {
        "@id": "97", 
        "@name": "I blinked and it was over —LT9223"
      }, 
      {
        "@id": "98", 
        "@name": "This is just a fluke. Anyone can breeze through the right mission —AggressivelyNeutral"
      }, 
      {
        "@id": "99", 
        "@name": "Hello Fellow Humans How Are You On This Very Acceptable Day —HumanUnit42"
      }, 
      {
        "@id": "100", 
        "@name": "Every time a bell rings, $MyPCName$ gets another set of wings! —FairlyFairy"
      }, 
      {
        "@id": "101", 
        "@name": "hey pal good work youre doin out there come visit sometime my boy kokun misses ya —kingralph"
      }, 
      {
        "@id": "102", 
        "@name": "You're the best, $MyPCName$! +1 fan right here! —NotSoAverageJoe"
      }, 
      {
        "@id": "103", 
        "@name": "$MyPCName$! What's the Empress like? She's perfect, right? —EreveSoulM8"
      }, 
      {
        "@id": "104", 
        "@name": "Hey you know who's a real hero? Captain Allon! —Allon4eva"
      }, 
      {
        "@id": "105", 
        "@name": "Hi $MyPCName$, I'm a reporter and I'd like permission to use your profile pic? —BreakingNewsMan"
      }, 
      {
        "@id": "106", 
        "@name": "Hello $MyPCName$, we'd like to air a special on your life, contact me for details! —MapleTV_Official"
      }, 
      {
        "@id": "107", 
        "@name": "Okay, I can't take this guilt anymore. I'm sorry I told you that one time to pretend you don't know me. —Cecilia0_0"
      }, 
      {
        "@id": "108", 
        "@name": "I want to be $MyPCName$ when I grow up! —CookiePie"
      }, 
      {
        "@id": "109", 
        "@name": "I know I'm not supposed to be jealous of others, but... dang. —AllianceScion"
      }, 
      {
        "@id": "110", 
        "@name": "hey $MyPCName$ you ever thought about streaming —It's_Better_In_Here"
      }, 
      {
        "@id": "111", 
        "@name": "The world is but a canvas, and $MyPCName$ is the master's pen etching out the shape of fate. —TrueSight"
      }, 
      {
        "@id": "112", 
        "@name": "ADVERTISING OPPORTUNITY: Heroes Wanted! Make Tons Of Mesos From Home! —MultiMapleMarketing"
      }, 
      {
        "@id": "113", 
        "@name": "Good Activities Watching You Expecting Activities Your —MADARES"
      }, 
      {
        "@id": "114", 
        "@name": "$MyPCName$, if you ever find yourself in trouble, remember me. —TabulaRosetta"
      }, 
      {
        "@id": "115", 
        "@name": "I WAS RIGHT THE HERO HAS RISEN PRAISE ME —knowstradamus"
      }, 
      {
        "@id": "116", 
        "@name": "I always have a prayer in my heart for $MyPCName$, hero of Tria. —HolyLuanna"
      }, 
      {
        "@id": "117", 
        "@name": "$MyPCName$ u one tuff nut lets spar i teach you the big hits —rolinthunda"
      }, 
      {
        "@id": "118", 
        "@name": "I'm glad Tria survived and all but could we maybe never be attacked again —womanreclining"
      }, 
      {
        "@id": "119", 
        "@name": "Come Visit My House!!! $MyPCName$ Once Visited Me!!! —BoglerHouse"
      }, 
      {
        "@id": "120", 
        "@name": "$MyPCName$ consider visiting the inmates at $map:02000124$ sometime. They need a role model. —LockdownZekk"
      }, 
      {
        "@id": "121", 
        "@name": "$MyPCName$ TEACH ME YOUR WAYS —Devotee001"
      }, 
      {
        "@id": "122", 
        "@name": "If I was a ghost I would totally possess $MyPCName$ —spoopygrrl"
      }, 
      {
        "@id": "123", 
        "@name": "Is that the kid from Tria? I never thought $male:he'd,female:she'd$ be so cool! —ClaraBell"
      }, 
      {
        "@id": "124", 
        "@name": "Come at me, $MyPCName$! I'm not afraid of you! YOU'RE NOTHING!! —FightMeIRL"
      }, 
      {
        "@id": "125", 
        "@name": "were counting on you big shot!!! —kingralph"
      }, 
      {
        "@id": "126", 
        "@name": "You all out there fighting all the time, remember to eat! Take some bars with you or something, dang. —FullsomeFighter"
      }, 
      {
        "@id": "127", 
        "@name": "I think I'm in love... ^_^ —Irena72"
      }, 
      {
        "@id": "128", 
        "@name": "$MyPCName$ pics plz —541981650"
      }, 
      {
        "@id": "129", 
        "@name": "That mission completion rate is everything. —TheRealGen"
      }, 
      {
        "@id": "130", 
        "@name": "Come visit me someday! If you're coming at four, I'll be ready by three. —MiMiMiel"
      }, 
      {
        "@id": "131", 
        "@name": "I see $MyPCName$ do what they do and I just. can't. even. —Codyfied"
      }, 
      {
        "@id": "132", 
        "@name": "I have not forgotten your bravery, $MyPCName$! Do us proud. —THEGUARDCAPTAINFREY"
      }, 
      {
        "@id": "133", 
        "@name": "You always looked a little weird, but I didn't think it would be the cool kind of weird. —Hi_Im_Orde"
      }, 
      {
        "@id": "134", 
        "@name": "I always have a prayer in my heart for $MyPCName$, hero of Tria. —HolyLuanna"
      }, 
      {
        "@id": "135", 
        "@name": "$MyPCName$ is special among heroes. We shared a bond during Madria's invasion that will never be broken. —Cptn_Oska"
      }, 
      {
        "@id": "136", 
        "@name": "$MyPCName$ is the captain of my heart and I'm ready to SET SAIL BABY —Guard6782"
      }, 
      {
        "@id": "137", 
        "@name": "$MyPCName$, please light our way in these dark times. —Empress_Ereve"
      }, 
      {
        "@id": "138", 
        "@name": "You're welcome aboard anytime. —Veliche"
      }, 
      {
        "@id": "139", 
        "@name": "Hey $MyPCName$, I got some new books in today and one was about you! —LibrariAnne"
      }, 
      {
        "@id": "140", 
        "@name": "Confession Time: I became a guard so I could watch $MyPCName$ —Patrol0083"
      }, 
      {
        "@id": "141", 
        "@name": "Believe In Ereve And Your Courage Will Never Leave —Patrol2213"
      }, 
      {
        "@id": "142", 
        "@name": "how they do that it was like BOOM threat neutralized —Guard8942"
      }, 
      {
        "@id": "143", 
        "@name": "If we go on a mission can I hold your hand —TopAllianceAgent"
      }, 
      {
        "@id": "144", 
        "@name": "The Empress has excellent taste! —SophistiKate"
      }, 
      {
        "@id": "145", 
        "@name": "help how do i type a message to $MyPCName$ —farmerben"
      }, 
      {
        "@id": "146", 
        "@name": "Bets on when $MyPCName$'s luck runs out? —DarkGuard0000"
      }, 
      {
        "@id": "147", 
        "@name": "Stop throwing candy at monsters, give it to me —man_dibles"
      }, 
      {
        "@id": "148", 
        "@name": "All I want is a #selfie with $MyPCName$ on the Sky Fortress, donate to help make it happen —HiFlyer"
      }, 
      {
        "@id": "149", 
        "@name": "$MyPCName$ is hot —JonnJonnJonn"
      }, 
      {
        "@id": "150", 
        "@name": "Speaking as a duck, I support $MyPCName$'s activities. —LookOutDuck"
      }, 
      {
        "@id": "151", 
        "@name": "$MyPCName$ = GOOD —IsItGoodOrBad"
      }, 
      {
        "@id": "152", 
        "@name": "APPLICATIONS OPEN! Join the $MyPCName$ Fan Club! —Unofficial_$MyPCName$_Club"
      }, 
      {
        "@id": "153", 
        "@name": "BREAKING: Debate turns heated over hero status of $MyPCName$, Stumpy comes out against. —MapleReview"
      }, 
      {
        "@id": "154", 
        "@name": "I... worked for months on that quest. And $MyPCName$ just finished it, just like that. —BendySir"
      }, 
      {
        "@id": "155", 
        "@name": "$MyPCName$ talks big but they're out of touch with Maple World values! —DownByTheRiver"
      }, 
      {
        "@id": "156", 
        "@name": "Sure $MyPCName$ can take on demons and demigods... But can they land a whale??? —ForeverWhaler"
      }, 
      {
        "@id": "157", 
        "@name": "If this comment gets 10000 likes then $MyPCName$ has to perform with me in Queenstown. —Tria_Gia"
      }, 
      {
        "@id": "158", 
        "@name": "Heroes never make it out to our neck of the woods. Maybe that'll change now. —Bomar08"
      }, 
      {
        "@id": "159", 
        "@name": "Never in all my years did I expect to see such a hero! —CentenniaLady"
      }, 
      {
        "@id": "160", 
        "@name": "ok we all love $MyPCName$ but seriously what's their GS —confuzzled"
      }, 
      {
        "@id": "161", 
        "@name": "First! —A_Lumiknight"
      }, 
      {
        "@id": "162", 
        "@name": "Allon, DM me. We have to talk. —A_Lumiknight"
      }, 
      {
        "@id": "163", 
        "@name": "Those skills might look impressive... to someone unfamiliar with magic. —A_Lumiknight"
      }, 
      {
        "@id": "164", 
        "@name": "The darkness is real, and only I can lead the world through it. —A_Lumiknight"
      }, 
      {
        "@id": "165", 
        "@name": "If only everyone could understand my struggle... —A_Lumiknight"
      }, 
      {
        "@id": "166", 
        "@name": "I don't pick fights with anyone... Unless they try to drag me down to their level. —A_Lumiknight"
      }, 
      {
        "@id": "167", 
        "@name": "Reminder that this message board HIGHLY CLASSIFIED. Do not share anything posted here! —A_Lumiknight"
      }, 
      {
        "@id": "168", 
        "@name": "We Lumiknights are above such crass concerns as amassing power. —A_Lumiknight"
      }, 
      {
        "@id": "169", 
        "@name": "I've heard about the special recruit, but honestly I'm not impressed. —A_Lumiknight"
      }, 
      {
        "@id": "170", 
        "@name": "How can some random person just INSTANTLY gain the trust of Allon and the Empress?? I have no words. —A_Lumiknight"
      }, 
      {
        "@id": "171", 
        "@name": "It's good to have allies that recognize and respect your many talents. —A_Lumiknight"
      }, 
      {
        "@id": "172", 
        "@name": "I keep hearing \"hero\" but all I see is \"average\". —A_Lumiknight"
      }, 
      {
        "@id": "173", 
        "@name": "Skills are one thing, but talent and intellect are another entirely. I'm not convinced. —A_Lumiknight"
      }, 
      {
        "@id": "174", 
        "@name": "If Allon trusts them so much, they should be capable of more than I've seen. —A_Lumiknight"
      }, 
      {
        "@id": "175", 
        "@name": "I've heard this hero stopped Madria's invasion. Confirm/Deny? —A_Lumiknight"
      }, 
      {
        "@id": "176", 
        "@name": "Actually, there are conflicting reports over who did what during the Siege of Tria. —A_Lumiknight"
      }, 
      {
        "@id": "177", 
        "@name": "Tonight's menu includes braised demiporker, another fine suggestion from Mason! —ChefDeLumiknight"
      }, 
      {
        "@id": "178", 
        "@name": "I was sure they would have washed out by now... But they just keep at it. —A_Lumiknight"
      }, 
      {
        "@id": "179", 
        "@name": "I've got a reputation to consider. I won't waste time on trifles. —A_Lumiknight"
      }, 
      {
        "@id": "180", 
        "@name": "I've got a big scoop cooking... I know why Allon and the Empress trusted that person. —A_Lumiknight"
      }, 
      {
        "@id": "181", 
        "@name": "$MyPCName$? Oh, the one Allon talked about! Yeah, they're not bad. —A_Lumiknight"
      }, 
      {
        "@id": "182", 
        "@name": "That person's s pretty good, but nothing compared to our Mason! —LumiknightAdvanced"
      }, 
      {
        "@id": "183", 
        "@name": "Strong skills, positive attitude... They might not be half bad. —A_Lumiknight"
      }, 
      {
        "@id": "184", 
        "@name": "Maybe Mason will take the newcomer under his wing! He's a great teacher! —Lumi_Squire"
      }, 
      {
        "@id": "185", 
        "@name": "I guess if Allon says they can be trusted... —A_Lumiknight"
      }, 
      {
        "@id": "186", 
        "@name": "I still have questions about the relationship between Empress Ereve and $MyPCName$. —A_Lumiknight"
      }, 
      {
        "@id": "187", 
        "@name": "$MyPCName$ might be cut out for the Lumiknights... If Mason approves. —LumiknightAdvanced"
      }, 
      {
        "@id": "188", 
        "@name": "I've heard a lot of talk about $MyPCName$ among the Lumiknights, almost as much as Mason. —LumiknightAdvanced"
      }, 
      {
        "@id": "189", 
        "@name": "I think $MyPCName$ picked up some moves from me, they're quite skilled now. —A_Lumiknight"
      }, 
      {
        "@id": "190", 
        "@name": "Mason and $MyPCName$... Can you imagine the team-up possibilities? —ChefDeLumiknight"
      }, 
      {
        "@id": "191", 
        "@name": "I can't deny their skills. Almost as good as mine. —A_Lumiknight"
      }, 
      {
        "@id": "192", 
        "@name": "I've heard the senior knights saying that $MyPCName$ should take lessons from Mason! —Lumi_Squire"
      }, 
      {
        "@id": "193", 
        "@name": "I saw true bravery today... Almost as great as my own. I was moved. —A_Lumiknight"
      }, 
      {
        "@id": "194", 
        "@name": "$MyPCName$ has potential... I would like to be the one to mold it. —A_Lumiknight"
      }, 
      {
        "@id": "195", 
        "@name": "If $MyPCName$ follows in Mason's shoot how do i delete this no —A_Lumiknight"
      }, 
      {
        "@id": "196", 
        "@name": "Someone accidentally logged into my account... Hope they didn't post anything strange... —A_Lumiknight"
      }, 
      {
        "@id": "197", 
        "@name": "Any defender of Maple World deserves a chance with us, I think. —A_Lumiknight"
      }, 
      {
        "@id": "198", 
        "@name": "After retiring from the Lumiknights, I trust Mason to identify the right people to ally with. —VintageLumiknight"
      }, 
      {
        "@id": "199", 
        "@name": "Did $MyPCName$ get hit on that last mission? How disappointing... —A_Lumiknight"
      }, 
      {
        "@id": "200", 
        "@name": "Maple World needs a true defender... Or two. Maybe $MyPCName$ can stand alongside me. —A_Lumiknight"
      }, 
      {
        "@id": "201", 
        "@name": "$MyPCName$ could become an honorary Lumiknight, if Mason approves. —LumiknightAdvanced"
      }, 
      {
        "@id": "202", 
        "@name": "Actually, $MyPCName$'s power is a similar but more mundane form of my own. Still nothing to sneeze at. —A_Lumiknight"
      }, 
      {
        "@id": "203", 
        "@name": "I never back down from a fight. If $MyPCName$, they better not either. —A_Lumiknight"
      }, 
      {
        "@id": "204", 
        "@name": "It's my honor to prepare food for Mason and those he deems worthy of it! —ChefDeLumiknight"
      }, 
      {
        "@id": "205", 
        "@name": "My power is a terrible curse I've had to bear. I hope other \"heroes\" understand that kind of sacrifice. —A_Lumiknight"
      }, 
      {
        "@id": "206", 
        "@name": "If $MyPCName$ keeps this up, they might be as great as Mason someday! —Lumi_Squire"
      }, 
      {
        "@id": "207", 
        "@name": "I see hints of power similar to my own. I can only hope it is used responsibly. —A_Lumiknight"
      }, 
      {
        "@id": "208", 
        "@name": "I've seen $MyPCName$ fight. Good, but always room for improvement. —A_Lumiknight"
      }, 
      {
        "@id": "209", 
        "@name": "If Allon and Mason shoot i did it again cancel CANCEL —A_Lumiknight"
      }, 
      {
        "@id": "210", 
        "@name": "Poll: Should I consider a team-up? —A_Lumiknight"
      }, 
      {
        "@id": "211", 
        "@name": "Stories of $MyPCName$ have reached our branch, detailing their rise to Mason's level. —Lumiknights_Caldera"
      }, 
      {
        "@id": "212", 
        "@name": "Mason was wise to bring $MyPCName$ into the organization. —Lumiknights_Liverty"
      }, 
      {
        "@id": "213", 
        "@name": "There are no baseless rumors. Every story must be examined for hints of truth. —A_Lumiknight"
      }, 
      {
        "@id": "214", 
        "@name": "I will earn Allon and Mason's trust someday, just like $MyPCName$ is trying to do! —Lumi_Squire"
      }, 
      {
        "@id": "215", 
        "@name": "Some people find shortcuts to trust. They should count themselves lucky. —A_Lumiknight"
      }, 
      {
        "@id": "216", 
        "@name": "I agree with Mason that $MyPCName$ still has work to do to prove themselves! —Neo_Lumiknight"
      }, 
      {
        "@id": "217", 
        "@name": "I hear $MyPCName$'s name wherever I go. Hopefully the public doesn't lose sight of what's important. —A_Lumiknight"
      }, 
      {
        "@id": "218", 
        "@name": "Ability, bravery, belief, conscience... that person possesses all of that. I speak, of course, of Mason. —LumiTemple_Knight"
      }, 
      {
        "@id": "219", 
        "@name": "Someday I hope to see more heroes like Mason, and $MyPCName$ might be that next generation. —LumiknightAdvanced"
      }, 
      {
        "@id": "220", 
        "@name": "Mason was a big reason I joined the Lumiknights. I inspired I mean Mason and I come on how do i delete thissssssss —LumiknightAdvanced"
      }, 
      {
        "@id": "221", 
        "@name": "Perhaps it is time I acknowledge $MyPCName$ as a peer. Perhaps. —A_Lumiknight"
      }, 
      {
        "@id": "222", 
        "@name": "People worship the ground $MyPCName$ walks on... It's too much, if you ask me. —A_Lumiknight"
      }, 
      {
        "@id": "223", 
        "@name": "With $MyPCName$ on our side, we'll go far. And I've got the plan to do it. —A_Lumiknight"
      }, 
      {
        "@id": "224", 
        "@name": "Many Lumiknights look up to $MyPCName$. That's fine, as long as they don't forget my teachings. —A_Lumiknight"
      }, 
      {
        "@id": "225", 
        "@name": "Discussion thread: How do we feel about $MyPCName$'s technique? —A_Lumiknight"
      }, 
      {
        "@id": "226", 
        "@name": "I once saw $MyPCName$ eat a hot dog with ketchup. It's made it very hard to trust them, imo. —A_Lumiknight"
      }, 
      {
        "@id": "227", 
        "@name": "Actions speak louder than words... and great power is the fuel for actions. That's a Mason Original. —A_Lumiknight"
      }, 
      {
        "@id": "228", 
        "@name": "If I had to rate $MyPCName$... I guess I'd give them a 6/10? Shows promise, at least. —A_Lumiknight"
      }, 
      {
        "@id": "229", 
        "@name": "I've heard the Madria was out of sorts on the day of the Tria invasion. What does $MyPCName$ have to say about that? —A_Lumiknight"
      }, 
      {
        "@id": "230", 
        "@name": "Having $MyPCName$ join the Lumiknights would be a challenge for both sides. —A_Lumiknight"
      }, 
      {
        "@id": "231", 
        "@name": "There's a lot of talk about $MyPCName$, but I don't see how anyone could dethrone Allon. —A_Lumiknight"
      }, 
      {
        "@id": "232", 
        "@name": "I'm not going to say anything bad about the captain here... But if I did, I would say that he should be nicer to Mason. —Lumiknights_Ganis"
      }, 
      {
        "@id": "233", 
        "@name": "Mason visited our branch and told us of $MyPCName$'s rise. I hope our knights follow in their footsteps. —Lumiknights_Caldera"
      }, 
      {
        "@id": "234", 
        "@name": "$MyPCName$, I know you're out there, doing the best you can for all of us. Thank you. #Thankful —Empress_Ereve"
      }, 
      {
        "@id": "235", 
        "@name": "I'm just saying, I don't think $MyPCName$ against me would be a fair fight. Don't @ me. —A_Lumiknight"
      }, 
      {
        "@id": "236", 
        "@name": "How can anyone be as good and noble as $MyPCName$? Almost like they're hiding something, like Mason said... —LumiSquire"
      }, 
      {
        "@id": "237", 
        "@name": "Our branch got in a copy of $MyPCName$: A Life of Questing, and it's always checked out... —Lumiknights_Shinduff"
      }, 
      {
        "@id": "238", 
        "@name": "I've started seeing people PRAYING to images of $MyPCName$! Surely that's going too far! —A_Lumiknight"
      }, 
      {
        "@id": "239", 
        "@name": "$MyPCName$, your service to the Empress has been invaluable. You have my utmost gratitude. —TheCaptainAllon"
      }, 
      {
        "@id": "240", 
        "@name": "Starting to think that I might have been looking at this all wrong... —A_Lumiknight"
      }, 
      {
        "@id": "241", 
        "@name": "Had a great chat with $MyPCName$ over last night's meal. Glad you're on our side! —ChefDeLumiknight"
      }, 
      {
        "@id": "242", 
        "@name": "Wow what an echo chamber in here! $MyPCName$ is a real hero, can't you see that? —Lumiknight9000"
      }, 
      {
        "@id": "243", 
        "@name": "After careful review, the Temple has decided to monitor communications on this board to ensure no deceptions or falsehoods are spread about our allies. —OFFICIAL_LumiTemple"
      }, 
      {
        "@id": "244", 
        "@name": "We're with you, $MyPCName$! You've inspired people all over Maple World to come together! —UnityAlliance"
      }, 
      {
        "@id": "245", 
        "@name": "$MyPCName$, this is Mason. I owe you an apology. It's clear now that you really are who you appear to be, and I respect that. —A_Lumiknight"
      }, 
      {
        "@id": "246", 
        "@name": "$MyPCName$ is so good, they broke our message board lol —LumiSquire013"
      }, 
      {
        "@id": "247", 
        "@name": "Together, we can take on Madria and her minions and whatever else they throw at us! —A_Lumiknight"
      }, 
      {
        "@id": "248", 
        "@name": "I'm starting to think $MyPCName$ might be more famous than Allon someday, don't @ me. —LumiNate"
      }, 
      {
        "@id": "249", 
        "@name": "Mason you coward make $MyPCName$ an honorary Lumiknight —LumiNate"
      }, 
      {
        "@id": "250", 
        "@name": "$MyPCName$ for president or whatever we have —LumiNate"
      }, 
      {
        "@id": "251", 
        "@name": "I wish events had played out differently, but regardless I am eternally thankful for your help. —HolyLuanna"
      }, 
      {
        "@id": "252", 
        "@name": "First —militiamania"
      }, 
      {
        "@id": "253", 
        "@name": "Want to know when Oska starts her morning patrols so you can be there??? Click Subscribe to find out! —OskaFanClub"
      }, 
      {
        "@id": "254", 
        "@name": "Reminder that even with Manovich down, the Militia was able to pull it together. #mapleinspiration —Militia043"
      }, 
      {
        "@id": "255", 
        "@name": "Hey Eka, is $MyPCName$ that cool kid you were talking about? —eka_n_me"
      }, 
      {
        "@id": "256", 
        "@name": "We've got an emergency request, somebody @ $MyPCName$ about it! —millie_militia"
      }, 
      {
        "@id": "257", 
        "@name": "We know Oska never makes mistakes, but we hope her trust in this new person is well-placed. —OskaFanClub"
      }, 
      {
        "@id": "258", 
        "@name": "BREAKING: All Green Hoods, report to the rally point. Further assistance from outsiders unnecessary. —GHoodEternal"
      }, 
      {
        "@id": "259", 
        "@name": "Oska has big plans for you, $MyPCName$! Don't you burn her! —OskaFanClub"
      }, 
      {
        "@id": "260", 
        "@name": "Thread: People bring me all kinds of stuff to analyze. Usually it's just dirt. (1/13) —GreenHoodScienceGuy"
      }, 
      {
        "@id": "261", 
        "@name": "Be a hero like $MyPCName$! Donate to the cause today! —OFFICIAL_GHCharity"
      }, 
      {
        "@id": "262", 
        "@name": "The Green Hoods are #blessed to have so many new faces helping us keep the peace! —Happylitia"
      }, 
      {
        "@id": "263", 
        "@name": "yall tryna start something with $MyPCName$ after the empress got $male:his,female:her$ back is just lol —greenesthood"
      }, 
      {
        "@id": "264", 
        "@name": "Nairin's doing her best to keep $MyPCName$ busy, and $MyPCName$ just isn't having it. —Militia081"
      }, 
      {
        "@id": "265", 
        "@name": "Oska works so hard, she deserves a close assistant... Even if it isn't one of us. —OskaFanClub"
      }, 
      {
        "@id": "266", 
        "@name": "I can't imagine what the siege of Tria must have been like. Never been so happy to live in Henesys! —Militia116"
      }, 
      {
        "@id": "267", 
        "@name": "The next person to bring me a lump of dirt to analyze because it looks \"suspicious\" is leaving through the window. —GreenHoodScienceGuy"
      }, 
      {
        "@id": "268", 
        "@name": "Every donation counts! Help us put weapons in the hands of the needy. —OFFICIAL_GHCharity"
      }, 
      {
        "@id": "269", 
        "@name": "I'm not saying the new kid is the best, just that they're better than Armano #truth —hennyboy"
      }, 
      {
        "@id": "270", 
        "@name": "SAY IT WITH ME: MAPLE WORLD NEEDS OUR HELP —Militia081"
      }, 
      {
        "@id": "271", 
        "@name": "I trust Oska, and if she trusts $MyPCName$, then I guess I trust them too! —Militia043"
      }, 
      {
        "@id": "272", 
        "@name": "OMG was that the hero of Tria I just saw??? Their lewk slays!!! —MaxieMilitia"
      }, 
      {
        "@id": "273", 
        "@name": "Our first priority is keeping Oska safe from harm, and $MyPCName$ seems good for that. —OskaFanClub"
      }, 
      {
        "@id": "274", 
        "@name": "We need real heroes, and they don't get any realer than $MyPCName$! —Militia081"
      }, 
      {
        "@id": "275", 
        "@name": "Skilled, brave, talented... $MyPCName$ is fire —MaxieMilitia"
      }, 
      {
        "@id": "276", 
        "@name": "I've been a militia member for over 20 years, and I fought alongside $MyPCName$ during the Henesys invasion. Never have I seen such bravery. —militiavetbuddy"
      }, 
      {
        "@id": "277", 
        "@name": "Did the newcomer really fight side-by-side with Oska to save Manovich? Is this real life?? —Militia081"
      }, 
      {
        "@id": "278", 
        "@name": "We've had a big surge of donations lately from you-know-who! You can be a hero too if you give today! —OFFICIAL_GHCharity"
      }, 
      {
        "@id": "279", 
        "@name": "I was saved by $MyPCName$ during the siege, AMA —Militia133"
      }, 
      {
        "@id": "280", 
        "@name": "$MyPCName$ please join the militia so i can learn from you PLEEEEEEEEZ —Militia154"
      }, 
      {
        "@id": "281", 
        "@name": "$MyPCName$ is lucky to have Oska's trust... But it's a big responsibility, too. We're watching you. —OskaFanClub"
      }, 
      {
        "@id": "282", 
        "@name": "Big thanks $MyPCName$ to giving me a hand with sample collecting! Happy to see a hero who cares about progress. —GreenHoodScienceGuy"
      }, 
      {
        "@id": "283", 
        "@name": "I'm having a hard time believing someone like $MyPCName$ exists. Proof? —Militia022"
      }, 
      {
        "@id": "284", 
        "@name": "TFW you have a simple collection mission and $MyPCName$ drops the stuff in your lap —GreenThumber"
      }, 
      {
        "@id": "285", 
        "@name": "I spend weeks training new Hoods and then one person comes through and does all our missions... smh —CaptainHood"
      }, 
      {
        "@id": "286", 
        "@name": "$MyPCName$ i started following you so can we go on a mission sometime??? I need help... —Militia154"
      }, 
      {
        "@id": "287", 
        "@name": "$MyPCName$ has inspired all of us! We're going to work hard until we can be that close to Oska someday! —OskaFanClub"
      }, 
      {
        "@id": "288", 
        "@name": "I thought the Green Hoods were the strongest, until I saw $MyPCName$. My eyes have been opened. —GreenDream01"
      }, 
      {
        "@id": "289", 
        "@name": "The sooner I can be like $MyPCName$ the better! The world needs more heroes! —Greeniebit"
      }, 
      {
        "@id": "290", 
        "@name": "Another shout-out for $MyPCName$ who is somehow always there when you need them. It's like I have a sign over my head or something! —GreenHoodScienceGuy"
      }, 
      {
        "@id": "291", 
        "@name": "Seriously, I just MENTIONED that I needed Cornelian cherries in passing and here they are, minutes later! —GreenHoodScienceGuy"
      }, 
      {
        "@id": "292", 
        "@name": "It's the end of the world as we know it, and $MyPCName$ is fine *guitar solo* —Militia099"
      }, 
      {
        "@id": "293", 
        "@name": "Stories of the battle of Henesys give me shivers. We must never forget what happened that day. —Militia043"
      }, 
      {
        "@id": "294", 
        "@name": "I hate to admit it, but $MyPCName$ is the best ally Captain Oska could ask for... —SmittenMilitia"
      }, 
      {
        "@id": "295", 
        "@name": "Hot take: Armano should leave and Manovich should adopt $MyPCName$ —Militia133"
      }, 
      {
        "@id": "296", 
        "@name": "It's not an exaggeration to say that all our recent donations are from $MyPCName$! —OFFICIAL_GHCharity"
      }, 
      {
        "@id": "297", 
        "@name": "Where do they get these samples? Better not to ask. —GreenHoodScienceGuy"
      }, 
      {
        "@id": "298", 
        "@name": "Watching $MyPCName$ fight was the third greatest moment of my life. One and two are obviously Oska-related... <_< —OskaFanClub"
      }, 
      {
        "@id": "299", 
        "@name": "Hi, I'm a new recruit that joined after seeing $MyPCName$ save Henesys. Lots of my friends signed up, too! —GreenGreensFriend"
      }, 
      {
        "@id": "300", 
        "@name": "I've never seen trainees as well-behaved as the new batch. $MyPCName$ you're doing the goddess' work out there. —CaptainHood"
      }, 
      {
        "@id": "301", 
        "@name": "We're ready to give $MyPCName$ our seal of approval! Just don't get too close to Oska... j/k! —OskaFanClub"
      }, 
      {
        "@id": "302", 
        "@name": "Ahhhhhhh I was out on a mission and missed $MyPCName$ my life is over —Militia099"
      }, 
      {
        "@id": "303", 
        "@name": "Nairin said to trust our new allies. That's what I'm going to do. —NairinKnowsBest"
      }, 
      {
        "@id": "304", 
        "@name": "This work is tough, but meeting people like $MyPCName$ makes it all worthwhile! —Militia043"
      }, 
      {
        "@id": "305", 
        "@name": "If you're having trouble getting pumped about training, think about how tough $MyPCName$ is! —GreenieThumb"
      }, 
      {
        "@id": "306", 
        "@name": "Hearing $MyPCName$'s stories almost makes me want to get out of the lab and adventure. Almost. —GreenHoodScienceGuy"
      }, 
      {
        "@id": "307", 
        "@name": "Henesys, Tria... what's next for $MyPCName$?? —Militia154"
      }, 
      {
        "@id": "308", 
        "@name": "Hey everybody! Check out our new spinoff account, $MyPCName$FanClub! Our first love may be Oska, but there's plenty of room in our heart! —OskaFanClub"
      }, 
      {
        "@id": "309", 
        "@name": "$MyPCName$ can't stop won't stop —Militia133"
      }, 
      {
        "@id": "310", 
        "@name": "We're so lucky to have so many great role models in the Green Hoods! —Militia043"
      }, 
      {
        "@id": "311", 
        "@name": "I had to get over my anxiety to do it, but $MyPCName$ inspired me to join the Green Hoods! Thank you! —NewHood89"
      }, 
      {
        "@id": "312", 
        "@name": "You know what, maybe it doesn't have to always be about Oska... —OskaFanClub"
      }, 
      {
        "@id": "313", 
        "@name": "A+ job $MyPCName$ 12/10 —Militia133"
      }, 
      {
        "@id": "314", 
        "@name": "Thank you, $MyPCName$, for teaching us to be fans of more than just one thing at a time! —OskaFanClub"
      }, 
      {
        "@id": "315", 
        "@name": "$MyPCName$ has got me seeing GREEN! Get it? GET IT??? —Militia043"
      }, 
      {
        "@id": "316", 
        "@name": "Welcome to the $MyPCName$ Fan Club! Let's do introductions: —$MyPCName$FanClub"
      }, 
      {
        "@id": "317", 
        "@name": "What in the world have you all been doing on here... —Cptn_Oska"
      }, 
      {
        "@id": "318", 
        "@name": "The Green Hoods Charity would like to award our Lifetime Donator Award to $MyPCName$! They've made a lifetime of donations in just a few days! —OFFICIAL_GHCharity"
      }, 
      {
        "@id": "319", 
        "@name": "Oska is the moon and $MyPCName$ is the sun of our little Green Hood universe —SoulofaPoet"
      }, 
      {
        "@id": "320", 
        "@name": "I touched $MyPCName$ once and now I can's wash this hand send help —Militia077"
      }, 
      {
        "@id": "321", 
        "@name": "PSA: Someone in the Militia is working on a $MyPCName$ body pillow. That is all. —Militia154"
      }, 
      {
        "@id": "322", 
        "@name": "We all saw history being made during the attack on Henesys... We just didn't know why. —$MyPCName$FanClub"
      }, 
      {
        "@id": "323", 
        "@name": "Hey, $MyPCName$! Remember me! Rememeber what we talked about? —TinyTinnie"
      }, 
      {
        "@id": "324", 
        "@name": "Confession: I've been to $MyPCName$'s house, and I took some of their apples. Please don't hate me. —MechaEka"
      }, 
      {
        "@id": "325", 
        "@name": "I don't know what I'll do when $MyPCName$ leaves. Don't go! Stay forever! —GreenHoodScienceGuy"
      }, 
      {
        "@id": "326", 
        "@name": "$MyPCName$ picked this corn for me! U jelly? -Sylviaahhh"
      }, 
      {
        "@id": "327", 
        "@name": "Tired: Hiding from monsters  Wired: Punching them in the face with $MyPCName$  I will always remember the battle I partook with $MyPCName$ in Henesys! It was a moment when I was with a hero of Maple World! —Militia133"
      }, 
      {
        "@id": "328", 
        "@name": "$MyPCName$ is really amazing! Wish we could work together forever <3 —NairinMyBell"
      }, 
      {
        "@id": "329", 
        "@name": "If anyone deserves a statue in Henesys, it's $MyPCName$! #statuewhen —Militia154"
      }, 
      {
        "@id": "330", 
        "@name": "$MyPCName$ gave me some gear a few days ago. It's framed on my wall now. —Militia081"
      }, 
      {
        "@id": "331", 
        "@name": "whos this $MyPCName$ everyones talking about —Militia41"
      }, 
      {
        "@id": "332", 
        "@name": "Thread: A Comprehensive Guide to Oska and $MyPCName$'s Interests (1/a lot) —OskaFanClub"
      }, 
      {
        "@id": "333", 
        "@name": "$MyPCName$ gives me LIFE —Militia133"
      }, 
      {
        "@id": "334", 
        "@name": "$MyPCName$ is such a QT... don't tell them I said that! —Militia081"
      }, 
      {
        "@id": "335", 
        "@name": "$MyPCName$ is too good, too pure for this world. —Militia154"
      }, 
      {
        "@id": "336", 
        "@name": "Shine bright like a diamond, $MyPCName$! —Militia043"
      }, 
      {
        "@id": "337", 
        "@name": "Oska likes me. $MyPCName$ likes me. I think I can die happy. —Militia077"
      }, 
      {
        "@id": "338", 
        "@name": "$MyPCName$ has taught us that discipline and hard work are more important than infatuation. Geez, I sound like a PSA. —OskaFanClub"
      }, 
      {
        "@id": "339", 
        "@name": "SAY IT WITH ME: THE GREEN HOODS WILL NEVER LET HENESYS FALL —Militia081"
      }, 
      {
        "@id": "340", 
        "@name": "I dressed up as Oska for Halloween, but I couldn't pull it off. Maybe I'll be $MyPCName$ next year! —Militia062"
      }, 
      {
        "@id": "341", 
        "@name": "Oska has told me much of your efforts, $MyPCName$. Thank you for looking after Maple World. —Empress_Ereve"
      }, 
      {
        "@id": "342", 
        "@name": "I've heard all the stories, but... can we really trust $MyPCName$? - ToryThaGuard"
      }, 
      {
        "@id": "343", 
        "@name": "Doubt is always erased by the passage of time, and the work of heroes. —THEGUARDCAPTAINFREY"
      }, 
      {
        "@id": "344", 
        "@name": "Repost if you think $MyPCName$ can do it! —LukeGuardwalker"
      }, 
      {
        "@id": "345", 
        "@name": "I question the wisdom of trusting any free agent with our safety! —RealKarlVidrem"
      }, 
      {
        "@id": "346", 
        "@name": "Hey $MyPCName$ let's fight sometime, I wanna see how tough you really are! —MooseMan "
      }, 
      {
        "@id": "347", 
        "@name": "They're what every guard dreams of being someday. —HiImKenny"
      }, 
      {
        "@id": "348", 
        "@name": "$MyPCName$ *golfclap* —YesWeKans"
      }, 
      {
        "@id": "349", 
        "@name": "Things are getting better around Tria! Soon everything will be back to normal. Right? —Napolieee"
      }, 
      {
        "@id": "350", 
        "@name": "$MyPCName$, I sent you a DM. Please answer!! —Shinby01"
      }, 
      {
        "@id": "351", 
        "@name": "The guards make me feel safe. $MyPCName$ makes me feel happy. - Life_in_Tria"
      }, 
      {
        "@id": "352", 
        "@name": "I appreciate your enthusiasm and energy. Not bad. —RealKarlVidrem"
      }, 
      {
        "@id": "353", 
        "@name": "Tria and Maple World are filled with light. It's all thanks to you. —HolyLuanna"
      }, 
      {
        "@id": "354", 
        "@name": "Just took a trip out to the farms, and everything's running again! Meat's back on the menu! —Tria_Gourmet"
      }, 
      {
        "@id": "355", 
        "@name": "The street merchants are back. Guards, do something! —SmallBusinessOwner"
      }, 
      {
        "@id": "356", 
        "@name": "Empress_Ereve still waiting on my request to draft $MyPCName$, can you review soon?? —TopConder"
      }, 
      {
        "@id": "357", 
        "@name": "$MyPCName$, you honor the memory of Joddy with your service. I know he would have been proud. —THEGUARDCAPTAINFREY"
      }, 
      {
        "@id": "358", 
        "@name": "Please stop submitting requests for a statue of $MyPCName$ in Tria. The office has been swamped with applications. —TriaCivicCenter"
      }, 
      {
        "@id": "359", 
        "@name": "We're revising the Royal Guard Handbook, and I saw a few lines about $MyPCName$ in there. How times change. —trainingoftheguard"
      }, 
      {
        "@id": "360", 
        "@name": "SOON: My portrait of $MyPCName$ is revealed to the world. —VisualSchwanda"
      }, 
      {
        "@id": "361", 
        "@name": "$MyPCName$, you are an idol of our guards. - Guardian X"
      }, 
      {
        "@id": "362", 
        "@name": "Please be aware that all copies of $MyPCName$: A Life of Questing are currently checked out. —LibrariAnne"
      }, 
      {
        "@id": "363", 
        "@name": "Hi, $MyPCName$. I've missed working on your gear, you should stop by the forge sometime! —JustPeachy"
      }, 
      {
        "@id": "364", 
        "@name": "I've got a ton of new followers, but they just want to know when I see $MyPCName$... #feelsbad —Napolieee"
      }, 
      {
        "@id": "365", 
        "@name": "Need packages delivered? Trust BOGIE, deliveryman to the great $MyPCName$! —DeliveriesByBogie"
      }, 
      {
        "@id": "366", 
        "@name": "I remember reading these logs... So much excitement about you. —FutureAndy"
      }, 
      {
        "@id": "367", 
        "@name": "MC Kay Has A Special Offer For You!! CLICK HERE —OX_Productions"
      }, 
      {
        "@id": "368", 
        "@name": "$MyPCName$: Great Hero, or Greatest Hero? —TheTriaDaily"
      }, 
      {
        "@id": "369", 
        "@name": "$MyPCName$ open the court —cocodea"
      }
    ]
  }
}