{
  "?xml": {
    "@version": "1.0", 
    "@encoding": "utf-8"
  }, 
  "ms2": {
    "key": [
      {
        "@id": "99910001", 
        "@name": "Armorhog"
      }, 
      {
        "@id": "99910010", 
        "@name": "Chick"
      }, 
      {
        "@id": "99910020", 
        "@name": "Magma Junior Boogie"
      }, 
      {
        "@id": "99910030", 
        "@name": "Squirrel Thief Boy"
      }, 
      {
        "@id": "99910031", 
        "@name": "Mevidic Jr."
      }, 
      {
        "@id": "99910040", 
        "@name": "Stone Golem"
      }, 
      {
        "@id": "99910050", 
        "@name": "Alice"
      }, 
      {
        "@id": "99910060", 
        "@name": "Slime"
      }, 
      {
        "@id": "99910070", 
        "@name": "MK 52 Alpha"
      }, 
      {
        "@id": "99910090", 
        "@name": "Rolling Thunder"
      }, 
      {
        "@id": "99910100", 
        "@name": "Allon"
      }, 
      {
        "@id": "99910110", 
        "@name": "Oska"
      }, 
      {
        "@id": "99910120", 
        "@name": "Delphi"
      }, 
      {
        "@id": "99910130", 
        "@name": "Heavy T55"
      }, 
      {
        "@id": "99910140", 
        "@name": "Royal Guard Steed"
      }, 
      {
        "@id": "99910150", 
        "@name": "Ballista"
      }, 
      {
        "@id": "99910160", 
        "@name": "MK 52 Omega"
      }, 
      {
        "@id": "99910161", 
        "@name": "Flooded Phantom Destroyer", 
        "@feature": "Gigantica01"
      }, 
      {
        "@id": "99910170", 
        "@name": "Blackeye"
      }, 
      {
        "@id": "99910180", 
        "@name": "Captain Allon"
      }, 
      {
        "@id": "99910190", 
        "@name": "Oska"
      }, 
      {
        "@id": "99910200", 
        "@name": "Frog"
      }, 
      {
        "@id": "99910210", 
        "@name": "Energy Slime"
      }, 
      {
        "@id": "99910240", 
        "@name": "Red Dragon"
      }, 
      {
        "@id": "99910250", 
        "@name": "Rainbow King Slime"
      }, 
      {
        "@id": "99910260", 
        "@name": "Mutant Slime"
      }, 
      {
        "@id": "99910270", 
        "@name": "Ballista"
      }, 
      {
        "@id": "99910280", 
        "@name": "Bella"
      }, 
      {
        "@id": "99910290", 
        "@name": "Turka"
      }, 
      {
        "@id": "99910300", 
        "@name": "Tristan"
      }, 
      {
        "@id": "99910311", 
        "@name": "Energy Turret"
      }, 
      {
        "@id": "99910320", 
        "@name": "Black Mage"
      }, 
      {
        "@id": "99910330", 
        "@name": "Tristan"
      }, 
      {
        "@id": "99910340", 
        "@name": "Mark 52 Prototype"
      }, 
      {
        "@id": "99910350", 
        "@name": "Mushroom"
      }, 
      {
        "@id": "99910360", 
        "@name": "Mark 52 Prototype"
      }, 
      {
        "@id": "99910370", 
        "@name": "Black Legion Flame Machine Gun"
      }, 
      {
        "@id": "99910380", 
        "@name": "T55"
      }, 
      {
        "@id": "99910390", 
        "@name": "Arqueon Ver.1"
      }
    ]
  }
}