{
  "?xml": {
    "@version": "1.0", 
    "@encoding": "utf-8"
  }, 
  "ms2": {
    "key": [
      {
        "@id": "30000001", 
        "@class": "", 
        "@name": "Copper Veins", 
        "@feature": "Mastery"
      }, 
      {
        "@id": "30000002", 
        "@class": "", 
        "@name": "Tin Veins", 
        "@feature": "Mastery"
      }, 
      {
        "@id": "30000003", 
        "@class": "", 
        "@name": "Zinc Veins", 
        "@feature": "Mastery"
      }, 
      {
        "@id": "30000004", 
        "@class": "", 
        "@name": "Silver Veins", 
        "@feature": "Mastery"
      }, 
      {
        "@id": "30000005", 
        "@class": "", 
        "@name": "Iron Veins", 
        "@feature": "Mastery"
      }, 
      {
        "@id": "30000006", 
        "@class": "", 
        "@name": "Lead Veins", 
        "@feature": "Mastery"
      }, 
      {
        "@id": "30000007", 
        "@class": "", 
        "@name": "Nickel Veins", 
        "@feature": "Mastery"
      }, 
      {
        "@id": "30000008", 
        "@class": "", 
        "@name": "Ravensteel Veins", 
        "@feature": "Mastery"
      }, 
      {
        "@id": "30000009", 
        "@class": "", 
        "@name": "Tungsten Veins", 
        "@feature": "Mastery"
      }, 
      {
        "@id": "30000010", 
        "@class": "", 
        "@name": "Gold Veins", 
        "@feature": "Mastery"
      }, 
      {
        "@id": "30000011", 
        "@class": "", 
        "@name": "Platinum Veins", 
        "@feature": "Mastery"
      }, 
      {
        "@id": "30000012", 
        "@class": "", 
        "@name": "Cobalt Veins", 
        "@feature": "Mastery"
      }, 
      {
        "@id": "30000013", 
        "@class": "", 
        "@name": "Palladium Veins", 
        "@feature": "Mastery"
      }, 
      {
        "@id": "30000014", 
        "@class": "", 
        "@name": "Mithril Lode: s", 
        "@feature": "Mastery06"
      }, 
      {
        "@id": "30000015", 
        "@class": "", 
        "@name": "Duck do cone ore: s", 
        "@feature": "Mastery06"
      }, 
      {
        "@id": "30000016", 
        "@class": "", 
        "@name": "Adamantium Veins", 
        "@feature": "Mastery"
      }, 
      {
        "@id": "30000017", 
        "@class": "", 
        "@name": "Titanium Veins", 
        "@feature": "Mastery"
      }, 
      {
        "@id": "30000018", 
        "@class": "", 
        "@name": "Meteorite Veins", 
        "@feature": "Mastery"
      }, 
      {
        "@id": "30000019", 
        "@class": "", 
        "@name": "Lumastone Veins", 
        "@feature": "Mastery"
      }, 
      {
        "@id": "30000020", 
        "@class": "", 
        "@name": "Old Stumps", 
        "@feature": "Mastery"
      }, 
      {
        "@id": "30000021", 
        "@class": "", 
        "@name": "Mud Flat Pearl Clusters", 
        "@feature": "Mastery"
      }, 
      {
        "@id": "30000022", 
        "@class": "", 
        "@name": "Nerman Mine Cattle", 
        "@feature": "Mastery"
      }, 
      {
        "@id": "40000001", 
        "@class": "", 
        "@name": "Cotton Lavender Herbs", 
        "@feature": "ContentsGuide02"
      }, 
      {
        "@id": "40000002", 
        "@class": "", 
        "@name": "Pineapple Sage Herbs", 
        "@feature": "ContentsGuide02"
      }, 
      {
        "@id": "40000003", 
        "@class": "", 
        "@name": "Rose Geranium Herbs", 
        "@feature": "ContentsGuide02"
      }, 
      {
        "@id": "40000011", 
        "@class": "", 
        "@name": "Marjoram Herbs", 
        "@feature": "MasterySecond"
      }, 
      {
        "@id": "40000012", 
        "@class": "", 
        "@name": "Lavender Herbs", 
        "@feature": "MasterySecond"
      }, 
      {
        "@id": "40000013", 
        "@class": "", 
        "@name": "Oregano Herbs", 
        "@feature": "MasterySecond"
      }, 
      {
        "@id": "40000014", 
        "@class": "", 
        "@name": "Lemon Balm Herbs", 
        "@feature": "MasterySecond"
      }, 
      {
        "@id": "40000015", 
        "@class": "", 
        "@name": "Mandarin Herbs", 
        "@feature": "MasterySecond"
      }, 
      {
        "@id": "40000016", 
        "@class": "", 
        "@name": "Jasmine Herbs", 
        "@feature": "MasterySecond"
      }, 
      {
        "@id": "40000017", 
        "@class": "", 
        "@name": "Tea Tree Herbs", 
        "@feature": "MasterySecond"
      }, 
      {
        "@id": "40000018", 
        "@class": "", 
        "@name": "Cherry Sage Herbs", 
        "@feature": "MasterySecond"
      }, 
      {
        "@id": "40000019", 
        "@class": "", 
        "@name": "Patchouli Herbs", 
        "@feature": "MasterySecond"
      }, 
      {
        "@id": "40000020", 
        "@class": "", 
        "@name": "Rosemary Herbs", 
        "@feature": "MasterySecond"
      }, 
      {
        "@id": "40000021", 
        "@class": "", 
        "@name": "Yarrow Herbs", 
        "@feature": "MasterySecond"
      }, 
      {
        "@id": "40000022", 
        "@class": "", 
        "@name": "Basil Herbs", 
        "@feature": "MasterySecond"
      }, 
      {
        "@id": "40000023", 
        "@class": "", 
        "@name": "Bergamot Herbs", 
        "@feature": "MasterySecond"
      }, 
      {
        "@id": "40000024", 
        "@class": "", 
        "@name": "Spartium Hub: s", 
        "@feature": "Mastery06"
      }, 
      {
        "@id": "40000025", 
        "@class": "", 
        "@name": "Time Hub: s", 
        "@feature": "Mastery06"
      }, 
      {
        "@id": "50000001", 
        "@class": "", 
        "@name": "Chicken Pens", 
        "@feature": "Mastery"
      }, 
      {
        "@id": "50000002", 
        "@class": "", 
        "@name": "Snail Pens", 
        "@feature": "Mastery"
      }, 
      {
        "@id": "50000003", 
        "@class": "", 
        "@name": "Pig Pens", 
        "@feature": "Mastery"
      }, 
      {
        "@id": "50000004", 
        "@class": "", 
        "@name": "Cow Pens", 
        "@feature": "Mastery"
      }, 
      {
        "@id": "50000005", 
        "@class": "", 
        "@name": "Sheep Pens", 
        "@feature": "Mastery"
      }, 
      {
        "@id": "50000006", 
        "@class": "", 
        "@name": "Turtle Pens", 
        "@feature": "Mastery"
      }, 
      {
        "@id": "50000007", 
        "@class": "", 
        "@name": "Deer Pens", 
        "@feature": "Mastery"
      }, 
      {
        "@id": "50000008", 
        "@class": "", 
        "@name": "Bull Pens", 
        "@feature": "Mastery"
      }, 
      {
        "@id": "50000009", 
        "@class": "", 
        "@name": "Eagle Pens", 
        "@feature": "Mastery"
      }, 
      {
        "@id": "50000010", 
        "@class": "", 
        "@name": "Horse Pens", 
        "@feature": "Mastery"
      }, 
      {
        "@id": "50000011", 
        "@class": "", 
        "@name": "Fox Pens", 
        "@feature": "Mastery"
      }, 
      {
        "@id": "50000012", 
        "@class": "", 
        "@name": "Griffin Pens", 
        "@feature": "Mastery"
      }, 
      {
        "@id": "50000013", 
        "@class": "", 
        "@name": "Dragon Pens", 
        "@feature": "Mastery"
      }, 
      {
        "@id": "50000014", 
        "@class": "", 
        "@name": "Unicorn House: s", 
        "@feature": "Mastery06"
      }, 
      {
        "@id": "50000015", 
        "@class": "", 
        "@name": "Speeches of the populace: s", 
        "@feature": "Mastery06"
      }, 
      {
        "@id": "50000016", 
        "@class": "", 
        "@name": "copies of Ranching Recipe 16", 
        "@feature": "Mastery"
      }, 
      {
        "@id": "50000017", 
        "@class": "", 
        "@name": "copies of Ranching Recipe 17", 
        "@feature": "Mastery"
      }, 
      {
        "@id": "50000018", 
        "@class": "", 
        "@name": "copies of Ranching Recipe 18", 
        "@feature": "Mastery"
      }, 
      {
        "@id": "50000019", 
        "@class": "", 
        "@name": "Brown Cows", 
        "@feature": "Mastery"
      }, 
      {
        "@id": "50000020", 
        "@class": "", 
        "@name": "Brown Sheep", 
        "@feature": "Mastery"
      }, 
      {
        "@id": "60000011", 
        "@class": "", 
        "@name": "Rice Paddies", 
        "@feature": "MasterySecond"
      }, 
      {
        "@id": "60000012", 
        "@class": "", 
        "@name": "Pumpkin Patches", 
        "@feature": "MasterySecond"
      }, 
      {
        "@id": "60000013", 
        "@class": "", 
        "@name": "Apple Trees", 
        "@feature": "MasterySecond"
      }, 
      {
        "@id": "60000014", 
        "@class": "", 
        "@name": "Pine Mushroom Clusters", 
        "@feature": "MasterySecond"
      }, 
      {
        "@id": "60000015", 
        "@class": "", 
        "@name": "Orange Trees", 
        "@feature": "MasterySecond"
      }, 
      {
        "@id": "60000016", 
        "@class": "", 
        "@name": "Green Onion Patches", 
        "@feature": "MasterySecond"
      }, 
      {
        "@id": "60000017", 
        "@class": "", 
        "@name": "Banana Trees", 
        "@feature": "MasterySecond"
      }, 
      {
        "@id": "60000018", 
        "@class": "", 
        "@name": "Medicinal Mushroom Stumps", 
        "@feature": "MasterySecond"
      }, 
      {
        "@id": "60000019", 
        "@class": "", 
        "@name": "Tomato Fields", 
        "@feature": "MasterySecond"
      }, 
      {
        "@id": "60000020", 
        "@class": "", 
        "@name": "Cucumber Fields", 
        "@feature": "MasterySecond"
      }, 
      {
        "@id": "60000021", 
        "@class": "", 
        "@name": "Wheat Fields", 
        "@feature": "MasterySecond"
      }, 
      {
        "@id": "60000022", 
        "@class": "", 
        "@name": "Agaric Mushroom Clusters", 
        "@feature": "MasterySecond"
      }, 
      {
        "@id": "60000023", 
        "@class": "", 
        "@name": "Pear Trees", 
        "@feature": "MasterySecond"
      }, 
      {
        "@id": "60000024", 
        "@class": "", 
        "@name": "Mysterious Meteorite Trees", 
        "@feature": "MasteryPet01"
      }, 
      {
        "@id": "60000025", 
        "@class": "", 
        "@name": "Pineapple field: s", 
        "@feature": "Mastery06"
      }, 
      {
        "@id": "60000026", 
        "@class": "", 
        "@name": "Durian wood: s", 
        "@feature": "Mastery06"
      }, 
      {
        "@id": "70000001", 
        "@class": "", 
        "@name": "pairs of Brown Chain Mail Gloves", 
        "@feature": "Mastery"
      }, 
      {
        "@id": "70000002", 
        "@class": "", 
        "@name": "Copper Ingots", 
        "@feature": "Mastery"
      }, 
      {
        "@id": "70000003", 
        "@class": "", 
        "@name": "pairs of Copper Chain Mail Gloves", 
        "@feature": "Mastery"
      }, 
      {
        "@id": "70000004", 
        "@class": "", 
        "@name": "Tin Ingots", 
        "@feature": "Mastery"
      }, 
      {
        "@id": "70000005", 
        "@class": "", 
        "@name": "Opal Smithing Slates", 
        "@feature": "Mastery"
      }, 
      {
        "@id": "70000006", 
        "@class": "", 
        "@name": "Tin Whetstones", 
        "@feature": "Mastery"
      }, 
      {
        "@id": "70000007", 
        "@class": "", 
        "@name": "Zinc Ingots", 
        "@feature": "Mastery"
      }, 
      {
        "@id": "70000008", 
        "@class": "", 
        "@name": "pairs of Zinc Chain Mail Gloves", 
        "@feature": "Mastery"
      }, 
      {
        "@id": "70000009", 
        "@class": "", 
        "@name": "Tier 1 Gemstone Boxes", 
        "@feature": "Mastery"
      }, 
      {
        "@id": "70000010", 
        "@class": "", 
        "@name": "Silver Ingots", 
        "@feature": "Mastery"
      }, 
      {
        "@id": "70000011", 
        "@class": "", 
        "@name": "Sapphire Smithing Slates", 
        "@feature": "Mastery"
      }, 
      {
        "@id": "70000012", 
        "@class": "", 
        "@name": "Fading Savagery Headgear Boxes", 
        "@feature": "Mastery"
      }, 
      {
        "@id": "70000012", 
        "@class": "", 
        "@name": "Fading Savagery Headgear Boxes", 
        "@feature": "Mastery", 
        "@locale": "KR"
      }, 
      {
        "@id": "70000013", 
        "@class": "", 
        "@name": "Iron Ingots", 
        "@feature": "Mastery"
      }, 
      {
        "@id": "70000014", 
        "@class": "", 
        "@name": "pairs of Iron Chain Mail Gloves", 
        "@feature": "Mastery"
      }, 
      {
        "@id": "70000015", 
        "@class": "", 
        "@name": "Savagery Headgear Boxes", 
        "@feature": "Mastery"
      }, 
      {
        "@id": "70000015", 
        "@class": "", 
        "@name": "Savagery Headgear Boxes", 
        "@feature": "Mastery", 
        "@locale": "KR"
      }, 
      {
        "@id": "70000016", 
        "@class": "", 
        "@name": "Lead Ingots", 
        "@feature": "Mastery"
      }, 
      {
        "@id": "70000017", 
        "@class": "", 
        "@name": "Diamond Smithing Slates", 
        "@feature": "Mastery"
      }, 
      {
        "@id": "70000018", 
        "@class": "", 
        "@name": "Fading Savagery Shoes Boxes", 
        "@feature": "Mastery"
      }, 
      {
        "@id": "70000018", 
        "@class": "", 
        "@name": "Fading Savagery Shoes Boxes", 
        "@feature": "Mastery", 
        "@locale": "KR"
      }, 
      {
        "@id": "70000019", 
        "@class": "", 
        "@name": "Nickel Ingots", 
        "@feature": "Mastery"
      }, 
      {
        "@id": "70000020", 
        "@class": "", 
        "@name": "pairs of Nickel Chain Mail Gloves", 
        "@feature": "Mastery"
      }, 
      {
        "@id": "70000021", 
        "@class": "", 
        "@name": "Savagery Shoes Boxes", 
        "@feature": "Mastery"
      }, 
      {
        "@id": "70000021", 
        "@class": "", 
        "@name": "Savagery Shoes Boxes", 
        "@feature": "Mastery", 
        "@locale": "KR"
      }, 
      {
        "@id": "70000022", 
        "@class": "", 
        "@name": "Ravensteel Ingots", 
        "@feature": "Mastery"
      }, 
      {
        "@id": "70000023", 
        "@class": "", 
        "@name": "Amethyst Smithing Slates", 
        "@feature": "Mastery"
      }, 
      {
        "@id": "70000024", 
        "@class": "", 
        "@name": "Fading Savagery Gloves Boxes", 
        "@feature": "Mastery"
      }, 
      {
        "@id": "70000024", 
        "@class": "", 
        "@name": "Fading Savagery Gloves Boxes", 
        "@feature": "Mastery", 
        "@locale": "KR"
      }, 
      {
        "@id": "70000025", 
        "@class": "", 
        "@name": "Tungsten Ingots", 
        "@feature": "Mastery"
      }, 
      {
        "@id": "70000026", 
        "@class": "", 
        "@name": "pairs of Tungsten Chain Mail Gloves", 
        "@feature": "Mastery"
      }, 
      {
        "@id": "70000027", 
        "@class": "", 
        "@name": "Savagery Gloves Boxes", 
        "@feature": "Mastery"
      }, 
      {
        "@id": "70000027", 
        "@class": "", 
        "@name": "Savagery Gloves Boxes", 
        "@feature": "Mastery", 
        "@locale": "KR"
      }, 
      {
        "@id": "70000028", 
        "@class": "", 
        "@name": "Gold Ingots", 
        "@feature": "Mastery"
      }, 
      {
        "@id": "70000029", 
        "@class": "", 
        "@name": "Amber Smithing Slates", 
        "@feature": "Mastery"
      }, 
      {
        "@id": "70000030", 
        "@class": "", 
        "@name": "Faintly ragged box: s", 
        "@feature": "Mastery", 
        "@locale": "KR"
      }, 
      {
        "@id": "70000031", 
        "@class": "", 
        "@name": "Faintly raging bottom boxes: s", 
        "@feature": "Mastery", 
        "@locale": "KR"
      }, 
      {
        "@id": "70000032", 
        "@class": "", 
        "@name": "Fading Savagery Top & Bottoms Boxes", 
        "@feature": "Mastery"
      }, 
      {
        "@id": "70000032", 
        "@class": "", 
        "@name": "Fading Savagery Top & Bottoms Boxes", 
        "@feature": "Mastery", 
        "@locale": "KR"
      }, 
      {
        "@id": "70000033", 
        "@class": "", 
        "@name": "Platinum Ingots", 
        "@feature": "Mastery"
      }, 
      {
        "@id": "70000034", 
        "@class": "", 
        "@name": "Platinum Whetstones", 
        "@feature": "Mastery"
      }, 
      {
        "@id": "70000035", 
        "@class": "", 
        "@name": "Rugged box: s", 
        "@feature": "Mastery", 
        "@locale": "KR"
      }, 
      {
        "@id": "70000036", 
        "@class": "", 
        "@name": "Violent bottom box: s", 
        "@feature": "Mastery", 
        "@locale": "KR"
      }, 
      {
        "@id": "70000037", 
        "@class": "", 
        "@name": "Savagery Top & Bottoms Boxes", 
        "@feature": "Mastery"
      }, 
      {
        "@id": "70000037", 
        "@class": "", 
        "@name": "Savagery Top & Bottoms Boxes", 
        "@feature": "Mastery", 
        "@locale": "KR"
      }, 
      {
        "@id": "70000038", 
        "@class": "", 
        "@name": "Coblat Ingots", 
        "@feature": "Mastery"
      }, 
      {
        "@id": "70000039", 
        "@class": "", 
        "@name": "pairs of Cobalt Chain Mail Gloves", 
        "@feature": "Mastery"
      }, 
      {
        "@id": "70000040", 
        "@class": "", 
        "@name": "Faintly wild left hand weapon box: s", 
        "@feature": "Mastery", 
        "@locale": "KR"
      }, 
      {
        "@id": "70000041", 
        "@class": "", 
        "@name": "Faintly wild right hand weapon box: s", 
        "@feature": "Mastery", 
        "@locale": "KR"
      }, 
      {
        "@id": "70000042", 
        "@class": "", 
        "@name": "Faintly Ranged Dual Weapon Box: s", 
        "@feature": "Mastery", 
        "@locale": "KR"
      }, 
      {
        "@id": "70000043", 
        "@class": "", 
        "@name": "Fading Thunder Hammer Weapon Boxes", 
        "@feature": "Mastery"
      }, 
      {
        "@id": "70000043", 
        "@class": "", 
        "@name": "Fading Thunder Hammer Weapon Boxes", 
        "@feature": "Mastery", 
        "@locale": "KR"
      }, 
      {
        "@id": "70000044", 
        "@class": "", 
        "@name": "Palladium Ingots", 
        "@feature": "Mastery"
      }, 
      {
        "@id": "70000045", 
        "@class": "", 
        "@name": "Pearl Smithing Slates", 
        "@feature": "Mastery"
      }, 
      {
        "@id": "70000046", 
        "@class": "", 
        "@name": "Wild Left Hand Weapon Box: s", 
        "@feature": "Mastery", 
        "@locale": "KR"
      }, 
      {
        "@id": "70000047", 
        "@class": "", 
        "@name": "Wild Right Hand Weapon Box: s", 
        "@feature": "Mastery", 
        "@locale": "KR"
      }, 
      {
        "@id": "70000048", 
        "@class": "", 
        "@name": "Ranged Weasel Weapon Box: s", 
        "@feature": "Mastery", 
        "@locale": "KR"
      }, 
      {
        "@id": "70000049", 
        "@class": "", 
        "@name": "Thunder Hammer Weapon Boxes", 
        "@feature": "Mastery"
      }, 
      {
        "@id": "70000049", 
        "@class": "", 
        "@name": "Thunder Hammer Weapon Boxes", 
        "@feature": "Mastery", 
        "@locale": "KR"
      }, 
      {
        "@id": "70000050", 
        "@class": "", 
        "@name": "Step 1 Lumi Stone Jewelry Box: s", 
        "@feature": "SkinSocket"
      }, 
      {
        "@id": "70000051", 
        "@class": "", 
        "@name": "Unknown transcendence correction (56LV): s", 
        "@feature": "ItemMerge"
      }, 
      {
        "@id": "70000052", 
        "@class": "", 
        "@name": "Unknown transcendence correction (56LV / batch): s", 
        "@feature": "ItemMerge"
      }, 
      {
        "@id": "70000053", 
        "@class": "", 
        "@name": "Shining unknown transcendence (56LV): s", 
        "@feature": "ItemMerge"
      }, 
      {
        "@id": "70000054", 
        "@class": "", 
        "@name": "Shining unknown transcendence (56LV / batch): s", 
        "@feature": "ItemMerge"
      }, 
      {
        "@id": "70000055", 
        "@class": "", 
        "@name": "Unknown transcendence correction (60LV): s", 
        "@feature": "ItemMergeLV60"
      }, 
      {
        "@id": "70000056", 
        "@class": "", 
        "@name": "Unknown transcendence correction (70LV): s", 
        "@feature": "ItemMergeLV70"
      }, 
      {
        "@id": "70000057", 
        "@class": "", 
        "@name": "Mithril ingot: s", 
        "@feature": "Mastery06"
      }, 
      {
        "@id": "70000058", 
        "@class": "", 
        "@name": "Mithril Chain Mail Gloves: s", 
        "@feature": "Mastery06"
      }, 
      {
        "@id": "70000059", 
        "@class": "", 
        "@name": "Aurichalcon ingot: s", 
        "@feature": "Mastery06"
      }, 
      {
        "@id": "70000060", 
        "@class": "", 
        "@name": "Duck cone wheel: s", 
        "@feature": "Mastery06"
      }, 
      {
        "@id": "70000061", 
        "@class": "", 
        "@name": "Shining unknown transcendence (60LV): s", 
        "@feature": "ItemMergeLV60"
      }, 
      {
        "@id": "70000062", 
        "@class": "", 
        "@name": "Shining unknown transcendence (70LV): s", 
        "@feature": "ItemMergeLV70"
      }, 
      {
        "@id": "80000001", 
        "@class": "", 
        "@name": "Hero Rings", 
        "@feature": "Mastery"
      }, 
      {
        "@id": "80000002", 
        "@class": "", 
        "@name": "Cowhide Pouches", 
        "@feature": "Mastery"
      }, 
      {
        "@id": "80000003", 
        "@class": "", 
        "@name": "Chicken Feather Fabrics", 
        "@feature": "Mastery"
      }, 
      {
        "@id": "80000004", 
        "@class": "", 
        "@name": "Chicken Feather Pouches", 
        "@feature": "Mastery"
      }, 
      {
        "@id": "80000005", 
        "@class": "", 
        "@name": "Snail Shell Powders", 
        "@feature": "Mastery"
      }, 
      {
        "@id": "80000006", 
        "@class": "", 
        "@name": "Snail Shell Handicraft Slates", 
        "@feature": "Mastery"
      }, 
      {
        "@id": "80000007", 
        "@class": "", 
        "@name": "Snail Shell Compounds", 
        "@feature": "Mastery"
      }, 
      {
        "@id": "80000008", 
        "@class": "", 
        "@name": "Pigskins", 
        "@feature": "Mastery"
      }, 
      {
        "@id": "80000009", 
        "@class": "", 
        "@name": "Pigskin Pouches", 
        "@feature": "Mastery"
      }, 
      {
        "@id": "80000010", 
        "@class": "", 
        "@name": "Blank Intermediate Music Scores (20 Performances)", 
        "@feature": "Mastery"
      }, 
      {
        "@id": "80000011", 
        "@class": "", 
        "@name": "Milk Powders", 
        "@feature": "Mastery"
      }, 
      {
        "@id": "80000012", 
        "@class": "", 
        "@name": "Milky Handicraft Slates", 
        "@feature": "Mastery"
      }, 
      {
        "@id": "80000013", 
        "@class": "", 
        "@name": "Fading Savagery Necklace Boxes", 
        "@feature": "Mastery"
      }, 
      {
        "@id": "80000014", 
        "@class": "", 
        "@name": "Wool Fabrics", 
        "@feature": "Mastery"
      }, 
      {
        "@id": "80000015", 
        "@class": "", 
        "@name": "Woolen Pouches", 
        "@feature": "Mastery"
      }, 
      {
        "@id": "80000016", 
        "@class": "", 
        "@name": "Savagery Necklace Boxes", 
        "@feature": "Mastery"
      }, 
      {
        "@id": "80000017", 
        "@class": "", 
        "@name": "Turtle Shell Powders", 
        "@feature": "Mastery"
      }, 
      {
        "@id": "80000018", 
        "@class": "", 
        "@name": "Turtle Shell Handicraft Slates", 
        "@feature": "Mastery"
      }, 
      {
        "@id": "80000019", 
        "@class": "", 
        "@name": "Fading Savagery Ring Boxes", 
        "@feature": "Mastery"
      }, 
      {
        "@id": "80000020", 
        "@class": "", 
        "@name": "Deer Hide Fabrics", 
        "@feature": "Mastery"
      }, 
      {
        "@id": "80000021", 
        "@class": "", 
        "@name": "Deer Hide Pouches", 
        "@feature": "Mastery"
      }, 
      {
        "@id": "80000022", 
        "@class": "", 
        "@name": "Savagery Ring Boxes", 
        "@feature": "Mastery"
      }, 
      {
        "@id": "80000023", 
        "@class": "", 
        "@name": "pinches of Bull Horn Powder", 
        "@feature": "Mastery"
      }, 
      {
        "@id": "80000024", 
        "@class": "", 
        "@name": "Longhorn Handicraft Slates", 
        "@feature": "Mastery"
      }, 
      {
        "@id": "80000025", 
        "@class": "", 
        "@name": "Fading Savagery Cape Boxes", 
        "@feature": "Mastery"
      }, 
      {
        "@id": "80000026", 
        "@class": "", 
        "@name": "Eagle Feather Fabrics", 
        "@feature": "Mastery"
      }, 
      {
        "@id": "80000027", 
        "@class": "", 
        "@name": "Eagle Feather Pouches", 
        "@feature": "Mastery"
      }, 
      {
        "@id": "80000028", 
        "@class": "", 
        "@name": "Savagery Cape Boxes", 
        "@feature": "Mastery"
      }, 
      {
        "@id": "80000029", 
        "@class": "", 
        "@name": "pinches of Horseshoe Powder", 
        "@feature": "Mastery"
      }, 
      {
        "@id": "80000030", 
        "@class": "", 
        "@name": "Horseshoe Handicraft Slates", 
        "@feature": "Mastery"
      }, 
      {
        "@id": "80000031", 
        "@class": "", 
        "@name": "Fading Savagery Belt Boxes", 
        "@feature": "Mastery"
      }, 
      {
        "@id": "80000032", 
        "@class": "", 
        "@name": "Fox Tail Fabrics", 
        "@feature": "Mastery"
      }, 
      {
        "@id": "80000033", 
        "@class": "", 
        "@name": "Fox Tail Compounds", 
        "@feature": "Mastery"
      }, 
      {
        "@id": "80000034", 
        "@class": "", 
        "@name": "Savagery Belt Boxes", 
        "@feature": "Mastery"
      }, 
      {
        "@id": "80000035", 
        "@class": "", 
        "@name": "Griffin Feather Fabrics", 
        "@feature": "Mastery"
      }, 
      {
        "@id": "80000036", 
        "@class": "", 
        "@name": "Griffin Feather Pouches", 
        "@feature": "Mastery"
      }, 
      {
        "@id": "80000037", 
        "@class": "", 
        "@name": "Fading Savagery Earrings Boxes", 
        "@feature": "Mastery"
      }, 
      {
        "@id": "80000038", 
        "@class": "", 
        "@name": "Dragon Horn Powders", 
        "@feature": "Mastery"
      }, 
      {
        "@id": "80000039", 
        "@class": "", 
        "@name": "Dragon Horn Handicraft Slates", 
        "@feature": "Mastery"
      }, 
      {
        "@id": "80000040", 
        "@class": "", 
        "@name": "Savagery Earrings Boxes", 
        "@feature": "Mastery"
      }, 
      {
        "@id": "80000041", 
        "@class": "", 
        "@name": "Fading Covetous Necklace Boxes", 
        "@feature": "Mastery04"
      }, 
      {
        "@id": "80000042", 
        "@class": "", 
        "@name": "Covetous Necklace Boxes", 
        "@feature": "Mastery04"
      }, 
      {
        "@id": "80000043", 
        "@class": "", 
        "@name": "Fading Covetous Ring Boxes", 
        "@feature": "Mastery04"
      }, 
      {
        "@id": "80000044", 
        "@class": "", 
        "@name": "Covetous Ring Boxes", 
        "@feature": "Mastery04"
      }, 
      {
        "@id": "80000045", 
        "@class": "", 
        "@name": "Fading Covetous Cape Boxes", 
        "@feature": "Mastery04"
      }, 
      {
        "@id": "80000046", 
        "@class": "", 
        "@name": "Covetous Cape Boxes", 
        "@feature": "Mastery04"
      }, 
      {
        "@id": "80000047", 
        "@class": "", 
        "@name": "Fading Covetous Belt Boxes", 
        "@feature": "Mastery04"
      }, 
      {
        "@id": "80000048", 
        "@class": "", 
        "@name": "Covetous Belt Boxes", 
        "@feature": "Mastery04"
      }, 
      {
        "@id": "80000049", 
        "@class": "", 
        "@name": "Fading Covetous Earring Boxes", 
        "@feature": "Mastery04"
      }, 
      {
        "@id": "80000050", 
        "@class": "", 
        "@name": "Covetous Earring Boxes", 
        "@feature": "Mastery04"
      }, 
      {
        "@id": "80000051", 
        "@class": "", 
        "@name": "Rainbow cloth: s", 
        "@feature": "Mastery06"
      }, 
      {
        "@id": "80000052", 
        "@class": "", 
        "@name": "Rainbow cloth pocket: s", 
        "@feature": "Mastery06"
      }, 
      {
        "@id": "80000053", 
        "@class": "", 
        "@name": "Population:", 
        "@feature": "Mastery06"
      }, 
      {
        "@id": "80000054", 
        "@class": "", 
        "@name": "Upholstery reinforcement: s", 
        "@feature": "Mastery06"
      }, 
      {
        "@id": "90000001", 
        "@class": "", 
        "@name": "Nutritional Supplements", 
        "@feature": "ContentsGuide02"
      }, 
      {
        "@id": "90000002", 
        "@class": "", 
        "@name": "copies of Alchemy Recipe Quest 2", 
        "@feature": "MasterySecond"
      }, 
      {
        "@id": "90000011", 
        "@class": "", 
        "@name": "Marjoram Essences", 
        "@feature": "MasterySecond"
      }, 
      {
        "@id": "90000012", 
        "@class": "", 
        "@name": "Marjoram Supplements", 
        "@feature": "MasterySecond"
      }, 
      {
        "@id": "90000013", 
        "@class": "", 
        "@name": "Lavender Essences", 
        "@feature": "MasterySecond"
      }, 
      {
        "@id": "90000014", 
        "@class": "", 
        "@name": "Lavender Crystals", 
        "@feature": "MasterySecond"
      }, 
      {
        "@id": "90000015", 
        "@class": "", 
        "@name": "Lavender Candles", 
        "@feature": "MasterySecond"
      }, 
      {
        "@id": "90000016", 
        "@class": "", 
        "@name": "Rosemary Essences", 
        "@feature": "MasterySecond"
      }, 
      {
        "@id": "90000017", 
        "@class": "", 
        "@name": "Rosemary Supplements", 
        "@feature": "MasterySecond"
      }, 
      {
        "@id": "90000018", 
        "@class": "", 
        "@name": "Gear Dye Vouchers", 
        "@feature": "MasterySecond"
      }, 
      {
        "@id": "90000019", 
        "@class": "", 
        "@name": "Lemon Balm Essences", 
        "@feature": "MasterySecond"
      }, 
      {
        "@id": "90000020", 
        "@class": "", 
        "@name": "Lemon Balm Crystals", 
        "@feature": "MasterySecond"
      }, 
      {
        "@id": "90000021", 
        "@class": "", 
        "@name": "Ground Mount Summoning Stones", 
        "@feature": "MasterySecond"
      }, 
      {
        "@id": "90000022", 
        "@class": "", 
        "@name": "Mandarin Essences", 
        "@feature": "MasterySecond"
      }, 
      {
        "@id": "90000023", 
        "@class": "", 
        "@name": "Mandarin Supplements", 
        "@feature": "MasterySecond"
      }, 
      {
        "@id": "90000024", 
        "@class": "", 
        "@name": "Special Defense Tonics", 
        "@feature": "MasterySecond"
      }, 
      {
        "@id": "90000025", 
        "@class": "", 
        "@name": "Jasmine Essences", 
        "@feature": "MasterySecond"
      }, 
      {
        "@id": "90000026", 
        "@class": "", 
        "@name": "Jasmine Crystals", 
        "@feature": "MasterySecond"
      }, 
      {
        "@id": "90000027", 
        "@class": "", 
        "@name": "Air Mount Summoning Stones", 
        "@feature": "MasterySecond"
      }, 
      {
        "@id": "90000028", 
        "@class": "", 
        "@name": "Tea Tree Essences", 
        "@feature": "MasterySecond"
      }, 
      {
        "@id": "90000029", 
        "@class": "", 
        "@name": "Tea Supplements", 
        "@feature": "MasterySecond"
      }, 
      {
        "@id": "90000030", 
        "@class": "", 
        "@name": "Special Red Potions", 
        "@feature": "MasterySecond"
      }, 
      {
        "@id": "90000031", 
        "@class": "", 
        "@name": "Cherry Sage Essences", 
        "@feature": "MasterySecond"
      }, 
      {
        "@id": "90000032", 
        "@class": "", 
        "@name": "Cherry Sage Crystals", 
        "@feature": "MasterySecond"
      }, 
      {
        "@id": "90000033", 
        "@class": "", 
        "@name": "Cosmetics Vouchers", 
        "@feature": "MasterySecond"
      }, 
      {
        "@id": "90000034", 
        "@class": "", 
        "@name": "Patchouli Essences", 
        "@feature": "MasterySecond"
      }, 
      {
        "@id": "90000035", 
        "@class": "", 
        "@name": "Patchouli Supplements", 
        "@feature": "MasterySecond"
      }, 
      {
        "@id": "90000036", 
        "@class": "", 
        "@name": "Special Health Tonics", 
        "@feature": "MasterySecond"
      }, 
      {
        "@id": "90000037", 
        "@class": "", 
        "@name": "Oregano Essences", 
        "@feature": "MasterySecond"
      }, 
      {
        "@id": "90000038", 
        "@class": "", 
        "@name": "Oregano Crystals", 
        "@feature": "MasterySecond"
      }, 
      {
        "@id": "90000039", 
        "@class": "", 
        "@name": "Face Change Vouchers", 
        "@feature": "MasterySecond"
      }, 
      {
        "@id": "90000040", 
        "@class": "", 
        "@name": "Skin Tone Change Vouchers", 
        "@feature": "MasterySecond"
      }, 
      {
        "@id": "90000041", 
        "@class": "", 
        "@name": "Yarrow Essences", 
        "@feature": "MasterySecond"
      }, 
      {
        "@id": "90000042", 
        "@class": "", 
        "@name": "Yarrow Candles", 
        "@feature": "MasterySecond"
      }, 
      {
        "@id": "90000043", 
        "@class": "", 
        "@name": "Special Orange Potions", 
        "@feature": "MasterySecond"
      }, 
      {
        "@id": "90000044", 
        "@class": "", 
        "@name": "Basil Essences", 
        "@feature": "MasterySecond"
      }, 
      {
        "@id": "90000045", 
        "@class": "", 
        "@name": "Basil Crystals", 
        "@feature": "MasterySecond"
      }, 
      {
        "@id": "90000046", 
        "@class": "", 
        "@name": "Hairstyle Vouchers", 
        "@feature": "MasterySecond"
      }, 
      {
        "@id": "90000047", 
        "@class": "", 
        "@name": "Special Hairstyle Vouchers", 
        "@feature": "MasterySecond"
      }, 
      {
        "@id": "90000048", 
        "@class": "", 
        "@name": "Bergamot Essences", 
        "@feature": "MasterySecond"
      }, 
      {
        "@id": "90000049", 
        "@class": "", 
        "@name": "Bergamot Supplements", 
        "@feature": "MasterySecond"
      }, 
      {
        "@id": "90000050", 
        "@class": "", 
        "@name": "Special Warrior Tonics", 
        "@feature": "MasterySecond"
      }, 
      {
        "@id": "90000051", 
        "@class": "", 
        "@name": "Special Mage Tonics", 
        "@feature": "MasterySecond"
      }, 
      {
        "@id": "90000052", 
        "@class": "", 
        "@name": "Shining Blessing Stone: s", 
        "@feature": "SkinSocket"
      }, 
      {
        "@id": "90000053", 
        "@class": "", 
        "@name": "Survival Instinct Tonics", 
        "@feature": "Mastery03"
      }, 
      {
        "@id": "90000054", 
        "@class": "", 
        "@name": "Exceptional Focus Tonics", 
        "@feature": "Mastery03"
      }, 
      {
        "@id": "90000055", 
        "@class": "", 
        "@name": "Spirit Boost Tonics", 
        "@feature": "Mastery03"
      }, 
      {
        "@id": "90000056", 
        "@class": "", 
        "@name": "Critical Rate Tonics", 
        "@feature": "Mastery03"
      }, 
      {
        "@id": "90000057", 
        "@class": "", 
        "@name": "Unstable Damage Boost Tonics", 
        "@feature": "Mastery03"
      }, 
      {
        "@id": "90000058", 
        "@class": "", 
        "@name": "Dust Replacement Box: Red: s", 
        "@feature": "DustExchangeScroll01"
      }, 
      {
        "@id": "90000059", 
        "@class": "", 
        "@name": "Dust exchange box: Green: s", 
        "@feature": "DustExchangeScroll01"
      }, 
      {
        "@id": "90000060", 
        "@class": "", 
        "@name": "Dust Replacement Box: Blue: s", 
        "@feature": "DustExchangeScroll01"
      }, 
      {
        "@id": "90000061", 
        "@class": "", 
        "@name": "Dust Replacement Box: Purple: s", 
        "@feature": "DustExchangeScroll01"
      }, 
      {
        "@id": "90000062", 
        "@class": "", 
        "@name": "Spartium essence: s", 
        "@feature": "Mastery06"
      }, 
      {
        "@id": "90000063", 
        "@class": "", 
        "@name": "Spartium Decision: s", 
        "@feature": "Mastery06"
      }, 
      {
        "@id": "90000064", 
        "@class": "", 
        "@name": "Automatic production badge (4 hours): s", 
        "@feature": "Mastery06"
      }, 
      {
        "@id": "90000065", 
        "@class": "", 
        "@name": "Time essence: s", 
        "@feature": "Mastery06"
      }, 
      {
        "@id": "90000066", 
        "@class": "", 
        "@name": "Time Nutrition: s", 
        "@feature": "Mastery06"
      }, 
      {
        "@id": "90000067", 
        "@class": "", 
        "@name": "Special white potion: s", 
        "@feature": "Mastery06"
      }, 
      {
        "@id": "90000068", 
        "@class": "", 
        "@name": "Enhanced Special Wizard's Potion: s", 
        "@feature": "Mastery06"
      }, 
      {
        "@id": "90000069", 
        "@class": "", 
        "@name": "Enhanced Special Champion's Potion: s", 
        "@feature": "Mastery06"
      }, 
      {
        "@id": "90000070", 
        "@class": "", 
        "@name": "Enhanced Crisis Detection Potion: s", 
        "@feature": "Mastery06"
      }, 
      {
        "@id": "90000071", 
        "@class": "", 
        "@name": "Enhanced SP Enchantment Potion: s", 
        "@feature": "Mastery06"
      }, 
      {
        "@id": "10000001", 
        "@class": "", 
        "@name": "Dried Persimmons", 
        "@feature": "ContentsGuide02"
      }, 
      {
        "@id": "10000002", 
        "@class": "", 
        "@name": "copies of Cooking Recipe Quest 2", 
        "@feature": "MasterySecond"
      }, 
      {
        "@id": "10000011", 
        "@class": "", 
        "@name": "bags of Rice Flour", 
        "@feature": "MasterySecond"
      }, 
      {
        "@id": "10000012", 
        "@class": "", 
        "@name": "servings of Rice Chips", 
        "@feature": "MasterySecond"
      }, 
      {
        "@id": "10000013", 
        "@class": "", 
        "@name": "Prepped Pumpkins", 
        "@feature": "MasterySecond"
      }, 
      {
        "@id": "10000014", 
        "@class": "", 
        "@name": "Pumpkin Seasonings", 
        "@feature": "MasterySecond"
      }, 
      {
        "@id": "10000015", 
        "@class": "", 
        "@name": "Sweet Pumpkin Soups", 
        "@feature": "MasterySecond"
      }, 
      {
        "@id": "10000016", 
        "@class": "", 
        "@name": "Prepped Apples", 
        "@feature": "MasterySecond"
      }, 
      {
        "@id": "10000017", 
        "@class": "", 
        "@name": "Baskets of Apple Chips", 
        "@feature": "MasterySecond"
      }, 
      {
        "@id": "10000018", 
        "@class": "", 
        "@name": "Prepped Green Onions", 
        "@feature": "MasterySecond"
      }, 
      {
        "@id": "10000019", 
        "@class": "", 
        "@name": "Green Onion Seasonings", 
        "@feature": "MasterySecond"
      }, 
      {
        "@id": "10000020", 
        "@class": "", 
        "@name": "Prepped Pine Mushrooms", 
        "@feature": "MasterySecond"
      }, 
      {
        "@id": "10000021", 
        "@class": "", 
        "@name": "Pine Mushroom Seasonings", 
        "@feature": "MasterySecond"
      }, 
      {
        "@id": "10000022", 
        "@class": "", 
        "@name": "Pine Mushroom Stews", 
        "@feature": "MasterySecond"
      }, 
      {
        "@id": "10000023", 
        "@class": "", 
        "@name": "Prepped Oranges", 
        "@feature": "MasterySecond"
      }, 
      {
        "@id": "10000024", 
        "@class": "", 
        "@name": "Baskets of Orange Chips", 
        "@feature": "MasterySecond"
      }, 
      {
        "@id": "10000025", 
        "@class": "", 
        "@name": "Orange Madeleines", 
        "@feature": "MasterySecond"
      }, 
      {
        "@id": "10000026", 
        "@class": "", 
        "@name": "7-day Luck Companion Candies", 
        "@feature": "MasterySecond"
      }, 
      {
        "@id": "10000027", 
        "@class": "", 
        "@name": "7-day Dexterity Companion Candies", 
        "@feature": "MasterySecond"
      }, 
      {
        "@id": "10000028", 
        "@class": "", 
        "@name": "7-day Intelligence Companion Candies", 
        "@feature": "MasterySecond"
      }, 
      {
        "@id": "10000029", 
        "@class": "", 
        "@name": "Prepped Bananas", 
        "@feature": "MasterySecond"
      }, 
      {
        "@id": "10000030", 
        "@class": "", 
        "@name": "baskets of Banana Chips", 
        "@feature": "MasterySecond"
      }, 
      {
        "@id": "10000031", 
        "@class": "", 
        "@name": "Banana Sandwiches", 
        "@feature": "MasterySecond"
      }, 
      {
        "@id": "10000032", 
        "@class": "", 
        "@name": "Prepped Medicinal Mushrooms", 
        "@feature": "MasterySecond"
      }, 
      {
        "@id": "10000033", 
        "@class": "", 
        "@name": "Medicinal Mushroom Seasonings", 
        "@feature": "MasterySecond"
      }, 
      {
        "@id": "10000034", 
        "@class": "", 
        "@name": "Medicinal Mushroom Teas", 
        "@feature": "MasterySecond"
      }, 
      {
        "@id": "10000035", 
        "@class": "", 
        "@name": "Prepped Tomatoes", 
        "@feature": "MasterySecond"
      }, 
      {
        "@id": "10000036", 
        "@class": "", 
        "@name": "Baskets of Tomato Chips", 
        "@feature": "MasterySecond"
      }, 
      {
        "@id": "10000037", 
        "@class": "", 
        "@name": "Caprese Salads", 
        "@feature": "MasterySecond"
      }, 
      {
        "@id": "10000038", 
        "@class": "", 
        "@name": "Prepped Cucumbers", 
        "@feature": "MasterySecond"
      }, 
      {
        "@id": "10000039", 
        "@class": "", 
        "@name": "Cucumber Seasonings", 
        "@feature": "MasterySecond"
      }, 
      {
        "@id": "10000040", 
        "@class": "", 
        "@name": "7-day Strength Companion Candies", 
        "@feature": "MasterySecond"
      }, 
      {
        "@id": "10000041", 
        "@class": "", 
        "@name": "bags of Flour", 
        "@feature": "MasterySecond"
      }, 
      {
        "@id": "10000042", 
        "@class": "", 
        "@name": "Baguettes", 
        "@feature": "MasterySecond"
      }, 
      {
        "@id": "10000043", 
        "@class": "", 
        "@name": "Fruit Tarts", 
        "@feature": "MasterySecond"
      }, 
      {
        "@id": "10000044", 
        "@class": "", 
        "@name": "Prepped Agaric Mushrooms", 
        "@feature": "MasterySecond"
      }, 
      {
        "@id": "10000045", 
        "@class": "", 
        "@name": "Agaric Mushroom Seasonings", 
        "@feature": "MasterySecond"
      }, 
      {
        "@id": "10000046", 
        "@class": "", 
        "@name": "Agaric Mushroom Kebabs", 
        "@feature": "MasterySecond"
      }, 
      {
        "@id": "10000047", 
        "@class": "", 
        "@name": "Prepped Pears", 
        "@feature": "MasterySecond"
      }, 
      {
        "@id": "10000048", 
        "@class": "", 
        "@name": "Baskets of Pear Chips", 
        "@feature": "MasterySecond"
      }, 
      {
        "@id": "10000049", 
        "@class": "", 
        "@name": "Maple Cheesecakes with Pears", 
        "@feature": "MasterySecond"
      }, 
      {
        "@id": "10000050", 
        "@class": "", 
        "@name": "30-day Luck Companion Candies", 
        "@feature": "MasterySecond"
      }, 
      {
        "@id": "10000051", 
        "@class": "", 
        "@name": "30-day Dexterity Companion Candies", 
        "@feature": "MasterySecond"
      }, 
      {
        "@id": "10000052", 
        "@class": "", 
        "@name": "30-day Intelligence Companion Candies", 
        "@feature": "MasterySecond"
      }, 
      {
        "@id": "10000053", 
        "@class": "", 
        "@name": "30-day Strength Companion Candies", 
        "@feature": "MasterySecond"
      }, 
      {
        "@id": "10000054", 
        "@class": "", 
        "@name": "Fresh Fruit Platters", 
        "@feature": "Mastery03"
      }, 
      {
        "@id": "10000055", 
        "@class": "", 
        "@name": "Ellinian Mega Blueberries", 
        "@feature": "Mastery03"
      }, 
      {
        "@id": "10000056", 
        "@class": "", 
        "@name": "Mega Veil Burgers", 
        "@feature": "Mastery03"
      }, 
      {
        "@id": "10000057", 
        "@class": "", 
        "@name": "Crispy Fried Chickens", 
        "@feature": "Mastery03"
      }, 
      {
        "@id": "10000058", 
        "@class": "", 
        "@name": "Groomed pineapple: s", 
        "@feature": "Mastery06"
      }, 
      {
        "@id": "10000059", 
        "@class": "", 
        "@name": "Pineapple flavor seasoning: s", 
        "@feature": "Mastery06"
      }, 
      {
        "@id": "10000060", 
        "@class": "", 
        "@name": "Pineapple pizza: s", 
        "@feature": "Mastery06"
      }, 
      {
        "@id": "10000061", 
        "@class": "", 
        "@name": "Tailored Durian: s", 
        "@feature": "Mastery06"
      }, 
      {
        "@id": "10000062", 
        "@class": "", 
        "@name": "Durian Taste Chips: s", 
        "@feature": "Mastery06"
      }, 
      {
        "@id": "10000063", 
        "@class": "", 
        "@name": "Crape cake in heaven: s", 
        "@feature": "Mastery06"
      }, 
      {
        "@id": "20000001", 
        "@class": "", 
        "@name": "Dryad G1 Snares", 
        "@feature": "MasteryPet01"
      }, 
      {
        "@id": "20000002", 
        "@class": "", 
        "@name": "Dryad G2 Snares", 
        "@feature": "MasteryPet01"
      }, 
      {
        "@id": "20000003", 
        "@class": "", 
        "@name": "Dryad G3 Snares", 
        "@feature": "MasteryPet01"
      }, 
      {
        "@id": "20000004", 
        "@class": "", 
        "@name": "Dryad G3 Snares", 
        "@feature": "MasteryPet01"
      }
    ]
  }
}