{
  "?xml": {
    "@version": "1.0", 
    "@encoding": "utf-8"
  }, 
  "ms2": {
    "key": [
      {
        "@id": "0", 
        "@name": "No Title"
      }, 
      {
        "@id": "1", 
        "@name": "{0}", 
        "@feature": "Club"
      }, 
      {
        "@id": "2", 
        "@name": "{0}", 
        "@feature": "Club"
      }, 
      {
        "@id": "3", 
        "@name": "{0}", 
        "@feature": "Club"
      }, 
      {
        "@id": "10000001", 
        "@name": "Novice Knight"
      }, 
      {
        "@id": "10000002", 
        "@name": "Novice Berserker"
      }, 
      {
        "@id": "10000003", 
        "@name": "Novice Wizard"
      }, 
      {
        "@id": "10000004", 
        "@name": "Novice Priest"
      }, 
      {
        "@id": "10000005", 
        "@name": "Novice Archer"
      }, 
      {
        "@id": "10000006", 
        "@name": "Novice Heavy Gunner"
      }, 
      {
        "@id": "10000007", 
        "@name": "Novice Thief"
      }, 
      {
        "@id": "10000008", 
        "@name": "Novice Assassin"
      }, 
      {
        "@id": "10000009", 
        "@name": "Master Knight"
      }, 
      {
        "@id": "10000010", 
        "@name": "Master Berserker"
      }, 
      {
        "@id": "10000011", 
        "@name": "Master Wizard"
      }, 
      {
        "@id": "10000012", 
        "@name": "Master Priest"
      }, 
      {
        "@id": "10000013", 
        "@name": "Master Archer"
      }, 
      {
        "@id": "10000014", 
        "@name": "Master Heavy Gunner"
      }, 
      {
        "@id": "10000015", 
        "@name": "Master Thief"
      }, 
      {
        "@id": "10000016", 
        "@name": "Master Assassin"
      }, 
      {
        "@id": "10000017", 
        "@name": "Iron-willed"
      }, 
      {
        "@id": "10000018", 
        "@name": "Slayer"
      }, 
      {
        "@id": "10000019", 
        "@name": "Beary Strong"
      }, 
      {
        "@id": "10000020", 
        "@name": "Annihilator"
      }, 
      {
        "@id": "10000021", 
        "@name": "Red Conqueror"
      }, 
      {
        "@id": "10000022", 
        "@name": "Crimson Conqueror"
      }, 
      {
        "@id": "10000023", 
        "@name": "Local Nut"
      }, 
      {
        "@id": "10000024", 
        "@name": "Tireless Fighter"
      }, 
      {
        "@id": "10000025", 
        "@name": "Marathoner"
      }, 
      {
        "@id": "10000026", 
        "@name": "Aquatic"
      }, 
      {
        "@id": "10000027", 
        "@name": "Wall-crawler"
      }, 
      {
        "@id": "10000028", 
        "@name": "Hard-shelled"
      }, 
      {
        "@id": "10000029", 
        "@name": "Fallen Angel"
      }, 
      {
        "@id": "10000030", 
        "@name": "Wanderer"
      }, 
      {
        "@id": "10000031", 
        "@name": "Frequent Flier"
      }, 
      {
        "@id": "10000032", 
        "@name": "Sweaty-foot"
      }, 
      {
        "@id": "10000033", 
        "@name": "Splasher"
      }, 
      {
        "@id": "10000034", 
        "@name": "Subnautical"
      }, 
      {
        "@id": "10000035", 
        "@name": "Sweaty-hand"
      }, 
      {
        "@id": "10000036", 
        "@name": "Climber"
      }, 
      {
        "@id": "10000037", 
        "@name": "Keep Calm and"
      }, 
      {
        "@id": "10000038", 
        "@name": "Knock-kneed"
      }, 
      {
        "@id": "10000039", 
        "@name": "Jumpy"
      }, 
      {
        "@id": "10000040", 
        "@name": "Exhausted"
      }, 
      {
        "@id": "10000041", 
        "@name": "Airsick"
      }, 
      {
        "@id": "10000042", 
        "@name": "Bird Hater"
      }, 
      {
        "@id": "10000043", 
        "@name": "Layabout"
      }, 
      {
        "@id": "10000044", 
        "@name": "Passenger"
      }, 
      {
        "@id": "10000045", 
        "@name": "Muscle King"
      }, 
      {
        "@id": "10000046", 
        "@name": "Explorer"
      }, 
      {
        "@id": "10000047", 
        "@name": "Observer"
      }, 
      {
        "@id": "10000048", 
        "@name": "Treasure Hunter"
      }, 
      {
        "@id": "10000049", 
        "@name": "Golden Hunter"
      }, 
      {
        "@id": "10000050", 
        "@name": "Unwelcome Guest"
      }, 
      {
        "@id": "10000051", 
        "@name": "Alikar Tourist"
      }, 
      {
        "@id": "10000052", 
        "@name": "Maple Guardian"
      }, 
      {
        "@id": "10000053", 
        "@name": "Jailbreaker"
      }, 
      {
        "@id": "10000054", 
        "@name": "Starter"
      }, 
      {
        "@id": "10000055", 
        "@name": "Streetlighter"
      }, 
      {
        "@id": "10000056", 
        "@name": "Cosmopolitan"
      }, 
      {
        "@id": "10000057", 
        "@name": "Reckless"
      }, 
      {
        "@id": "10000058", 
        "@name": "Hot-foot"
      }, 
      {
        "@id": "10000059", 
        "@name": "Totally Toxic"
      }, 
      {
        "@id": "10000060", 
        "@name": "Shadowy"
      }, 
      {
        "@id": "10000061", 
        "@name": "Sage"
      }, 
      {
        "@id": "10000062", 
        "@name": "Romantic"
      }, 
      {
        "@id": "10000063", 
        "@name": "Kumba-whatta"
      }, 
      {
        "@id": "10000064", 
        "@name": "Landscaper"
      }, 
      {
        "@id": "10000065", 
        "@name": "Wall Climber"
      }, 
      {
        "@id": "10000066", 
        "@name": "Mapleholic"
      }, 
      {
        "@id": "10000067", 
        "@name": "Dedicated"
      }, 
      {
        "@id": "10000068", 
        "@name": "Elegant"
      }, 
      {
        "@id": "10000069", 
        "@name": "Destroyer"
      }, 
      {
        "@id": "10000070", 
        "@name": "Cleaner"
      }, 
      {
        "@id": "10000071", 
        "@name": "Meticulous"
      }, 
      {
        "@id": "10000072", 
        "@name": "Immortal"
      }, 
      {
        "@id": "10000073", 
        "@name": "Savior"
      }, 
      {
        "@id": "10000074", 
        "@name": "Grabby"
      }, 
      {
        "@id": "10000075", 
        "@name": "Bungee Jumper"
      }, 
      {
        "@id": "10000076", 
        "@name": "Wingless"
      }, 
      {
        "@id": "10000077", 
        "@name": "Guild Proud"
      }, 
      {
        "@id": "10000078", 
        "@name": "Mesoless"
      }, 
      {
        "@id": "10000079", 
        "@name": "Shopaholic"
      }, 
      {
        "@id": "10000080", 
        "@name": "Gazillionaire"
      }, 
      {
        "@id": "10000081", 
        "@name": "Blacksmith"
      }, 
      {
        "@id": "10000082", 
        "@name": "Souvenir Collector"
      }, 
      {
        "@id": "10000083", 
        "@name": "Mount Collector"
      }, 
      {
        "@id": "10000084", 
        "@name": "Trend-setter"
      }, 
      {
        "@id": "10000085", 
        "@name": "Trap Master"
      }, 
      {
        "@id": "10000086", 
        "@name": "Sole Survivor"
      }, 
      {
        "@id": "10000087", 
        "@name": "Spring Breaker"
      }, 
      {
        "@id": "10000088", 
        "@name": "Control Freak"
      }, 
      {
        "@id": "10000089", 
        "@name": "Track Star"
      }, 
      {
        "@id": "10000090", 
        "@name": "Student Driver"
      }, 
      {
        "@id": "10000091", 
        "@name": "Cyclist"
      }, 
      {
        "@id": "10000092", 
        "@name": "Speed Racer"
      }, 
      {
        "@id": "10000093", 
        "@name": "Pioneer"
      }, 
      {
        "@id": "10000094", 
        "@name": "Goofball"
      }, 
      {
        "@id": "10000095", 
        "@name": "Rhythm Rider"
      }, 
      {
        "@id": "10000096", 
        "@name": "Relentless"
      }, 
      {
        "@id": "10000097", 
        "@name": "Useless"
      }, 
      {
        "@id": "10000098", 
        "@name": "Unchained"
      }, 
      {
        "@id": "10000099", 
        "@name": "Newcomer"
      }, 
      {
        "@id": "10000100", 
        "@name": "Unstoppable"
      }, 
      {
        "@id": "10000101", 
        "@name": "Warlord"
      }, 
      {
        "@id": "10000102", 
        "@name": "Fearless"
      }, 
      {
        "@id": "10000103", 
        "@name": "Common Enemy"
      }, 
      {
        "@id": "10000104", 
        "@name": "Tearful"
      }, 
      {
        "@id": "10000105", 
        "@name": "Peaceful"
      }, 
      {
        "@id": "10000106", 
        "@name": "Starseeker"
      }, 
      {
        "@id": "10000107", 
        "@name": "Vengeful"
      }, 
      {
        "@id": "10000108", 
        "@name": "Penitent"
      }, 
      {
        "@id": "10000109", 
        "@name": "Unchallenged"
      }, 
      {
        "@id": "10000110", 
        "@name": "Lost"
      }, 
      {
        "@id": "10000111", 
        "@name": "Picky"
      }, 
      {
        "@id": "10000112", 
        "@name": "Summoner"
      }, 
      {
        "@id": "10000113", 
        "@name": "Handy"
      }, 
      {
        "@id": "10000114", 
        "@name": "Lovesick"
      }, 
      {
        "@id": "10000115", 
        "@name": "Ravager"
      }, 
      {
        "@id": "10000116", 
        "@name": "Tidy"
      }, 
      {
        "@id": "10000117", 
        "@name": "Detective"
      }, 
      {
        "@id": "10000118", 
        "@name": "Clingy"
      }, 
      {
        "@id": "10000119", 
        "@name": "Action Star"
      }, 
      {
        "@id": "10000120", 
        "@name": "Cool"
      }, 
      {
        "@id": "10000121", 
        "@name": "Big Spender"
      }, 
      {
        "@id": "10000122", 
        "@name": "Extravagant"
      }, 
      {
        "@id": "10000123", 
        "@name": "Season 1 Contender"
      }, 
      {
        "@id": "10000124", 
        "@name": "Gourmand"
      }, 
      {
        "@id": "10000125", 
        "@name": "Health Nut"
      }, 
      {
        "@id": "10000126", 
        "@name": "Juicy"
      }, 
      {
        "@id": "10000127", 
        "@name": "Aromatic"
      }, 
      {
        "@id": "10000128", 
        "@name": "Contestant"
      }, 
      {
        "@id": "10000129", 
        "@name": "Cheer Captain"
      }, 
      {
        "@id": "10000130", 
        "@name": "Loyalist"
      }, 
      {
        "@id": "10000131", 
        "@name": "Cruel"
      }, 
      {
        "@id": "10000132", 
        "@name": "Worldwide Star"
      }, 
      {
        "@id": "10000133", 
        "@name": "Lonesome"
      }, 
      {
        "@id": "10000134", 
        "@name": "Big Hero"
      }, 
      {
        "@id": "10000135", 
        "@name": "Rhythmic"
      }, 
      {
        "@id": "10000136", 
        "@name": "Apologetic"
      }, 
      {
        "@id": "10000137", 
        "@name": "Perky"
      }, 
      {
        "@id": "10000138", 
        "@name": "Greedy"
      }, 
      {
        "@id": "10000139", 
        "@name": "Backseat Driver"
      }, 
      {
        "@id": "10000140", 
        "@name": "Partner"
      }, 
      {
        "@id": "10000141", 
        "@name": "Good Friend"
      }, 
      {
        "@id": "10000142", 
        "@name": "Caring"
      }, 
      {
        "@id": "10000143", 
        "@name": "Investigator"
      }, 
      {
        "@id": "10000144", 
        "@name": "The Fantastic"
      }, 
      {
        "@id": "10000145", 
        "@name": "Shepherd"
      }, 
      {
        "@id": "10000146", 
        "@name": "Horned"
      }, 
      {
        "@id": "10000147", 
        "@name": "Moonlit Shadow"
      }, 
      {
        "@id": "10000148", 
        "@name": "Watcher"
      }, 
      {
        "@id": "10000149", 
        "@name": "Experienced"
      }, 
      {
        "@id": "10000150", 
        "@name": "True Scholar"
      }, 
      {
        "@id": "10000151", 
        "@name": "Self-Proclaimed Hero"
      }, 
      {
        "@id": "10000152", 
        "@name": "True Champion"
      }, 
      {
        "@id": "10000153", 
        "@name": "Top Designer"
      }, 
      {
        "@id": "10000154", 
        "@name": "Hero at Last"
      }, 
      {
        "@id": "10000155", 
        "@name": "Demolitionist"
      }, 
      {
        "@id": "10000156", 
        "@name": "Medic"
      }, 
      {
        "@id": "10000157", 
        "@name": "Balmy Shepherd"
      }, 
      {
        "@id": "10000158", 
        "@name": "Star Architect"
      }, 
      {
        "@id": "10000159", 
        "@name": "Liked"
      }, 
      {
        "@id": "10000160", 
        "@name": "Time Traveler"
      }, 
      {
        "@id": "10000161", 
        "@name": "Complex"
      }, 
      {
        "@id": "10000162", 
        "@name": "Fighter"
      }, 
      {
        "@id": "10000163", 
        "@name": "Gardener"
      }, 
      {
        "@id": "10000164", 
        "@name": "Brave"
      }, 
      {
        "@id": "10000165", 
        "@name": "Treasure Conquerer"
      }, 
      {
        "@id": "10000166", 
        "@name": "Persistent Plunderer"
      }, 
      {
        "@id": "10000167", 
        "@name": "Ambush Master"
      }, 
      {
        "@id": "10000168", 
        "@name": "Returner"
      }, 
      {
        "@id": "10000169", 
        "@name": "Centennialist"
      }, 
      {
        "@id": "10000170", 
        "@name": "Trophyholic"
      }, 
      {
        "@id": "10000171", 
        "@name": "Trophy Maniac"
      }, 
      {
        "@id": "10000172", 
        "@name": "Trophy Master"
      }, 
      {
        "@id": "10000173", 
        "@name": "Sincere"
      }, 
      {
        "@id": "10000174", 
        "@name": "Overworked"
      }, 
      {
        "@id": "10000175", 
        "@name": "Strong"
      }, 
      {
        "@id": "10000176", 
        "@name": "Ready, Steady"
      }, 
      {
        "@id": "10000177", 
        "@name": "Guardian Angel"
      }, 
      {
        "@id": "10000178", 
        "@name": "Curious"
      }, 
      {
        "@id": "10000179", 
        "@name": "Knowledge Seeker"
      }, 
      {
        "@id": "10000180", 
        "@name": "Brain-cramped"
      }, 
      {
        "@id": "10000181", 
        "@name": "Well-informed"
      }, 
      {
        "@id": "10000182", 
        "@name": "Clever"
      }, 
      {
        "@id": "10000183", 
        "@name": "Walking Encyclopedia"
      }, 
      {
        "@id": "10000184", 
        "@name": "Quiz Master"
      }, 
      {
        "@id": "10000185", 
        "@name": "Honorary Journalist"
      }, 
      {
        "@id": "10000186", 
        "@name": "Thrilling"
      }, 
      {
        "@id": "10000187", 
        "@name": "Mind-blower"
      }, 
      {
        "@id": "10000188", 
        "@name": "Brawler"
      }, 
      {
        "@id": "10000189", 
        "@name": "Scourge of Darkness"
      }, 
      {
        "@id": "10000190", 
        "@name": "Warrior of Light"
      }, 
      {
        "@id": "10000191", 
        "@name": "Amateur Angler"
      }, 
      {
        "@id": "10000192", 
        "@name": "Veteran Angler"
      }, 
      {
        "@id": "10000193", 
        "@name": "Expert Angler"
      }, 
      {
        "@id": "10000194", 
        "@name": "Expert Angler"
      }, 
      {
        "@id": "10000195", 
        "@name": "Virtuoso"
      }, 
      {
        "@id": "10000196", 
        "@name": "Fishing Champion"
      }, 
      {
        "@id": "10000197", 
        "@name": "Musician"
      }, 
      {
        "@id": "10000198", 
        "@name": "Maestro"
      }, 
      {
        "@id": "10000199", 
        "@name": "Free Spirit"
      }, 
      {
        "@id": "10000200", 
        "@name": "Guitarist"
      }, 
      {
        "@id": "10000201", 
        "@name": "Sweetie"
      }, 
      {
        "@id": "10000202", 
        "@name": "Pianist"
      }, 
      {
        "@id": "10000203", 
        "@name": "Flip-flopper"
      }, 
      {
        "@id": "10000204", 
        "@name": "Fishing Fanatic"
      }, 
      {
        "@id": "10000205", 
        "@name": "Fishing Enthusiast"
      }, 
      {
        "@id": "10000206", 
        "@name": "Milletian"
      }, 
      {
        "@id": "10000207", 
        "@name": "Rune Child"
      }, 
      {
        "@id": "10000208", 
        "@name": "Hardcore Mapler"
      }, 
      {
        "@id": "10000209", 
        "@name": "Kart Rider"
      }, 
      {
        "@id": "10000210", 
        "@name": "Breezy"
      }, 
      {
        "@id": "10000211", 
        "@name": "Sudden"
      }, 
      {
        "@id": "10000212", 
        "@name": "Conqueror of Evil"
      }, 
      {
        "@id": "10000213", 
        "@name": "Heart-melter"
      }, 
      {
        "@id": "10000214", 
        "@name": "Clarinetist"
      }, 
      {
        "@id": "10000215", 
        "@name": "Stringy"
      }, 
      {
        "@id": "10000216", 
        "@name": "Harpist"
      }, 
      {
        "@id": "10000217", 
        "@name": "Boom Boom Pow"
      }, 
      {
        "@id": "10000218", 
        "@name": "Percussionist"
      }, 
      {
        "@id": "10000219", 
        "@name": "Zinger"
      }, 
      {
        "@id": "10000220", 
        "@name": "Melodic Shock"
      }, 
      {
        "@id": "10000221", 
        "@name": "Bold"
      }, 
      {
        "@id": "10000222", 
        "@name": "Bassist"
      }, 
      {
        "@id": "10000223", 
        "@name": "Ba-dum"
      }, 
      {
        "@id": "10000224", 
        "@name": "Passionate Drummer"
      }, 
      {
        "@id": "10000225", 
        "@name": "Farmer"
      }, 
      {
        "@id": "10000226", 
        "@name": "Warm-hearted"
      }, 
      {
        "@id": "10000227", 
        "@name": "Invisible"
      }, 
      {
        "@id": "10000228", 
        "@name": "Shrewd"
      }, 
      {
        "@id": "10000229", 
        "@name": "Halting"
      }, 
      {
        "@id": "10000230", 
        "@name": "Sluggish"
      }, 
      {
        "@id": "10000231", 
        "@name": "Moody"
      }, 
      {
        "@id": "10000232", 
        "@name": "Reporter"
      }, 
      {
        "@id": "10000233", 
        "@name": "Daredevil", 
        "@feature": "PvPRankingDuelMode"
      }, 
      {
        "@id": "10000234", 
        "@name": "Champion", 
        "@feature": "PvPRankingDuelMode"
      }, 
      {
        "@id": "10000235", 
        "@name": "Grand Champion", 
        "@feature": "PvPRankingDuelMode"
      }, 
      {
        "@id": "10000236", 
        "@name": "Frenzied"
      }, 
      {
        "@id": "10000237", 
        "@name": "Violinst"
      }, 
      {
        "@id": "10000238", 
        "@name": "Admirable"
      }, 
      {
        "@id": "10000239", 
        "@name": "Cellist"
      }, 
      {
        "@id": "10000240", 
        "@name": "Innocent"
      }, 
      {
        "@id": "10000241", 
        "@name": "Pan Flutist"
      }, 
      {
        "@id": "10000242", 
        "@name": "Pioneer"
      }, 
      {
        "@id": "10000243", 
        "@name": "Special"
      }, 
      {
        "@id": "10000244", 
        "@name": "Teacher's Pet"
      }, 
      {
        "@id": "10000245", 
        "@name": "Starlight Explorer"
      }, 
      {
        "@id": "10000246", 
        "@name": "Maplegraphic Star"
      }, 
      {
        "@id": "10000247", 
        "@name": "Slurpy"
      }, 
      {
        "@id": "10000248", 
        "@name": "Guild Worker"
      }, 
      {
        "@id": "10000249", 
        "@name": "Twinkling"
      }, 
      {
        "@id": "10000250", 
        "@name": "Star"
      }, 
      {
        "@id": "10000251", 
        "@name": "Natural Seeker"
      }, 
      {
        "@id": "10000252", 
        "@name": "Star Designer"
      }, 
      {
        "@id": "10000253", 
        "@name": "Star Adventurer"
      }, 
      {
        "@id": "10000254", 
        "@name": "Soulful"
      }, 
      {
        "@id": "10000255", 
        "@name": "Saxophonist"
      }, 
      {
        "@id": "10000256", 
        "@name": "Babbly"
      }, 
      {
        "@id": "10000257", 
        "@name": "Trombonist"
      }, 
      {
        "@id": "10000258", 
        "@name": "Rockstar"
      }, 
      {
        "@id": "10000259", 
        "@name": "Trumpeter"
      }, 
      {
        "@id": "10000260", 
        "@name": "Shadow Explorer", 
        "@feature": "ShadowExpedition"
      }, 
      {
        "@id": "10000261", 
        "@name": "Pathfinder", 
        "@feature": "ShrineOfGuidance"
      }, 
      {
        "@id": "10000262", 
        "@name": "Bright"
      }, 
      {
        "@id": "10000263", 
        "@name": "Ocarinist"
      }, 
      {
        "@id": "10000264", 
        "@name": "Stable"
      }, 
      {
        "@id": "10000265", 
        "@name": "Acoustic Bassist"
      }, 
      {
        "@id": "10000266", 
        "@name": "Ambidextrous"
      }, 
      {
        "@id": "10000267", 
        "@name": "Vibraphonist"
      }, 
      {
        "@id": "10000268", 
        "@name": "Jaunty"
      }, 
      {
        "@id": "10000269", 
        "@name": "Electric Pianist"
      }, 
      {
        "@id": "10000270", 
        "@name": "Popular"
      }, 
      {
        "@id": "10000271", 
        "@name": "Pick Bassist"
      }, 
      {
        "@id": "10000272", 
        "@name": "Ringer"
      }, 
      {
        "@id": "10000273", 
        "@name": "Steel Drummer"
      }, 
      {
        "@id": "10000274", 
        "@name": "Novice Miner"
      }, 
      {
        "@id": "10000275", 
        "@name": "Veteran Miner"
      }, 
      {
        "@id": "10000276", 
        "@name": "Expert Miner"
      }, 
      {
        "@id": "10000277", 
        "@name": "Master Miner"
      }, 
      {
        "@id": "10000278", 
        "@name": "Novice Rancher"
      }, 
      {
        "@id": "10000279", 
        "@name": "Veteran Rancher"
      }, 
      {
        "@id": "10000280", 
        "@name": "Expert Rancher"
      }, 
      {
        "@id": "10000281", 
        "@name": "Master Rancher"
      }, 
      {
        "@id": "10000282", 
        "@name": "Novice Blacksmith"
      }, 
      {
        "@id": "10000283", 
        "@name": "Veteran Blacksmith"
      }, 
      {
        "@id": "10000284", 
        "@name": "Expert Blacksmith"
      }, 
      {
        "@id": "10000285", 
        "@name": "Master Blacksmith"
      }, 
      {
        "@id": "10000286", 
        "@name": "Novice Artist"
      }, 
      {
        "@id": "10000287", 
        "@name": "Veteran Artist"
      }, 
      {
        "@id": "10000288", 
        "@name": "Expert Artist"
      }, 
      {
        "@id": "10000289", 
        "@name": "Master Artist"
      }, 
      {
        "@id": "10000290", 
        "@name": "Endless"
      }, 
      {
        "@id": "10000291", 
        "@name": "Homebody"
      }, 
      {
        "@id": "10000292", 
        "@name": "Agoraphobic"
      }, 
      {
        "@id": "10000293", 
        "@name": "Bachelor"
      }, 
      {
        "@id": "10000294", 
        "@name": "Housewarmer"
      }, 
      {
        "@id": "10000295", 
        "@name": "Potential Roommate"
      }, 
      {
        "@id": "10000296", 
        "@name": "Master of Adventure"
      }, 
      {
        "@id": "10000297", 
        "@name": "Melodic"
      }, 
      {
        "@id": "10000298", 
        "@name": "Oboist"
      }, 
      {
        "@id": "10000299", 
        "@name": "Plucky"
      }, 
      {
        "@id": "10000300", 
        "@name": "Pizzicato Master"
      }, 
      {
        "@id": "10000301", 
        "@name": "Detailed"
      }, 
      {
        "@id": "10000302", 
        "@name": "Harpsichordist"
      }, 
      {
        "@id": "10000303", 
        "@name": "Novice Gatherer"
      }, 
      {
        "@id": "10000304", 
        "@name": "Veteran Gatherer"
      }, 
      {
        "@id": "10000305", 
        "@name": "Expert Gatherer"
      }, 
      {
        "@id": "10000306", 
        "@name": "Master Gatherer"
      }, 
      {
        "@id": "10000307", 
        "@name": "Novice Farmer"
      }, 
      {
        "@id": "10000308", 
        "@name": "Veteran Farmer"
      }, 
      {
        "@id": "10000309", 
        "@name": "Expert Farmer"
      }, 
      {
        "@id": "10000310", 
        "@name": "Master Farmer"
      }, 
      {
        "@id": "10000311", 
        "@name": "Novice Alchemist"
      }, 
      {
        "@id": "10000312", 
        "@name": "Veteran Alchemist"
      }, 
      {
        "@id": "10000313", 
        "@name": "Expert Alchemist"
      }, 
      {
        "@id": "10000314", 
        "@name": "Master Alchemist"
      }, 
      {
        "@id": "10000315", 
        "@name": "Novice Chef"
      }, 
      {
        "@id": "10000316", 
        "@name": "Veteran Chef"
      }, 
      {
        "@id": "10000317", 
        "@name": "Expert Chef"
      }, 
      {
        "@id": "10000318", 
        "@name": "Master Chef"
      }, 
      {
        "@id": "10000319", 
        "@name": "Frost Master", 
        "@feature": "SnowKingdom"
      }, 
      {
        "@id": "10000320", 
        "@name": "Fallen", 
        "@feature": "SnowKingdom"
      }, 
      {
        "@id": "10000321", 
        "@name": "Mystical", 
        "@feature": "PirateOcean"
      }, 
      {
        "@id": "10000322", 
        "@name": "Heroes stained in autumn colors", 
        "@locale": "CN"
      }, 
      {
        "@id": "10000323", 
        "@name": "VIP step 1", 
        "@locale": "CN"
      }, 
      {
        "@id": "10000324", 
        "@name": "VIP 2 steps", 
        "@locale": "CN"
      }, 
      {
        "@id": "10000325", 
        "@name": "VIP 3 stages", 
        "@locale": "CN"
      }, 
      {
        "@id": "10000326", 
        "@name": "Striker", 
        "@feature": "DarkCastle"
      }, 
      {
        "@id": "10000327", 
        "@name": "Fearsome", 
        "@feature": "DarkCastle"
      }, 
      {
        "@id": "10000328", 
        "@name": "Counterstriker", 
        "@feature": "DarkCastle"
      }, 
      {
        "@id": "10000329", 
        "@name": "Sweetheart"
      }, 
      {
        "@id": "10000330", 
        "@name": "Quiz Lover"
      }, 
      {
        "@id": "10000331", 
        "@name": "Zakum Conqueror", 
        "@feature": "Zakum01"
      }, 
      {
        "@id": "10000332", 
        "@name": "Those who can achieve their dreams", 
        "@locale": "CN"
      }, 
      {
        "@id": "10000333", 
        "@name": "3rd order performance mojipuga", 
        "@locale": "CN"
      }, 
      {
        "@id": "10000334", 
        "@name": "Tertiary Housing Module", 
        "@locale": "CN"
      }, 
      {
        "@id": "10000335", 
        "@name": "3rd Costume Design Module Puga", 
        "@locale": "CN"
      }, 
      {
        "@id": "10000336", 
        "@name": "Hero"
      }, 
      {
        "@id": "10000337", 
        "@name": "Superhero"
      }, 
      {
        "@id": "10000338", 
        "@name": "First Knight"
      }, 
      {
        "@id": "10000339", 
        "@name": "Late Knight"
      }, 
      {
        "@id": "10000341", 
        "@name": "The Next Merin"
      }, 
      {
        "@id": "10000342", 
        "@name": "Humble Trainer", 
        "@feature": "PetBattle"
      }, 
      {
        "@id": "10000345", 
        "@name": "Conditional Friend", 
        "@feature": "PetBattle"
      }, 
      {
        "@id": "10000350", 
        "@name": "Pink Protein", 
        "@feature": "PinkBean01"
      }, 
      {
        "@id": "10000351", 
        "@name": "Ding-donger"
      }, 
      {
        "@id": "10000352", 
        "@name": "Xylophonist"
      }, 
      {
        "@id": "10000353", 
        "@name": "Corny"
      }, 
      {
        "@id": "10000354", 
        "@name": "Harmonica Master"
      }, 
      {
        "@id": "10000355", 
        "@name": "3rd Test Conquest Jacuum", 
        "@locale": "CN"
      }, 
      {
        "@id": "10000356", 
        "@name": "Unified"
      }, 
      {
        "@id": "10000357", 
        "@name": "#1"
      }, 
      {
        "@id": "10000358", 
        "@name": "#1 Wizard"
      }, 
      {
        "@id": "10000359", 
        "@name": "#1 Assassin"
      }, 
      {
        "@id": "10000360", 
        "@name": "Deity"
      }, 
      {
        "@id": "10000361", 
        "@name": "Buddy"
      }, 
      {
        "@id": "10000362", 
        "@name": "Second in Command"
      }, 
      {
        "@id": "10000363", 
        "@name": "Captain"
      }, 
      {
        "@id": "10000364", 
        "@name": "$npc:11003471$$pp:와,과$ Together", 
        "@locale": "CN"
      }, 
      {
        "@id": "10000365", 
        "@name": "Covetous"
      }, 
      {
        "@id": "10000366", 
        "@name": "WeGame", 
        "@locale": "CN"
      }, 
      {
        "@id": "10000367", 
        "@name": "Warm-blooded", 
        "@feature": "GuildRaid01"
      }, 
      {
        "@id": "10000368", 
        "@name": "Super Climber", 
        "@feature": "GuildRaid01"
      }, 
      {
        "@id": "10000369", 
        "@name": "Cowboy", 
        "@feature": "GuildRaid01"
      }, 
      {
        "@id": "10000370", 
        "@name": "Meat Master", 
        "@feature": "GuildRaid01"
      }, 
      {
        "@id": "10000371", 
        "@name": "Tooter"
      }, 
      {
        "@id": "10000372", 
        "@name": "Meret Meister"
      }, 
      {
        "@id": "10000373", 
        "@name": "Single-Player", 
        "@feature": "GuildRaid01"
      }, 
      {
        "@id": "10000374", 
        "@name": "Tycoon", 
        "@feature": "GuildRaid01"
      }, 
      {
        "@id": "10000375", 
        "@name": "Strict", 
        "@feature": "GuildRaid01"
      }, 
      {
        "@id": "10000376", 
        "@name": "Factory Owner", 
        "@feature": "GuildRaid01"
      }, 
      {
        "@id": "10000377", 
        "@name": "Seven Colored", 
        "@feature": "GuildRaid01"
      }, 
      {
        "@id": "10000378", 
        "@name": "10 to 1 Legend", 
        "@feature": "GuildRaid01"
      }, 
      {
        "@id": "10000379", 
        "@name": "Ascendant", 
        "@feature": "ItemMerge"
      }, 
      {
        "@id": "10000380", 
        "@name": "Transcendent", 
        "@feature": "ItemMerge"
      }, 
      {
        "@id": "10000381", 
        "@name": "Beyond Belief", 
        "@feature": "ItemMerge"
      }, 
      {
        "@id": "10000382", 
        "@name": "Springer"
      }, 
      {
        "@id": "10000383", 
        "@name": "Top Dog "
      }, 
      {
        "@id": "10000384", 
        "@name": "BOSS"
      }, 
      {
        "@id": "10000385", 
        "@name": "Dreamboat"
      }, 
      {
        "@id": "10000386", 
        "@name": "National"
      }, 
      {
        "@id": "10000387", 
        "@name": "Mapler"
      }, 
      {
        "@id": "10000388", 
        "@name": "-xXxBESTxASSASSINxXx-"
      }, 
      {
        "@id": "10000389", 
        "@name": "1st"
      }, 
      {
        "@id": "10000390", 
        "@name": "Assassin"
      }, 
      {
        "@id": "10000391", 
        "@name": "First dark horse", 
        "@locale": "CN"
      }, 
      {
        "@id": "10000392", 
        "@name": "The Emperor of Shanghai Runners", 
        "@feature": "MassiveCrazyRunnersShanghai", 
        "@locale": "CN"
      }, 
      {
        "@id": "10000393", 
        "@name": "Instructor", 
        "@feature": "Mentoring"
      }, 
      {
        "@id": "10000394", 
        "@name": "Jacom first conqueror", 
        "@locale": "CN"
      }, 
      {
        "@id": "10000395", 
        "@name": "Hearty", 
        "@feature": "PetRemake01"
      }, 
      {
        "@id": "10000396", 
        "@name": "Sweet and Salty"
      }, 
      {
        "@id": "10000397", 
        "@name": "Balrog Defender"
      }, 
      {
        "@id": "10000398", 
        "@name": "Infernog Defender"
      }, 
      {
        "@id": "10000399", 
        "@name": "Fixer", 
        "@feature": "FameContents"
      }, 
      {
        "@id": "10000400", 
        "@name": "Rising", 
        "@feature": "FameContents"
      }, 
      {
        "@id": "10000401", 
        "@name": "Trusted", 
        "@feature": "FameContents"
      }, 
      {
        "@id": "10000402", 
        "@name": "Fresh Hero", 
        "@feature": "FameContents"
      }, 
      {
        "@id": "10000405", 
        "@name": "Alliance Commander", 
        "@feature": "FameContents"
      }, 
      {
        "@id": "10000406", 
        "@name": "Shield of Tria", 
        "@feature": "FameContents"
      }, 
      {
        "@id": "10000407", 
        "@name": "Dark Winder", 
        "@feature": "FameContents"
      }, 
      {
        "@id": "10000408", 
        "@name": "Green Hood's Arrow", 
        "@feature": "FameContents"
      }, 
      {
        "@id": "10000409", 
        "@name": "Honorary Temple Knight", 
        "@feature": "FameContents"
      }, 
      {
        "@id": "10000410", 
        "@name": "Sky Fortress Officer", 
        "@feature": "FameContents"
      }, 
      {
        "@id": "10000411", 
        "@name": "Condor Special Forces", 
        "@feature": "FameContents"
      }, 
      {
        "@id": "10000412", 
        "@name": "Schatten's Baby Kitten", 
        "@feature": "FameContents"
      }, 
      {
        "@id": "10000413", 
        "@name": "Nairin's Troubleshooter", 
        "@feature": "FameContents"
      }, 
      {
        "@id": "10000414", 
        "@name": "Mason's Guardian", 
        "@feature": "FameContents"
      }, 
      {
        "@id": "10000415", 
        "@name": "D-class Specialist", 
        "@feature": "FameContents"
      }, 
      {
        "@id": "10000416", 
        "@name": "C-class Responder", 
        "@feature": "FameContents"
      }, 
      {
        "@id": "10000417", 
        "@name": "B-class Operator", 
        "@feature": "FameContents"
      }, 
      {
        "@id": "10000418", 
        "@name": "A-class Enforcer", 
        "@feature": "FameContents"
      }, 
      {
        "@id": "10000419", 
        "@name": "S-class Tactician", 
        "@feature": "FameContents"
      }, 
      {
        "@id": "10000420", 
        "@name": "Field Ops Commander", 
        "@feature": "FameContents"
      }, 
      {
        "@id": "10000421", 
        "@name": "Generous", 
        "@feature": "FameContents"
      }, 
      {
        "@id": "10000422", 
        "@name": "Alliance Guardian", 
        "@feature": "FameContents"
      }, 
      {
        "@id": "10000423", 
        "@name": "Harbinger of Spring"
      }, 
      {
        "@id": "10000424", 
        "@name": "Dan Chang Dan Chang", 
        "@locale": "CN"
      }, 
      {
        "@id": "10000425", 
        "@name": "sweet", 
        "@locale": "CN"
      }, 
      {
        "@id": "10000426", 
        "@name": "New Captain", 
        "@feature": "FameChallengeDungeon"
      }, 
      {
        "@id": "10000427", 
        "@name": "New Guard Leader", 
        "@feature": "FameChallengeDungeon"
      }, 
      {
        "@id": "10000428", 
        "@name": "Online Hero", 
        "@feature": "FameChallengeDungeon"
      }, 
      {
        "@id": "10000429", 
        "@name": "Destined", 
        "@feature": "FameChallengeDungeon"
      }, 
      {
        "@id": "10000430", 
        "@name": "Shadow Wind", 
        "@feature": "FameChallengeDungeon"
      }, 
      {
        "@id": "10000431", 
        "@name": "Janken KING", 
        "@locale": "CN"
      }, 
      {
        "@id": "10000432", 
        "@name": "Fleet Ace", 
        "@feature": "FameChallengeDungeon"
      }, 
      {
        "@id": "10000433", 
        "@name": "Darkest Shadow", 
        "@feature": "FameChallengeDungeon"
      }, 
      {
        "@id": "10000434", 
        "@name": "Acknowledged", 
        "@feature": "FameChallengeDungeon"
      }, 
      {
        "@id": "10000435", 
        "@name": "Heart Cheat", 
        "@feature": "FameChallengeDungeon"
      }, 
      {
        "@id": "10000436", 
        "@name": "Jingle Jangler", 
        "@feature": "FameChallengeDungeon"
      }, 
      {
        "@id": "10000437", 
        "@name": "Sweet"
      }, 
      {
        "@id": "10000438", 
        "@name": "Solo qualification", 
        "@locale": "CN"
      }, 
      {
        "@id": "10000439", 
        "@name": "Couple qualification", 
        "@locale": "CN"
      }, 
      {
        "@id": "10000440", 
        "@name": "Suite", 
        "@locale": "CN"
      }, 
      {
        "@id": "10000441", 
        "@name": "Dark instruments collector", 
        "@feature": "Season1"
      }, 
      {
        "@id": "10000442", 
        "@name": "Owner of the cherry tree"
      }, 
      {
        "@id": "10000443", 
        "@name": "I made a thousand days together"
      }, 
      {
        "@id": "10000444", 
        "@name": "Fan Art Artist"
      }, 
      {
        "@id": "10000445", 
        "@name": "Today's friends"
      }, 
      {
        "@id": "10000446", 
        "@name": "To cut through the wind", 
        "@feature": "SurvivalContents01"
      }, 
      {
        "@id": "10000447", 
        "@name": "Symbol of peace", 
        "@feature": "SurvivalContents01"
      }, 
      {
        "@id": "10000448", 
        "@name": "$item:20000733$ Mania", 
        "@feature": "SurvivalContents01"
      }, 
      {
        "@id": "10000449", 
        "@name": "$item:20000737$ Mania", 
        "@feature": "SurvivalContents01"
      }, 
      {
        "@id": "10000450", 
        "@name": "$item:20000902$ Mania", 
        "@feature": "SurvivalContents01"
      }, 
      {
        "@id": "10000451", 
        "@name": "$item:20000743$ Mania", 
        "@feature": "SurvivalContents01"
      }, 
      {
        "@id": "10000452", 
        "@name": "$item:20000906$ Mania", 
        "@feature": "SurvivalContents01"
      }, 
      {
        "@id": "10000453", 
        "@name": "$item:20000897$ Mania", 
        "@feature": "SurvivalContents01"
      }, 
      {
        "@id": "10000454", 
        "@name": "$item:20000898$ Mania", 
        "@feature": "SurvivalContents01"
      }, 
      {
        "@id": "10000455", 
        "@name": "$item:20000899$ Mania", 
        "@feature": "SurvivalContents01"
      }, 
      {
        "@id": "10000456", 
        "@name": "I also drop the new", 
        "@feature": "SurvivalContents01"
      }, 
      {
        "@id": "10000457", 
        "@name": "All rounder", 
        "@feature": "SurvivalContents01"
      }, 
      {
        "@id": "10000458", 
        "@name": "Ruthless", 
        "@feature": "SurvivalContents01"
      }, 
      {
        "@id": "10000459", 
        "@name": "Loved by Mush King", 
        "@feature": "SurvivalContents01"
      }, 
      {
        "@id": "10000460", 
        "@name": "French watching recorder"
      }, 
      {
        "@id": "10000461", 
        "@name": "Recorder Master"
      }, 
      {
        "@id": "10000462", 
        "@name": "Shining Celesta"
      }, 
      {
        "@id": "10000463", 
        "@name": "Celesta Master"
      }, 
      {
        "@id": "10000464", 
        "@name": "Cream villain", 
        "@feature": "WorldChampionMushroom"
      }, 
      {
        "@id": "10000465", 
        "@name": "Artist of the 3rd Anniversary", 
        "@feature": "JobChange_01"
      }, 
      {
        "@id": "10000466", 
        "@name": "Rainbow slime friends"
      }, 
      {
        "@id": "10000467", 
        "@name": "Rainbow slime keeper"
      }, 
      {
        "@id": "10000468", 
        "@name": "Artist of the 3rd Anniversary", 
        "@feature": "JobChange_01"
      }, 
      {
        "@id": "10000469", 
        "@name": "Artist of the 3rd Anniversary", 
        "@locale": "NA"
      }, 
      {
        "@id": "10000469", 
        "@name": "Artist of the 3rd Anniversary", 
        "@locale": "JP"
      }, 
      {
        "@id": "10000469", 
        "@name": "Artist of the 3rd Anniversary", 
        "@locale": "TH"
      }, 
      {
        "@id": "10000469", 
        "@name": "Artist of the 3rd Anniversary", 
        "@locale": "TW"
      }, 
      {
        "@id": "10000470", 
        "@name": "Artist of the 3rd Anniversary", 
        "@locale": "NA"
      }, 
      {
        "@id": "10000470", 
        "@name": "Artist of the 3rd Anniversary", 
        "@locale": "JP"
      }, 
      {
        "@id": "10000470", 
        "@name": "Artist of the 3rd Anniversary", 
        "@locale": "TH"
      }, 
      {
        "@id": "10000470", 
        "@name": "Artist of the 3rd Anniversary", 
        "@locale": "TW"
      }, 
      {
        "@id": "10000471", 
        "@name": "Artist of the 3rd Anniversary", 
        "@locale": "NA"
      }, 
      {
        "@id": "10000471", 
        "@name": "Artist of the 3rd Anniversary", 
        "@locale": "JP"
      }, 
      {
        "@id": "10000471", 
        "@name": "Artist of the 3rd Anniversary", 
        "@locale": "TH"
      }, 
      {
        "@id": "10000471", 
        "@name": "Artist of the 3rd Anniversary", 
        "@locale": "TW"
      }, 
      {
        "@id": "10000472", 
        "@name": "Artist of the 3rd Anniversary", 
        "@locale": "NA"
      }, 
      {
        "@id": "10000472", 
        "@name": "Artist of the 3rd Anniversary", 
        "@locale": "JP"
      }, 
      {
        "@id": "10000472", 
        "@name": "Artist of the 3rd Anniversary", 
        "@locale": "TH"
      }, 
      {
        "@id": "10000472", 
        "@name": "Artist of the 3rd Anniversary", 
        "@locale": "TW"
      }, 
      {
        "@id": "10000473", 
        "@name": "Artist of the 3rd Anniversary", 
        "@locale": "NA"
      }, 
      {
        "@id": "10000473", 
        "@name": "Artist of the 3rd Anniversary", 
        "@locale": "JP"
      }, 
      {
        "@id": "10000473", 
        "@name": "Artist of the 3rd Anniversary", 
        "@locale": "TH"
      }, 
      {
        "@id": "10000473", 
        "@name": "Artist of the 3rd Anniversary", 
        "@locale": "TW"
      }, 
      {
        "@id": "10000474", 
        "@name": "Artist of the 3rd Anniversary", 
        "@locale": "NA"
      }, 
      {
        "@id": "10000474", 
        "@name": "Artist of the 3rd Anniversary", 
        "@locale": "JP"
      }, 
      {
        "@id": "10000474", 
        "@name": "Artist of the 3rd Anniversary", 
        "@locale": "TH"
      }, 
      {
        "@id": "10000474", 
        "@name": "Artist of the 3rd Anniversary", 
        "@locale": "TW"
      }, 
      {
        "@id": "10000475", 
        "@name": "Three years old Merin", 
        "@locale": "KR"
      }, 
      {
        "@id": "10000476", 
        "@name": "With the third anniversary", 
        "@locale": "KR"
      }, 
      {
        "@id": "10000477", 
        "@name": "Artist of the 3rd Anniversary", 
        "@locale": "KR"
      }, 
      {
        "@id": "10000478", 
        "@name": "Artist of the 3rd Anniversary", 
        "@feature": "ChronicleDungeon60_01"
      }, 
      {
        "@id": "10000479", 
        "@name": "Artist of the 3rd Anniversary", 
        "@feature": "ChronicleDungeon60_01"
      }, 
      {
        "@id": "10000480", 
        "@name": "Artist of the 3rd Anniversary", 
        "@feature": "ChronicleDungeon60_01"
      }, 
      {
        "@id": "10000481", 
        "@name": "Artist of the 3rd Anniversary", 
        "@feature": "Fishing", 
        "@locale": "NA"
      }, 
      {
        "@id": "10000481", 
        "@name": "Artist of the 3rd Anniversary", 
        "@feature": "Fishing", 
        "@locale": "JP"
      }, 
      {
        "@id": "10000481", 
        "@name": "Artist of the 3rd Anniversary", 
        "@feature": "Fishing", 
        "@locale": "TH"
      }, 
      {
        "@id": "10000481", 
        "@name": "Artist of the 3rd Anniversary", 
        "@feature": "Fishing", 
        "@locale": "TW"
      }, 
      {
        "@id": "10000482", 
        "@name": "Artist of the 3rd Anniversary", 
        "@feature": "Fishing", 
        "@locale": "NA"
      }, 
      {
        "@id": "10000482", 
        "@name": "Artist of the 3rd Anniversary", 
        "@feature": "Fishing", 
        "@locale": "JP"
      }, 
      {
        "@id": "10000482", 
        "@name": "Artist of the 3rd Anniversary", 
        "@feature": "Fishing", 
        "@locale": "TH"
      }, 
      {
        "@id": "10000482", 
        "@name": "Artist of the 3rd Anniversary", 
        "@feature": "Fishing", 
        "@locale": "TW"
      }, 
      {
        "@id": "10000483", 
        "@name": "Artist of the 3rd Anniversary", 
        "@feature": "PetBattle", 
        "@locale": "NA"
      }, 
      {
        "@id": "10000483", 
        "@name": "Artist of the 3rd Anniversary", 
        "@feature": "PetBattle", 
        "@locale": "JP"
      }, 
      {
        "@id": "10000483", 
        "@name": "Artist of the 3rd Anniversary", 
        "@feature": "PetBattle", 
        "@locale": "TH"
      }, 
      {
        "@id": "10000483", 
        "@name": "Artist of the 3rd Anniversary", 
        "@feature": "PetBattle", 
        "@locale": "TW"
      }, 
      {
        "@id": "10000484", 
        "@name": "Artist of the 3rd Anniversary", 
        "@feature": "PetBattle", 
        "@locale": "NA"
      }, 
      {
        "@id": "10000484", 
        "@name": "Artist of the 3rd Anniversary", 
        "@feature": "PetBattle", 
        "@locale": "JP"
      }, 
      {
        "@id": "10000484", 
        "@name": "Artist of the 3rd Anniversary", 
        "@feature": "PetBattle", 
        "@locale": "TH"
      }, 
      {
        "@id": "10000484", 
        "@name": "Artist of the 3rd Anniversary", 
        "@feature": "PetBattle", 
        "@locale": "TW"
      }, 
      {
        "@id": "10000485", 
        "@name": "Artist of the 3rd Anniversary", 
        "@feature": "ChronicleDungeon60_01"
      }, 
      {
        "@id": "10000486", 
        "@name": "Artist of the 3rd Anniversary", 
        "@feature": "ChronicleDungeon60_01"
      }, 
      {
        "@id": "10000487", 
        "@name": "Artist of the 3rd Anniversary", 
        "@feature": "ChronicleDungeon60_01"
      }, 
      {
        "@id": "10000488", 
        "@name": "Artist of the 3rd Anniversary", 
        "@feature": "ChronicleDungeon60_01"
      }, 
      {
        "@id": "10000489", 
        "@name": "Artist of the 3rd Anniversary", 
        "@locale": "CN"
      }, 
      {
        "@id": "10000490", 
        "@name": "Artist of the 3rd Anniversary", 
        "@feature": "JobChange_01"
      }, 
      {
        "@id": "10000491", 
        "@name": "Artist of the 3rd Anniversary", 
        "@feature": "JobChange_01"
      }, 
      {
        "@id": "10000492", 
        "@name": "Artist of the 3rd Anniversary", 
        "@feature": "JobChange_01"
      }, 
      {
        "@id": "10000493", 
        "@name": "Artist of the 3rd Anniversary", 
        "@feature": "JobChange_01"
      }, 
      {
        "@id": "10000494", 
        "@name": "Artist of the 3rd Anniversary", 
        "@feature": "JobChange_01"
      }, 
      {
        "@id": "10000495", 
        "@name": "Artist of the 3rd Anniversary", 
        "@feature": "JobChange_01"
      }, 
      {
        "@id": "10000496", 
        "@name": "Artist of the 3rd Anniversary", 
        "@feature": "JobChange_01"
      }, 
      {
        "@id": "10000497", 
        "@name": "Artist of the 3rd Anniversary", 
        "@feature": "JobChange_01"
      }, 
      {
        "@id": "10000498", 
        "@name": "Artist of the 3rd Anniversary", 
        "@feature": "JobChange_01"
      }, 
      {
        "@id": "10000499", 
        "@name": "Artist of the 3rd Anniversary", 
        "@feature": "JobChange_01"
      }, 
      {
        "@id": "10000500", 
        "@name": "Artist of the 3rd Anniversary", 
        "@feature": "JobChange_01"
      }, 
      {
        "@id": "10000501", 
        "@name": "Letter collector"
      }, 
      {
        "@id": "10000502", 
        "@name": "Atote"
      }, 
      {
        "@id": "10000503", 
        "@name": "Founder's mark", 
        "@locale": "NA"
      }, 
      {
        "@id": "10000503", 
        "@name": "Founder's mark", 
        "@locale": "JP"
      }, 
      {
        "@id": "10000503", 
        "@name": "Founder's mark", 
        "@locale": "TH"
      }, 
      {
        "@id": "10000503", 
        "@name": "Founder's mark", 
        "@locale": "TW"
      }, 
      {
        "@id": "10000504", 
        "@name": "Luxury Package Buyer", 
        "@locale": "CN"
      }, 
      {
        "@id": "10000505", 
        "@name": "Responding Package Buyer", 
        "@locale": "CN"
      }, 
      {
        "@id": "10000506", 
        "@name": "Honor Package Buyer", 
        "@locale": "CN"
      }, 
      {
        "@id": "10000507", 
        "@name": "Global package buyers", 
        "@locale": "CN"
      }, 
      {
        "@id": "10000510", 
        "@name": "Messenger of Love"
      }, 
      {
        "@id": "10000511", 
        "@name": "People in the beginning", 
        "@feature": "SurvivalContents01"
      }, 
      {
        "@id": "10000512", 
        "@name": "Throwing Ishra"
      }, 
      {
        "@id": "10000513", 
        "@name": "Threw down Rendy Bian"
      }, 
      {
        "@id": "10000514", 
        "@name": "Throwing Euperia"
      }, 
      {
        "@id": "10000528", 
        "@name": "Lifeguard", 
        "@feature": "LapentaDungeon"
      }, 
      {
        "@id": "10000529", 
        "@name": "Changeable", 
        "@feature": "LapentaDungeon"
      }, 
      {
        "@id": "10000530", 
        "@name": "Day and night reversed", 
        "@feature": "LapentaDungeon"
      }, 
      {
        "@id": "10000531", 
        "@name": "A sparkling jaguar", 
        "@feature": "LapentaDungeon"
      }, 
      {
        "@id": "10000532", 
        "@name": "Black Phoenix", 
        "@feature": "LapentaDungeon"
      }, 
      {
        "@id": "10000537", 
        "@name": "With Jodie"
      }, 
      {
        "@id": "10000540", 
        "@name": "Moonlight"
      }, 
      {
        "@id": "10000541", 
        "@name": "Ferocious", 
        "@locale": "CN"
      }, 
      {
        "@id": "10000542", 
        "@name": "You've killed the Leverent Zombie.", 
        "@feature": "Season1", 
        "@locale": "NA"
      }, 
      {
        "@id": "10000542", 
        "@name": "You've killed the Leverent Zombie.", 
        "@feature": "Season1", 
        "@locale": "JP"
      }, 
      {
        "@id": "10000542", 
        "@name": "You've killed the Leverent Zombie.", 
        "@feature": "Season1", 
        "@locale": "TH"
      }, 
      {
        "@id": "10000542", 
        "@name": "You've killed the Leverent Zombie.", 
        "@feature": "Season1", 
        "@locale": "TW"
      }, 
      {
        "@id": "10000543", 
        "@name": "I want to meet an alien", 
        "@feature": "Season1", 
        "@locale": "NA"
      }, 
      {
        "@id": "10000543", 
        "@name": "I want to meet an alien", 
        "@feature": "Season1", 
        "@locale": "JP"
      }, 
      {
        "@id": "10000543", 
        "@name": "I want to meet an alien", 
        "@feature": "Season1", 
        "@locale": "TH"
      }, 
      {
        "@id": "10000543", 
        "@name": "I want to meet an alien", 
        "@feature": "Season1", 
        "@locale": "TW"
      }, 
      {
        "@id": "10000544", 
        "@name": "Twinkling eyes", 
        "@feature": "WorldChampionMushroom"
      }, 
      {
        "@id": "10000545", 
        "@name": "Born to eat", 
        "@feature": "WorldChampionMushroom"
      }, 
      {
        "@id": "10000546", 
        "@name": "During diet", 
        "@feature": "WorldChampionMushroom"
      }, 
      {
        "@id": "10000547", 
        "@name": "Sculpted", 
        "@feature": "WorldChampionMushroom"
      }, 
      {
        "@id": "10000548", 
        "@name": "Enjoyable", 
        "@feature": "WorldChampionMushroom"
      }, 
      {
        "@id": "10000549", 
        "@name": "Sme", 
        "@feature": "WorldChampionMushroom"
      }, 
      {
        "@id": "10000550", 
        "@name": "Like a bear", 
        "@feature": "WorldChampionMushroom"
      }, 
      {
        "@id": "10000551", 
        "@name": "I like cats!", 
        "@feature": "WorldChampionMushroom"
      }, 
      {
        "@id": "10000552", 
        "@name": "Perfect", 
        "@feature": "WorldChampionMushroom"
      }, 
      {
        "@id": "10000553", 
        "@name": "Seven rainbows", 
        "@feature": "WorldChampionMushroom"
      }, 
      {
        "@id": "10000554", 
        "@name": "geezer", 
        "@feature": "WorldChampionMushroom"
      }, 
      {
        "@id": "10000555", 
        "@name": "A dancing king", 
        "@feature": "WorldChampionMushroom"
      }, 
      {
        "@id": "10000556", 
        "@name": "Clear", 
        "@feature": "WorldChampionMushroom"
      }, 
      {
        "@id": "10000557", 
        "@name": "Wealthy", 
        "@feature": "WorldChampionMushroom"
      }, 
      {
        "@id": "10000558", 
        "@name": "Victorious", 
        "@feature": "WorldChampionMushroom"
      }, 
      {
        "@id": "10000559", 
        "@name": "Loneliness ride", 
        "@feature": "WorldChampionMushroom"
      }, 
      {
        "@id": "10000560", 
        "@name": "help me!", 
        "@feature": "WorldChampionMushroom"
      }, 
      {
        "@id": "10000561", 
        "@name": "Great hangers", 
        "@feature": "WorldChampionMushroom"
      }, 
      {
        "@id": "10000562", 
        "@name": "Fluffy", 
        "@feature": "WorldChampionMushroom"
      }, 
      {
        "@id": "10000563", 
        "@name": "Sickly", 
        "@feature": "WorldChampionMushroom"
      }, 
      {
        "@id": "10000564", 
        "@name": "Exciting festival", 
        "@locale": "CN"
      }, 
      {
        "@id": "10000565", 
        "@name": "With one anniversary", 
        "@locale": "CN"
      }, 
      {
        "@id": "10000566", 
        "@name": "I met a child of light", 
        "@feature": "KarkarIsland", 
        "@locale": "NA"
      }, 
      {
        "@id": "10000566", 
        "@name": "I met a child of light", 
        "@feature": "KarkarIsland", 
        "@locale": "JP"
      }, 
      {
        "@id": "10000566", 
        "@name": "I met a child of light", 
        "@feature": "KarkarIsland", 
        "@locale": "TH"
      }, 
      {
        "@id": "10000566", 
        "@name": "I met a child of light", 
        "@feature": "KarkarIsland", 
        "@locale": "TW"
      }, 
      {
        "@id": "10000567", 
        "@name": "For the musician's troubles", 
        "@feature": "KarkarIsland", 
        "@locale": "NA"
      }, 
      {
        "@id": "10000567", 
        "@name": "For the musician's troubles", 
        "@feature": "KarkarIsland", 
        "@locale": "JP"
      }, 
      {
        "@id": "10000567", 
        "@name": "For the musician's troubles", 
        "@feature": "KarkarIsland", 
        "@locale": "TH"
      }, 
      {
        "@id": "10000567", 
        "@name": "For the musician's troubles", 
        "@feature": "KarkarIsland", 
        "@locale": "TW"
      }, 
      {
        "@id": "10000568", 
        "@name": "Photographer", 
        "@feature": "KarkarIsland", 
        "@locale": "NA"
      }, 
      {
        "@id": "10000568", 
        "@name": "Photographer", 
        "@feature": "KarkarIsland", 
        "@locale": "JP"
      }, 
      {
        "@id": "10000568", 
        "@name": "Photographer", 
        "@feature": "KarkarIsland", 
        "@locale": "TH"
      }, 
      {
        "@id": "10000568", 
        "@name": "Photographer", 
        "@feature": "KarkarIsland", 
        "@locale": "TW"
      }, 
      {
        "@id": "10000569", 
        "@name": "Top Designer", 
        "@locale": "NA"
      }, 
      {
        "@id": "10000570", 
        "@name": "Star Architect", 
        "@locale": "NA"
      }, 
      {
        "@id": "10000571", 
        "@name": "Heroes dyed in the leaves", 
        "@locale": "NA"
      }, 
      {
        "@id": "10000572", 
        "@name": "Pompey's Friend"
      }, 
      {
        "@id": "10000573", 
        "@name": "Pumpkin Chowder"
      }, 
      {
        "@id": "10000574", 
        "@name": "Ruler of time", 
        "@locale": "CN"
      }, 
      {
        "@id": "10000575", 
        "@name": "fisherman", 
        "@feature": "Fishing02"
      }, 
      {
        "@id": "10000576", 
        "@name": "I tried fishing", 
        "@feature": "Fishing02"
      }, 
      {
        "@id": "10000577", 
        "@name": "Bluff", 
        "@feature": "Fishing02"
      }, 
      {
        "@id": "10000578", 
        "@name": "Fish king", 
        "@feature": "Fishing02"
      }, 
      {
        "@id": "10000579", 
        "@name": "Forever", 
        "@feature": "Fishing02"
      }, 
      {
        "@id": "10000580", 
        "@name": "Hutan Chin", 
        "@feature": "Fishing02"
      }, 
      {
        "@id": "10000581", 
        "@name": "Mermaid", 
        "@feature": "Fishing02"
      }, 
      {
        "@id": "10000582", 
        "@name": "Love the sea", 
        "@feature": "Fishing02"
      }, 
      {
        "@id": "10000583", 
        "@name": "Poison", 
        "@feature": "Fishing02"
      }, 
      {
        "@id": "10000584", 
        "@name": "oily", 
        "@feature": "Fishing02"
      }, 
      {
        "@id": "10000585", 
        "@name": "Thin", 
        "@feature": "Fishing02"
      }, 
      {
        "@id": "10000586", 
        "@name": "Angler of Passion", 
        "@feature": "Fishing02"
      }, 
      {
        "@id": "10000587", 
        "@name": "Under blue sky", 
        "@feature": "Fishing02"
      }, 
      {
        "@id": "10000588", 
        "@name": "Insensitive", 
        "@feature": "Fishing02"
      }, 
      {
        "@id": "10000589", 
        "@name": "Monthly", 
        "@feature": "Fishing02"
      }, 
      {
        "@id": "10000590", 
        "@name": "Tough", 
        "@feature": "Fishing02"
      }, 
      {
        "@id": "10000591", 
        "@name": "Seafood killer", 
        "@feature": "Fishing02"
      }, 
      {
        "@id": "10000592", 
        "@name": "Hermit", 
        "@feature": "Fishing02"
      }, 
      {
        "@id": "10000593", 
        "@name": "Dreaming of a fishing king", 
        "@feature": "Fishing02"
      }, 
      {
        "@id": "10000594", 
        "@name": "A fool who knows only fishing", 
        "@feature": "Fishing02"
      }, 
      {
        "@id": "10000595", 
        "@name": "Master of maple trees"
      }, 
      {
        "@id": "10000596", 
        "@name": "Pung", 
        "@feature": "DrumInstrument"
      }, 
      {
        "@id": "10000597", 
        "@name": "Master of the North", 
        "@feature": "DrumInstrument"
      }, 
      {
        "@id": "10000598", 
        "@name": "Booked", 
        "@feature": "DrumInstrument"
      }, 
      {
        "@id": "10000599", 
        "@name": "Small book master", 
        "@feature": "DrumInstrument"
      }, 
      {
        "@id": "10000600", 
        "@name": "Chinching", 
        "@feature": "DrumInstrument"
      }, 
      {
        "@id": "10000601", 
        "@name": "Cymbalist", 
        "@feature": "DrumInstrument"
      }, 
      {
        "@id": "10000602", 
        "@name": "Pro angler", 
        "@feature": "Fishing02"
      }, 
      {
        "@id": "10000603", 
        "@name": "Champion angler", 
        "@feature": "Fishing02"
      }, 
      {
        "@id": "10000604", 
        "@name": "Creature Angler", 
        "@feature": "Fishing02"
      }, 
      {
        "@id": "10000605", 
        "@name": "Creutias Fish Doctor", 
        "@feature": "Fishing02"
      }, 
      {
        "@id": "10000606", 
        "@name": "Bite", 
        "@feature": "Fishing02"
      }, 
      {
        "@id": "10000607", 
        "@name": "Inning", 
        "@feature": "Fishing02"
      }, 
      {
        "@id": "10000608", 
        "@name": "Seafood Rum yum", 
        "@feature": "Fishing"
      }, 
      {
        "@id": "10000609", 
        "@name": "Fishing is fun", 
        "@feature": "Fishing02"
      }, 
      {
        "@id": "10000610", 
        "@name": "An angel aspiring", 
        "@feature": "Fishing02"
      }, 
      {
        "@id": "10000611", 
        "@name": "Blue angel", 
        "@feature": "Fishing02"
      }, 
      {
        "@id": "10000612", 
        "@name": "Well-watered", 
        "@feature": "Fishing02"
      }, 
      {
        "@id": "10000613", 
        "@name": "Beautiful like a flower", 
        "@feature": "Fishing02"
      }, 
      {
        "@id": "10000614", 
        "@name": "Jelly ring", 
        "@feature": "Fishing02"
      }, 
      {
        "@id": "10000615", 
        "@name": "Full of energy", 
        "@feature": "Fishing02"
      }, 
      {
        "@id": "10000616", 
        "@name": "Machine", 
        "@feature": "Fishing02"
      }, 
      {
        "@id": "10000617", 
        "@name": "embarassed", 
        "@feature": "Fishing02"
      }, 
      {
        "@id": "10000618", 
        "@name": "Tasty", 
        "@feature": "Fishing02"
      }, 
      {
        "@id": "10000619", 
        "@name": "transparent", 
        "@feature": "Fishing02"
      }, 
      {
        "@id": "10000620", 
        "@name": "Fine colors", 
        "@feature": "Fishing02"
      }, 
      {
        "@id": "10000621", 
        "@name": "One sky", 
        "@feature": "Fishing02"
      }, 
      {
        "@id": "10000622", 
        "@name": "Shining Angler", 
        "@feature": "Fishing02"
      }, 
      {
        "@id": "10000623", 
        "@name": "Jewel-like", 
        "@feature": "Fishing02"
      }, 
      {
        "@id": "10000624", 
        "@name": "Caught a dangerous fish", 
        "@feature": "Fishing02"
      }, 
      {
        "@id": "10000625", 
        "@name": "Feel the years", 
        "@feature": "Fishing02"
      }, 
      {
        "@id": "10000626", 
        "@name": "Master of the castle", 
        "@feature": "Fishing02"
      }, 
      {
        "@id": "10000627", 
        "@name": "Brave angler", 
        "@feature": "Fishing02"
      }, 
      {
        "@id": "10000630", 
        "@name": "Emerald", 
        "@feature": "Fishing02"
      }, 
      {
        "@id": "10000631", 
        "@name": "Hazy", 
        "@feature": "Fishing02"
      }, 
      {
        "@id": "10000633", 
        "@name": "Live fish specialist", 
        "@feature": "Fishing02"
      }, 
      {
        "@id": "10000635", 
        "@name": "Beautiful but dangerous", 
        "@feature": "Fishing02"
      }, 
      {
        "@id": "10000636", 
        "@name": "An angler who knows fashion", 
        "@feature": "Fishing02"
      }, 
      {
        "@id": "10000637", 
        "@name": "Turkey chef"
      }, 
      {
        "@id": "10000638", 
        "@name": "Dealing with dangerous forces", 
        "@feature": "Lapenshard01"
      }, 
      {
        "@id": "10000639", 
        "@name": "Today's Santa"
      }, 
      {
        "@id": "10000640", 
        "@name": "Receive the union's expectations in one body", 
        "@feature": "FameContents", 
        "@locale": "NA"
      }, 
      {
        "@id": "10000640", 
        "@name": "Receive the union's expectations in one body", 
        "@feature": "FameContents", 
        "@locale": "JP"
      }, 
      {
        "@id": "10000640", 
        "@name": "Receive the union's expectations in one body", 
        "@feature": "FameContents", 
        "@locale": "TH"
      }, 
      {
        "@id": "10000640", 
        "@name": "Receive the union's expectations in one body", 
        "@feature": "FameContents", 
        "@locale": "TW"
      }, 
      {
        "@id": "10000641", 
        "@name": "Scissors Rock", 
        "@locale": "CN"
      }, 
      {
        "@id": "10000642", 
        "@name": "Superior security consciousness", 
        "@locale": "KR"
      }, 
      {
        "@id": "10000643", 
        "@name": "Fortress Rumble Master", 
        "@feature": "FameChallengeDungeon", 
        "@locale": "NA"
      }, 
      {
        "@id": "10000643", 
        "@name": "Fortress Rumble Master", 
        "@feature": "FameChallengeDungeon", 
        "@locale": "JP"
      }, 
      {
        "@id": "10000643", 
        "@name": "Fortress Rumble Master", 
        "@feature": "FameChallengeDungeon", 
        "@locale": "TH"
      }, 
      {
        "@id": "10000643", 
        "@name": "Fortress Rumble Master", 
        "@feature": "FameChallengeDungeon", 
        "@locale": "TW"
      }, 
      {
        "@id": "10000644", 
        "@name": "Mysterious"
      }, 
      {
        "@id": "10000645", 
        "@name": "Pork dumplings chef"
      }, 
      {
        "@id": "10000646", 
        "@name": "Lucky charm"
      }, 
      {
        "@id": "10000647", 
        "@name": "Lucky"
      }, 
      {
        "@id": "10000648", 
        "@name": "Sweet Suite"
      }, 
      {
        "@id": "10000649", 
        "@name": "Wake!", 
        "@feature": "LapentaDungeon"
      }, 
      {
        "@id": "10000650", 
        "@name": "Ehura", 
        "@feature": "LapentaDungeon"
      }, 
      {
        "@id": "10000651", 
        "@name": "Saints", 
        "@feature": "JobChange_02"
      }, 
      {
        "@id": "10000652", 
        "@name": "Bloody", 
        "@feature": "JobChange_02"
      }, 
      {
        "@id": "10000653", 
        "@name": "Magical", 
        "@feature": "JobChange_02"
      }, 
      {
        "@id": "10000654", 
        "@name": "Hi", 
        "@feature": "JobChange_02"
      }, 
      {
        "@id": "10000655", 
        "@name": "sharp", 
        "@feature": "JobChange_02"
      }, 
      {
        "@id": "10000656", 
        "@name": "Hyper", 
        "@feature": "JobChange_02"
      }, 
      {
        "@id": "10000657", 
        "@name": "Phantom", 
        "@feature": "JobChange_02"
      }, 
      {
        "@id": "10000658", 
        "@name": "Shadow", 
        "@feature": "JobChange_02"
      }, 
      {
        "@id": "10000659", 
        "@name": "Arcane", 
        "@feature": "JobChange_02"
      }, 
      {
        "@id": "10000660", 
        "@name": "Ultimate", 
        "@feature": "JobChange_02"
      }, 
      {
        "@id": "10000661", 
        "@name": "Mystic", 
        "@feature": "JobChange_02"
      }, 
      {
        "@id": "10000662", 
        "@name": "Protector of Light", 
        "@feature": "Kritias_2018_12"
      }, 
      {
        "@id": "10000663", 
        "@name": "Hero of All", 
        "@feature": "Kritias_2018_12"
      }, 
      {
        "@id": "10000664", 
        "@name": "Environmentally-loving", 
        "@feature": "Kritias_2018_12"
      }, 
      {
        "@id": "10000665", 
        "@name": "Immortal", 
        "@feature": "Kritias_Balrog01"
      }, 
      {
        "@id": "10000666", 
        "@name": "Out of the darkness", 
        "@feature": "Kritias_Paika01"
      }, 
      {
        "@id": "10000667", 
        "@name": "Mortal", 
        "@feature": "Kritias_Balrog01"
      }, 
      {
        "@id": "10000668", 
        "@name": "shining", 
        "@feature": "Kritias_Paika01"
      }, 
      {
        "@id": "10000669", 
        "@name": "Pest eradication", 
        "@feature": "Fieldwar01"
      }, 
      {
        "@id": "10000670", 
        "@name": "Good", 
        "@feature": "Fieldwar01"
      }, 
      {
        "@id": "10000671", 
        "@name": "Without mercy", 
        "@feature": "Fieldwar01"
      }, 
      {
        "@id": "10000672", 
        "@name": "Commander", 
        "@feature": "Fieldwar01"
      }, 
      {
        "@id": "10000673", 
        "@name": "New continent, new decision", 
        "@feature": "Kritias_2018_12"
      }, 
      {
        "@id": "10000674", 
        "@name": "Morning Star of Creates", 
        "@feature": "Kritias_2018_12"
      }, 
      {
        "@id": "10000675", 
        "@name": "Hope of Creates", 
        "@feature": "Kritias_2018_12"
      }, 
      {
        "@id": "10000676", 
        "@name": "Heroes of Creates", 
        "@feature": "Kritias_2018_12"
      }, 
      {
        "@id": "10000677", 
        "@name": "Creutias Special Forces Limited Warrior", 
        "@feature": "Kritias_2018_12"
      }, 
      {
        "@id": "10000678", 
        "@name": "Chrytis survey center chief", 
        "@feature": "Kritias_2018_12"
      }, 
      {
        "@id": "10000679", 
        "@name": "Creitaas Expedition Newspaper Articles", 
        "@feature": "Kritias_2018_12"
      }, 
      {
        "@id": "10000680", 
        "@name": "Creitas Class D Specialist Crew", 
        "@feature": "Kritias_2018_12"
      }, 
      {
        "@id": "10000681", 
        "@name": "Crytius C class counter", 
        "@feature": "Kritias_2018_12"
      }, 
      {
        "@id": "10000682", 
        "@name": "Creitas B-Class Operations Officer", 
        "@feature": "Kritias_2018_12"
      }, 
      {
        "@id": "10000683", 
        "@name": "Creitas A-Class Drivers", 
        "@feature": "Kritias_2018_12"
      }, 
      {
        "@id": "10000684", 
        "@name": "Creutias Class S Special Tactician", 
        "@feature": "Kritias_2018_12"
      }, 
      {
        "@id": "10000685", 
        "@name": "Protector of the Alliance", 
        "@feature": "Kritias_Inferno01"
      }, 
      {
        "@id": "10000686", 
        "@name": "I stole a diary", 
        "@feature": "Kritias_2018_12"
      }, 
      {
        "@id": "10000687", 
        "@name": "Demon's Wood Lumberman", 
        "@feature": "Kritias_Zakum01"
      }, 
      {
        "@id": "10000688", 
        "@name": "Heroes of Creathias", 
        "@feature": "Kritias_2018_12"
      }, 
      {
        "@id": "10000689", 
        "@name": "New World Traveler", 
        "@locale": "KR"
      }, 
      {
        "@id": "10000690", 
        "@name": "Blithe's Cat", 
        "@feature": "Kritias_2018_12"
      }, 
      {
        "@id": "10000691", 
        "@name": "Mason's white dragon", 
        "@feature": "Kritias_2018_12"
      }, 
      {
        "@id": "10000692", 
        "@name": "Nairin's Cutie", 
        "@feature": "Kritias_2018_12"
      }, 
      {
        "@id": "10000693", 
        "@name": "Kiddel Explorer", 
        "@feature": "Kritias_2018_12"
      }, 
      {
        "@id": "10000694", 
        "@name": "Summoner", 
        "@feature": "Gigantica01"
      }, 
      {
        "@id": "10000695", 
        "@name": "pilot", 
        "@feature": "Gigantica01"
      }, 
      {
        "@id": "10000696", 
        "@name": "artilleryman", 
        "@feature": "Kritias_Balrog01"
      }, 
      {
        "@id": "10000697", 
        "@name": "Robot Hunter", 
        "@feature": "Gigantica01"
      }, 
      {
        "@id": "10000698", 
        "@name": "Destroyer", 
        "@feature": "Gigantica01"
      }, 
      {
        "@id": "10000699", 
        "@name": "Master of periodic tic", 
        "@feature": "Gigantica01"
      }, 
      {
        "@id": "10000700", 
        "@name": "Tyren Robot Mania", 
        "@feature": "Pet_70Lv_Taming"
      }, 
      {
        "@id": "10000701", 
        "@name": "Houston", 
        "@feature": "Pet_70Lv_Taming"
      }, 
      {
        "@id": "10000702", 
        "@name": "Dinosaurs", 
        "@feature": "Pet_70Lv_Taming"
      }, 
      {
        "@id": "10000703", 
        "@name": "Crithias Natives", 
        "@feature": "Pet_70Lv_Taming"
      }, 
      {
        "@id": "10000704", 
        "@name": "Creatus insectologist", 
        "@feature": "Pet_70Lv_Taming"
      }, 
      {
        "@id": "10000705", 
        "@name": "Owner", 
        "@feature": "Kritias_2018_12"
      }, 
      {
        "@id": "10000706", 
        "@name": "Dark-eaten", 
        "@feature": "Kritias_2018_12"
      }, 
      {
        "@id": "10000707", 
        "@name": "speleologist", 
        "@feature": "Kritias_2018_12"
      }, 
      {
        "@id": "10000708", 
        "@name": "Adventurer with flowers", 
        "@feature": "Kritias_2018_12"
      }, 
      {
        "@id": "10000709", 
        "@name": "Liar", 
        "@feature": "Kritias_2018_12"
      }, 
      {
        "@id": "10000710", 
        "@name": "Simmany", 
        "@feature": "Kritias_2018_12"
      }, 
      {
        "@id": "10000711", 
        "@name": "Livable adventurer", 
        "@feature": "Kritias_2018_12"
      }, 
      {
        "@id": "10000712", 
        "@name": "Red crucifix", 
        "@locale": "CN"
      }, 
      {
        "@id": "10000713", 
        "@name": "Yellow pickle", 
        "@locale": "CN"
      }, 
      {
        "@id": "10000714", 
        "@name": "Exorcist", 
        "@feature": "Kritias_Zakum01"
      }, 
      {
        "@id": "10000715", 
        "@name": "Ancient", 
        "@feature": "Kritias_Inferno01"
      }, 
      {
        "@id": "10000716", 
        "@name": "woodcutter", 
        "@feature": "Kritias_Zakum01"
      }, 
      {
        "@id": "10000717", 
        "@name": "Blow", 
        "@feature": "Kritias_Inferno01"
      }, 
      {
        "@id": "10000718", 
        "@name": "Strong friends", 
        "@feature": "PetEvolution01"
      }, 
      {
        "@id": "10000719", 
        "@name": "Please raise me.", 
        "@feature": "PetEvolution01"
      }, 
      {
        "@id": "10000720", 
        "@name": "Purple", 
        "@feature": "PetEvolution01"
      }, 
      {
        "@id": "10000721", 
        "@name": "Gold", 
        "@feature": "PetEvolution01"
      }, 
      {
        "@id": "10000722", 
        "@name": "Screw! Screw!", 
        "@feature": "PetEvolution01"
      }, 
      {
        "@id": "10000723", 
        "@name": "cheer up!", 
        "@feature": "PetEvolution01"
      }, 
      {
        "@id": "10000724", 
        "@name": "elite", 
        "@feature": "PetEvolution01"
      }, 
      {
        "@id": "10000725", 
        "@name": "In transit", 
        "@feature": "PetEvolution01"
      }, 
      {
        "@id": "10000726", 
        "@name": "Making a legend", 
        "@feature": "PetEvolution01"
      }, 
      {
        "@id": "10000727", 
        "@name": "Do all this", 
        "@feature": "PetEvolution01"
      }, 
      {
        "@id": "10000728", 
        "@name": "Evolving", 
        "@feature": "PetEvolution01"
      }, 
      {
        "@id": "10000729", 
        "@name": "Effort", 
        "@feature": "PetEvolution01"
      }, 
      {
        "@id": "10000730", 
        "@name": "Legendary collector", 
        "@feature": "PetEvolution01"
      }, 
      {
        "@id": "10000731", 
        "@name": "Cherry song", 
        "@locale": "KR"
      }, 
      {
        "@id": "10000732", 
        "@name": "real", 
        "@feature": "Event", 
        "@locale": "KR"
      }, 
      {
        "@id": "10000733", 
        "@name": "Always win", 
        "@feature": "Event"
      }, 
      {
        "@id": "10000734", 
        "@name": "Mind-reading", 
        "@feature": "Event"
      }, 
      {
        "@id": "10000735", 
        "@name": "Purposeful", 
        "@feature": "Event"
      }, 
      {
        "@id": "10000736", 
        "@name": "Today's pair", 
        "@feature": "Event"
      }, 
      {
        "@id": "10000737", 
        "@name": "Solid", 
        "@feature": "Fieldwar02"
      }, 
      {
        "@id": "10000738", 
        "@name": "Sleek", 
        "@feature": "Fieldwar02"
      }, 
      {
        "@id": "10000739", 
        "@name": "Tin tea", 
        "@feature": "Fieldwar02"
      }, 
      {
        "@id": "10000740", 
        "@name": "catcher", 
        "@feature": "Fieldwar02"
      }, 
      {
        "@id": "10000741", 
        "@name": "Friends of Rainbow Slime", 
        "@feature": "Event", 
        "@locale": "NA"
      }, 
      {
        "@id": "10000742", 
        "@name": "Rainbow Slime Keeper", 
        "@feature": "Event", 
        "@locale": "NA"
      }, 
      {
        "@id": "10000743", 
        "@name": "Queen Kubin Rumble Mania", 
        "@feature": "Colosseum01"
      }, 
      {
        "@id": "10000744", 
        "@name": "Queen Qubin's", 
        "@feature": "Colosseum01"
      }, 
      {
        "@id": "10000745", 
        "@name": "Look.", 
        "@feature": "Event"
      }, 
      {
        "@id": "10000746", 
        "@name": "mission! Three, two, one master", 
        "@feature": "Event"
      }, 
      {
        "@id": "10000747", 
        "@name": "Extreme glamor", 
        "@locale": "CN"
      }
    ]
  }
}