{
  "?xml": {
    "@version": "1.0", 
    "@encoding": "utf-8"
  }, 
  "ms2": {
    "key": [
      {
        "@id": "0000009", 
        "@name": "<FONT color='#FFD200' size='15' >Next Item</FONT>\\n<FONT size='3'> </FONT>\\n<FONT color='#909090'>Selects the next item in the list."
      }, 
      {
        "@id": "0000010", 
        "@name": "<FONT color='#FFD200' size='15' >Exit</FONT>\\n<FONT size='3'> </FONT>\\n<FONT color='#909090'>Exits build mode.</FONT>"
      }, 
      {
        "@id": "0000011", 
        "@name": "<FONT color='#FFD200' size='15' >Up a Level</FONT>\\n<FONT size='3'> </FONT>\\n<FONT color='#909090'>Moves your cursor up one level, letting you place items at higher elevations.</FONT>"
      }, 
      {
        "@id": "0000012", 
        "@name": "<FONT color='#FFD200' size='15' >Collect</FONT>\\n<FONT size='3'> </FONT>\\n<FONT color='#909090'>Returns the item under your cursor to your inventory. You can only collect items that belong to you.</FONT>"
      }, 
      {
        "@id": "0000013", 
        "@name": "<FONT color='#FFD200' size='15' >Rotate</FONT>\\n<FONT size='3'> </FONT>\\n<FONT color='#909090'>Rotates the item under your cursor so that it faces a different direction. The item must already be placed.</FONT>"
      }, 
      {
        "@id": "0000015", 
        "@name": "<FONT color='#FFD200' size='15' >Down a Level</FONT>\\n<FONT size='3'> </FONT>\\n<FONT color='#909090'>Moves your cursor down one level, letting you place items at lower elevations.</FONT>"
      }, 
      {
        "@id": "0000016", 
        "@name": "<FONT color='#FFD200' size='15' >Place Item</FONT>\\n<FONT size='3'> </FONT>\\n<FONT color='#909090'>Places the currently selected item at your cursor's location.</FONT>"
      }
    ]
  }
}