{
  "?xml": {
    "@version": "1.0", 
    "@encoding": "utf-8"
  }, 
  "ms2": {
    "key": [
      {
        "@id": "10", 
        "@name": "Beginner"
      }, 
      {
        "@id": "100", 
        "@name": "Knight", 
        "@feature": ""
      }, 
      {
        "@id": "101", 
        "@name": "Holy Knight", 
        "@feature": "JobChange_01"
      }, 
      {
        "@id": "200", 
        "@name": "Berserker", 
        "@feature": ""
      }, 
      {
        "@id": "201", 
        "@name": "Bloody Berserker", 
        "@feature": "JobChange_01"
      }, 
      {
        "@id": "300", 
        "@name": "Wizard", 
        "@feature": ""
      }, 
      {
        "@id": "301", 
        "@name": "Magical Wizard", 
        "@feature": "JobChange_01"
      }, 
      {
        "@id": "400", 
        "@name": "Priest", 
        "@feature": ""
      }, 
      {
        "@id": "401", 
        "@name": "High Priest", 
        "@feature": "JobChange_01"
      }, 
      {
        "@id": "500", 
        "@name": "Ranger", 
        "@feature": ""
      }, 
      {
        "@id": "501", 
        "@name": "Sharp Ranger", 
        "@feature": "JobChange_01"
      }, 
      {
        "@id": "600", 
        "@name": "Heavy Gunner", 
        "@feature": ""
      }, 
      {
        "@id": "601", 
        "@name": "Hyper Heavy Gunner", 
        "@feature": "JobChange_01"
      }, 
      {
        "@id": "700", 
        "@name": "Thief", 
        "@feature": ""
      }, 
      {
        "@id": "701", 
        "@name": "Phantom Thief", 
        "@feature": "JobChange_01"
      }, 
      {
        "@id": "800", 
        "@name": "Assassin", 
        "@feature": ""
      }, 
      {
        "@id": "801", 
        "@name": "Zero's Follower", 
        "@feature": "JobChange_01"
      }, 
      {
        "@id": "900", 
        "@name": "Runeblader", 
        "@feature": ""
      }, 
      {
        "@id": "901", 
        "@name": "Arcane Runeblader", 
        "@feature": "JobChange_01"
      }, 
      {
        "@id": "1000", 
        "@name": "Striker", 
        "@feature": ""
      }, 
      {
        "@id": "1001", 
        "@name": "Ultimate Striker", 
        "@feature": "JobChange_01"
      }, 
      {
        "@id": "1100", 
        "@name": "Soul Binder", 
        "@feature": ""
      }, 
      {
        "@id": "1101", 
        "@name": "Mystic Soul Binder", 
        "@feature": "JobChange_01"
      }, 
      {
        "@id": "999", 
        "@name": "GM"
      }
    ]
  }
}