{
  "?xml": {
    "@version": "1.0", 
    "@encoding": "utf-8"
  }, 
  "ms2": {
    "key": [
      {
        "@id": "10800041", 
        "@level": "1", 
        "@name": "Fatal Attack", 
        "@tooltipDescription": "Detected enemy weakness! \\nAll attacks are activated as Critical"
      }, 
      {
        "@id": "10800041", 
        "@level": "2", 
        "@name": "Fatal Attack", 
        "@tooltipDescription": "Detected enemy weakness! \\nAll attacks are activated as Critical"
      }, 
      {
        "@id": "10800041", 
        "@level": "3", 
        "@name": "Fatal Attack", 
        "@tooltipDescription": "Detected enemy weakness! \\nAll attacks are activated as Critical"
      }, 
      {
        "@id": "10800041", 
        "@level": "4", 
        "@name": "Fatal Attack", 
        "@tooltipDescription": "Detected enemy weakness! \\nAll attacks are activated as Critical"
      }, 
      {
        "@id": "10800041", 
        "@level": "5", 
        "@name": "Fatal Attack", 
        "@tooltipDescription": "Detected enemy weakness! \\nAll attacks are activated as Critical"
      }, 
      {
        "@id": "10800041", 
        "@level": "6", 
        "@name": "Fatal Attack", 
        "@tooltipDescription": "Detected enemy weakness! \\nAll attacks are activated as Critical"
      }, 
      {
        "@id": "10800041", 
        "@level": "7", 
        "@name": "Fatal Attack", 
        "@tooltipDescription": "Detected enemy weakness! \\nAll attacks are activated as Critical"
      }, 
      {
        "@id": "10800041", 
        "@level": "8", 
        "@name": "Fatal Attack", 
        "@tooltipDescription": "Detected enemy weakness! \\nAll attacks are activated as Critical"
      }, 
      {
        "@id": "10800041", 
        "@level": "9", 
        "@name": "Fatal Attack", 
        "@tooltipDescription": "Detected enemy weakness! \\nAll attacks are activated as Critical"
      }, 
      {
        "@id": "10800041", 
        "@level": "10", 
        "@name": "Fatal Attack", 
        "@tooltipDescription": "Detected enemy weakness! \\nAll attacks are activated as Critical"
      }, 
      {
        "@id": "10800041", 
        "@level": "11", 
        "@name": "Fatal Attack", 
        "@tooltipDescription": "Detected enemy weakness! \\nAll attacks are activated as Critical"
      }, 
      {
        "@id": "10800041", 
        "@level": "12", 
        "@name": "Fatal Attack", 
        "@tooltipDescription": "Detected enemy weakness! \\nAll attacks are activated as Critical"
      }, 
      {
        "@id": "10800051", 
        "@level": "1", 
        "@name": "Dark site", 
        "@tooltipDescription": "Decreases appearance in shadow. \\ N Movement speed increased by 21% \\ nSP Increased spontaneous recovery"
      }, 
      {
        "@id": "10800051", 
        "@level": "2", 
        "@name": "Dark site", 
        "@tooltipDescription": "Decreases its appearance into shadow. \\ N Movement speed increased by 23% \\ nSP Increased SP recovery from resting state"
      }, 
      {
        "@id": "10800051", 
        "@level": "3", 
        "@name": "Dark site", 
        "@tooltipDescription": "Shields into Shadows. \\ NThe movement speed is increased by 25%. \\ NSP"
      }, 
      {
        "@id": "10800051", 
        "@level": "4", 
        "@name": "Dark site", 
        "@tooltipDescription": "Shields into Shadows. \\ NThe movement speed is increased by 27%. \\ NSP"
      }, 
      {
        "@id": "10800051", 
        "@level": "5", 
        "@name": "Dark site", 
        "@tooltipDescription": "Shields into Shadows. \\ NThe movement speed is increased by 29%. \\ NSP"
      }, 
      {
        "@id": "10800051", 
        "@level": "6", 
        "@name": "Dark site", 
        "@tooltipDescription": "Shields into Shadows. \\ NThe movement speed is increased by 31%. \\ NSP"
      }, 
      {
        "@id": "10800051", 
        "@level": "7", 
        "@name": "Dark site", 
        "@tooltipDescription": "Shadows in shadow. \\ N Movement speed increased by 33% \\ nSP Increased SP recovery from resting spontaneity"
      }, 
      {
        "@id": "10800051", 
        "@level": "8", 
        "@name": "Dark site", 
        "@tooltipDescription": "Shields into Shadows. \\ N35% Movement Speed Increase \\ nSP SP Increase in SP Recovery"
      }, 
      {
        "@id": "10800051", 
        "@level": "9", 
        "@name": "Dark site", 
        "@tooltipDescription": "Decreases its appearance into shadow. \\ NThe movement speed is increased by 37%. \\ NSP"
      }, 
      {
        "@id": "10800051", 
        "@level": "10", 
        "@name": "Dark site", 
        "@tooltipDescription": "Shields into Shadows. \\ NThe movement speed is increased by 39%. \\ NSP"
      }, 
      {
        "@id": "10800051", 
        "@level": "11", 
        "@name": "Dark site", 
        "@tooltipDescription": "Shields in Shadows. \\ NThe movement speed is increased by 41%. \\ NSP"
      }, 
      {
        "@id": "10800051", 
        "@level": "12", 
        "@name": "Dark site", 
        "@tooltipDescription": "Shields into Shadows. \\ N Movement speed increased by 43%. \\ NSP Increased SP recovery"
      }, 
      {
        "@id": "10800053", 
        "@level": "1", 
        "@name": "faint", 
        "@tooltipDescription": "I was struck by the assassin's surprise! \\nNot acted out of control"
      }, 
      {
        "@id": "10800062", 
        "@level": "1", 
        "@name": "Shadow Web", 
        "@tooltipDescription": "Your entire body is wrapped in a spider web! \\ N 10% Shadow damage per second \\ nThe movement speed is reduced by 14% \\ nThe jump force is reduced by 14%"
      }, 
      {
        "@id": "10800062", 
        "@level": "2", 
        "@name": "Shadow Web", 
        "@tooltipDescription": "Your entire body is wrapped in a spider web! \\ N 12% Shadow damage per second \\ nThe movement speed is reduced by 15% \\ nJump power is reduced by 15%"
      }, 
      {
        "@id": "10800062", 
        "@level": "3", 
        "@name": "Shadow Web", 
        "@tooltipDescription": "Your entire body is wrapped in a spider web! \\ N 14% Shadow damage per second \\ nDelay by 16% \\ nDelay by 16%"
      }, 
      {
        "@id": "10800062", 
        "@level": "4", 
        "@name": "Shadow Web", 
        "@tooltipDescription": "Your entire body is wrapped in a spider web! \\ N 16% Shadow damage per second \\ nThe movement speed is reduced by 17% \\ nThe jump force is reduced by 17%"
      }, 
      {
        "@id": "10800062", 
        "@level": "5", 
        "@name": "Shadow Web", 
        "@tooltipDescription": "Your entire body is wrapped in a spider web! \\n 18% Shadow damage per second \\nThe movement speed is reduced by 18% \\nThe jump power is reduced by 18%"
      }, 
      {
        "@id": "10800062", 
        "@level": "6", 
        "@name": "Shadow Web", 
        "@tooltipDescription": "Your entire body is wrapped in a spider web! \\ N 20% Shadow damage per second \\ nThe movement speed is reduced by 19% \\ nThe jump force is reduced by 19%"
      }, 
      {
        "@id": "10800062", 
        "@level": "7", 
        "@name": "Shadow Web", 
        "@tooltipDescription": "Your entire body is wrapped in a spider&#39;s web! \\ N 22% Shadow damage per second \\ nThe movement speed is reduced by 20% \\ nThe jump force is reduced by 20%"
      }, 
      {
        "@id": "10800062", 
        "@level": "8", 
        "@name": "Shadow Web", 
        "@tooltipDescription": "Your body is wrapped in a web! \\ N 24% Shadow damage per second \\ nThe movement speed is reduced by 21% \\ nThe jump force is reduced by 21%"
      }, 
      {
        "@id": "10800062", 
        "@level": "9", 
        "@name": "Shadow Web", 
        "@tooltipDescription": "Your entire body is wrapped in a spider web! \\ N 26% of Shadow damage per second \\ nThe movement speed is reduced by 22% \\ nThe jump force is reduced by 22%"
      }, 
      {
        "@id": "10800062", 
        "@level": "10", 
        "@name": "Shadow Web", 
        "@tooltipDescription": "Your entire body is wrapped in a spider web! \\ N 28% Shadow damage per second \\ nThe movement speed is reduced by 23% \\ nThe jump force is reduced by 23%"
      }, 
      {
        "@id": "10800062", 
        "@level": "11", 
        "@name": "Shadow Web", 
        "@tooltipDescription": "Your entire body is wrapped in a spider web! \\ N 30% Shadow damage per second \\ nThe movement speed is reduced by 24% \\ nThe jump force is reduced by 24%"
      }, 
      {
        "@id": "10800062", 
        "@level": "12", 
        "@name": "Shadow Web", 
        "@tooltipDescription": "Your entire body is wrapped in a spider web! \\ N 32% Shadow damage per second \\ nThe movement speed is reduced by 25% \\ nThe jump force is reduced by 25%"
      }, 
      {
        "@id": "10800081", 
        "@level": "1", 
        "@name": "An assassin&#39;s stigma", 
        "@tooltipDescription": "An assassin&#39;s stigma has been carved! \\ NThe caster&#39;s SP recovery"
      }, 
      {
        "@id": "10800092", 
        "@level": "1", 
        "@name": "Mark of death", 
        "@tooltipDescription": "Sign of Death! \\nAll damage done to enemies is increased by 1%."
      }, 
      {
        "@id": "10800092", 
        "@level": "2", 
        "@name": "Mark of death", 
        "@tooltipDescription": "Mark of Death! \\nAll damage done to enemies is increased by 2%."
      }, 
      {
        "@id": "10800092", 
        "@level": "3", 
        "@name": "Mark of death", 
        "@tooltipDescription": "Sign of Death! \\nAll damage done to enemies is increased by 3%."
      }, 
      {
        "@id": "10800092", 
        "@level": "4", 
        "@name": "Mark of death", 
        "@tooltipDescription": "Sign of Death! \\nAll damage done to enemies is increased by 4%."
      }, 
      {
        "@id": "10800092", 
        "@level": "5", 
        "@name": "Mark of death", 
        "@tooltipDescription": "Sign of Death! \\nAll damage done to enemies is increased by 5%."
      }, 
      {
        "@id": "10800092", 
        "@level": "6", 
        "@name": "Mark of death", 
        "@tooltipDescription": "Mark of Death! \\nAll damage done to enemies is increased by 6%."
      }, 
      {
        "@id": "10800092", 
        "@level": "7", 
        "@name": "Mark of death", 
        "@tooltipDescription": "Mark of Death! \\nAll damage done to enemies is increased by 7%."
      }, 
      {
        "@id": "10800092", 
        "@level": "8", 
        "@name": "Mark of death", 
        "@tooltipDescription": "Mark of Death! \\nAll damage done to enemies is increased by 8%."
      }, 
      {
        "@id": "10800092", 
        "@level": "9", 
        "@name": "Mark of death", 
        "@tooltipDescription": "Sign of Death! \\nAll damage done to enemies is increased by 9%."
      }, 
      {
        "@id": "10800092", 
        "@level": "10", 
        "@name": "Mark of death", 
        "@tooltipDescription": "Mark of Death! \\nAll damage done to enemies is increased by 10%."
      }, 
      {
        "@id": "10800092", 
        "@level": "11", 
        "@name": "Mark of death", 
        "@tooltipDescription": "Sign of Death! \\nAll damage done to enemies is increased by 11%."
      }, 
      {
        "@id": "10800092", 
        "@level": "12", 
        "@name": "Mark of death", 
        "@tooltipDescription": "Mark of Death! \\nAll damage done to enemies is increased by 12%."
      }, 
      {
        "@id": "10800131", 
        "@level": "1", 
        "@name": "Sentence", 
        "@tooltipDescription": "Sign of Death! \\ NAll damage done to enemies is increased by 1%."
      }, 
      {
        "@id": "10800131", 
        "@level": "2", 
        "@name": "Sentence", 
        "@tooltipDescription": "Mark of Death! \\ NAll damage done to enemies is increased by 2%."
      }, 
      {
        "@id": "10800131", 
        "@level": "3", 
        "@name": "Sentence", 
        "@tooltipDescription": "Sign of Death! \\ NAll damage done to enemies is increased by 3%."
      }, 
      {
        "@id": "10800131", 
        "@level": "4", 
        "@name": "Sentence", 
        "@tooltipDescription": "Sign of Death! \\ NAll damage done to enemies is increased by 4%."
      }, 
      {
        "@id": "10800131", 
        "@level": "5", 
        "@name": "Sentence", 
        "@tooltipDescription": "Sign of Death! \\ NAll damage done to enemies is increased by 5%."
      }, 
      {
        "@id": "10800131", 
        "@level": "6", 
        "@name": "Sentence", 
        "@tooltipDescription": "Mark of Death! \\ NAll damage done to enemies is increased by 6%."
      }, 
      {
        "@id": "10800131", 
        "@level": "7", 
        "@name": "Sentence", 
        "@tooltipDescription": "Mark of Death! \\ NAll damage done to enemies is increased by 7%."
      }, 
      {
        "@id": "10800131", 
        "@level": "8", 
        "@name": "Sentence", 
        "@tooltipDescription": "Mark of Death! \\ NAll damage done to enemies is increased by 8%."
      }, 
      {
        "@id": "10800131", 
        "@level": "9", 
        "@name": "Sentence", 
        "@tooltipDescription": "Sign of Death! \\ NAll damage done to enemies is increased by 9%."
      }, 
      {
        "@id": "10800131", 
        "@level": "10", 
        "@name": "Sentence", 
        "@tooltipDescription": "Mark of Death! \\ NAll damage done to enemies is increased by 10%."
      }, 
      {
        "@id": "10800131", 
        "@level": "11", 
        "@name": "Sentence", 
        "@tooltipDescription": "Sign of Death! \\ NAll damage done to enemies is increased by 11%."
      }, 
      {
        "@id": "10800131", 
        "@level": "12", 
        "@name": "Sentence", 
        "@tooltipDescription": "Mark of Death! \\ NAll damage done to enemies is increased by 12%."
      }, 
      {
        "@id": "10800161", 
        "@level": "1", 
        "@name": "Blade mark", 
        "@tooltipDescription": "Marked! \\n Hit 20 reduced"
      }, 
      {
        "@id": "10800161", 
        "@level": "2", 
        "@name": "Blade mark", 
        "@tooltipDescription": "Stigmatized! \\ N Hit 22 reduced"
      }, 
      {
        "@id": "10800161", 
        "@level": "3", 
        "@name": "Blade mark", 
        "@tooltipDescription": "Stigmatized! \\ N Hit 24 reduced"
      }, 
      {
        "@id": "10800161", 
        "@level": "4", 
        "@name": "Blade mark", 
        "@tooltipDescription": "Branded! \\ N Hit 26 reduced"
      }, 
      {
        "@id": "10800161", 
        "@level": "5", 
        "@name": "Blade mark", 
        "@tooltipDescription": "Marked! \\ N Hit 28 reduced"
      }, 
      {
        "@id": "10800161", 
        "@level": "6", 
        "@name": "Blade mark", 
        "@tooltipDescription": "Stigmatized! \\ N Hit 30 reduced"
      }, 
      {
        "@id": "10800161", 
        "@level": "7", 
        "@name": "Blade mark", 
        "@tooltipDescription": "Marked! \\ N Hit 32 reduced"
      }, 
      {
        "@id": "10800161", 
        "@level": "8", 
        "@name": "Blade mark", 
        "@tooltipDescription": "Stigmatized! \\ N Hit 34 reduced"
      }, 
      {
        "@id": "10800161", 
        "@level": "9", 
        "@name": "Blade mark", 
        "@tooltipDescription": "Marked! \\ N Hit 36 reduced"
      }, 
      {
        "@id": "10800161", 
        "@level": "10", 
        "@name": "Blade mark", 
        "@tooltipDescription": "Stigmatized! \\ N Hit 38 reduced"
      }, 
      {
        "@id": "10800161", 
        "@level": "11", 
        "@name": "Blade mark", 
        "@tooltipDescription": "Stigmatized! \\ N Hit 40 reduced"
      }, 
      {
        "@id": "10800161", 
        "@level": "12", 
        "@name": "Blade mark", 
        "@tooltipDescription": "Stigmatized! \\ N Hit 42 reduced"
      }, 
      {
        "@id": "10800171", 
        "@level": "1", 
        "@name": "Payne and Payne", 
        "@tooltipDescription": "Addicted to Shadow! \\n 64% Shadow damage per second", 
        "@feature": "JobChange_01"
      }, 
      {
        "@id": "10800171", 
        "@level": "2", 
        "@name": "Payne and Payne", 
        "@tooltipDescription": "Addicted to Shadow! \\n 69% Shadow damage per second", 
        "@feature": "JobChange_01"
      }, 
      {
        "@id": "10800171", 
        "@level": "3", 
        "@name": "Payne and Payne", 
        "@tooltipDescription": "Poisoned by Dark! \\n 74% Shadow damage per second", 
        "@feature": "JobChange_01"
      }, 
      {
        "@id": "10800171", 
        "@level": "4", 
        "@name": "Payne and Payne", 
        "@tooltipDescription": "Addicted to Shadow! \\n 79% Shadow damage per second", 
        "@feature": "JobChange_01"
      }, 
      {
        "@id": "10800171", 
        "@level": "5", 
        "@name": "Payne and Payne", 
        "@tooltipDescription": "Poisoned by Dark! \\n 84% Shadow damage per second", 
        "@feature": "JobChange_01"
      }, 
      {
        "@id": "10800171", 
        "@level": "6", 
        "@name": "Payne and Payne", 
        "@tooltipDescription": "Poisoned to the Dark! \\n 89% Shadow damage per second", 
        "@feature": "JobChange_01"
      }, 
      {
        "@id": "10800171", 
        "@level": "7", 
        "@name": "Payne and Payne", 
        "@tooltipDescription": "Addicted to Shadow! \\n 94% Shadow damage per second", 
        "@feature": "JobChange_01"
      }, 
      {
        "@id": "10800171", 
        "@level": "8", 
        "@name": "Payne and Payne", 
        "@tooltipDescription": "Poisoned by Dark! \\n 99% Shadow damage per second", 
        "@feature": "JobChange_01"
      }, 
      {
        "@id": "10800171", 
        "@level": "9", 
        "@name": "Payne and Payne", 
        "@tooltipDescription": "Poisoned by Dark! \\n 104% Shadow damage per second", 
        "@feature": "JobChange_01"
      }, 
      {
        "@id": "10800171", 
        "@level": "10", 
        "@name": "Payne and Payne", 
        "@tooltipDescription": "Addicted to Shadow! \\n 109% Shadow damage per second", 
        "@feature": "JobChange_01"
      }, 
      {
        "@id": "10800171", 
        "@level": "11", 
        "@name": "Payne and Payne", 
        "@tooltipDescription": "Addicted to Shadow! \\n 114% Shadow damage per second", 
        "@feature": "JobChange_01"
      }, 
      {
        "@id": "10800171", 
        "@level": "12", 
        "@name": "Payne and Payne", 
        "@tooltipDescription": "Addicted to Shadow! \\n 119% Shadow damage per second", 
        "@feature": "JobChange_01"
      }, 
      {
        "@id": "10800202", 
        "@level": "1", 
        "@name": "Darkscapes", 
        "@tooltipDescription": "Absorbed the enemy's energy with dark spells \\nIncreases dark attribute damage by 2%", 
        "@feature": "JobChange_01"
      }, 
      {
        "@id": "10800202", 
        "@level": "2", 
        "@name": "Darkscapes", 
        "@tooltipDescription": "Absorbed the energies of the enemy with dark spells \\nand increased 4% of dark damage damage", 
        "@feature": "JobChange_01"
      }, 
      {
        "@id": "10800202", 
        "@level": "3", 
        "@name": "Darkscapes", 
        "@tooltipDescription": "Absorbed the energies of the enemy with dark spells \\nand increased dark damage damage by 6%", 
        "@feature": "JobChange_01"
      }, 
      {
        "@id": "10800202", 
        "@level": "4", 
        "@name": "Darkscapes", 
        "@tooltipDescription": "Absorbed the energies of the enemy with dark spirits. \\n 8% increase in dark damage damage.", 
        "@feature": "JobChange_01"
      }, 
      {
        "@id": "10800202", 
        "@level": "5", 
        "@name": "Darkscapes", 
        "@tooltipDescription": "Absorbed the enemy's energy with dark spells \\nIncreases dark attribute damage by 10%", 
        "@feature": "JobChange_01"
      }, 
      {
        "@id": "10800202", 
        "@level": "6", 
        "@name": "Darkscapes", 
        "@tooltipDescription": "Absorbed the energies of the enemy with dark spirits \\n Dark attribute damage increased by 12%", 
        "@feature": "JobChange_01"
      }, 
      {
        "@id": "10800202", 
        "@level": "7", 
        "@name": "Darkscapes", 
        "@tooltipDescription": "Absorbed the enemy's energy with dark spells \\nDark dark damage increased by 14%", 
        "@feature": "JobChange_01"
      }, 
      {
        "@id": "10800202", 
        "@level": "8", 
        "@name": "Darkscapes", 
        "@tooltipDescription": "Absorbed the energies of the enemy with dark spells \\nDark dark damage increased by 16%", 
        "@feature": "JobChange_01"
      }, 
      {
        "@id": "10800202", 
        "@level": "9", 
        "@name": "Darkscapes", 
        "@tooltipDescription": "Absorbed the energies of the enemy with dark spells \\nand increased dark attribute damage by 18%", 
        "@feature": "JobChange_01"
      }, 
      {
        "@id": "10800202", 
        "@level": "10", 
        "@name": "Darkscapes", 
        "@tooltipDescription": "Absorbed the energies of the enemy with dark spells \\nand increased 20% dark damage damage", 
        "@feature": "JobChange_01"
      }, 
      {
        "@id": "10800202", 
        "@level": "11", 
        "@name": "Darkscapes", 
        "@tooltipDescription": "Absorbed the energies of the enemy with dark spells \\nCreate dark damage 22%", 
        "@feature": "JobChange_01"
      }, 
      {
        "@id": "10800202", 
        "@level": "12", 
        "@name": "Darkscapes", 
        "@tooltipDescription": "Absorbed the energies of the enemy with dark spells \\nDark damage damage increased by 24%", 
        "@feature": "JobChange_01"
      }, 
      {
        "@id": "10800211", 
        "@level": "1", 
        "@name": "Shadow Stance", 
        "@tooltipDescription": "Shadow enchantment surrounds the entire body \\nAbility to absorb 6% of your maximum HP damage \\nIncreases 9% of dark damage damage", 
        "@feature": "JobChange_01"
      }, 
      {
        "@id": "10800211", 
        "@level": "2", 
        "@name": "Shadow Stance", 
        "@tooltipDescription": "Shadows enchant the entire body \\nAbility to absorb 12% of your maximum HP damage \\nIncreases dark attribute damage by 18%", 
        "@feature": "JobChange_01"
      }, 
      {
        "@id": "10800211", 
        "@level": "3", 
        "@name": "Shadow Stance", 
        "@tooltipDescription": "Shadows enchant the entire body \\nIncreases damage by 18% of your maximum HP \\nIncreases dark attribute damage by 27%", 
        "@feature": "JobChange_01"
      }, 
      {
        "@id": "10800211", 
        "@level": "4", 
        "@name": "Shadow Stance", 
        "@tooltipDescription": "Shadows enchant the entire body \\nAbility to absorb damage by 24% of your maximum HP \\nSkin damage damage by 36%", 
        "@feature": "JobChange_01"
      }, 
      {
        "@id": "10800211", 
        "@level": "5", 
        "@name": "Shadow Stance", 
        "@tooltipDescription": "Shadow enchantment surrounds the entire body \\nAbility to absorb 30% of their maximum HP damage \\nNo Dark Attack damage up to 45%", 
        "@feature": "JobChange_01"
      }, 
      {
        "@id": "10800211", 
        "@level": "6", 
        "@name": "Shadow Stance", 
        "@tooltipDescription": "Shadows enchant the entire body \\nAbility to absorb damage by 36% of your maximum HP \\nDark damage damage by 54%", 
        "@feature": "JobChange_01"
      }, 
      {
        "@id": "10800211", 
        "@level": "7", 
        "@name": "Shadow Stance", 
        "@tooltipDescription": "Shadows enchant the entire body \\nIncreases damage equal to 42% of your maximum HP damage \\nSpecials increase damage by 63%", 
        "@feature": "JobChange_01"
      }, 
      {
        "@id": "10800211", 
        "@level": "8", 
        "@name": "Shadow Stance", 
        "@tooltipDescription": "Shadows enchant the whole body \\nIncreases damage by 48% of your maximum HP \\nIncreases dark attribute damage by 72%", 
        "@feature": "JobChange_01"
      }, 
      {
        "@id": "10800211", 
        "@level": "9", 
        "@name": "Shadow Stance", 
        "@tooltipDescription": "Shadow enchantment surrounds the entire body \\n 54% of your maximum HP absorbed damage \\n Darkness damage increased by 81%", 
        "@feature": "JobChange_01"
      }, 
      {
        "@id": "10800211", 
        "@level": "10", 
        "@name": "Shadow Stance", 
        "@tooltipDescription": "Shadows enchant the whole body \\nAbility to absorb damage by 60% of their maximum HP \\nSpecial ability to increase dark damage by 90%", 
        "@feature": "JobChange_01"
      }, 
      {
        "@id": "10800211", 
        "@level": "11", 
        "@name": "Shadow Stance", 
        "@tooltipDescription": "Shadows enchant the entire body \\nAbility to absorb damage by 66% of your maximum HP \\nSkin damage damage by 99%", 
        "@feature": "JobChange_01"
      }, 
      {
        "@id": "10800211", 
        "@level": "12", 
        "@name": "Shadow Stance", 
        "@tooltipDescription": "Shadows enchant the entire body \\nIncreases damage by 72% of your maximum HP \\nDark damage damage by 108%", 
        "@feature": "JobChange_01"
      }, 
      {
        "@id": "10800221", 
        "@level": "1", 
        "@name": "Mark of Assassin", 
        "@tooltipDescription": "You have been caught in the dark spell! \\nScale Shadow Assassin summon 2436% of Shadow damage", 
        "@feature": "JobChange_01"
      }, 
      {
        "@id": "10800221", 
        "@level": "2", 
        "@name": "Mark of Assassin", 
        "@tooltipDescription": "You have been caught in the Dark Spell! \\n 2720% Shadow Damage summon Shadow Assassin", 
        "@feature": "JobChange_01"
      }, 
      {
        "@id": "10800221", 
        "@level": "3", 
        "@name": "Mark of Assassin", 
        "@tooltipDescription": "You have been caught in a dark spell! \\n 3004% Shadow damage on Summon Shadow Assassin", 
        "@feature": "JobChange_01"
      }, 
      {
        "@id": "10800221", 
        "@level": "4", 
        "@name": "Mark of Assassin", 
        "@tooltipDescription": "You have been caught in the dark spell! \\n 3288% Shadow damage when Summoning Shadow Assassin", 
        "@feature": "JobChange_01"
      }, 
      {
        "@id": "10800221", 
        "@level": "5", 
        "@name": "Mark of Assassin", 
        "@tooltipDescription": "I have been caught in the dark spell! \\n 3592% Shadow damage at Summon Shadow Assassin", 
        "@feature": "JobChange_01"
      }, 
      {
        "@id": "10800221", 
        "@level": "6", 
        "@name": "Mark of Assassin", 
        "@tooltipDescription": "I have been caught in the dark spell! \\n 3856% Shadow damage when Summoning Shadow Assassin", 
        "@feature": "JobChange_01"
      }, 
      {
        "@id": "10800221", 
        "@level": "7", 
        "@name": "Mark of Assassin", 
        "@tooltipDescription": "I've been caught in the dark spell! \\n 4140% Shadow damage when Summoning Shadow Assassin", 
        "@feature": "JobChange_01"
      }, 
      {
        "@id": "10800221", 
        "@level": "8", 
        "@name": "Mark of Assassin", 
        "@tooltipDescription": "I've been caught in the dark spell! \\n 4424% Shadow damage when Summoning Shadow Assassin", 
        "@feature": "JobChange_01"
      }, 
      {
        "@id": "10800221", 
        "@level": "9", 
        "@name": "Mark of Assassin", 
        "@tooltipDescription": "I have been caught in the dark spell! \\n 4708% Shadow damage when Summoning Shadow Assassin", 
        "@feature": "JobChange_01"
      }, 
      {
        "@id": "10800221", 
        "@level": "10", 
        "@name": "Mark of Assassin", 
        "@tooltipDescription": "You have been caught in the dark spell! \\n 4992% Shadow damage when Summoning Shadow Assassin", 
        "@feature": "JobChange_01"
      }, 
      {
        "@id": "10800221", 
        "@level": "11", 
        "@name": "Mark of Assassin", 
        "@tooltipDescription": "I have been caught in the dark spell! \\n 5276% Shadow damage at Summon Shadow Assassin", 
        "@feature": "JobChange_01"
      }, 
      {
        "@id": "10800221", 
        "@level": "12", 
        "@name": "Mark of Assassin", 
        "@tooltipDescription": "You have been caught in the dark spell! \\n 5560% Shadow damage at Summon Shadow Assassin", 
        "@feature": "JobChange_01"
      }, 
      {
        "@id": "10800281", 
        "@level": "1", 
        "@name": "stigma", 
        "@tooltipDescription": "Dark tactics are accumulating in the body.", 
        "@feature": "JobChange_02"
      }, 
      {
        "@id": "10800281", 
        "@level": "2", 
        "@name": "stigma", 
        "@tooltipDescription": "Dark tactics are accumulating in the body.", 
        "@feature": "JobChange_02"
      }, 
      {
        "@id": "10800281", 
        "@level": "3", 
        "@name": "stigma", 
        "@tooltipDescription": "Dark tactics are accumulating in the body.", 
        "@feature": "JobChange_02"
      }, 
      {
        "@id": "10800281", 
        "@level": "4", 
        "@name": "stigma", 
        "@tooltipDescription": "Dark tactics are accumulating in the body.", 
        "@feature": "JobChange_02"
      }, 
      {
        "@id": "10800281", 
        "@level": "5", 
        "@name": "stigma", 
        "@tooltipDescription": "Dark tactics are accumulating in the body.", 
        "@feature": "JobChange_02"
      }, 
      {
        "@id": "10800281", 
        "@level": "6", 
        "@name": "stigma", 
        "@tooltipDescription": "Dark tactics are accumulating in the body.", 
        "@feature": "JobChange_02"
      }, 
      {
        "@id": "10800281", 
        "@level": "7", 
        "@name": "stigma", 
        "@tooltipDescription": "Dark tactics are accumulating in the body.", 
        "@feature": "JobChange_02"
      }, 
      {
        "@id": "10800281", 
        "@level": "8", 
        "@name": "stigma", 
        "@tooltipDescription": "Dark tactics are accumulating in the body.", 
        "@feature": "JobChange_02"
      }, 
      {
        "@id": "10800281", 
        "@level": "9", 
        "@name": "stigma", 
        "@tooltipDescription": "Dark tactics are accumulating in the body.", 
        "@feature": "JobChange_02"
      }, 
      {
        "@id": "10800281", 
        "@level": "10", 
        "@name": "stigma", 
        "@tooltipDescription": "Dark tactics are accumulating in the body.", 
        "@feature": "JobChange_02"
      }, 
      {
        "@id": "10800281", 
        "@level": "11", 
        "@name": "stigma", 
        "@tooltipDescription": "Dark tactics are accumulating in the body.", 
        "@feature": "JobChange_02"
      }, 
      {
        "@id": "10800281", 
        "@level": "12", 
        "@name": "stigma", 
        "@tooltipDescription": "Dark tactics are accumulating in the body.", 
        "@feature": "JobChange_02"
      }, 
      {
        "@id": "10800283", 
        "@level": "1", 
        "@name": "corrosion", 
        "@tooltipDescription": "Dark spell has been exposed to \\nthe physical / magic resistance reduced by 60", 
        "@feature": "JobChange_02"
      }, 
      {
        "@id": "10800283", 
        "@level": "2", 
        "@name": "corrosion", 
        "@tooltipDescription": "Dark spell has been exposed to \\nthe physical / magic resistance reduced by 60", 
        "@feature": "JobChange_02"
      }, 
      {
        "@id": "10800283", 
        "@level": "3", 
        "@name": "corrosion", 
        "@tooltipDescription": "Dark spell has been exposed to \\nthe physical / magic resistance reduced by 60", 
        "@feature": "JobChange_02"
      }, 
      {
        "@id": "10800283", 
        "@level": "4", 
        "@name": "corrosion", 
        "@tooltipDescription": "Dark spell has been exposed to \\nthe physical / magic resistance reduced by 60", 
        "@feature": "JobChange_02"
      }, 
      {
        "@id": "10800283", 
        "@level": "5", 
        "@name": "corrosion", 
        "@tooltipDescription": "Dark spell has been exposed to \\nthe physical / magic resistance reduced by 60", 
        "@feature": "JobChange_02"
      }, 
      {
        "@id": "10800283", 
        "@level": "6", 
        "@name": "corrosion", 
        "@tooltipDescription": "Dark spell has been exposed to \\nthe physical / magic resistance reduced by 60", 
        "@feature": "JobChange_02"
      }, 
      {
        "@id": "10800283", 
        "@level": "7", 
        "@name": "corrosion", 
        "@tooltipDescription": "Dark spell has been exposed to \\nthe physical / magic resistance reduced by 60", 
        "@feature": "JobChange_02"
      }, 
      {
        "@id": "10800283", 
        "@level": "8", 
        "@name": "corrosion", 
        "@tooltipDescription": "Dark spell has been exposed to \\nthe physical / magic resistance reduced by 60", 
        "@feature": "JobChange_02"
      }, 
      {
        "@id": "10800283", 
        "@level": "9", 
        "@name": "corrosion", 
        "@tooltipDescription": "Dark spell has been exposed to \\nthe physical / magic resistance reduced by 60", 
        "@feature": "JobChange_02"
      }, 
      {
        "@id": "10800283", 
        "@level": "10", 
        "@name": "corrosion", 
        "@tooltipDescription": "Dark spell has been exposed to \\nthe physical / magic resistance reduced by 60", 
        "@feature": "JobChange_02"
      }, 
      {
        "@id": "10800283", 
        "@level": "11", 
        "@name": "corrosion", 
        "@tooltipDescription": "Dark spell has been exposed to \\nthe physical / magic resistance reduced by 60", 
        "@feature": "JobChange_02"
      }, 
      {
        "@id": "10800283", 
        "@level": "12", 
        "@name": "corrosion", 
        "@tooltipDescription": "Dark spell has been exposed to \\nthe physical / magic resistance reduced by 60", 
        "@feature": "JobChange_02"
      }, 
      {
        "@id": "10800284", 
        "@level": "1", 
        "@name": "The Power of Darkness", 
        "@tooltipDescription": "We are collecting the power of darkness.", 
        "@feature": "JobChange_02"
      }, 
      {
        "@id": "10800284", 
        "@level": "2", 
        "@name": "The Power of Darkness", 
        "@tooltipDescription": "We are collecting the power of darkness.", 
        "@feature": "JobChange_02"
      }, 
      {
        "@id": "10800284", 
        "@level": "3", 
        "@name": "The Power of Darkness", 
        "@tooltipDescription": "We are collecting the power of darkness.", 
        "@feature": "JobChange_02"
      }, 
      {
        "@id": "10800284", 
        "@level": "4", 
        "@name": "The Power of Darkness", 
        "@tooltipDescription": "We are collecting the power of darkness.", 
        "@feature": "JobChange_02"
      }, 
      {
        "@id": "10800284", 
        "@level": "5", 
        "@name": "The Power of Darkness", 
        "@tooltipDescription": "We are collecting the power of darkness.", 
        "@feature": "JobChange_02"
      }, 
      {
        "@id": "10800284", 
        "@level": "6", 
        "@name": "The Power of Darkness", 
        "@tooltipDescription": "We are collecting the power of darkness.", 
        "@feature": "JobChange_02"
      }, 
      {
        "@id": "10800284", 
        "@level": "7", 
        "@name": "The Power of Darkness", 
        "@tooltipDescription": "We are collecting the power of darkness.", 
        "@feature": "JobChange_02"
      }, 
      {
        "@id": "10800284", 
        "@level": "8", 
        "@name": "The Power of Darkness", 
        "@tooltipDescription": "We are collecting the power of darkness.", 
        "@feature": "JobChange_02"
      }, 
      {
        "@id": "10800284", 
        "@level": "9", 
        "@name": "The Power of Darkness", 
        "@tooltipDescription": "We are collecting the power of darkness.", 
        "@feature": "JobChange_02"
      }, 
      {
        "@id": "10800284", 
        "@level": "10", 
        "@name": "The Power of Darkness", 
        "@tooltipDescription": "We are collecting the power of darkness.", 
        "@feature": "JobChange_02"
      }, 
      {
        "@id": "10800284", 
        "@level": "11", 
        "@name": "The Power of Darkness", 
        "@tooltipDescription": "We are collecting the power of darkness.", 
        "@feature": "JobChange_02"
      }, 
      {
        "@id": "10800284", 
        "@level": "12", 
        "@name": "The Power of Darkness", 
        "@tooltipDescription": "We are collecting the power of darkness.", 
        "@feature": "JobChange_02"
      }, 
      {
        "@id": "10800285", 
        "@level": "1", 
        "@name": "Nisku", 
        "@tooltipDescription": "The technique of darkness has been completed", 
        "@feature": "JobChange_02"
      }, 
      {
        "@id": "10800285", 
        "@level": "2", 
        "@name": "Nisku", 
        "@tooltipDescription": "The technique of darkness has been completed", 
        "@feature": "JobChange_02"
      }, 
      {
        "@id": "10800285", 
        "@level": "3", 
        "@name": "Nisku", 
        "@tooltipDescription": "The technique of darkness has been completed", 
        "@feature": "JobChange_02"
      }, 
      {
        "@id": "10800285", 
        "@level": "4", 
        "@name": "Nisku", 
        "@tooltipDescription": "The technique of darkness has been completed", 
        "@feature": "JobChange_02"
      }, 
      {
        "@id": "10800285", 
        "@level": "5", 
        "@name": "Nisku", 
        "@tooltipDescription": "The technique of darkness has been completed", 
        "@feature": "JobChange_02"
      }, 
      {
        "@id": "10800285", 
        "@level": "6", 
        "@name": "Nisku", 
        "@tooltipDescription": "The technique of darkness has been completed", 
        "@feature": "JobChange_02"
      }, 
      {
        "@id": "10800285", 
        "@level": "7", 
        "@name": "Nisku", 
        "@tooltipDescription": "The technique of darkness has been completed", 
        "@feature": "JobChange_02"
      }, 
      {
        "@id": "10800285", 
        "@level": "8", 
        "@name": "Nisku", 
        "@tooltipDescription": "The technique of darkness has been completed", 
        "@feature": "JobChange_02"
      }, 
      {
        "@id": "10800285", 
        "@level": "9", 
        "@name": "Nisku", 
        "@tooltipDescription": "The technique of darkness has been completed", 
        "@feature": "JobChange_02"
      }, 
      {
        "@id": "10800285", 
        "@level": "10", 
        "@name": "Nisku", 
        "@tooltipDescription": "The technique of darkness has been completed", 
        "@feature": "JobChange_02"
      }, 
      {
        "@id": "10800285", 
        "@level": "11", 
        "@name": "Nisku", 
        "@tooltipDescription": "The technique of darkness has been completed", 
        "@feature": "JobChange_02"
      }, 
      {
        "@id": "10800285", 
        "@level": "12", 
        "@name": "Nisku", 
        "@tooltipDescription": "The technique of darkness has been completed", 
        "@feature": "JobChange_02"
      }, 
      {
        "@id": "10800041", 
        "@level": "1", 
        "@name": "Fatal Attack", 
        "@tooltipDescription": "Detected enemy weakness! \\nAll attacks are activated as Critical", 
        "@feature": "CharacterBalance_01", 
        "@locale": "KR"
      }, 
      {
        "@id": "10800041", 
        "@level": "2", 
        "@name": "Fatal Attack", 
        "@tooltipDescription": "Detected enemy weakness! \\nAll attacks are activated as Critical", 
        "@feature": "CharacterBalance_01", 
        "@locale": "KR"
      }, 
      {
        "@id": "10800041", 
        "@level": "3", 
        "@name": "Fatal Attack", 
        "@tooltipDescription": "Detected enemy weakness! \\nAll attacks are activated as Critical", 
        "@feature": "CharacterBalance_01", 
        "@locale": "KR"
      }, 
      {
        "@id": "10800041", 
        "@level": "4", 
        "@name": "Fatal Attack", 
        "@tooltipDescription": "Detected enemy weakness! \\nAll attacks are activated as Critical", 
        "@feature": "CharacterBalance_01", 
        "@locale": "KR"
      }, 
      {
        "@id": "10800041", 
        "@level": "5", 
        "@name": "Fatal Attack", 
        "@tooltipDescription": "Detected enemy weakness! \\nAll attacks are activated as Critical", 
        "@feature": "CharacterBalance_01", 
        "@locale": "KR"
      }, 
      {
        "@id": "10800041", 
        "@level": "6", 
        "@name": "Fatal Attack", 
        "@tooltipDescription": "Detected enemy weakness! \\nAll attacks are activated as Critical", 
        "@feature": "CharacterBalance_01", 
        "@locale": "KR"
      }, 
      {
        "@id": "10800041", 
        "@level": "7", 
        "@name": "Fatal Attack", 
        "@tooltipDescription": "Detected enemy weakness! \\nAll attacks are activated as Critical", 
        "@feature": "CharacterBalance_01", 
        "@locale": "KR"
      }, 
      {
        "@id": "10800041", 
        "@level": "8", 
        "@name": "Fatal Attack", 
        "@tooltipDescription": "Detected enemy weakness! \\nAll attacks are activated as Critical", 
        "@feature": "CharacterBalance_01", 
        "@locale": "KR"
      }, 
      {
        "@id": "10800041", 
        "@level": "9", 
        "@name": "Fatal Attack", 
        "@tooltipDescription": "Detected enemy weakness! \\nAll attacks are activated as Critical", 
        "@feature": "CharacterBalance_01", 
        "@locale": "KR"
      }, 
      {
        "@id": "10800041", 
        "@level": "10", 
        "@name": "Fatal Attack", 
        "@tooltipDescription": "Detected enemy weakness! \\nAll attacks are activated as Critical", 
        "@feature": "CharacterBalance_01", 
        "@locale": "KR"
      }, 
      {
        "@id": "10800041", 
        "@level": "11", 
        "@name": "Fatal Attack", 
        "@tooltipDescription": "Detected enemy weakness! \\nAll attacks are activated as Critical", 
        "@feature": "CharacterBalance_01", 
        "@locale": "KR"
      }, 
      {
        "@id": "10800041", 
        "@level": "12", 
        "@name": "Fatal Attack", 
        "@tooltipDescription": "Detected enemy weakness! \\nAll attacks are activated as Critical", 
        "@feature": "CharacterBalance_01", 
        "@locale": "KR"
      }, 
      {
        "@id": "10800051", 
        "@level": "1", 
        "@name": "Dark site", 
        "@tooltipDescription": "Decreases appearance in shadow. \\ N Movement speed increased by 21% \\ nSP Increased spontaneous recovery", 
        "@feature": "CharacterBalance_01", 
        "@locale": "KR"
      }, 
      {
        "@id": "10800051", 
        "@level": "2", 
        "@name": "Dark site", 
        "@tooltipDescription": "Decreases its appearance into shadow. \\ N Movement speed increased by 23% \\ nSP Increased SP recovery from resting state", 
        "@feature": "CharacterBalance_01", 
        "@locale": "KR"
      }, 
      {
        "@id": "10800051", 
        "@level": "3", 
        "@name": "Dark site", 
        "@tooltipDescription": "Shields into Shadows. \\ NThe movement speed is increased by 25%. \\ NSP", 
        "@feature": "CharacterBalance_01", 
        "@locale": "KR"
      }, 
      {
        "@id": "10800051", 
        "@level": "4", 
        "@name": "Dark site", 
        "@tooltipDescription": "Shields into Shadows. \\ NThe movement speed is increased by 27%. \\ NSP", 
        "@feature": "CharacterBalance_01", 
        "@locale": "KR"
      }, 
      {
        "@id": "10800051", 
        "@level": "5", 
        "@name": "Dark site", 
        "@tooltipDescription": "Shields into Shadows. \\ NThe movement speed is increased by 29%. \\ NSP", 
        "@feature": "CharacterBalance_01", 
        "@locale": "KR"
      }, 
      {
        "@id": "10800051", 
        "@level": "6", 
        "@name": "Dark site", 
        "@tooltipDescription": "Shields into Shadows. \\ NThe movement speed is increased by 31%. \\ NSP", 
        "@feature": "CharacterBalance_01", 
        "@locale": "KR"
      }, 
      {
        "@id": "10800051", 
        "@level": "7", 
        "@name": "Dark site", 
        "@tooltipDescription": "Shadows in shadow. \\ N Movement speed increased by 33% \\ nSP Increased SP recovery from resting spontaneity", 
        "@feature": "CharacterBalance_01", 
        "@locale": "KR"
      }, 
      {
        "@id": "10800051", 
        "@level": "8", 
        "@name": "Dark site", 
        "@tooltipDescription": "Shields into Shadows. \\ N35% Movement Speed Increase \\ nSP SP Increase in SP Recovery", 
        "@feature": "CharacterBalance_01", 
        "@locale": "KR"
      }, 
      {
        "@id": "10800051", 
        "@level": "9", 
        "@name": "Dark site", 
        "@tooltipDescription": "Decreases its appearance into shadow. \\ NThe movement speed is increased by 37%. \\ NSP", 
        "@feature": "CharacterBalance_01", 
        "@locale": "KR"
      }, 
      {
        "@id": "10800051", 
        "@level": "10", 
        "@name": "Dark site", 
        "@tooltipDescription": "Shields into Shadows. \\ NThe movement speed is increased by 39%. \\ NSP", 
        "@feature": "CharacterBalance_01", 
        "@locale": "KR"
      }, 
      {
        "@id": "10800051", 
        "@level": "11", 
        "@name": "Dark site", 
        "@tooltipDescription": "Shields in Shadows. \\ NThe movement speed is increased by 41%. \\ NSP", 
        "@feature": "CharacterBalance_01", 
        "@locale": "KR"
      }, 
      {
        "@id": "10800051", 
        "@level": "12", 
        "@name": "Dark site", 
        "@tooltipDescription": "Shields into Shadows. \\ N Movement speed increased by 43%. \\ NSP Increased SP recovery", 
        "@feature": "CharacterBalance_01", 
        "@locale": "KR"
      }, 
      {
        "@id": "10800053", 
        "@level": "1", 
        "@name": "faint", 
        "@tooltipDescription": "I was struck by the assassin's surprise! \\nNot acted out of control", 
        "@feature": "CharacterBalance_01", 
        "@locale": "KR"
      }, 
      {
        "@id": "10800062", 
        "@level": "1", 
        "@name": "Shadow Web", 
        "@tooltipDescription": "Your entire body is wrapped in a spider web! \\ N 10% Shadow damage per second \\ nThe movement speed is reduced by 14% \\ nThe jump force is reduced by 14%", 
        "@feature": "CharacterBalance_01", 
        "@locale": "KR"
      }, 
      {
        "@id": "10800062", 
        "@level": "2", 
        "@name": "Shadow Web", 
        "@tooltipDescription": "Your entire body is wrapped in a spider web! \\ N 12% Shadow damage per second \\ nThe movement speed is reduced by 15% \\ nJump power is reduced by 15%", 
        "@feature": "CharacterBalance_01", 
        "@locale": "KR"
      }, 
      {
        "@id": "10800062", 
        "@level": "3", 
        "@name": "Shadow Web", 
        "@tooltipDescription": "Your entire body is wrapped in a spider web! \\ N 14% Shadow damage per second \\ nDelay by 16% \\ nDelay by 16%", 
        "@feature": "CharacterBalance_01", 
        "@locale": "KR"
      }, 
      {
        "@id": "10800062", 
        "@level": "4", 
        "@name": "Shadow Web", 
        "@tooltipDescription": "Your entire body is wrapped in a spider web! \\ N 16% Shadow damage per second \\ nThe movement speed is reduced by 17% \\ nThe jump force is reduced by 17%", 
        "@feature": "CharacterBalance_01", 
        "@locale": "KR"
      }, 
      {
        "@id": "10800062", 
        "@level": "5", 
        "@name": "Shadow Web", 
        "@tooltipDescription": "Your entire body is wrapped in a spider web! \\n 18% Shadow damage per second \\nThe movement speed is reduced by 18% \\nThe jump power is reduced by 18%", 
        "@feature": "CharacterBalance_01", 
        "@locale": "KR"
      }, 
      {
        "@id": "10800062", 
        "@level": "6", 
        "@name": "Shadow Web", 
        "@tooltipDescription": "Your entire body is wrapped in a spider web! \\ N 20% Shadow damage per second \\ nThe movement speed is reduced by 19% \\ nThe jump force is reduced by 19%", 
        "@feature": "CharacterBalance_01", 
        "@locale": "KR"
      }, 
      {
        "@id": "10800062", 
        "@level": "7", 
        "@name": "Shadow Web", 
        "@tooltipDescription": "Your entire body is wrapped in a spider&#39;s web! \\ N 22% Shadow damage per second \\ nThe movement speed is reduced by 20% \\ nThe jump force is reduced by 20%", 
        "@feature": "CharacterBalance_01", 
        "@locale": "KR"
      }, 
      {
        "@id": "10800062", 
        "@level": "8", 
        "@name": "Shadow Web", 
        "@tooltipDescription": "Your body is wrapped in a web! \\ N 24% Shadow damage per second \\ nThe movement speed is reduced by 21% \\ nThe jump force is reduced by 21%", 
        "@feature": "CharacterBalance_01", 
        "@locale": "KR"
      }, 
      {
        "@id": "10800062", 
        "@level": "9", 
        "@name": "Shadow Web", 
        "@tooltipDescription": "Your entire body is wrapped in a spider web! \\ N 26% of Shadow damage per second \\ nThe movement speed is reduced by 22% \\ nThe jump force is reduced by 22%", 
        "@feature": "CharacterBalance_01", 
        "@locale": "KR"
      }, 
      {
        "@id": "10800062", 
        "@level": "10", 
        "@name": "Shadow Web", 
        "@tooltipDescription": "Your entire body is wrapped in a spider web! \\ N 28% Shadow damage per second \\ nThe movement speed is reduced by 23% \\ nThe jump force is reduced by 23%", 
        "@feature": "CharacterBalance_01", 
        "@locale": "KR"
      }, 
      {
        "@id": "10800062", 
        "@level": "11", 
        "@name": "Shadow Web", 
        "@tooltipDescription": "Your entire body is wrapped in a spider web! \\ N 30% Shadow damage per second \\ nThe movement speed is reduced by 24% \\ nThe jump force is reduced by 24%", 
        "@feature": "CharacterBalance_01", 
        "@locale": "KR"
      }, 
      {
        "@id": "10800062", 
        "@level": "12", 
        "@name": "Shadow Web", 
        "@tooltipDescription": "Your entire body is wrapped in a spider web! \\ N 32% Shadow damage per second \\ nThe movement speed is reduced by 25% \\ nThe jump force is reduced by 25%", 
        "@feature": "CharacterBalance_01", 
        "@locale": "KR"
      }, 
      {
        "@id": "10800081", 
        "@level": "1", 
        "@name": "An assassin&#39;s stigma", 
        "@tooltipDescription": "An assassin&#39;s stigma has been carved! \\ NThe caster&#39;s SP recovery", 
        "@feature": "CharacterBalance_01", 
        "@locale": "KR"
      }, 
      {
        "@id": "10800092", 
        "@level": "1", 
        "@name": "Mark of death", 
        "@tooltipDescription": "Sign of Death! \\nAll damage done to enemies is increased by 1%.", 
        "@feature": "CharacterBalance_01", 
        "@locale": "KR"
      }, 
      {
        "@id": "10800092", 
        "@level": "2", 
        "@name": "Mark of death", 
        "@tooltipDescription": "Mark of Death! \\nAll damage done to enemies is increased by 2%.", 
        "@feature": "CharacterBalance_01", 
        "@locale": "KR"
      }, 
      {
        "@id": "10800092", 
        "@level": "3", 
        "@name": "Mark of death", 
        "@tooltipDescription": "Sign of Death! \\nAll damage done to enemies is increased by 3%.", 
        "@feature": "CharacterBalance_01", 
        "@locale": "KR"
      }, 
      {
        "@id": "10800092", 
        "@level": "4", 
        "@name": "Mark of death", 
        "@tooltipDescription": "Sign of Death! \\nAll damage done to enemies is increased by 4%.", 
        "@feature": "CharacterBalance_01", 
        "@locale": "KR"
      }, 
      {
        "@id": "10800092", 
        "@level": "5", 
        "@name": "Mark of death", 
        "@tooltipDescription": "Sign of Death! \\nAll damage done to enemies is increased by 5%.", 
        "@feature": "CharacterBalance_01", 
        "@locale": "KR"
      }, 
      {
        "@id": "10800092", 
        "@level": "6", 
        "@name": "Mark of death", 
        "@tooltipDescription": "Mark of Death! \\nAll damage done to enemies is increased by 6%.", 
        "@feature": "CharacterBalance_01", 
        "@locale": "KR"
      }, 
      {
        "@id": "10800092", 
        "@level": "7", 
        "@name": "Mark of death", 
        "@tooltipDescription": "Mark of Death! \\nAll damage done to enemies is increased by 7%.", 
        "@feature": "CharacterBalance_01", 
        "@locale": "KR"
      }, 
      {
        "@id": "10800092", 
        "@level": "8", 
        "@name": "Mark of death", 
        "@tooltipDescription": "Mark of Death! \\nAll damage done to enemies is increased by 8%.", 
        "@feature": "CharacterBalance_01", 
        "@locale": "KR"
      }, 
      {
        "@id": "10800092", 
        "@level": "9", 
        "@name": "Mark of death", 
        "@tooltipDescription": "Sign of Death! \\nAll damage done to enemies is increased by 9%.", 
        "@feature": "CharacterBalance_01", 
        "@locale": "KR"
      }, 
      {
        "@id": "10800092", 
        "@level": "10", 
        "@name": "Mark of death", 
        "@tooltipDescription": "Mark of Death! \\nAll damage done to enemies is increased by 10%.", 
        "@feature": "CharacterBalance_01", 
        "@locale": "KR"
      }, 
      {
        "@id": "10800092", 
        "@level": "11", 
        "@name": "Mark of death", 
        "@tooltipDescription": "Sign of Death! \\nAll damage done to enemies is increased by 11%.", 
        "@feature": "CharacterBalance_01", 
        "@locale": "KR"
      }, 
      {
        "@id": "10800092", 
        "@level": "12", 
        "@name": "Mark of death", 
        "@tooltipDescription": "Mark of Death! \\nAll damage done to enemies is increased by 12%.", 
        "@feature": "CharacterBalance_01", 
        "@locale": "KR"
      }, 
      {
        "@id": "10800131", 
        "@level": "1", 
        "@name": "Sentence", 
        "@tooltipDescription": "Sign of Death! \\ NAll damage done to enemies is increased by 1%.", 
        "@feature": "CharacterBalance_01", 
        "@locale": "KR"
      }, 
      {
        "@id": "10800131", 
        "@level": "2", 
        "@name": "Sentence", 
        "@tooltipDescription": "Mark of Death! \\ NAll damage done to enemies is increased by 2%.", 
        "@feature": "CharacterBalance_01", 
        "@locale": "KR"
      }, 
      {
        "@id": "10800131", 
        "@level": "3", 
        "@name": "Sentence", 
        "@tooltipDescription": "Sign of Death! \\ NAll damage done to enemies is increased by 3%.", 
        "@feature": "CharacterBalance_01", 
        "@locale": "KR"
      }, 
      {
        "@id": "10800131", 
        "@level": "4", 
        "@name": "Sentence", 
        "@tooltipDescription": "Sign of Death! \\ NAll damage done to enemies is increased by 4%.", 
        "@feature": "CharacterBalance_01", 
        "@locale": "KR"
      }, 
      {
        "@id": "10800131", 
        "@level": "5", 
        "@name": "Sentence", 
        "@tooltipDescription": "Sign of Death! \\ NAll damage done to enemies is increased by 5%.", 
        "@feature": "CharacterBalance_01", 
        "@locale": "KR"
      }, 
      {
        "@id": "10800131", 
        "@level": "6", 
        "@name": "Sentence", 
        "@tooltipDescription": "Mark of Death! \\ NAll damage done to enemies is increased by 6%.", 
        "@feature": "CharacterBalance_01", 
        "@locale": "KR"
      }, 
      {
        "@id": "10800131", 
        "@level": "7", 
        "@name": "Sentence", 
        "@tooltipDescription": "Mark of Death! \\ NAll damage done to enemies is increased by 7%.", 
        "@feature": "CharacterBalance_01", 
        "@locale": "KR"
      }, 
      {
        "@id": "10800131", 
        "@level": "8", 
        "@name": "Sentence", 
        "@tooltipDescription": "Mark of Death! \\ NAll damage done to enemies is increased by 8%.", 
        "@feature": "CharacterBalance_01", 
        "@locale": "KR"
      }, 
      {
        "@id": "10800131", 
        "@level": "9", 
        "@name": "Sentence", 
        "@tooltipDescription": "Sign of Death! \\ NAll damage done to enemies is increased by 9%.", 
        "@feature": "CharacterBalance_01", 
        "@locale": "KR"
      }, 
      {
        "@id": "10800131", 
        "@level": "10", 
        "@name": "Sentence", 
        "@tooltipDescription": "Mark of Death! \\ NAll damage done to enemies is increased by 10%.", 
        "@feature": "CharacterBalance_01", 
        "@locale": "KR"
      }, 
      {
        "@id": "10800131", 
        "@level": "11", 
        "@name": "Sentence", 
        "@tooltipDescription": "Sign of Death! \\ NAll damage done to enemies is increased by 11%.", 
        "@feature": "CharacterBalance_01", 
        "@locale": "KR"
      }, 
      {
        "@id": "10800131", 
        "@level": "12", 
        "@name": "Sentence", 
        "@tooltipDescription": "Mark of Death! \\ NAll damage done to enemies is increased by 12%.", 
        "@feature": "CharacterBalance_01", 
        "@locale": "KR"
      }, 
      {
        "@id": "10800161", 
        "@level": "1", 
        "@name": "Blade mark", 
        "@tooltipDescription": "Marked! \\n Hit 20 reduced", 
        "@feature": "CharacterBalance_01", 
        "@locale": "KR"
      }, 
      {
        "@id": "10800161", 
        "@level": "2", 
        "@name": "Blade mark", 
        "@tooltipDescription": "Stigmatized! \\ N Hit 22 reduced", 
        "@feature": "CharacterBalance_01", 
        "@locale": "KR"
      }, 
      {
        "@id": "10800161", 
        "@level": "3", 
        "@name": "Blade mark", 
        "@tooltipDescription": "Stigmatized! \\ N Hit 24 reduced", 
        "@feature": "CharacterBalance_01", 
        "@locale": "KR"
      }, 
      {
        "@id": "10800161", 
        "@level": "4", 
        "@name": "Blade mark", 
        "@tooltipDescription": "Branded! \\ N Hit 26 reduced", 
        "@feature": "CharacterBalance_01", 
        "@locale": "KR"
      }, 
      {
        "@id": "10800161", 
        "@level": "5", 
        "@name": "Blade mark", 
        "@tooltipDescription": "Marked! \\ N Hit 28 reduced", 
        "@feature": "CharacterBalance_01", 
        "@locale": "KR"
      }, 
      {
        "@id": "10800161", 
        "@level": "6", 
        "@name": "Blade mark", 
        "@tooltipDescription": "Stigmatized! \\ N Hit 30 reduced", 
        "@feature": "CharacterBalance_01", 
        "@locale": "KR"
      }, 
      {
        "@id": "10800161", 
        "@level": "7", 
        "@name": "Blade mark", 
        "@tooltipDescription": "Marked! \\ N Hit 32 reduced", 
        "@feature": "CharacterBalance_01", 
        "@locale": "KR"
      }, 
      {
        "@id": "10800161", 
        "@level": "8", 
        "@name": "Blade mark", 
        "@tooltipDescription": "Stigmatized! \\ N Hit 34 reduced", 
        "@feature": "CharacterBalance_01", 
        "@locale": "KR"
      }, 
      {
        "@id": "10800161", 
        "@level": "9", 
        "@name": "Blade mark", 
        "@tooltipDescription": "Marked! \\ N Hit 36 reduced", 
        "@feature": "CharacterBalance_01", 
        "@locale": "KR"
      }, 
      {
        "@id": "10800161", 
        "@level": "10", 
        "@name": "Blade mark", 
        "@tooltipDescription": "Stigmatized! \\ N Hit 38 reduced", 
        "@feature": "CharacterBalance_01", 
        "@locale": "KR"
      }, 
      {
        "@id": "10800161", 
        "@level": "11", 
        "@name": "Blade mark", 
        "@tooltipDescription": "Stigmatized! \\ N Hit 40 reduced", 
        "@feature": "CharacterBalance_01", 
        "@locale": "KR"
      }, 
      {
        "@id": "10800161", 
        "@level": "12", 
        "@name": "Blade mark", 
        "@tooltipDescription": "Stigmatized! \\ N Hit 42 reduced", 
        "@feature": "CharacterBalance_01", 
        "@locale": "KR"
      }
    ]
  }
}