{
  "?xml": {
    "@version": "1.0", 
    "@encoding": "utf-8"
  }, 
  "ms2": {
    "key": [
      {
        "@id": "10300021", 
        "@level": "1", 
        "@name": "Flame Wave", 
        "@tooltipDescription": "An intense flame wraps around your body! \\ N 21% fire damage per second"
      }, 
      {
        "@id": "10300021", 
        "@level": "2", 
        "@name": "Flame Wave", 
        "@tooltipDescription": "An intense flame wraps around your body! \\ N 23% fire damage per second"
      }, 
      {
        "@id": "10300021", 
        "@level": "3", 
        "@name": "Flame Wave", 
        "@tooltipDescription": "An intense flame wraps around your body! \\ N 25% fire damage per second"
      }, 
      {
        "@id": "10300021", 
        "@level": "4", 
        "@name": "Flame Wave", 
        "@tooltipDescription": "An intense flame wraps around your body! \\ N 27% fire damage per second"
      }, 
      {
        "@id": "10300021", 
        "@level": "5", 
        "@name": "Flame Wave", 
        "@tooltipDescription": "An intense flame wraps around your body! \\ N 29% Fire damage per second"
      }, 
      {
        "@id": "10300021", 
        "@level": "6", 
        "@name": "Flame Wave", 
        "@tooltipDescription": "An intense flame wraps around your body! \\ N 31% fire damage per second"
      }, 
      {
        "@id": "10300021", 
        "@level": "7", 
        "@name": "Flame Wave", 
        "@tooltipDescription": "An intense flame wraps around your body! \\ N 33% fire damage per second"
      }, 
      {
        "@id": "10300021", 
        "@level": "8", 
        "@name": "Flame Wave", 
        "@tooltipDescription": "An intense flame wraps around your body! \\ N 35% Fire damage per second"
      }, 
      {
        "@id": "10300021", 
        "@level": "9", 
        "@name": "Flame Wave", 
        "@tooltipDescription": "An intense flame wraps around your body! \\ N 37% Fire damage per second"
      }, 
      {
        "@id": "10300021", 
        "@level": "10", 
        "@name": "Flame Wave", 
        "@tooltipDescription": "An intense flame wraps around your body! \\ N 39% Fire damage per second"
      }, 
      {
        "@id": "10300021", 
        "@level": "11", 
        "@name": "Flame Wave", 
        "@tooltipDescription": "An intense flame wraps around your body! \\ N 41% fire damage per second"
      }, 
      {
        "@id": "10300021", 
        "@level": "12", 
        "@name": "Flame Wave", 
        "@tooltipDescription": "An intense flame wraps around your body! \\ N 43% fire damage per second"
      }, 
      {
        "@id": "10300031", 
        "@level": "1", 
        "@name": "Chain Lightning", 
        "@tooltipDescription": "Electric energy is condensed around your body! \\ N 288% damage over 5 times"
      }, 
      {
        "@id": "10300031", 
        "@level": "2", 
        "@name": "Chain Lightning", 
        "@tooltipDescription": "Electrical energy is condensed around your body! \\ N 308% damage overburden 5 times"
      }, 
      {
        "@id": "10300031", 
        "@level": "3", 
        "@name": "Chain Lightning", 
        "@tooltipDescription": "Electric energy is condensed around your body! \\ NWhen you overlap 5 times, 328% Melee damage"
      }, 
      {
        "@id": "10300031", 
        "@level": "4", 
        "@name": "Chain Lightning", 
        "@tooltipDescription": "Electric energy is condensed around your body! \\ NWhen you overlap 5 times, damage is 348%"
      }, 
      {
        "@id": "10300031", 
        "@level": "5", 
        "@name": "Chain Lightning", 
        "@tooltipDescription": "Electric energy is condensed around your body! \\ NWhen you overlap 5 times, 368% Melee damage"
      }, 
      {
        "@id": "10300031", 
        "@level": "6", 
        "@name": "Chain Lightning", 
        "@tooltipDescription": "Electrical energy is condensed around your body! \\ NWhen you overlap 5 times, 388%"
      }, 
      {
        "@id": "10300031", 
        "@level": "7", 
        "@name": "Chain Lightning", 
        "@tooltipDescription": "Electrical energy is condensing around your body! \\ NWhen you overlap 5 times, 408% Melee damage"
      }, 
      {
        "@id": "10300031", 
        "@level": "8", 
        "@name": "Chain Lightning", 
        "@tooltipDescription": "Electrical energy is condensed around your body! \\ N 428% damage over 5 times"
      }, 
      {
        "@id": "10300031", 
        "@level": "9", 
        "@name": "Chain Lightning", 
        "@tooltipDescription": "Electric energy is condensed around your body! \\ NWhen you overlap 5 times, 448% Melee damage"
      }, 
      {
        "@id": "10300031", 
        "@level": "10", 
        "@name": "Chain Lightning", 
        "@tooltipDescription": "Electrical energy is condensed around your body! \\ NNo 5 times 468% damage over time"
      }, 
      {
        "@id": "10300031", 
        "@level": "11", 
        "@name": "Chain Lightning", 
        "@tooltipDescription": "Electric energy is condensed around your body! \\ NNo 5 times 488% damage over time"
      }, 
      {
        "@id": "10300031", 
        "@level": "12", 
        "@name": "Chain Lightning", 
        "@tooltipDescription": "Electric energy is condensed around your body! \\ N 508% damage overlay 5 times"
      }, 
      {
        "@id": "10300051", 
        "@level": "1", 
        "@name": "Cold", 
        "@tooltipDescription": "Your body stays cold! \\nThe movement speed is reduced by 15% \\n Up to 6 times can be nested"
      }, 
      {
        "@id": "10300051", 
        "@level": "2", 
        "@name": "Cold", 
        "@tooltipDescription": "Your body stays cold! \\nThe movement speed is reduced by 15% \\n Up to 6 times can be nested"
      }, 
      {
        "@id": "10300051", 
        "@level": "3", 
        "@name": "Cold", 
        "@tooltipDescription": "Your body stays cold! \\nThe movement speed is reduced by 15% \\n Up to 6 times can be nested"
      }, 
      {
        "@id": "10300051", 
        "@level": "4", 
        "@name": "Cold", 
        "@tooltipDescription": "Your body stays cold! \\nThe movement speed is reduced by 15% \\n Up to 6 times can be nested"
      }, 
      {
        "@id": "10300051", 
        "@level": "5", 
        "@name": "Cold", 
        "@tooltipDescription": "Your body stays cold! \\nThe movement speed is reduced by 15% \\n Up to 6 times can be nested"
      }, 
      {
        "@id": "10300051", 
        "@level": "6", 
        "@name": "Cold", 
        "@tooltipDescription": "Your body stays cold! \\nThe movement speed is reduced by 15% \\n Up to 6 times can be nested"
      }, 
      {
        "@id": "10300051", 
        "@level": "7", 
        "@name": "Cold", 
        "@tooltipDescription": "Your body stays cold! \\nThe movement speed is reduced by 15% \\n Up to 6 times can be nested"
      }, 
      {
        "@id": "10300051", 
        "@level": "8", 
        "@name": "Cold", 
        "@tooltipDescription": "Your body stays cold! \\nThe movement speed is reduced by 15% \\n Up to 6 times can be nested"
      }, 
      {
        "@id": "10300051", 
        "@level": "9", 
        "@name": "Cold", 
        "@tooltipDescription": "Your body stays cold! \\nThe movement speed is reduced by 15% \\n Up to 6 times can be nested"
      }, 
      {
        "@id": "10300051", 
        "@level": "10", 
        "@name": "Cold", 
        "@tooltipDescription": "Your body stays cold! \\nThe movement speed is reduced by 15% \\n Up to 6 times can be nested"
      }, 
      {
        "@id": "10300051", 
        "@level": "11", 
        "@name": "Cold", 
        "@tooltipDescription": "Your body stays cold! \\nThe movement speed is reduced by 15% \\n Up to 6 times can be nested"
      }, 
      {
        "@id": "10300051", 
        "@level": "12", 
        "@name": "Cold", 
        "@tooltipDescription": "Your body stays cold! \\nThe movement speed is reduced by 15% \\n Up to 6 times can be nested"
      }, 
      {
        "@id": "10300052", 
        "@level": "1", 
        "@name": "Freezing", 
        "@tooltipDescription": "Your whole body is frozen! \\nIt is freezing and can not act"
      }, 
      {
        "@id": "10300071", 
        "@level": "1", 
        "@name": "Thunderbolt", 
        "@tooltipDescription": "Powerful electricity is flowing through your body!"
      }, 
      {
        "@id": "10300071", 
        "@level": "2", 
        "@name": "Thunderbolt", 
        "@tooltipDescription": "Powerful electricity is flowing through your body!"
      }, 
      {
        "@id": "10300071", 
        "@level": "3", 
        "@name": "Thunderbolt", 
        "@tooltipDescription": "Powerful electricity is flowing through your body!"
      }, 
      {
        "@id": "10300071", 
        "@level": "4", 
        "@name": "Thunderbolt", 
        "@tooltipDescription": "Powerful electricity is flowing through your body!"
      }, 
      {
        "@id": "10300071", 
        "@level": "5", 
        "@name": "Thunderbolt", 
        "@tooltipDescription": "Powerful electricity is flowing through your body!"
      }, 
      {
        "@id": "10300071", 
        "@level": "6", 
        "@name": "Thunderbolt", 
        "@tooltipDescription": "Powerful electricity is flowing through your body!"
      }, 
      {
        "@id": "10300071", 
        "@level": "7", 
        "@name": "Thunderbolt", 
        "@tooltipDescription": "Powerful electricity is flowing through your body!"
      }, 
      {
        "@id": "10300071", 
        "@level": "8", 
        "@name": "Thunderbolt", 
        "@tooltipDescription": "Powerful electricity is flowing through your body!"
      }, 
      {
        "@id": "10300071", 
        "@level": "9", 
        "@name": "Thunderbolt", 
        "@tooltipDescription": "Powerful electricity is flowing through your body!"
      }, 
      {
        "@id": "10300071", 
        "@level": "10", 
        "@name": "Thunderbolt", 
        "@tooltipDescription": "Powerful electricity is flowing through your body!"
      }, 
      {
        "@id": "10300071", 
        "@level": "11", 
        "@name": "Thunderbolt", 
        "@tooltipDescription": "Powerful electricity is flowing through your body!"
      }, 
      {
        "@id": "10300071", 
        "@level": "12", 
        "@name": "Thunderbolt", 
        "@tooltipDescription": "Powerful electricity is flowing through your body!"
      }, 
      {
        "@id": "10300091", 
        "@level": "1", 
        "@name": "Focus circle", 
        "@tooltipDescription": "Absorbs magic power from magic spells. \\n 1% increase in physical damage and magic damage."
      }, 
      {
        "@id": "10300091", 
        "@level": "2", 
        "@name": "Focus circle", 
        "@tooltipDescription": "Absorbed magic power from magic spells. \\n 1.4% increase in physical damage and magic damage."
      }, 
      {
        "@id": "10300091", 
        "@level": "3", 
        "@name": "Focus circle", 
        "@tooltipDescription": "Absorbed magic power from magic spells. \\n Physical attack and magic damage increased by 1.8%."
      }, 
      {
        "@id": "10300091", 
        "@level": "4", 
        "@name": "Focus circle", 
        "@tooltipDescription": "Absorbed magic power from magic spells. \\n 2.2% increase in physical damage and magic damage."
      }, 
      {
        "@id": "10300091", 
        "@level": "5", 
        "@name": "Focus circle", 
        "@tooltipDescription": "Absorbed magic power from magic spells. \\n 2.6% increase in physical damage and magic damage."
      }, 
      {
        "@id": "10300091", 
        "@level": "6", 
        "@name": "Focus circle", 
        "@tooltipDescription": "Absorbed magic power from magic spells. \\n 3% increase in physical damage and magic damage."
      }, 
      {
        "@id": "10300091", 
        "@level": "7", 
        "@name": "Focus circle", 
        "@tooltipDescription": "Absorbed magic power from magic spells. \\n4 Physical attack and magic damage increased by 3.4%."
      }, 
      {
        "@id": "10300091", 
        "@level": "8", 
        "@name": "Focus circle", 
        "@tooltipDescription": "Absorbed magic power from magic spells. \\n 3.8% increase in physical damage and magic damage."
      }, 
      {
        "@id": "10300091", 
        "@level": "9", 
        "@name": "Focus circle", 
        "@tooltipDescription": "Absorbed magic power from magic spells. \\n 4.2% increase in physical damage and magic damage."
      }, 
      {
        "@id": "10300091", 
        "@level": "10", 
        "@name": "Focus circle", 
        "@tooltipDescription": "Absorbed magic power from magic spells. \\n Physical attack and magic damage increased by 4.6%."
      }, 
      {
        "@id": "10300091", 
        "@level": "11", 
        "@name": "Focus circle", 
        "@tooltipDescription": "Absorbed magic power from magic spells. \\n 5% increase in physical damage and magic damage."
      }, 
      {
        "@id": "10300091", 
        "@level": "12", 
        "@name": "Focus circle", 
        "@tooltipDescription": "Absorbed magic power from magic spells. \\n Physical attack and magic damage increased by 5.4%."
      }, 
      {
        "@id": "10300131", 
        "@level": "1", 
        "@name": "Magic armor", 
        "@tooltipDescription": "Magical aura wraps the entire body. \\nAvoids 6% of your maximum HP damage"
      }, 
      {
        "@id": "10300131", 
        "@level": "2", 
        "@name": "Magic armor", 
        "@tooltipDescription": "A magical energy wraps around your body. \\nAbility to absorb damage equal to 8% of your maximum HP"
      }, 
      {
        "@id": "10300131", 
        "@level": "3", 
        "@name": "Magic armor", 
        "@tooltipDescription": "Enchanting energy wraps the entire body. \\n 10% of your maximum HP absorbed damage"
      }, 
      {
        "@id": "10300131", 
        "@level": "4", 
        "@name": "Magic armor", 
        "@tooltipDescription": "Magical aura wraps the entire body. \\nAbility to absorb 12% of your maximum HP damage"
      }, 
      {
        "@id": "10300131", 
        "@level": "5", 
        "@name": "Magic armor", 
        "@tooltipDescription": "Magical aura wraps around your body. \\nAbout 14% of your maximum HP absorb damage"
      }, 
      {
        "@id": "10300131", 
        "@level": "6", 
        "@name": "Magic armor", 
        "@tooltipDescription": "Enchant magic wraps the entire body. \\nAbility to absorb damage equal to 16% of your maximum HP."
      }, 
      {
        "@id": "10300131", 
        "@level": "7", 
        "@name": "Magic armor", 
        "@tooltipDescription": "Magical energy wraps the entire body. Absorbs damage equal to 18% of your maximum HP."
      }, 
      {
        "@id": "10300131", 
        "@level": "8", 
        "@name": "Magic armor", 
        "@tooltipDescription": "Magical aura wraps the entire body. \\n 20% of your maximum HP absorb damage"
      }, 
      {
        "@id": "10300131", 
        "@level": "9", 
        "@name": "Magic armor", 
        "@tooltipDescription": "Enchant magic wraps the entire body. Absorbs damage equal to 22% of your maximum HP."
      }, 
      {
        "@id": "10300131", 
        "@level": "10", 
        "@name": "Magic armor", 
        "@tooltipDescription": "Enchant magic wraps the entire body. \\nAbility to absorb damage equal to 24% of your maximum HP."
      }, 
      {
        "@id": "10300131", 
        "@level": "11", 
        "@name": "Magic armor", 
        "@tooltipDescription": "Magical aura wraps the entire body. \\n 26% of your maximum HP absorb damage"
      }, 
      {
        "@id": "10300131", 
        "@level": "12", 
        "@name": "Magic armor", 
        "@tooltipDescription": "Magical aura wraps the entire body. \\nAvoids damage equal to 28% of your maximum HP"
      }, 
      {
        "@id": "10300171", 
        "@level": "1", 
        "@name": "Mana control", 
        "@tooltipDescription": "Magical ATK increased by 20% \\n Movement speed increased by 35%", 
        "@feature": "JobChange_01"
      }, 
      {
        "@id": "10300172", 
        "@level": "1", 
        "@name": "Mana control", 
        "@tooltipDescription": "Reduces consumption SP 50% \\n Increases movement speed by 35%", 
        "@feature": "JobChange_01"
      }, 
      {
        "@id": "10300173", 
        "@level": "1", 
        "@name": "Mana control", 
        "@tooltipDescription": "Reduces consumption SP 50% \\n Increases movement speed by 35%", 
        "@feature": "JobChange_01"
      }, 
      {
        "@id": "10300182", 
        "@level": "1", 
        "@name": "Frost", 
        "@tooltipDescription": "37% additional damage for Handy Lightning attacks", 
        "@feature": "JobChange_01"
      }, 
      {
        "@id": "10300182", 
        "@level": "2", 
        "@name": "Frost", 
        "@tooltipDescription": "41% additional damage in handicapped lightning attacks", 
        "@feature": "JobChange_01"
      }, 
      {
        "@id": "10300182", 
        "@level": "3", 
        "@name": "Frost", 
        "@tooltipDescription": "45% additional damage from handicapped lightning attacks", 
        "@feature": "JobChange_01"
      }, 
      {
        "@id": "10300182", 
        "@level": "4", 
        "@name": "Frost", 
        "@tooltipDescription": "49% additional damage for Handy Lightning attacks", 
        "@feature": "JobChange_01"
      }, 
      {
        "@id": "10300182", 
        "@level": "5", 
        "@name": "Frost", 
        "@tooltipDescription": "Handy Lightning Damage 53% additional damage", 
        "@feature": "JobChange_01"
      }, 
      {
        "@id": "10300182", 
        "@level": "6", 
        "@name": "Frost", 
        "@tooltipDescription": "57% additional damage for Handy Lightning attacks", 
        "@feature": "JobChange_01"
      }, 
      {
        "@id": "10300182", 
        "@level": "7", 
        "@name": "Frost", 
        "@tooltipDescription": "61% additional damage in handicapped lightning attacks", 
        "@feature": "JobChange_01"
      }, 
      {
        "@id": "10300182", 
        "@level": "8", 
        "@name": "Frost", 
        "@tooltipDescription": "65% additional damage in handicapped lightning attacks", 
        "@feature": "JobChange_01"
      }, 
      {
        "@id": "10300182", 
        "@level": "9", 
        "@name": "Frost", 
        "@tooltipDescription": "69% additional damage for Handy Lightning attacks", 
        "@feature": "JobChange_01"
      }, 
      {
        "@id": "10300182", 
        "@level": "10", 
        "@name": "Frost", 
        "@tooltipDescription": "73% more damage done by Handy Lightning", 
        "@feature": "JobChange_01"
      }, 
      {
        "@id": "10300182", 
        "@level": "11", 
        "@name": "Frost", 
        "@tooltipDescription": "Handy Lightning Damage 77% additional damage", 
        "@feature": "JobChange_01"
      }, 
      {
        "@id": "10300182", 
        "@level": "12", 
        "@name": "Frost", 
        "@tooltipDescription": "81% additional damage for Handy Lightning attacks", 
        "@feature": "JobChange_01"
      }, 
      {
        "@id": "10300183", 
        "@level": "1", 
        "@name": "Handy Lightning", 
        "@tooltipDescription": "Damage by 233% when stacking 5 times", 
        "@feature": "JobChange_01"
      }, 
      {
        "@id": "10300183", 
        "@level": "2", 
        "@name": "Handy Lightning", 
        "@tooltipDescription": "261% damage over 5 times", 
        "@feature": "JobChange_01"
      }, 
      {
        "@id": "10300183", 
        "@level": "3", 
        "@name": "Handy Lightning", 
        "@tooltipDescription": "288% damage over 5 times", 
        "@feature": "JobChange_01"
      }, 
      {
        "@id": "10300183", 
        "@level": "4", 
        "@name": "Handy Lightning", 
        "@tooltipDescription": "315% damage over 5 times", 
        "@feature": "JobChange_01"
      }, 
      {
        "@id": "10300183", 
        "@level": "5", 
        "@name": "Handy Lightning", 
        "@tooltipDescription": "342% damage over 5 times", 
        "@feature": "JobChange_01"
      }, 
      {
        "@id": "10300183", 
        "@level": "6", 
        "@name": "Handy Lightning", 
        "@tooltipDescription": "369% damage over 5 times", 
        "@feature": "JobChange_01"
      }, 
      {
        "@id": "10300183", 
        "@level": "7", 
        "@name": "Handy Lightning", 
        "@tooltipDescription": "397% damage over 5 times", 
        "@feature": "JobChange_01"
      }, 
      {
        "@id": "10300183", 
        "@level": "8", 
        "@name": "Handy Lightning", 
        "@tooltipDescription": "424% damage over 5 times", 
        "@feature": "JobChange_01"
      }, 
      {
        "@id": "10300183", 
        "@level": "9", 
        "@name": "Handy Lightning", 
        "@tooltipDescription": "451% damage over 5 times", 
        "@feature": "JobChange_01"
      }, 
      {
        "@id": "10300183", 
        "@level": "10", 
        "@name": "Handy Lightning", 
        "@tooltipDescription": "478% damage over 5 times", 
        "@feature": "JobChange_01"
      }, 
      {
        "@id": "10300183", 
        "@level": "11", 
        "@name": "Handy Lightning", 
        "@tooltipDescription": "506% damage over 5 times", 
        "@feature": "JobChange_01"
      }, 
      {
        "@id": "10300183", 
        "@level": "12", 
        "@name": "Handy Lightning", 
        "@tooltipDescription": "533% damage over 5 times", 
        "@feature": "JobChange_01"
      }, 
      {
        "@id": "10300193", 
        "@level": "1", 
        "@name": "Ice cream!", 
        "@tooltipDescription": "Ice cream time Reuse or destruction of ice cream at end of time \\nI want to eat ice cream but I am ...", 
        "@feature": "JobChange_01"
      }, 
      {
        "@id": "10300193", 
        "@level": "2", 
        "@name": "Ice cream!", 
        "@tooltipDescription": "Ice cream time Reuse or destruction of ice cream at end of time \\nI want to eat ice cream but I am ...", 
        "@feature": "JobChange_01"
      }, 
      {
        "@id": "10300193", 
        "@level": "3", 
        "@name": "Ice cream!", 
        "@tooltipDescription": "Ice cream time Reuse or destruction of ice cream at end of time \\nI want to eat ice cream but I am ...", 
        "@feature": "JobChange_01"
      }, 
      {
        "@id": "10300193", 
        "@level": "4", 
        "@name": "Ice cream!", 
        "@tooltipDescription": "Ice cream time Reuse or destruction of ice cream at end of time \\nI want to eat ice cream but I am ...", 
        "@feature": "JobChange_01"
      }, 
      {
        "@id": "10300193", 
        "@level": "5", 
        "@name": "Ice cream!", 
        "@tooltipDescription": "Ice cream time Reuse or destruction of ice cream at end of time \\nI want to eat ice cream but I am ...", 
        "@feature": "JobChange_01"
      }, 
      {
        "@id": "10300193", 
        "@level": "6", 
        "@name": "Ice cream!", 
        "@tooltipDescription": "Ice cream time Reuse or destruction of ice cream at end of time \\nI want to eat ice cream but I am ...", 
        "@feature": "JobChange_01"
      }, 
      {
        "@id": "10300193", 
        "@level": "7", 
        "@name": "Ice cream!", 
        "@tooltipDescription": "Ice cream time Reuse or destruction of ice cream at end of time \\nI want to eat ice cream but I am ...", 
        "@feature": "JobChange_01"
      }, 
      {
        "@id": "10300193", 
        "@level": "8", 
        "@name": "Ice cream!", 
        "@tooltipDescription": "Ice cream time Reuse or destruction of ice cream at end of time \\nI want to eat ice cream but I am ...", 
        "@feature": "JobChange_01"
      }, 
      {
        "@id": "10300193", 
        "@level": "9", 
        "@name": "Ice cream!", 
        "@tooltipDescription": "Ice cream time Reuse or destruction of ice cream at end of time \\nI want to eat ice cream but I am ...", 
        "@feature": "JobChange_01"
      }, 
      {
        "@id": "10300193", 
        "@level": "10", 
        "@name": "Ice cream!", 
        "@tooltipDescription": "Ice cream time Reuse or destruction of ice cream at end of time \\nI want to eat ice cream but I am ...", 
        "@feature": "JobChange_01"
      }, 
      {
        "@id": "10300193", 
        "@level": "11", 
        "@name": "Ice cream!", 
        "@tooltipDescription": "Ice cream time Reuse or destruction of ice cream at end of time \\nI want to eat ice cream but I am ...", 
        "@feature": "JobChange_01"
      }, 
      {
        "@id": "10300193", 
        "@level": "12", 
        "@name": "Ice cream!", 
        "@tooltipDescription": "Ice cream time Reuse or destruction of ice cream at end of time \\nI want to eat ice cream but I am ...", 
        "@feature": "JobChange_01"
      }, 
      {
        "@id": "10300201", 
        "@level": "1", 
        "@name": "Lightning charge", 
        "@tooltipDescription": "Lightning charge when reusing skill 36% additional damage per overlap", 
        "@feature": "JobChange_01"
      }, 
      {
        "@id": "10300201", 
        "@level": "2", 
        "@name": "Lightning charge", 
        "@tooltipDescription": "Lightning charge when re-using skill 40% damage per overlap", 
        "@feature": "JobChange_01"
      }, 
      {
        "@id": "10300201", 
        "@level": "3", 
        "@name": "Lightning charge", 
        "@tooltipDescription": "Lightning charge when reusing skill 44% damage per overlap", 
        "@feature": "JobChange_01"
      }, 
      {
        "@id": "10300201", 
        "@level": "4", 
        "@name": "Lightning charge", 
        "@tooltipDescription": "Lightning charge when re-using skill 48% damage per overlap", 
        "@feature": "JobChange_01"
      }, 
      {
        "@id": "10300201", 
        "@level": "5", 
        "@name": "Lightning charge", 
        "@tooltipDescription": "Lightning charge when reusing skill 52% additional damage per overlap", 
        "@feature": "JobChange_01"
      }, 
      {
        "@id": "10300201", 
        "@level": "6", 
        "@name": "Lightning charge", 
        "@tooltipDescription": "Lightning charge when reusing skill 56% additional damage per overlap", 
        "@feature": "JobChange_01"
      }, 
      {
        "@id": "10300201", 
        "@level": "7", 
        "@name": "Lightning charge", 
        "@tooltipDescription": "Lightning charge when re-using skill 60% damage per overlap", 
        "@feature": "JobChange_01"
      }, 
      {
        "@id": "10300201", 
        "@level": "8", 
        "@name": "Lightning charge", 
        "@tooltipDescription": "Lightning charge when re-using skill 64% additional damage per stack", 
        "@feature": "JobChange_01"
      }, 
      {
        "@id": "10300201", 
        "@level": "9", 
        "@name": "Lightning charge", 
        "@tooltipDescription": "Lightning charge when reusing skill 68% additional damage per overlap", 
        "@feature": "JobChange_01"
      }, 
      {
        "@id": "10300201", 
        "@level": "10", 
        "@name": "Lightning charge", 
        "@tooltipDescription": "Lightning charge when re-using skill 72% additional damage per stack", 
        "@feature": "JobChange_01"
      }, 
      {
        "@id": "10300201", 
        "@level": "11", 
        "@name": "Lightning charge", 
        "@tooltipDescription": "Lightning charge when reusing skill 76% additional damage per stack", 
        "@feature": "JobChange_01"
      }, 
      {
        "@id": "10300201", 
        "@level": "12", 
        "@name": "Lightning charge", 
        "@tooltipDescription": "Lightning charge when reusing skill 80% damage per stack", 
        "@feature": "JobChange_01"
      }, 
      {
        "@id": "10300202", 
        "@level": "1", 
        "@name": "Lightning charge", 
        "@tooltipDescription": "Increases the evasion rate by 10% per 1 overlap. \\n 76% damage around the nesting", 
        "@feature": "JobChange_01"
      }, 
      {
        "@id": "10300202", 
        "@level": "2", 
        "@name": "Lightning charge", 
        "@tooltipDescription": "Increases evasion rate by 10% per overlap *", 
        "@feature": "JobChange_01"
      }, 
      {
        "@id": "10300202", 
        "@level": "3", 
        "@name": "Lightning charge", 
        "@tooltipDescription": "Increases the evasion rate by 10% per overlap. \\n 92% damage around the nesting", 
        "@feature": "JobChange_01"
      }, 
      {
        "@id": "10300202", 
        "@level": "4", 
        "@name": "Lightning charge", 
        "@tooltipDescription": "Increases the evasion rate by 10% per overlap. \\n 100% damage nearby", 
        "@feature": "JobChange_01"
      }, 
      {
        "@id": "10300202", 
        "@level": "5", 
        "@name": "Lightning charge", 
        "@tooltipDescription": "Increases the evasion rate by 10% per overlap *", 
        "@feature": "JobChange_01"
      }, 
      {
        "@id": "10300202", 
        "@level": "6", 
        "@name": "Lightning charge", 
        "@tooltipDescription": "Increases the evasion rate by 10% per overlap *", 
        "@feature": "JobChange_01"
      }, 
      {
        "@id": "10300202", 
        "@level": "7", 
        "@name": "Lightning charge", 
        "@tooltipDescription": "Increases the evasion rate by 10% per 1 overlap. \\n 124% damage around the nesting", 
        "@feature": "JobChange_01"
      }, 
      {
        "@id": "10300202", 
        "@level": "8", 
        "@name": "Lightning charge", 
        "@tooltipDescription": "Increases the evasion rate by 10% per overlap. \\n 132%", 
        "@feature": "JobChange_01"
      }, 
      {
        "@id": "10300202", 
        "@level": "9", 
        "@name": "Lightning charge", 
        "@tooltipDescription": "Increases evasion rate by 10% per overlap * \\nSurrounds damage by 140% when nesting", 
        "@feature": "JobChange_01"
      }, 
      {
        "@id": "10300202", 
        "@level": "10", 
        "@name": "Lightning charge", 
        "@tooltipDescription": "Increases the evasion rate by 10% per overlap * \\n 148% damage around the nesting", 
        "@feature": "JobChange_01"
      }, 
      {
        "@id": "10300202", 
        "@level": "11", 
        "@name": "Lightning charge", 
        "@tooltipDescription": "Increases evasion rate by 10% per overlap *", 
        "@feature": "JobChange_01"
      }, 
      {
        "@id": "10300202", 
        "@level": "12", 
        "@name": "Lightning charge", 
        "@tooltipDescription": "Increases the evasion rate by 10% per 1 overlap. \\n 164% damage around the nesting", 
        "@feature": "JobChange_01"
      }, 
      {
        "@id": "10300211", 
        "@level": "1", 
        "@name": "Crush!", 
        "@tooltipDescription": "8% increase in lightning and cold damage", 
        "@feature": "JobChange_01"
      }, 
      {
        "@id": "10300211", 
        "@level": "2", 
        "@name": "Crush!", 
        "@tooltipDescription": "16% increase in lightning and cold damage", 
        "@feature": "JobChange_01"
      }, 
      {
        "@id": "10300211", 
        "@level": "3", 
        "@name": "Crush!", 
        "@tooltipDescription": "24% increase in lightning and cold damage", 
        "@feature": "JobChange_01"
      }, 
      {
        "@id": "10300211", 
        "@level": "4", 
        "@name": "Crush!", 
        "@tooltipDescription": "32% increase in lightning and cold damage", 
        "@feature": "JobChange_01"
      }, 
      {
        "@id": "10300211", 
        "@level": "5", 
        "@name": "Crush!", 
        "@tooltipDescription": "40% increase in lightning and cold damage", 
        "@feature": "JobChange_01"
      }, 
      {
        "@id": "10300211", 
        "@level": "6", 
        "@name": "Crush!", 
        "@tooltipDescription": "48% increase in lightning and cold damage", 
        "@feature": "JobChange_01"
      }, 
      {
        "@id": "10300211", 
        "@level": "7", 
        "@name": "Crush!", 
        "@tooltipDescription": "56% increase in lightning and cold damage", 
        "@feature": "JobChange_01"
      }, 
      {
        "@id": "10300211", 
        "@level": "8", 
        "@name": "Crush!", 
        "@tooltipDescription": "64% increase in lightning and cold damage", 
        "@feature": "JobChange_01"
      }, 
      {
        "@id": "10300211", 
        "@level": "9", 
        "@name": "Crush!", 
        "@tooltipDescription": "72% increase in lightning and cold damage", 
        "@feature": "JobChange_01"
      }, 
      {
        "@id": "10300211", 
        "@level": "10", 
        "@name": "Crush!", 
        "@tooltipDescription": "80% increase in lightning and cold damage", 
        "@feature": "JobChange_01"
      }, 
      {
        "@id": "10300211", 
        "@level": "11", 
        "@name": "Crush!", 
        "@tooltipDescription": "88% increase in lightning and cold damage", 
        "@feature": "JobChange_01"
      }, 
      {
        "@id": "10300211", 
        "@level": "12", 
        "@name": "Crush!", 
        "@tooltipDescription": "96% increase in lightning and cold damage", 
        "@feature": "JobChange_01"
      }, 
      {
        "@id": "10300222", 
        "@level": "1", 
        "@name": "Fire", 
        "@tooltipDescription": "31% damage every second \\n 298% damage over fire damage", 
        "@feature": "JobChange_01"
      }, 
      {
        "@id": "10300222", 
        "@level": "2", 
        "@name": "Fire", 
        "@tooltipDescription": "35% damage every second \\n 332% damage over fire damage", 
        "@feature": "JobChange_01"
      }, 
      {
        "@id": "10300222", 
        "@level": "3", 
        "@name": "Fire", 
        "@tooltipDescription": "39% damage per second \\n 366% range damage over fire damage", 
        "@feature": "JobChange_01"
      }, 
      {
        "@id": "10300222", 
        "@level": "4", 
        "@name": "Fire", 
        "@tooltipDescription": "43% damage per second \\n 400% damage over fire damage", 
        "@feature": "JobChange_01"
      }, 
      {
        "@id": "10300222", 
        "@level": "5", 
        "@name": "Fire", 
        "@tooltipDescription": "47% damage per second \\n 434% damage over fire damage", 
        "@feature": "JobChange_01"
      }, 
      {
        "@id": "10300222", 
        "@level": "6", 
        "@name": "Fire", 
        "@tooltipDescription": "51% damage every second \\n 468% range damage over fire damage", 
        "@feature": "JobChange_01"
      }, 
      {
        "@id": "10300222", 
        "@level": "7", 
        "@name": "Fire", 
        "@tooltipDescription": "55% damage per second \\n 502% damage over fire damage", 
        "@feature": "JobChange_01"
      }, 
      {
        "@id": "10300222", 
        "@level": "8", 
        "@name": "Fire", 
        "@tooltipDescription": "59% damage per second \\n 536% damage over fire damage", 
        "@feature": "JobChange_01"
      }, 
      {
        "@id": "10300222", 
        "@level": "9", 
        "@name": "Fire", 
        "@tooltipDescription": "63% damage every second \\n 570% range damage when stacked", 
        "@feature": "JobChange_01"
      }, 
      {
        "@id": "10300222", 
        "@level": "10", 
        "@name": "Fire", 
        "@tooltipDescription": "67% damage every second \\n 604% range damage over fire damage", 
        "@feature": "JobChange_01"
      }, 
      {
        "@id": "10300222", 
        "@level": "11", 
        "@name": "Fire", 
        "@tooltipDescription": "71% damage every second \\n 638% range damage over fire damage", 
        "@feature": "JobChange_01"
      }, 
      {
        "@id": "10300222", 
        "@level": "12", 
        "@name": "Fire", 
        "@tooltipDescription": "75% damage per second \\n 672% damage over fire damage", 
        "@feature": "JobChange_01"
      }, 
      {
        "@id": "10300227", 
        "@level": "1", 
        "@name": "Fire", 
        "@tooltipDescription": "37% damage per second \\nIncreases 371% range damage", 
        "@feature": "JobChange_01"
      }, 
      {
        "@id": "10300227", 
        "@level": "2", 
        "@name": "Fire", 
        "@tooltipDescription": "41% damage per second. \\n 414% range damage when acquiring fire damage.", 
        "@feature": "JobChange_01"
      }, 
      {
        "@id": "10300227", 
        "@level": "3", 
        "@name": "Fire", 
        "@tooltipDescription": "45% damage per second \\n 457% range damage", 
        "@feature": "JobChange_01"
      }, 
      {
        "@id": "10300227", 
        "@level": "4", 
        "@name": "Fire", 
        "@tooltipDescription": "Damage 49% per second. \\n 500% range damage when acquiring fire damage.", 
        "@feature": "JobChange_01"
      }, 
      {
        "@id": "10300227", 
        "@level": "5", 
        "@name": "Fire", 
        "@tooltipDescription": "Damage 53% per second \\n 543% range damage obtained", 
        "@feature": "JobChange_01"
      }, 
      {
        "@id": "10300227", 
        "@level": "6", 
        "@name": "Fire", 
        "@tooltipDescription": "Damage by 57% per second \\n 586% damage by fire damage", 
        "@feature": "JobChange_01"
      }, 
      {
        "@id": "10300227", 
        "@level": "7", 
        "@name": "Fire", 
        "@tooltipDescription": "61% damage per second, \\n 629% range damage", 
        "@feature": "JobChange_01"
      }, 
      {
        "@id": "10300227", 
        "@level": "8", 
        "@name": "Fire", 
        "@tooltipDescription": "65% damage per second \\n 672% range damage", 
        "@feature": "JobChange_01"
      }, 
      {
        "@id": "10300227", 
        "@level": "9", 
        "@name": "Fire", 
        "@tooltipDescription": "69% damage per second \\nIncreases 715% range damage", 
        "@feature": "JobChange_01"
      }, 
      {
        "@id": "10300227", 
        "@level": "10", 
        "@name": "Fire", 
        "@tooltipDescription": "73% damage per second \\n 758% range damage", 
        "@feature": "JobChange_01"
      }, 
      {
        "@id": "10300227", 
        "@level": "11", 
        "@name": "Fire", 
        "@tooltipDescription": "77% damage per second \\n 801% range damage when acquiring fire damage", 
        "@feature": "JobChange_01"
      }, 
      {
        "@id": "10300227", 
        "@level": "12", 
        "@name": "Fire", 
        "@tooltipDescription": "81% damage per second \\n 844% range damage obtained", 
        "@feature": "JobChange_01"
      }, 
      {
        "@id": "10300234", 
        "@level": "1", 
        "@name": "Browning", 
        "@tooltipDescription": "44% damage per second \\n 407% range damage from hit energy exploit", 
        "@feature": "JobChange_01"
      }, 
      {
        "@id": "10300234", 
        "@level": "2", 
        "@name": "Browning", 
        "@tooltipDescription": "49% damage per second \\nEnergy Explosion 454% range damage per hit", 
        "@feature": "JobChange_01"
      }, 
      {
        "@id": "10300234", 
        "@level": "3", 
        "@name": "Browning", 
        "@tooltipDescription": "54% damage per second \\nEnergy Explosion 501% range damage on hit", 
        "@feature": "JobChange_01"
      }, 
      {
        "@id": "10300234", 
        "@level": "4", 
        "@name": "Browning", 
        "@tooltipDescription": "59% damage per second \\nEnergy Explosion 548% range damage per hit", 
        "@feature": "JobChange_01"
      }, 
      {
        "@id": "10300234", 
        "@level": "5", 
        "@name": "Browning", 
        "@tooltipDescription": "64% damage per second \\n Energy Explosion 595% range damage on hit", 
        "@feature": "JobChange_01"
      }, 
      {
        "@id": "10300234", 
        "@level": "6", 
        "@name": "Browning", 
        "@tooltipDescription": "69% damage per second \\n Energy Explosion 642% damage per hit", 
        "@feature": "JobChange_01"
      }, 
      {
        "@id": "10300234", 
        "@level": "7", 
        "@name": "Browning", 
        "@tooltipDescription": "74% damage per second \\n Energy damage 689% damage per hit", 
        "@feature": "JobChange_01"
      }, 
      {
        "@id": "10300234", 
        "@level": "8", 
        "@name": "Browning", 
        "@tooltipDescription": "79% damage per second \\n Energy Explosion 736% range damage per hit", 
        "@feature": "JobChange_01"
      }, 
      {
        "@id": "10300234", 
        "@level": "9", 
        "@name": "Browning", 
        "@tooltipDescription": "Damage 84% per second \\n Energy Explosion 783% damage per hit", 
        "@feature": "JobChange_01"
      }, 
      {
        "@id": "10300234", 
        "@level": "10", 
        "@name": "Browning", 
        "@tooltipDescription": "89% damage per second \\nEnergy Explosion 830% range damage per hit", 
        "@feature": "JobChange_01"
      }, 
      {
        "@id": "10300234", 
        "@level": "11", 
        "@name": "Browning", 
        "@tooltipDescription": "94% damage per second \\nEnergy Explosion 877% range damage per hit", 
        "@feature": "JobChange_01"
      }, 
      {
        "@id": "10300234", 
        "@level": "12", 
        "@name": "Browning", 
        "@tooltipDescription": "99% damage per second \\nEnergy Explosion 924% range damage per hit", 
        "@feature": "JobChange_01"
      }, 
      {
        "@id": "10300242", 
        "@level": "1", 
        "@name": "Mighty Fire Spirit", 
        "@tooltipDescription": "Critical when hitting fire * Chance to cast a party time with a 22% chance of critical hit", 
        "@feature": "JobChange_01"
      }, 
      {
        "@id": "10300242", 
        "@level": "2", 
        "@name": "Mighty Fire Spirit", 
        "@tooltipDescription": "Critical when hitting fire * Chance to cast 25% chance of critical hit at party time", 
        "@feature": "JobChange_01"
      }, 
      {
        "@id": "10300242", 
        "@level": "3", 
        "@name": "Mighty Fire Spirit", 
        "@tooltipDescription": "Critical when hitting fire * Chance to hit% 27% chance of critical hit", 
        "@feature": "JobChange_01"
      }, 
      {
        "@id": "10300242", 
        "@level": "4", 
        "@name": "Mighty Fire Spirit", 
        "@tooltipDescription": "Decreased Critical Critical when hitting fire \\n Chance to hit% 30% chance of party hit", 
        "@feature": "JobChange_01"
      }, 
      {
        "@id": "10300242", 
        "@level": "5", 
        "@name": "Mighty Fire Spirit", 
        "@tooltipDescription": "Critical Critical when hitting fire + 33% chance of critical hit when party hit", 
        "@feature": "JobChange_01"
      }, 
      {
        "@id": "10300242", 
        "@level": "6", 
        "@name": "Mighty Fire Spirit", 
        "@tooltipDescription": "Critical Critical at Fire + 35% chance of Critical Hit at party time", 
        "@feature": "JobChange_01"
      }, 
      {
        "@id": "10300242", 
        "@level": "7", 
        "@name": "Mighty Fire Spirit", 
        "@tooltipDescription": "Critical when hitting fire * Chance of 38% on critical hit", 
        "@feature": "JobChange_01"
      }, 
      {
        "@id": "10300242", 
        "@level": "8", 
        "@name": "Mighty Fire Spirit", 
        "@tooltipDescription": "Critical Critical at Fire Attack \\nBuy a 40% chance of Critical Hit at party time", 
        "@feature": "JobChange_01"
      }, 
      {
        "@id": "10300242", 
        "@level": "9", 
        "@name": "Mighty Fire Spirit", 
        "@tooltipDescription": "Critical when hitting fire + n% 43% chance to hit a critical time when party hit", 
        "@feature": "JobChange_01"
      }, 
      {
        "@id": "10300242", 
        "@level": "10", 
        "@name": "Mighty Fire Spirit", 
        "@tooltipDescription": "Critical when hitting fire \\nCapacity at 46% chance of critical hit", 
        "@feature": "JobChange_01"
      }, 
      {
        "@id": "10300242", 
        "@level": "11", 
        "@name": "Mighty Fire Spirit", 
        "@tooltipDescription": "Critical when hitting fire + \\nCapture a party time with a 48% chance of critical hit", 
        "@feature": "JobChange_01"
      }, 
      {
        "@id": "10300242", 
        "@level": "12", 
        "@name": "Mighty Fire Spirit", 
        "@tooltipDescription": "Decreased Critical Critical when hitting fire + 51% chance of critical hit when party hit", 
        "@feature": "JobChange_01"
      }, 
      {
        "@id": "10300243", 
        "@level": "1", 
        "@name": "Party Time", 
        "@tooltipDescription": "Use Barbecue Party Instantly \\nWould you like to play it once ?!", 
        "@feature": "JobChange_01"
      }, 
      {
        "@id": "10300243", 
        "@level": "2", 
        "@name": "Party Time", 
        "@tooltipDescription": "Use Barbecue Party Instantly \\nWould you like to play it once ?!", 
        "@feature": "JobChange_01"
      }, 
      {
        "@id": "10300243", 
        "@level": "3", 
        "@name": "Party Time", 
        "@tooltipDescription": "Use Barbecue Party Instantly \\nWould you like to play it once ?!", 
        "@feature": "JobChange_01"
      }, 
      {
        "@id": "10300243", 
        "@level": "4", 
        "@name": "Party Time", 
        "@tooltipDescription": "Use Barbecue Party Instantly \\nWould you like to play it once ?!", 
        "@feature": "JobChange_01"
      }, 
      {
        "@id": "10300243", 
        "@level": "5", 
        "@name": "Party Time", 
        "@tooltipDescription": "Use Barbecue Party Instantly \\nWould you like to play it once ?!", 
        "@feature": "JobChange_01"
      }, 
      {
        "@id": "10300243", 
        "@level": "6", 
        "@name": "Party Time", 
        "@tooltipDescription": "Use Barbecue Party Instantly \\nWould you like to play it once ?!", 
        "@feature": "JobChange_01"
      }, 
      {
        "@id": "10300243", 
        "@level": "7", 
        "@name": "Party Time", 
        "@tooltipDescription": "Use Barbecue Party Instantly \\nWould you like to play it once ?!", 
        "@feature": "JobChange_01"
      }, 
      {
        "@id": "10300243", 
        "@level": "8", 
        "@name": "Party Time", 
        "@tooltipDescription": "Use Barbecue Party Instantly \\nWould you like to play it once ?!", 
        "@feature": "JobChange_01"
      }, 
      {
        "@id": "10300243", 
        "@level": "9", 
        "@name": "Party Time", 
        "@tooltipDescription": "Use Barbecue Party Instantly \\nWould you like to play it once ?!", 
        "@feature": "JobChange_01"
      }, 
      {
        "@id": "10300243", 
        "@level": "10", 
        "@name": "Party Time", 
        "@tooltipDescription": "Use Barbecue Party Instantly \\nWould you like to play it once ?!", 
        "@feature": "JobChange_01"
      }, 
      {
        "@id": "10300243", 
        "@level": "11", 
        "@name": "Party Time", 
        "@tooltipDescription": "Use Barbecue Party Instantly \\nWould you like to play it once ?!", 
        "@feature": "JobChange_01"
      }, 
      {
        "@id": "10300243", 
        "@level": "12", 
        "@name": "Party Time", 
        "@tooltipDescription": "Use Barbecue Party Instantly \\nWould you like to play it once ?!", 
        "@feature": "JobChange_01"
      }, 
      {
        "@id": "10300252", 
        "@level": "1", 
        "@name": "Meteorite induction", 
        "@tooltipDescription": "Falling meteor to target", 
        "@feature": "JobChange_01"
      }, 
      {
        "@id": "10300252", 
        "@level": "2", 
        "@name": "Meteorite induction", 
        "@tooltipDescription": "Falling meteor to target", 
        "@feature": "JobChange_01"
      }, 
      {
        "@id": "10300252", 
        "@level": "3", 
        "@name": "Meteorite induction", 
        "@tooltipDescription": "Falling meteor to target", 
        "@feature": "JobChange_01"
      }, 
      {
        "@id": "10300252", 
        "@level": "4", 
        "@name": "Meteorite induction", 
        "@tooltipDescription": "Falling meteor to target", 
        "@feature": "JobChange_01"
      }, 
      {
        "@id": "10300252", 
        "@level": "5", 
        "@name": "Meteorite induction", 
        "@tooltipDescription": "Falling meteor to target", 
        "@feature": "JobChange_01"
      }, 
      {
        "@id": "10300252", 
        "@level": "6", 
        "@name": "Meteorite induction", 
        "@tooltipDescription": "Falling meteor to target", 
        "@feature": "JobChange_01"
      }, 
      {
        "@id": "10300252", 
        "@level": "7", 
        "@name": "Meteorite induction", 
        "@tooltipDescription": "Falling meteor to target", 
        "@feature": "JobChange_01"
      }, 
      {
        "@id": "10300252", 
        "@level": "8", 
        "@name": "Meteorite induction", 
        "@tooltipDescription": "Falling meteor to target", 
        "@feature": "JobChange_01"
      }, 
      {
        "@id": "10300252", 
        "@level": "9", 
        "@name": "Meteorite induction", 
        "@tooltipDescription": "Falling meteor to target", 
        "@feature": "JobChange_01"
      }, 
      {
        "@id": "10300252", 
        "@level": "10", 
        "@name": "Meteorite induction", 
        "@tooltipDescription": "Falling meteor to target", 
        "@feature": "JobChange_01"
      }, 
      {
        "@id": "10300252", 
        "@level": "11", 
        "@name": "Meteorite induction", 
        "@tooltipDescription": "Falling meteor to target", 
        "@feature": "JobChange_01"
      }, 
      {
        "@id": "10300252", 
        "@level": "12", 
        "@name": "Meteorite induction", 
        "@tooltipDescription": "Falling meteor to target", 
        "@feature": "JobChange_01"
      }, 
      {
        "@id": "10300257", 
        "@level": "1", 
        "@name": "enlightenment", 
        "@tooltipDescription": "No casting time and no SP consumed", 
        "@feature": "JobChange_01"
      }, 
      {
        "@id": "10300257", 
        "@level": "2", 
        "@name": "enlightenment", 
        "@tooltipDescription": "No casting time and no SP consumed", 
        "@feature": "JobChange_01"
      }, 
      {
        "@id": "10300257", 
        "@level": "3", 
        "@name": "enlightenment", 
        "@tooltipDescription": "No casting time and no SP consumed", 
        "@feature": "JobChange_01"
      }, 
      {
        "@id": "10300257", 
        "@level": "4", 
        "@name": "enlightenment", 
        "@tooltipDescription": "No casting time and no SP consumed", 
        "@feature": "JobChange_01"
      }, 
      {
        "@id": "10300257", 
        "@level": "5", 
        "@name": "enlightenment", 
        "@tooltipDescription": "No casting time and no SP consumed", 
        "@feature": "JobChange_01"
      }, 
      {
        "@id": "10300257", 
        "@level": "6", 
        "@name": "enlightenment", 
        "@tooltipDescription": "No casting time and no SP consumed", 
        "@feature": "JobChange_01"
      }, 
      {
        "@id": "10300257", 
        "@level": "7", 
        "@name": "enlightenment", 
        "@tooltipDescription": "No casting time and no SP consumed", 
        "@feature": "JobChange_01"
      }, 
      {
        "@id": "10300257", 
        "@level": "8", 
        "@name": "enlightenment", 
        "@tooltipDescription": "No casting time and no SP consumed", 
        "@feature": "JobChange_01"
      }, 
      {
        "@id": "10300257", 
        "@level": "9", 
        "@name": "enlightenment", 
        "@tooltipDescription": "No casting time and no SP consumed", 
        "@feature": "JobChange_01"
      }, 
      {
        "@id": "10300257", 
        "@level": "10", 
        "@name": "enlightenment", 
        "@tooltipDescription": "No casting time and no SP consumed", 
        "@feature": "JobChange_01"
      }, 
      {
        "@id": "10300257", 
        "@level": "11", 
        "@name": "enlightenment", 
        "@tooltipDescription": "No casting time and no SP consumed", 
        "@feature": "JobChange_01"
      }, 
      {
        "@id": "10300257", 
        "@level": "12", 
        "@name": "enlightenment", 
        "@tooltipDescription": "No casting time and no SP consumed", 
        "@feature": "JobChange_01"
      }, 
      {
        "@id": "10300262", 
        "@level": "1", 
        "@name": "Poole!", 
        "@tooltipDescription": "Ice spirits follow \\n Ice skewer instead of ice sphere \\n Use of pole skate instead of slobber", 
        "@feature": "JobChange_02"
      }, 
      {
        "@id": "10300262", 
        "@level": "2", 
        "@name": "Poole!", 
        "@tooltipDescription": "Ice spirits follow \\n Ice skewer instead of ice sphere \\n Use of pole skate instead of slobber", 
        "@feature": "JobChange_02"
      }, 
      {
        "@id": "10300262", 
        "@level": "3", 
        "@name": "Poole!", 
        "@tooltipDescription": "Ice spirits follow \\n Ice skewer instead of ice sphere \\n Use of pole skate instead of slobber", 
        "@feature": "JobChange_02"
      }, 
      {
        "@id": "10300262", 
        "@level": "4", 
        "@name": "Poole!", 
        "@tooltipDescription": "Ice spirits follow \\n Ice skewer instead of ice sphere \\n Use of pole skate instead of slobber", 
        "@feature": "JobChange_02"
      }, 
      {
        "@id": "10300262", 
        "@level": "5", 
        "@name": "Poole!", 
        "@tooltipDescription": "Ice spirits follow \\n Ice skewer instead of ice sphere \\n Use of pole skate instead of slobber", 
        "@feature": "JobChange_02"
      }, 
      {
        "@id": "10300262", 
        "@level": "6", 
        "@name": "Poole!", 
        "@tooltipDescription": "Ice spirits follow \\n Ice skewer instead of ice sphere \\n Use of pole skate instead of slobber", 
        "@feature": "JobChange_02"
      }, 
      {
        "@id": "10300262", 
        "@level": "7", 
        "@name": "Poole!", 
        "@tooltipDescription": "Ice spirits follow \\n Ice skewer instead of ice sphere \\n Use of pole skate instead of slobber", 
        "@feature": "JobChange_02"
      }, 
      {
        "@id": "10300262", 
        "@level": "8", 
        "@name": "Poole!", 
        "@tooltipDescription": "Ice spirits follow \\n Ice skewer instead of ice sphere \\n Use of pole skate instead of slobber", 
        "@feature": "JobChange_02"
      }, 
      {
        "@id": "10300262", 
        "@level": "9", 
        "@name": "Poole!", 
        "@tooltipDescription": "Ice spirits follow \\n Ice skewer instead of ice sphere \\n Use of pole skate instead of slobber", 
        "@feature": "JobChange_02"
      }, 
      {
        "@id": "10300262", 
        "@level": "10", 
        "@name": "Poole!", 
        "@tooltipDescription": "Ice spirits follow \\n Ice skewer instead of ice sphere \\n Use of pole skate instead of slobber", 
        "@feature": "JobChange_02"
      }, 
      {
        "@id": "10300262", 
        "@level": "11", 
        "@name": "Poole!", 
        "@tooltipDescription": "Ice spirits follow \\n Ice skewer instead of ice sphere \\n Use of pole skate instead of slobber", 
        "@feature": "JobChange_02"
      }, 
      {
        "@id": "10300262", 
        "@level": "12", 
        "@name": "Poole!", 
        "@tooltipDescription": "Ice spirits follow \\n Ice skewer instead of ice sphere \\n Use of pole skate instead of slobber", 
        "@feature": "JobChange_02"
      }, 
      {
        "@id": "10300268", 
        "@level": "1", 
        "@name": "freezing", 
        "@tooltipDescription": "Ice cream!", 
        "@feature": "JobChange_02"
      }, 
      {
        "@id": "10300268", 
        "@level": "2", 
        "@name": "freezing", 
        "@tooltipDescription": "Ice cream!", 
        "@feature": "JobChange_02"
      }, 
      {
        "@id": "10300268", 
        "@level": "3", 
        "@name": "freezing", 
        "@tooltipDescription": "Ice cream!", 
        "@feature": "JobChange_02"
      }, 
      {
        "@id": "10300268", 
        "@level": "4", 
        "@name": "freezing", 
        "@tooltipDescription": "Ice cream!", 
        "@feature": "JobChange_02"
      }, 
      {
        "@id": "10300268", 
        "@level": "5", 
        "@name": "freezing", 
        "@tooltipDescription": "Ice cream!", 
        "@feature": "JobChange_02"
      }, 
      {
        "@id": "10300268", 
        "@level": "6", 
        "@name": "freezing", 
        "@tooltipDescription": "Ice cream!", 
        "@feature": "JobChange_02"
      }, 
      {
        "@id": "10300268", 
        "@level": "7", 
        "@name": "freezing", 
        "@tooltipDescription": "Ice cream!", 
        "@feature": "JobChange_02"
      }, 
      {
        "@id": "10300268", 
        "@level": "8", 
        "@name": "freezing", 
        "@tooltipDescription": "Ice cream!", 
        "@feature": "JobChange_02"
      }, 
      {
        "@id": "10300268", 
        "@level": "9", 
        "@name": "freezing", 
        "@tooltipDescription": "Ice cream!", 
        "@feature": "JobChange_02"
      }, 
      {
        "@id": "10300268", 
        "@level": "10", 
        "@name": "freezing", 
        "@tooltipDescription": "Ice cream!", 
        "@feature": "JobChange_02"
      }, 
      {
        "@id": "10300268", 
        "@level": "11", 
        "@name": "freezing", 
        "@tooltipDescription": "Ice cream!", 
        "@feature": "JobChange_02"
      }, 
      {
        "@id": "10300268", 
        "@level": "12", 
        "@name": "freezing", 
        "@tooltipDescription": "Ice cream!", 
        "@feature": "JobChange_02"
      }, 
      {
        "@id": "10300271", 
        "@level": "1", 
        "@name": "Hurricane north!", 
        "@tooltipDescription": "232% damage per second \\n 93% damage per second overlap \\n Overlap on frost acquisition", 
        "@feature": "JobChange_02"
      }, 
      {
        "@id": "10300271", 
        "@level": "2", 
        "@name": "Hurricane north!", 
        "@tooltipDescription": "258% damage every second \\n 104% damage per second overlap \\n Overlap on frost acquisition", 
        "@feature": "JobChange_02"
      }, 
      {
        "@id": "10300271", 
        "@level": "3", 
        "@name": "Hurricane north!", 
        "@tooltipDescription": "Damage per second 284% damage \\n 115% damage per second overlap \\n Frost Overlap on acquisition", 
        "@feature": "JobChange_02"
      }, 
      {
        "@id": "10300271", 
        "@level": "4", 
        "@name": "Hurricane north!", 
        "@tooltipDescription": "310% range damage per second \\n 126% damage per second overlap \\n Overlap on frost acquisition", 
        "@feature": "JobChange_02"
      }, 
      {
        "@id": "10300271", 
        "@level": "5", 
        "@name": "Hurricane north!", 
        "@tooltipDescription": "336% damage per second \\n 137% damage per second overlap \\n Overlap on frost acquisition", 
        "@feature": "JobChange_02"
      }, 
      {
        "@id": "10300271", 
        "@level": "6", 
        "@name": "Hurricane north!", 
        "@tooltipDescription": "362% damage every second \\n 148% damage per second overlap \\n Frost acquisition overlays increase", 
        "@feature": "JobChange_02"
      }, 
      {
        "@id": "10300271", 
        "@level": "7", 
        "@name": "Hurricane north!", 
        "@tooltipDescription": "388% damage every second \\n 159% damage per second overlap \\n Overlap on frost acquisition", 
        "@feature": "JobChange_02"
      }, 
      {
        "@id": "10300271", 
        "@level": "8", 
        "@name": "Hurricane north!", 
        "@tooltipDescription": "414% damage per second \\n 170% damage per second overlap \\n Overlap on frost acquisition", 
        "@feature": "JobChange_02"
      }, 
      {
        "@id": "10300271", 
        "@level": "9", 
        "@name": "Hurricane north!", 
        "@tooltipDescription": "440% damage every second \\n 181% damage per second overlay \\n Frost buildup", 
        "@feature": "JobChange_02"
      }, 
      {
        "@id": "10300271", 
        "@level": "10", 
        "@name": "Hurricane north!", 
        "@tooltipDescription": "466% damage per second \\n 192% damage per second overlap \\n Overlap on frost acquisition", 
        "@feature": "JobChange_02"
      }, 
      {
        "@id": "10300271", 
        "@level": "11", 
        "@name": "Hurricane north!", 
        "@tooltipDescription": "492% damage per second \\n 203% damage per second overlap \\n Overlap when frost acquisition", 
        "@feature": "JobChange_02"
      }, 
      {
        "@id": "10300271", 
        "@level": "12", 
        "@name": "Hurricane north!", 
        "@tooltipDescription": "518% damage every second \\n 214% damage per second overlap \\n Overlap on frost acquisition", 
        "@feature": "JobChange_02"
      }, 
      {
        "@id": "10300275", 
        "@level": "1", 
        "@name": "waterspout", 
        "@tooltipDescription": "Every 0.5 seconds 355% range damage", 
        "@feature": "JobChange_02"
      }, 
      {
        "@id": "10300275", 
        "@level": "2", 
        "@name": "waterspout", 
        "@tooltipDescription": "Every 0.5 seconds 396% range damage", 
        "@feature": "JobChange_02"
      }, 
      {
        "@id": "10300275", 
        "@level": "3", 
        "@name": "waterspout", 
        "@tooltipDescription": "Every 0.5 seconds 437% range damage", 
        "@feature": "JobChange_02"
      }, 
      {
        "@id": "10300275", 
        "@level": "4", 
        "@name": "waterspout", 
        "@tooltipDescription": "Every 0.5 seconds 478% range damage", 
        "@feature": "JobChange_02"
      }, 
      {
        "@id": "10300275", 
        "@level": "5", 
        "@name": "waterspout", 
        "@tooltipDescription": "Every 0.5 seconds 519% range damage", 
        "@feature": "JobChange_02"
      }, 
      {
        "@id": "10300275", 
        "@level": "6", 
        "@name": "waterspout", 
        "@tooltipDescription": "Every 0.5 seconds 560% range damage", 
        "@feature": "JobChange_02"
      }, 
      {
        "@id": "10300275", 
        "@level": "7", 
        "@name": "waterspout", 
        "@tooltipDescription": "Every 0.5 seconds 601% range damage", 
        "@feature": "JobChange_02"
      }, 
      {
        "@id": "10300275", 
        "@level": "8", 
        "@name": "waterspout", 
        "@tooltipDescription": "Every 0.5 seconds 642% range damage", 
        "@feature": "JobChange_02"
      }, 
      {
        "@id": "10300275", 
        "@level": "9", 
        "@name": "waterspout", 
        "@tooltipDescription": "Every 0.5 seconds 683% range damage", 
        "@feature": "JobChange_02"
      }, 
      {
        "@id": "10300275", 
        "@level": "10", 
        "@name": "waterspout", 
        "@tooltipDescription": "Every 0.5 second 724% range damage", 
        "@feature": "JobChange_02"
      }, 
      {
        "@id": "10300275", 
        "@level": "11", 
        "@name": "waterspout", 
        "@tooltipDescription": "Every 0.5 seconds 765% range damage", 
        "@feature": "JobChange_02"
      }, 
      {
        "@id": "10300275", 
        "@level": "12", 
        "@name": "waterspout", 
        "@tooltipDescription": "Every 0.5 seconds 806% range damage", 
        "@feature": "JobChange_02"
      }, 
      {
        "@id": "10300283", 
        "@level": "1", 
        "@name": "digestion", 
        "@tooltipDescription": "Incomplete combustion", 
        "@feature": "JobChange_02"
      }, 
      {
        "@id": "10300285", 
        "@level": "1", 
        "@name": "Complete combustion", 
        "@tooltipDescription": "Increases fire damage by 22% \\n Strengthens energy exploits", 
        "@feature": "JobChange_02"
      }, 
      {
        "@id": "10300285", 
        "@level": "2", 
        "@name": "Complete combustion", 
        "@tooltipDescription": "Increases fire damage by 30% \\n Strengthens energy exploits", 
        "@feature": "JobChange_02"
      }, 
      {
        "@id": "10300285", 
        "@level": "3", 
        "@name": "Complete combustion", 
        "@tooltipDescription": "Increases fire damage by 38% \\n Strengthens energy exploits", 
        "@feature": "JobChange_02"
      }, 
      {
        "@id": "10300285", 
        "@level": "4", 
        "@name": "Complete combustion", 
        "@tooltipDescription": "Increases fire damage by 46% \\n Strengthens energy exploits", 
        "@feature": "JobChange_02"
      }, 
      {
        "@id": "10300285", 
        "@level": "5", 
        "@name": "Complete combustion", 
        "@tooltipDescription": "Increases fire damage by 54% \\n Strengthens energy exploration", 
        "@feature": "JobChange_02"
      }, 
      {
        "@id": "10300285", 
        "@level": "6", 
        "@name": "Complete combustion", 
        "@tooltipDescription": "Increases fire damage by 62% \\n Strengthens energy exploration", 
        "@feature": "JobChange_02"
      }, 
      {
        "@id": "10300285", 
        "@level": "7", 
        "@name": "Complete combustion", 
        "@tooltipDescription": "Increases fire damage by 70% \\n Strengthens energy exploits", 
        "@feature": "JobChange_02"
      }, 
      {
        "@id": "10300285", 
        "@level": "8", 
        "@name": "Complete combustion", 
        "@tooltipDescription": "Increases fire damage by 78% \\n Strengthens energy exploration", 
        "@feature": "JobChange_02"
      }, 
      {
        "@id": "10300285", 
        "@level": "9", 
        "@name": "Complete combustion", 
        "@tooltipDescription": "Increases fire damage by 86% \\n Strengthens energy exploits", 
        "@feature": "JobChange_02"
      }, 
      {
        "@id": "10300285", 
        "@level": "10", 
        "@name": "Complete combustion", 
        "@tooltipDescription": "Increases fire damage by 94% \\n Strengthens energy exploits", 
        "@feature": "JobChange_02"
      }, 
      {
        "@id": "10300285", 
        "@level": "11", 
        "@name": "Complete combustion", 
        "@tooltipDescription": "Increases fire damage by 102% \\n Strengthens energy exploits", 
        "@feature": "JobChange_02"
      }, 
      {
        "@id": "10300285", 
        "@level": "12", 
        "@name": "Complete combustion", 
        "@tooltipDescription": "Increases fire damage by 110% \\n Strengthens energy exploits", 
        "@feature": "JobChange_02"
      }, 
      {
        "@id": "10300292", 
        "@level": "1", 
        "@name": "Wild Flames", 
        "@tooltipDescription": "Damage by 128% damage per second \\n10% probability", 
        "@feature": "JobChange_02"
      }, 
      {
        "@id": "10300292", 
        "@level": "2", 
        "@name": "Wild Flames", 
        "@tooltipDescription": "142% damage per second Blast off with a 10% chance", 
        "@feature": "JobChange_02"
      }, 
      {
        "@id": "10300292", 
        "@level": "3", 
        "@name": "Wild Flames", 
        "@tooltipDescription": "Damage 156% damage per second, \\n10% probability", 
        "@feature": "JobChange_02"
      }, 
      {
        "@id": "10300292", 
        "@level": "4", 
        "@name": "Wild Flames", 
        "@tooltipDescription": "170% damage per second Blast off with a 10% chance", 
        "@feature": "JobChange_02"
      }, 
      {
        "@id": "10300292", 
        "@level": "5", 
        "@name": "Wild Flames", 
        "@tooltipDescription": "Damage 184% damage per second, \\n10% probability", 
        "@feature": "JobChange_02"
      }, 
      {
        "@id": "10300292", 
        "@level": "6", 
        "@name": "Wild Flames", 
        "@tooltipDescription": "198% damage per second, \\ 10% chance to blow up", 
        "@feature": "JobChange_02"
      }, 
      {
        "@id": "10300292", 
        "@level": "7", 
        "@name": "Wild Flames", 
        "@tooltipDescription": "212% damage per second, \\ 10% chance to blow up", 
        "@feature": "JobChange_02"
      }, 
      {
        "@id": "10300292", 
        "@level": "8", 
        "@name": "Wild Flames", 
        "@tooltipDescription": "226% damage per second, \\ 10% chance to blow up", 
        "@feature": "JobChange_02"
      }, 
      {
        "@id": "10300292", 
        "@level": "9", 
        "@name": "Wild Flames", 
        "@tooltipDescription": "240% damage per second Blast off with a 10% chance", 
        "@feature": "JobChange_02"
      }, 
      {
        "@id": "10300292", 
        "@level": "10", 
        "@name": "Wild Flames", 
        "@tooltipDescription": "Blasts 254% damage every second with a 10% chance", 
        "@feature": "JobChange_02"
      }, 
      {
        "@id": "10300292", 
        "@level": "11", 
        "@name": "Wild Flames", 
        "@tooltipDescription": "268% damage per second, \\ 10% chance to blow up", 
        "@feature": "JobChange_02"
      }, 
      {
        "@id": "10300292", 
        "@level": "12", 
        "@name": "Wild Flames", 
        "@tooltipDescription": "282% damage per second, \\ 10% chance to blow up", 
        "@feature": "JobChange_02"
      }, 
      {
        "@id": "10300021", 
        "@level": "1", 
        "@name": "Flame Wave", 
        "@tooltipDescription": "An intense flame wraps around your body! \\ N 19% fire damage per second", 
        "@feature": "CharacterBalance_01", 
        "@locale": "KR"
      }, 
      {
        "@id": "10300021", 
        "@level": "2", 
        "@name": "Flame Wave", 
        "@tooltipDescription": "An intense flame wraps around your body! \\ N 21% fire damage per second", 
        "@feature": "CharacterBalance_01", 
        "@locale": "KR"
      }, 
      {
        "@id": "10300021", 
        "@level": "3", 
        "@name": "Flame Wave", 
        "@tooltipDescription": "An intense flame wraps around your body! \\ N 23% fire damage per second", 
        "@feature": "CharacterBalance_01", 
        "@locale": "KR"
      }, 
      {
        "@id": "10300021", 
        "@level": "4", 
        "@name": "Flame Wave", 
        "@tooltipDescription": "An intense flame wraps around your body! \\ N 25% fire damage per second", 
        "@feature": "CharacterBalance_01", 
        "@locale": "KR"
      }, 
      {
        "@id": "10300021", 
        "@level": "5", 
        "@name": "Flame Wave", 
        "@tooltipDescription": "An intense flame wraps around your body! \\ N 27% fire damage per second", 
        "@feature": "CharacterBalance_01", 
        "@locale": "KR"
      }, 
      {
        "@id": "10300021", 
        "@level": "6", 
        "@name": "Flame Wave", 
        "@tooltipDescription": "An intense flame wraps around your body! \\ N 29% Fire damage per second", 
        "@feature": "CharacterBalance_01", 
        "@locale": "KR"
      }, 
      {
        "@id": "10300021", 
        "@level": "7", 
        "@name": "Flame Wave", 
        "@tooltipDescription": "An intense flame wraps around your body! \\ N 31% fire damage per second", 
        "@feature": "CharacterBalance_01", 
        "@locale": "KR"
      }, 
      {
        "@id": "10300021", 
        "@level": "8", 
        "@name": "Flame Wave", 
        "@tooltipDescription": "An intense flame wraps around your body! \\ N 33% fire damage per second", 
        "@feature": "CharacterBalance_01", 
        "@locale": "KR"
      }, 
      {
        "@id": "10300021", 
        "@level": "9", 
        "@name": "Flame Wave", 
        "@tooltipDescription": "An intense flame wraps around your body! \\ N 35% Fire damage per second", 
        "@feature": "CharacterBalance_01", 
        "@locale": "KR"
      }, 
      {
        "@id": "10300021", 
        "@level": "10", 
        "@name": "Flame Wave", 
        "@tooltipDescription": "An intense flame wraps around your body! \\ N 37% Fire damage per second", 
        "@feature": "CharacterBalance_01", 
        "@locale": "KR"
      }, 
      {
        "@id": "10300021", 
        "@level": "11", 
        "@name": "Flame Wave", 
        "@tooltipDescription": "An intense flame wraps around your body! \\ N 39% Fire damage per second", 
        "@feature": "CharacterBalance_01", 
        "@locale": "KR"
      }, 
      {
        "@id": "10300021", 
        "@level": "12", 
        "@name": "Flame Wave", 
        "@tooltipDescription": "An intense flame wraps around your body! \\ N 41% fire damage per second", 
        "@feature": "CharacterBalance_01", 
        "@locale": "KR"
      }, 
      {
        "@id": "10300031", 
        "@level": "1", 
        "@name": "Chain Lightning", 
        "@tooltipDescription": "Electrical energy is condensing around your body! \\ N 317% damage overlay 5 times", 
        "@feature": "CharacterBalance_01", 
        "@locale": "KR"
      }, 
      {
        "@id": "10300031", 
        "@level": "2", 
        "@name": "Chain Lightning", 
        "@tooltipDescription": "Electrical energy is condensed around your body! \\ NTwenty times damage over 340%", 
        "@feature": "CharacterBalance_01", 
        "@locale": "KR"
      }, 
      {
        "@id": "10300031", 
        "@level": "3", 
        "@name": "Chain Lightning", 
        "@tooltipDescription": "Electrical energy is condensed around your body! \\ NWhen you overlap 5 times, 363% Melee damage", 
        "@feature": "CharacterBalance_01", 
        "@locale": "KR"
      }, 
      {
        "@id": "10300031", 
        "@level": "4", 
        "@name": "Chain Lightning", 
        "@tooltipDescription": "Electric energy is condensed around your body! \\ NWhen you overlap 5 times, you get 386%", 
        "@feature": "CharacterBalance_01", 
        "@locale": "KR"
      }, 
      {
        "@id": "10300031", 
        "@level": "5", 
        "@name": "Chain Lightning", 
        "@tooltipDescription": "Electric energy is condensed around your body! \\ NWhen you overlap 5 times, 409%", 
        "@feature": "CharacterBalance_01", 
        "@locale": "KR"
      }, 
      {
        "@id": "10300031", 
        "@level": "6", 
        "@name": "Chain Lightning", 
        "@tooltipDescription": "Electrical energy is condensed around your body! \\ N 432% damage over 5 times", 
        "@feature": "CharacterBalance_01", 
        "@locale": "KR"
      }, 
      {
        "@id": "10300031", 
        "@level": "7", 
        "@name": "Chain Lightning", 
        "@tooltipDescription": "Electrical energy is condensed around your body! \\ N 455% damage overlay at 5 times", 
        "@feature": "CharacterBalance_01", 
        "@locale": "KR"
      }, 
      {
        "@id": "10300031", 
        "@level": "8", 
        "@name": "Chain Lightning", 
        "@tooltipDescription": "Electric energy is condensed around your body! \\ NNo 5 times 478% damage over time", 
        "@feature": "CharacterBalance_01", 
        "@locale": "KR"
      }, 
      {
        "@id": "10300031", 
        "@level": "9", 
        "@name": "Chain Lightning", 
        "@tooltipDescription": "Electrical energy is condensed around your body! \\ N501% Melee damage over 5 times", 
        "@feature": "CharacterBalance_01", 
        "@locale": "KR"
      }, 
      {
        "@id": "10300031", 
        "@level": "10", 
        "@name": "Chain Lightning", 
        "@tooltipDescription": "Electrical energy is condensed around your body! \\ N 524% damage over time at stacking 5 times", 
        "@feature": "CharacterBalance_01", 
        "@locale": "KR"
      }, 
      {
        "@id": "10300031", 
        "@level": "11", 
        "@name": "Chain Lightning", 
        "@tooltipDescription": "Electrical energy is condensed around your body! \\ N 547% damage at 5 times overlap", 
        "@feature": "CharacterBalance_01", 
        "@locale": "KR"
      }, 
      {
        "@id": "10300031", 
        "@level": "12", 
        "@name": "Chain Lightning", 
        "@tooltipDescription": "Electric energy is condensed around your body! \\ N 5times of damage when you stack 5 times", 
        "@feature": "CharacterBalance_01", 
        "@locale": "KR"
      }, 
      {
        "@id": "10300051", 
        "@level": "1", 
        "@name": "Cold", 
        "@tooltipDescription": "Your body stays cold! \\nThe movement speed is reduced by 15% \\n Up to 6 times can be nested", 
        "@feature": "CharacterBalance_01", 
        "@locale": "KR"
      }, 
      {
        "@id": "10300051", 
        "@level": "2", 
        "@name": "Cold", 
        "@tooltipDescription": "Your body stays cold! \\nThe movement speed is reduced by 15% \\n Up to 6 times can be nested", 
        "@feature": "CharacterBalance_01", 
        "@locale": "KR"
      }, 
      {
        "@id": "10300051", 
        "@level": "3", 
        "@name": "Cold", 
        "@tooltipDescription": "Your body stays cold! \\nThe movement speed is reduced by 15% \\n Up to 6 times can be nested", 
        "@feature": "CharacterBalance_01", 
        "@locale": "KR"
      }, 
      {
        "@id": "10300051", 
        "@level": "4", 
        "@name": "Cold", 
        "@tooltipDescription": "Your body stays cold! \\nThe movement speed is reduced by 15% \\n Up to 6 times can be nested", 
        "@feature": "CharacterBalance_01", 
        "@locale": "KR"
      }, 
      {
        "@id": "10300051", 
        "@level": "5", 
        "@name": "Cold", 
        "@tooltipDescription": "Your body stays cold! \\nThe movement speed is reduced by 15% \\n Up to 6 times can be nested", 
        "@feature": "CharacterBalance_01", 
        "@locale": "KR"
      }, 
      {
        "@id": "10300051", 
        "@level": "6", 
        "@name": "Cold", 
        "@tooltipDescription": "Your body stays cold! \\nThe movement speed is reduced by 15% \\n Up to 6 times can be nested", 
        "@feature": "CharacterBalance_01", 
        "@locale": "KR"
      }, 
      {
        "@id": "10300051", 
        "@level": "7", 
        "@name": "Cold", 
        "@tooltipDescription": "Your body stays cold! \\nThe movement speed is reduced by 15% \\n Up to 6 times can be nested", 
        "@feature": "CharacterBalance_01", 
        "@locale": "KR"
      }, 
      {
        "@id": "10300051", 
        "@level": "8", 
        "@name": "Cold", 
        "@tooltipDescription": "Your body stays cold! \\nThe movement speed is reduced by 15% \\n Up to 6 times can be nested", 
        "@feature": "CharacterBalance_01", 
        "@locale": "KR"
      }, 
      {
        "@id": "10300051", 
        "@level": "9", 
        "@name": "Cold", 
        "@tooltipDescription": "Your body stays cold! \\nThe movement speed is reduced by 15% \\n Up to 6 times can be nested", 
        "@feature": "CharacterBalance_01", 
        "@locale": "KR"
      }, 
      {
        "@id": "10300051", 
        "@level": "10", 
        "@name": "Cold", 
        "@tooltipDescription": "Your body stays cold! \\nThe movement speed is reduced by 15% \\n Up to 6 times can be nested", 
        "@feature": "CharacterBalance_01", 
        "@locale": "KR"
      }, 
      {
        "@id": "10300051", 
        "@level": "11", 
        "@name": "Cold", 
        "@tooltipDescription": "Your body stays cold! \\nThe movement speed is reduced by 15% \\n Up to 6 times can be nested", 
        "@feature": "CharacterBalance_01", 
        "@locale": "KR"
      }, 
      {
        "@id": "10300051", 
        "@level": "12", 
        "@name": "Cold", 
        "@tooltipDescription": "Your body stays cold! \\nThe movement speed is reduced by 15% \\n Up to 6 times can be nested", 
        "@feature": "CharacterBalance_01", 
        "@locale": "KR"
      }, 
      {
        "@id": "10300052", 
        "@level": "1", 
        "@name": "Freezing", 
        "@tooltipDescription": "Your whole body is frozen! \\nIt is freezing and can not act", 
        "@feature": "CharacterBalance_01", 
        "@locale": "KR"
      }, 
      {
        "@id": "10300071", 
        "@level": "1", 
        "@name": "Thunderbolt", 
        "@tooltipDescription": "Powerful electricity is flowing through your body!", 
        "@feature": "CharacterBalance_01", 
        "@locale": "KR"
      }, 
      {
        "@id": "10300071", 
        "@level": "2", 
        "@name": "Thunderbolt", 
        "@tooltipDescription": "Powerful electricity is flowing through your body!", 
        "@feature": "CharacterBalance_01", 
        "@locale": "KR"
      }, 
      {
        "@id": "10300071", 
        "@level": "3", 
        "@name": "Thunderbolt", 
        "@tooltipDescription": "Powerful electricity is flowing through your body!", 
        "@feature": "CharacterBalance_01", 
        "@locale": "KR"
      }, 
      {
        "@id": "10300071", 
        "@level": "4", 
        "@name": "Thunderbolt", 
        "@tooltipDescription": "Powerful electricity is flowing through your body!", 
        "@feature": "CharacterBalance_01", 
        "@locale": "KR"
      }, 
      {
        "@id": "10300071", 
        "@level": "5", 
        "@name": "Thunderbolt", 
        "@tooltipDescription": "Powerful electricity is flowing through your body!", 
        "@feature": "CharacterBalance_01", 
        "@locale": "KR"
      }, 
      {
        "@id": "10300071", 
        "@level": "6", 
        "@name": "Thunderbolt", 
        "@tooltipDescription": "Powerful electricity is flowing through your body!", 
        "@feature": "CharacterBalance_01", 
        "@locale": "KR"
      }, 
      {
        "@id": "10300071", 
        "@level": "7", 
        "@name": "Thunderbolt", 
        "@tooltipDescription": "Powerful electricity is flowing through your body!", 
        "@feature": "CharacterBalance_01", 
        "@locale": "KR"
      }, 
      {
        "@id": "10300071", 
        "@level": "8", 
        "@name": "Thunderbolt", 
        "@tooltipDescription": "Powerful electricity is flowing through your body!", 
        "@feature": "CharacterBalance_01", 
        "@locale": "KR"
      }, 
      {
        "@id": "10300071", 
        "@level": "9", 
        "@name": "Thunderbolt", 
        "@tooltipDescription": "Powerful electricity is flowing through your body!", 
        "@feature": "CharacterBalance_01", 
        "@locale": "KR"
      }, 
      {
        "@id": "10300071", 
        "@level": "10", 
        "@name": "Thunderbolt", 
        "@tooltipDescription": "Powerful electricity is flowing through your body!", 
        "@feature": "CharacterBalance_01", 
        "@locale": "KR"
      }, 
      {
        "@id": "10300071", 
        "@level": "11", 
        "@name": "Thunderbolt", 
        "@tooltipDescription": "Powerful electricity is flowing through your body!", 
        "@feature": "CharacterBalance_01", 
        "@locale": "KR"
      }, 
      {
        "@id": "10300071", 
        "@level": "12", 
        "@name": "Thunderbolt", 
        "@tooltipDescription": "Powerful electricity is flowing through your body!", 
        "@feature": "CharacterBalance_01", 
        "@locale": "KR"
      }, 
      {
        "@id": "10300091", 
        "@level": "1", 
        "@name": "Focus circle", 
        "@tooltipDescription": "Absorbs magic power from magic spells. \\n 1% increase in physical damage and magic damage.", 
        "@feature": "CharacterBalance_01", 
        "@locale": "KR"
      }, 
      {
        "@id": "10300091", 
        "@level": "2", 
        "@name": "Focus circle", 
        "@tooltipDescription": "Absorbed magic power from magic spells. \\n 1.4% increase in physical damage and magic damage.", 
        "@feature": "CharacterBalance_01", 
        "@locale": "KR"
      }, 
      {
        "@id": "10300091", 
        "@level": "3", 
        "@name": "Focus circle", 
        "@tooltipDescription": "Absorbed magic power from magic spells. \\n Physical attack and magic damage increased by 1.8%.", 
        "@feature": "CharacterBalance_01", 
        "@locale": "KR"
      }, 
      {
        "@id": "10300091", 
        "@level": "4", 
        "@name": "Focus circle", 
        "@tooltipDescription": "Absorbed magic power from magic spells. \\n 2.2% increase in physical damage and magic damage.", 
        "@feature": "CharacterBalance_01", 
        "@locale": "KR"
      }, 
      {
        "@id": "10300091", 
        "@level": "5", 
        "@name": "Focus circle", 
        "@tooltipDescription": "Absorbed magic power from magic spells. \\n 2.6% increase in physical damage and magic damage.", 
        "@feature": "CharacterBalance_01", 
        "@locale": "KR"
      }, 
      {
        "@id": "10300091", 
        "@level": "6", 
        "@name": "Focus circle", 
        "@tooltipDescription": "Absorbed magic power from magic spells. \\n 3% increase in physical damage and magic damage.", 
        "@feature": "CharacterBalance_01", 
        "@locale": "KR"
      }, 
      {
        "@id": "10300091", 
        "@level": "7", 
        "@name": "Focus circle", 
        "@tooltipDescription": "Absorbed magic power from magic spells. \\n4 Physical attack and magic damage increased by 3.4%.", 
        "@feature": "CharacterBalance_01", 
        "@locale": "KR"
      }, 
      {
        "@id": "10300091", 
        "@level": "8", 
        "@name": "Focus circle", 
        "@tooltipDescription": "Absorbed magic power from magic spells. \\n 3.8% increase in physical damage and magic damage.", 
        "@feature": "CharacterBalance_01", 
        "@locale": "KR"
      }, 
      {
        "@id": "10300091", 
        "@level": "9", 
        "@name": "Focus circle", 
        "@tooltipDescription": "Absorbed magic power from magic spells. \\n 4.2% increase in physical damage and magic damage.", 
        "@feature": "CharacterBalance_01", 
        "@locale": "KR"
      }, 
      {
        "@id": "10300091", 
        "@level": "10", 
        "@name": "Focus circle", 
        "@tooltipDescription": "Absorbed magic power from magic spells. \\n Physical attack and magic damage increased by 4.6%.", 
        "@feature": "CharacterBalance_01", 
        "@locale": "KR"
      }, 
      {
        "@id": "10300091", 
        "@level": "11", 
        "@name": "Focus circle", 
        "@tooltipDescription": "Absorbed magic power from magic spells. \\n 5% increase in physical damage and magic damage.", 
        "@feature": "CharacterBalance_01", 
        "@locale": "KR"
      }, 
      {
        "@id": "10300091", 
        "@level": "12", 
        "@name": "Focus circle", 
        "@tooltipDescription": "Absorbed magic power from magic spells. \\n Physical attack and magic damage increased by 5.4%.", 
        "@feature": "CharacterBalance_01", 
        "@locale": "KR"
      }, 
      {
        "@id": "10300131", 
        "@level": "1", 
        "@name": "Magic armor", 
        "@tooltipDescription": "Magical aura wraps the entire body. \\nAvoids 6% of your maximum HP damage", 
        "@feature": "CharacterBalance_01", 
        "@locale": "KR"
      }, 
      {
        "@id": "10300131", 
        "@level": "2", 
        "@name": "Magic armor", 
        "@tooltipDescription": "A magical energy wraps around your body. \\nAbility to absorb damage equal to 8% of your maximum HP", 
        "@feature": "CharacterBalance_01", 
        "@locale": "KR"
      }, 
      {
        "@id": "10300131", 
        "@level": "3", 
        "@name": "Magic armor", 
        "@tooltipDescription": "Enchanting energy wraps the entire body. \\n 10% of your maximum HP absorbed damage", 
        "@feature": "CharacterBalance_01", 
        "@locale": "KR"
      }, 
      {
        "@id": "10300131", 
        "@level": "4", 
        "@name": "Magic armor", 
        "@tooltipDescription": "Magical aura wraps the entire body. \\nAbility to absorb 12% of your maximum HP damage", 
        "@feature": "CharacterBalance_01", 
        "@locale": "KR"
      }, 
      {
        "@id": "10300131", 
        "@level": "5", 
        "@name": "Magic armor", 
        "@tooltipDescription": "Magical aura wraps around your body. \\nAbout 14% of your maximum HP absorb damage", 
        "@feature": "CharacterBalance_01", 
        "@locale": "KR"
      }, 
      {
        "@id": "10300131", 
        "@level": "6", 
        "@name": "Magic armor", 
        "@tooltipDescription": "Enchant magic wraps the entire body. \\nAbility to absorb damage equal to 16% of your maximum HP.", 
        "@feature": "CharacterBalance_01", 
        "@locale": "KR"
      }, 
      {
        "@id": "10300131", 
        "@level": "7", 
        "@name": "Magic armor", 
        "@tooltipDescription": "Magical energy wraps the entire body. Absorbs damage equal to 18% of your maximum HP.", 
        "@feature": "CharacterBalance_01", 
        "@locale": "KR"
      }, 
      {
        "@id": "10300131", 
        "@level": "8", 
        "@name": "Magic armor", 
        "@tooltipDescription": "Magical aura wraps the entire body. \\n 20% of your maximum HP absorb damage", 
        "@feature": "CharacterBalance_01", 
        "@locale": "KR"
      }, 
      {
        "@id": "10300131", 
        "@level": "9", 
        "@name": "Magic armor", 
        "@tooltipDescription": "Enchant magic wraps the entire body. Absorbs damage equal to 22% of your maximum HP.", 
        "@feature": "CharacterBalance_01", 
        "@locale": "KR"
      }, 
      {
        "@id": "10300131", 
        "@level": "10", 
        "@name": "Magic armor", 
        "@tooltipDescription": "Enchant magic wraps the entire body. \\nAbility to absorb damage equal to 24% of your maximum HP.", 
        "@feature": "CharacterBalance_01", 
        "@locale": "KR"
      }, 
      {
        "@id": "10300131", 
        "@level": "11", 
        "@name": "Magic armor", 
        "@tooltipDescription": "Magical aura wraps the entire body. \\n 26% of your maximum HP absorb damage", 
        "@feature": "CharacterBalance_01", 
        "@locale": "KR"
      }, 
      {
        "@id": "10300131", 
        "@level": "12", 
        "@name": "Magic armor", 
        "@tooltipDescription": "Magical aura wraps the entire body. \\nAvoids damage equal to 28% of your maximum HP", 
        "@feature": "CharacterBalance_01", 
        "@locale": "KR"
      }
    ]
  }
}