{
  "?xml": {
    "@version": "1.0", 
    "@encoding": "utf-8"
  }, 
  "ms2": {
    "key": [
      {
        "@id": "10600052", 
        "@level": "1", 
        "@name": "Grenade", 
        "@tooltipDescription": "I was lost in the shock of the explosion! \\nNo action by stunning"
      }, 
      {
        "@id": "10600052", 
        "@level": "2", 
        "@name": "Grenade", 
        "@tooltipDescription": "I was lost in the shock of the explosion! \\nNo action by stunning"
      }, 
      {
        "@id": "10600052", 
        "@level": "3", 
        "@name": "Grenade", 
        "@tooltipDescription": "I was lost in the shock of the explosion! \\nNo action by stunning"
      }, 
      {
        "@id": "10600052", 
        "@level": "4", 
        "@name": "Grenade", 
        "@tooltipDescription": "I was lost in the shock of the explosion! \\nNo action by stunning"
      }, 
      {
        "@id": "10600052", 
        "@level": "5", 
        "@name": "Grenade", 
        "@tooltipDescription": "I was lost in the shock of the explosion! \\nNo action by stunning"
      }, 
      {
        "@id": "10600052", 
        "@level": "6", 
        "@name": "Grenade", 
        "@tooltipDescription": "I was lost in the shock of the explosion! \\nNo action by stunning"
      }, 
      {
        "@id": "10600052", 
        "@level": "7", 
        "@name": "Grenade", 
        "@tooltipDescription": "I was lost in the shock of the explosion! \\nNo action by stunning"
      }, 
      {
        "@id": "10600052", 
        "@level": "8", 
        "@name": "Grenade", 
        "@tooltipDescription": "I was lost in the shock of the explosion! \\nNo action by stunning"
      }, 
      {
        "@id": "10600052", 
        "@level": "9", 
        "@name": "Grenade", 
        "@tooltipDescription": "I was lost in the shock of the explosion! \\nNo action by stunning"
      }, 
      {
        "@id": "10600052", 
        "@level": "10", 
        "@name": "Grenade", 
        "@tooltipDescription": "I was lost in the shock of the explosion! \\nNo action by stunning"
      }, 
      {
        "@id": "10600052", 
        "@level": "11", 
        "@name": "Grenade", 
        "@tooltipDescription": "I was lost in the shock of the explosion! \\nNo action by stunning"
      }, 
      {
        "@id": "10600052", 
        "@level": "12", 
        "@name": "Grenade", 
        "@tooltipDescription": "I was lost in the shock of the explosion! \\nNo action by stunning"
      }, 
      {
        "@id": "10600062", 
        "@level": "1", 
        "@name": "Magnetic spring", 
        "@tooltipDescription": "A powerful magnetic field closes your body! \\nThe movement speed is reduced by 3%."
      }, 
      {
        "@id": "10600062", 
        "@level": "2", 
        "@name": "Magnetic spring", 
        "@tooltipDescription": "A powerful magnetic field closes your body! \\nThe movement speed is reduced by 6%"
      }, 
      {
        "@id": "10600062", 
        "@level": "3", 
        "@name": "Magnetic spring", 
        "@tooltipDescription": "A powerful magnetic field closes your body! \\nThe movement speed is reduced by 9%."
      }, 
      {
        "@id": "10600062", 
        "@level": "4", 
        "@name": "Magnetic spring", 
        "@tooltipDescription": "Powerful magnetic fields close your body! \\nThe movement speed is reduced by 12%"
      }, 
      {
        "@id": "10600062", 
        "@level": "5", 
        "@name": "Magnetic spring", 
        "@tooltipDescription": "A powerful magnetic field closes your body! \\nThe movement speed is reduced by 15%."
      }, 
      {
        "@id": "10600062", 
        "@level": "6", 
        "@name": "Magnetic spring", 
        "@tooltipDescription": "Powerful magnetic fields close your body! \\nThe movement speed is reduced by 18%"
      }, 
      {
        "@id": "10600062", 
        "@level": "7", 
        "@name": "Magnetic spring", 
        "@tooltipDescription": "A powerful magnetic field closes your body! \\nThe movement speed is reduced by 21%"
      }, 
      {
        "@id": "10600062", 
        "@level": "8", 
        "@name": "Magnetic spring", 
        "@tooltipDescription": "A powerful magnetic field closes your body! \\nThe movement speed is reduced by 24%"
      }, 
      {
        "@id": "10600062", 
        "@level": "9", 
        "@name": "Magnetic spring", 
        "@tooltipDescription": "A powerful magnetic field closes your body! \\nThe movement speed is reduced by 27%."
      }, 
      {
        "@id": "10600062", 
        "@level": "10", 
        "@name": "Magnetic spring", 
        "@tooltipDescription": "A powerful magnetic field closes your body! \\nThe movement speed is reduced by 30%."
      }, 
      {
        "@id": "10600062", 
        "@level": "11", 
        "@name": "Magnetic spring", 
        "@tooltipDescription": "A powerful magnetic field closes your body! \\nThe movement speed is reduced by 33%."
      }, 
      {
        "@id": "10600062", 
        "@level": "12", 
        "@name": "Magnetic spring", 
        "@tooltipDescription": "Powerful magnetic fields close your body! \\nThe movement speed is reduced by 36%"
      }, 
      {
        "@id": "10600131", 
        "@level": "1", 
        "@name": "Satellite", 
        "@tooltipDescription": "Small satellites are exploring enemies. \\ N Laser bombardment of targeted enemies"
      }, 
      {
        "@id": "10600131", 
        "@level": "2", 
        "@name": "Satellite", 
        "@tooltipDescription": "Small satellites are exploring enemies. \\ N Laser bombardment of targeted enemies"
      }, 
      {
        "@id": "10600131", 
        "@level": "3", 
        "@name": "Satellite", 
        "@tooltipDescription": "Small satellites are exploring enemies. \\ N Laser bombardment of targeted enemies"
      }, 
      {
        "@id": "10600131", 
        "@level": "4", 
        "@name": "Satellite", 
        "@tooltipDescription": "Small satellites are exploring enemies. \\ N Laser bombardment of targeted enemies"
      }, 
      {
        "@id": "10600131", 
        "@level": "5", 
        "@name": "Satellite", 
        "@tooltipDescription": "Small satellites are exploring enemies. \\ N Laser bombardment of targeted enemies"
      }, 
      {
        "@id": "10600131", 
        "@level": "6", 
        "@name": "Satellite", 
        "@tooltipDescription": "Small satellites are exploring enemies. \\ N Laser bombardment of targeted enemies"
      }, 
      {
        "@id": "10600131", 
        "@level": "7", 
        "@name": "Satellite", 
        "@tooltipDescription": "Small satellites are exploring enemies. \\ N Laser bombardment of targeted enemies"
      }, 
      {
        "@id": "10600131", 
        "@level": "8", 
        "@name": "Satellite", 
        "@tooltipDescription": "Small satellites are exploring enemies. \\ N Laser bombardment of targeted enemies"
      }, 
      {
        "@id": "10600131", 
        "@level": "9", 
        "@name": "Satellite", 
        "@tooltipDescription": "Small satellites are exploring enemies. \\ N Laser bombardment of targeted enemies"
      }, 
      {
        "@id": "10600131", 
        "@level": "10", 
        "@name": "Satellite", 
        "@tooltipDescription": "Small satellites are exploring enemies. \\ N Laser bombardment of targeted enemies"
      }, 
      {
        "@id": "10600131", 
        "@level": "11", 
        "@name": "Satellite", 
        "@tooltipDescription": "Small satellites are exploring enemies. \\ N Laser bombardment of targeted enemies"
      }, 
      {
        "@id": "10600131", 
        "@level": "12", 
        "@name": "Satellite", 
        "@tooltipDescription": "Small satellites are exploring enemies. \\ N Laser bombardment of targeted enemies"
      }, 
      {
        "@id": "10600171", 
        "@level": "1", 
        "@name": "Plasma chain", 
        "@tooltipDescription": "Plasma energy is condensed in the body! \\n 258% at 5 times superposition damage", 
        "@feature": "JobChange_01"
      }, 
      {
        "@id": "10600171", 
        "@level": "2", 
        "@name": "Plasma chain", 
        "@tooltipDescription": "Plasma energy is condensed in the body! \\nWhen it overlaps 5 times 288% Melee damage", 
        "@feature": "JobChange_01"
      }, 
      {
        "@id": "10600171", 
        "@level": "3", 
        "@name": "Plasma chain", 
        "@tooltipDescription": "Plasma energy is condensed in the body! \\nWhen it overlaps 5 times, it is 318%", 
        "@feature": "JobChange_01"
      }, 
      {
        "@id": "10600171", 
        "@level": "4", 
        "@name": "Plasma chain", 
        "@tooltipDescription": "Plasma energy is condensed in the body! \\nWhen it overlaps 5 times 348%", 
        "@feature": "JobChange_01"
      }, 
      {
        "@id": "10600171", 
        "@level": "5", 
        "@name": "Plasma chain", 
        "@tooltipDescription": "Plasma energy is condensed in the body! \\nWhen it overlaps 5 times, it is 378%", 
        "@feature": "JobChange_01"
      }, 
      {
        "@id": "10600171", 
        "@level": "6", 
        "@name": "Plasma chain", 
        "@tooltipDescription": "Plasma energy is condensed in the body! \\nWhen it overlaps 5 times, 408%", 
        "@feature": "JobChange_01"
      }, 
      {
        "@id": "10600171", 
        "@level": "7", 
        "@name": "Plasma chain", 
        "@tooltipDescription": "Plasma energy is condensed in the body! \\n 438% of super damage", 
        "@feature": "JobChange_01"
      }, 
      {
        "@id": "10600171", 
        "@level": "8", 
        "@name": "Plasma chain", 
        "@tooltipDescription": "Plasma energy is condensed in the body! \\nIf you overlap 5 times, 468%", 
        "@feature": "JobChange_01"
      }, 
      {
        "@id": "10600171", 
        "@level": "9", 
        "@name": "Plasma chain", 
        "@tooltipDescription": "Plasma energy is condensed in the body! \\nAt 5 times overlap 498% Melee damage", 
        "@feature": "JobChange_01"
      }, 
      {
        "@id": "10600171", 
        "@level": "10", 
        "@name": "Plasma chain", 
        "@tooltipDescription": "Plasma energy is condensed in the body! \\n 528% of overlap damage 5 times damage", 
        "@feature": "JobChange_01"
      }, 
      {
        "@id": "10600171", 
        "@level": "11", 
        "@name": "Plasma chain", 
        "@tooltipDescription": "Plasma energy is condensing in the body! \\n 558% damage over 5 times when we overlap", 
        "@feature": "JobChange_01"
      }, 
      {
        "@id": "10600171", 
        "@level": "12", 
        "@name": "Plasma chain", 
        "@tooltipDescription": "Plasma energy is condensing in the body! \\n58% of 5 times damage overlap damage", 
        "@feature": "JobChange_01"
      }, 
      {
        "@id": "10600201", 
        "@level": "1", 
        "@name": "Firebomb", 
        "@tooltipDescription": "Hot flames have been transferred to your body! \\n 74% fire damage per second", 
        "@feature": "JobChange_01"
      }, 
      {
        "@id": "10600201", 
        "@level": "2", 
        "@name": "Firebomb", 
        "@tooltipDescription": "Hot Flame has been transferred to your body! \\n 82% Fire damage per second", 
        "@feature": "JobChange_01"
      }, 
      {
        "@id": "10600201", 
        "@level": "3", 
        "@name": "Firebomb", 
        "@tooltipDescription": "A hot flame has been transferred to your body! \\n 90% fire damage per second", 
        "@feature": "JobChange_01"
      }, 
      {
        "@id": "10600201", 
        "@level": "4", 
        "@name": "Firebomb", 
        "@tooltipDescription": "Hot Flame has been transferred to your body! \\n 98% Fire damage per second", 
        "@feature": "JobChange_01"
      }, 
      {
        "@id": "10600201", 
        "@level": "5", 
        "@name": "Firebomb", 
        "@tooltipDescription": "A hot flame has been transferred to your body! \\n 106% fire damage per second", 
        "@feature": "JobChange_01"
      }, 
      {
        "@id": "10600201", 
        "@level": "6", 
        "@name": "Firebomb", 
        "@tooltipDescription": "Hot Flame has been moved to your body! \\n 114% Flame Damage per second", 
        "@feature": "JobChange_01"
      }, 
      {
        "@id": "10600201", 
        "@level": "7", 
        "@name": "Firebomb", 
        "@tooltipDescription": "Hot Flame has been transferred to your body! \\n 122% Fire damage per second", 
        "@feature": "JobChange_01"
      }, 
      {
        "@id": "10600201", 
        "@level": "8", 
        "@name": "Firebomb", 
        "@tooltipDescription": "A hot flame has been transferred to your body! \\n 130% fire damage per second", 
        "@feature": "JobChange_01"
      }, 
      {
        "@id": "10600201", 
        "@level": "9", 
        "@name": "Firebomb", 
        "@tooltipDescription": "Hot Flame has been transferred to your body! \\n 138% Fire damage per second", 
        "@feature": "JobChange_01"
      }, 
      {
        "@id": "10600201", 
        "@level": "10", 
        "@name": "Firebomb", 
        "@tooltipDescription": "Hot Flame has been transferred to your body! \\n 146% Fire damage per second", 
        "@feature": "JobChange_01"
      }, 
      {
        "@id": "10600201", 
        "@level": "11", 
        "@name": "Firebomb", 
        "@tooltipDescription": "Hot Flame has been transferred to your body! \\n 154% Flame Damage per second", 
        "@feature": "JobChange_01"
      }, 
      {
        "@id": "10600201", 
        "@level": "12", 
        "@name": "Firebomb", 
        "@tooltipDescription": "Hot flames have been moved to your body! \\n 162% Fire damage per second", 
        "@feature": "JobChange_01"
      }, 
      {
        "@id": "10600212", 
        "@level": "1", 
        "@name": "Sky Hunter", 
        "@tooltipDescription": "A shield has been created. \\nAbility to absorb damage by 30% of your maximum HP.", 
        "@feature": "JobChange_01"
      }, 
      {
        "@id": "10600221", 
        "@level": "1", 
        "@name": "Little amateur", 
        "@tooltipDescription": "Automatically rolls ammunition. \\nSP 20 recovery per second", 
        "@feature": "JobChange_01"
      }, 
      {
        "@id": "10600271", 
        "@level": "1", 
        "@name": "Portable Head", 
        "@tooltipDescription": "Automatically reloads ammo \\n SP 20 Recovery per second \\n Plasma damage increases 6%", 
        "@feature": "JobChange_02"
      }, 
      {
        "@id": "10600271", 
        "@level": "2", 
        "@name": "Portable Head", 
        "@tooltipDescription": "Automatically reloads ammo \\n SP 20 Recovery per second \\n Plasma skill damage increased by 12%", 
        "@feature": "JobChange_02"
      }, 
      {
        "@id": "10600271", 
        "@level": "3", 
        "@name": "Portable Head", 
        "@tooltipDescription": "Automatically spreads ammunition \\n SP 20 Recovery per second \\n Plasma-based skill damage increased by 18%", 
        "@feature": "JobChange_02"
      }, 
      {
        "@id": "10600271", 
        "@level": "4", 
        "@name": "Portable Head", 
        "@tooltipDescription": "Automatically spreads ammunition \\n SP 20 Recovery per second \\n Plasma damage increases by 24%", 
        "@feature": "JobChange_02"
      }, 
      {
        "@id": "10600271", 
        "@level": "5", 
        "@name": "Portable Head", 
        "@tooltipDescription": "Automatically spreads ammunition \\n SP 20 Recovery per second \\n Plasma-based skill damage increased by 30%", 
        "@feature": "JobChange_02"
      }, 
      {
        "@id": "10600271", 
        "@level": "6", 
        "@name": "Portable Head", 
        "@tooltipDescription": "Automatically spreads ammunition \\n SP 20 Recovery per second \\n Plasma-based skill damage increased by 36%", 
        "@feature": "JobChange_02"
      }, 
      {
        "@id": "10600271", 
        "@level": "7", 
        "@name": "Portable Head", 
        "@tooltipDescription": "Automatically reloads ammo \\n SP 20 Recovery per second \\n Plasma damage increases by 42%", 
        "@feature": "JobChange_02"
      }, 
      {
        "@id": "10600271", 
        "@level": "8", 
        "@name": "Portable Head", 
        "@tooltipDescription": "Automatically spreads ammunition \\n SP 20 Recovery per second \\n Plasma damage increases by 48%", 
        "@feature": "JobChange_02"
      }, 
      {
        "@id": "10600271", 
        "@level": "9", 
        "@name": "Portable Head", 
        "@tooltipDescription": "Automatically spreads ammunition \\n SP 20 Recovery per second \\n Plasma damage increases by 54%", 
        "@feature": "JobChange_02"
      }, 
      {
        "@id": "10600271", 
        "@level": "10", 
        "@name": "Portable Head", 
        "@tooltipDescription": "Automatically spreads ammunition \\n SP 20 Recovery per second \\n Plasma-based skill damage increased by 60%", 
        "@feature": "JobChange_02"
      }, 
      {
        "@id": "10600271", 
        "@level": "11", 
        "@name": "Portable Head", 
        "@tooltipDescription": "Automatically reloads ammo \\n SP 20 Recovery per second \\n Plasma-based skill damage increased by 66%", 
        "@feature": "JobChange_02"
      }, 
      {
        "@id": "10600271", 
        "@level": "12", 
        "@name": "Portable Head", 
        "@tooltipDescription": "Automatically spreads ammunition \\n SP 20 Recovery per second \\n Plasma-based skill damage increased 72%", 
        "@feature": "JobChange_02"
      }, 
      {
        "@id": "10600281", 
        "@level": "1", 
        "@name": "Sticky Monster", 
        "@tooltipDescription": "Multi-Functional Interlocking Adhesive Bombs are now activated! \\nAdditional effects of Focus Shot, Fire Bomber, Demolition Cannon Skill", 
        "@feature": "JobChange_02"
      }, 
      {
        "@id": "10600281", 
        "@level": "2", 
        "@name": "Sticky Monster", 
        "@tooltipDescription": "Multi-Functional Interlocking Adhesive Bombs are now activated! \\nAdditional effects of Focus Shot, Fire Bomber, Demolition Cannon Skill", 
        "@feature": "JobChange_02"
      }, 
      {
        "@id": "10600281", 
        "@level": "3", 
        "@name": "Sticky Monster", 
        "@tooltipDescription": "Multi-Functional Interlocking Adhesive Bombs are now activated! \\nAdditional effects of Focus Shot, Fire Bomber, Demolition Cannon Skill", 
        "@feature": "JobChange_02"
      }, 
      {
        "@id": "10600281", 
        "@level": "4", 
        "@name": "Sticky Monster", 
        "@tooltipDescription": "Multi-Functional Interlocking Adhesive Bombs are now activated! \\nAdditional effects of Focus Shot, Fire Bomber, Demolition Cannon Skill", 
        "@feature": "JobChange_02"
      }, 
      {
        "@id": "10600281", 
        "@level": "5", 
        "@name": "Sticky Monster", 
        "@tooltipDescription": "Multi-Functional Interlocking Adhesive Bombs are now activated! \\nAdditional effects of Focus Shot, Fire Bomber, Demolition Cannon Skill", 
        "@feature": "JobChange_02"
      }, 
      {
        "@id": "10600281", 
        "@level": "6", 
        "@name": "Sticky Monster", 
        "@tooltipDescription": "Multi-Functional Interlocking Adhesive Bombs are now activated! \\nAdditional effects of Focus Shot, Fire Bomber, Demolition Cannon Skill", 
        "@feature": "JobChange_02"
      }, 
      {
        "@id": "10600281", 
        "@level": "7", 
        "@name": "Sticky Monster", 
        "@tooltipDescription": "Multi-Functional Interlocking Adhesive Bombs are now activated! \\nAdditional effects of Focus Shot, Fire Bomber, Demolition Cannon Skill", 
        "@feature": "JobChange_02"
      }, 
      {
        "@id": "10600281", 
        "@level": "8", 
        "@name": "Sticky Monster", 
        "@tooltipDescription": "Multi-Functional Interlocking Adhesive Bombs are now activated! \\nAdditional effects of Focus Shot, Fire Bomber, Demolition Cannon Skill", 
        "@feature": "JobChange_02"
      }, 
      {
        "@id": "10600281", 
        "@level": "9", 
        "@name": "Sticky Monster", 
        "@tooltipDescription": "Multi-Functional Interlocking Adhesive Bombs are now activated! \\nAdditional effects of Focus Shot, Fire Bomber, Demolition Cannon Skill", 
        "@feature": "JobChange_02"
      }, 
      {
        "@id": "10600281", 
        "@level": "10", 
        "@name": "Sticky Monster", 
        "@tooltipDescription": "Multi-Functional Interlocking Adhesive Bombs are now activated! \\nAdditional effects of Focus Shot, Fire Bomber, Demolition Cannon Skill", 
        "@feature": "JobChange_02"
      }, 
      {
        "@id": "10600281", 
        "@level": "11", 
        "@name": "Sticky Monster", 
        "@tooltipDescription": "Multi-Functional Interlocking Adhesive Bombs are now activated! \\nAdditional effects of Focus Shot, Fire Bomber, Demolition Cannon Skill", 
        "@feature": "JobChange_02"
      }, 
      {
        "@id": "10600281", 
        "@level": "12", 
        "@name": "Sticky Monster", 
        "@tooltipDescription": "Multi-Functional Interlocking Adhesive Bombs are now activated! \\nAdditional effects of Focus Shot, Fire Bomber, Demolition Cannon Skill", 
        "@feature": "JobChange_02"
      }, 
      {
        "@id": "10600288", 
        "@level": "1", 
        "@name": "Flame radiation", 
        "@tooltipDescription": "Hot Flame will be released! \\n 233% fire damage per discharge", 
        "@feature": "JobChange_02"
      }, 
      {
        "@id": "10600288", 
        "@level": "2", 
        "@name": "Flame radiation", 
        "@tooltipDescription": "Hot flames are released! \\n60% fire damage per discharge", 
        "@feature": "JobChange_02"
      }, 
      {
        "@id": "10600288", 
        "@level": "3", 
        "@name": "Flame radiation", 
        "@tooltipDescription": "Hot Flame is released! \\n 287% fire damage per discharge", 
        "@feature": "JobChange_02"
      }, 
      {
        "@id": "10600288", 
        "@level": "4", 
        "@name": "Flame radiation", 
        "@tooltipDescription": "Hot Flame is released! \\n 314% Flame Damage per Release", 
        "@feature": "JobChange_02"
      }, 
      {
        "@id": "10600288", 
        "@level": "5", 
        "@name": "Flame radiation", 
        "@tooltipDescription": "Hot flames are released! \\n 341% fire damage per discharge", 
        "@feature": "JobChange_02"
      }, 
      {
        "@id": "10600288", 
        "@level": "6", 
        "@name": "Flame radiation", 
        "@tooltipDescription": "Hot Flame is released! \\n 368% fire damage per discharge", 
        "@feature": "JobChange_02"
      }, 
      {
        "@id": "10600288", 
        "@level": "7", 
        "@name": "Flame radiation", 
        "@tooltipDescription": "Hot flames are released! \\n 395% fire damage per discharge", 
        "@feature": "JobChange_02"
      }, 
      {
        "@id": "10600288", 
        "@level": "8", 
        "@name": "Flame radiation", 
        "@tooltipDescription": "Hot Flame is released! \\n 422% fire damage per discharge", 
        "@feature": "JobChange_02"
      }, 
      {
        "@id": "10600288", 
        "@level": "9", 
        "@name": "Flame radiation", 
        "@tooltipDescription": "Hot Flame is released! \\n 449% fire damage per discharge", 
        "@feature": "JobChange_02"
      }, 
      {
        "@id": "10600288", 
        "@level": "10", 
        "@name": "Flame radiation", 
        "@tooltipDescription": "Hot flames are released! \\n 476% fire damage per discharge", 
        "@feature": "JobChange_02"
      }, 
      {
        "@id": "10600288", 
        "@level": "11", 
        "@name": "Flame radiation", 
        "@tooltipDescription": "Hot Flame is released! \\n 503% fire damage per discharge", 
        "@feature": "JobChange_02"
      }, 
      {
        "@id": "10600288", 
        "@level": "12", 
        "@name": "Flame radiation", 
        "@tooltipDescription": "Hot flames are released! \\n 530% fire damage per discharge", 
        "@feature": "JobChange_02"
      }, 
      {
        "@id": "10600291", 
        "@level": "1", 
        "@name": "Gas poisoning", 
        "@tooltipDescription": "Exposed to powerful poison gas! \\n 785% poison damage per second", 
        "@feature": "JobChange_02"
      }, 
      {
        "@id": "10600291", 
        "@level": "2", 
        "@name": "Gas poisoning", 
        "@tooltipDescription": "Exposed to powerful poison gas! \\n 875% poison damage per second", 
        "@feature": "JobChange_02"
      }, 
      {
        "@id": "10600291", 
        "@level": "3", 
        "@name": "Gas poisoning", 
        "@tooltipDescription": "Exposed to powerful poison gas! \\n 965% poison damage per second", 
        "@feature": "JobChange_02"
      }, 
      {
        "@id": "10600291", 
        "@level": "4", 
        "@name": "Gas poisoning", 
        "@tooltipDescription": "Exposed to powerful poison gas! \\n 1055% poison damage per second", 
        "@feature": "JobChange_02"
      }, 
      {
        "@id": "10600291", 
        "@level": "5", 
        "@name": "Gas poisoning", 
        "@tooltipDescription": "Exposed to powerful poison gas! \\n 1145% poison damage per second", 
        "@feature": "JobChange_02"
      }, 
      {
        "@id": "10600291", 
        "@level": "6", 
        "@name": "Gas poisoning", 
        "@tooltipDescription": "Exposed to powerful poison gas! \\n 1235% poison damage per second", 
        "@feature": "JobChange_02"
      }, 
      {
        "@id": "10600291", 
        "@level": "7", 
        "@name": "Gas poisoning", 
        "@tooltipDescription": "Exposed to powerful poison gas! \\n 1325% poison damage per second", 
        "@feature": "JobChange_02"
      }, 
      {
        "@id": "10600291", 
        "@level": "8", 
        "@name": "Gas poisoning", 
        "@tooltipDescription": "Exposed to powerful poison gas! \\n 1415% poison damage per second", 
        "@feature": "JobChange_02"
      }, 
      {
        "@id": "10600291", 
        "@level": "9", 
        "@name": "Gas poisoning", 
        "@tooltipDescription": "Exposed to powerful poison gas! \\n 1505% poison damage per second", 
        "@feature": "JobChange_02"
      }, 
      {
        "@id": "10600291", 
        "@level": "10", 
        "@name": "Gas poisoning", 
        "@tooltipDescription": "Exposed to powerful poison gas! \\n 1595% poison damage per second", 
        "@feature": "JobChange_02"
      }, 
      {
        "@id": "10600291", 
        "@level": "11", 
        "@name": "Gas poisoning", 
        "@tooltipDescription": "Exposed to powerful poison gas! \\n 1685% poison damage per second", 
        "@feature": "JobChange_02"
      }, 
      {
        "@id": "10600291", 
        "@level": "12", 
        "@name": "Gas poisoning", 
        "@tooltipDescription": "Exposed to powerful poison gas! \\n 1775% poison damage per second", 
        "@feature": "JobChange_02"
      }, 
      {
        "@id": "10600052", 
        "@level": "1", 
        "@name": "Grenade", 
        "@tooltipDescription": "I was lost in the shock of the explosion! \\nNo action by stunning", 
        "@feature": "CharacterBalance_01", 
        "@locale": "KR"
      }, 
      {
        "@id": "10600052", 
        "@level": "2", 
        "@name": "Grenade", 
        "@tooltipDescription": "I was lost in the shock of the explosion! \\nNo action by stunning", 
        "@feature": "CharacterBalance_01", 
        "@locale": "KR"
      }, 
      {
        "@id": "10600052", 
        "@level": "3", 
        "@name": "Grenade", 
        "@tooltipDescription": "I was lost in the shock of the explosion! \\nNo action by stunning", 
        "@feature": "CharacterBalance_01", 
        "@locale": "KR"
      }, 
      {
        "@id": "10600052", 
        "@level": "4", 
        "@name": "Grenade", 
        "@tooltipDescription": "I was lost in the shock of the explosion! \\nNo action by stunning", 
        "@feature": "CharacterBalance_01", 
        "@locale": "KR"
      }, 
      {
        "@id": "10600052", 
        "@level": "5", 
        "@name": "Grenade", 
        "@tooltipDescription": "I was lost in the shock of the explosion! \\nNo action by stunning", 
        "@feature": "CharacterBalance_01", 
        "@locale": "KR"
      }, 
      {
        "@id": "10600052", 
        "@level": "6", 
        "@name": "Grenade", 
        "@tooltipDescription": "I was lost in the shock of the explosion! \\nNo action by stunning", 
        "@feature": "CharacterBalance_01", 
        "@locale": "KR"
      }, 
      {
        "@id": "10600052", 
        "@level": "7", 
        "@name": "Grenade", 
        "@tooltipDescription": "I was lost in the shock of the explosion! \\nNo action by stunning", 
        "@feature": "CharacterBalance_01", 
        "@locale": "KR"
      }, 
      {
        "@id": "10600052", 
        "@level": "8", 
        "@name": "Grenade", 
        "@tooltipDescription": "I was lost in the shock of the explosion! \\nNo action by stunning", 
        "@feature": "CharacterBalance_01", 
        "@locale": "KR"
      }, 
      {
        "@id": "10600052", 
        "@level": "9", 
        "@name": "Grenade", 
        "@tooltipDescription": "I was lost in the shock of the explosion! \\nNo action by stunning", 
        "@feature": "CharacterBalance_01", 
        "@locale": "KR"
      }, 
      {
        "@id": "10600052", 
        "@level": "10", 
        "@name": "Grenade", 
        "@tooltipDescription": "I was lost in the shock of the explosion! \\nNo action by stunning", 
        "@feature": "CharacterBalance_01", 
        "@locale": "KR"
      }, 
      {
        "@id": "10600052", 
        "@level": "11", 
        "@name": "Grenade", 
        "@tooltipDescription": "I was lost in the shock of the explosion! \\nNo action by stunning", 
        "@feature": "CharacterBalance_01", 
        "@locale": "KR"
      }, 
      {
        "@id": "10600052", 
        "@level": "12", 
        "@name": "Grenade", 
        "@tooltipDescription": "I was lost in the shock of the explosion! \\nNo action by stunning", 
        "@feature": "CharacterBalance_01", 
        "@locale": "KR"
      }, 
      {
        "@id": "10600062", 
        "@level": "1", 
        "@name": "Magnetic spring", 
        "@tooltipDescription": "A powerful magnetic field closes your body! \\nThe movement speed is reduced by 3%.", 
        "@feature": "CharacterBalance_01", 
        "@locale": "KR"
      }, 
      {
        "@id": "10600062", 
        "@level": "2", 
        "@name": "Magnetic spring", 
        "@tooltipDescription": "A powerful magnetic field closes your body! \\nThe movement speed is reduced by 6%", 
        "@feature": "CharacterBalance_01", 
        "@locale": "KR"
      }, 
      {
        "@id": "10600062", 
        "@level": "3", 
        "@name": "Magnetic spring", 
        "@tooltipDescription": "A powerful magnetic field closes your body! \\nThe movement speed is reduced by 9%.", 
        "@feature": "CharacterBalance_01", 
        "@locale": "KR"
      }, 
      {
        "@id": "10600062", 
        "@level": "4", 
        "@name": "Magnetic spring", 
        "@tooltipDescription": "Powerful magnetic fields close your body! \\nThe movement speed is reduced by 12%", 
        "@feature": "CharacterBalance_01", 
        "@locale": "KR"
      }, 
      {
        "@id": "10600062", 
        "@level": "5", 
        "@name": "Magnetic spring", 
        "@tooltipDescription": "A powerful magnetic field closes your body! \\nThe movement speed is reduced by 15%.", 
        "@feature": "CharacterBalance_01", 
        "@locale": "KR"
      }, 
      {
        "@id": "10600062", 
        "@level": "6", 
        "@name": "Magnetic spring", 
        "@tooltipDescription": "Powerful magnetic fields close your body! \\nThe movement speed is reduced by 18%", 
        "@feature": "CharacterBalance_01", 
        "@locale": "KR"
      }, 
      {
        "@id": "10600062", 
        "@level": "7", 
        "@name": "Magnetic spring", 
        "@tooltipDescription": "A powerful magnetic field closes your body! \\nThe movement speed is reduced by 21%", 
        "@feature": "CharacterBalance_01", 
        "@locale": "KR"
      }, 
      {
        "@id": "10600062", 
        "@level": "8", 
        "@name": "Magnetic spring", 
        "@tooltipDescription": "A powerful magnetic field closes your body! \\nThe movement speed is reduced by 24%", 
        "@feature": "CharacterBalance_01", 
        "@locale": "KR"
      }, 
      {
        "@id": "10600062", 
        "@level": "9", 
        "@name": "Magnetic spring", 
        "@tooltipDescription": "A powerful magnetic field closes your body! \\nThe movement speed is reduced by 27%.", 
        "@feature": "CharacterBalance_01", 
        "@locale": "KR"
      }, 
      {
        "@id": "10600062", 
        "@level": "10", 
        "@name": "Magnetic spring", 
        "@tooltipDescription": "A powerful magnetic field closes your body! \\nThe movement speed is reduced by 30%.", 
        "@feature": "CharacterBalance_01", 
        "@locale": "KR"
      }, 
      {
        "@id": "10600062", 
        "@level": "11", 
        "@name": "Magnetic spring", 
        "@tooltipDescription": "A powerful magnetic field closes your body! \\nThe movement speed is reduced by 33%.", 
        "@feature": "CharacterBalance_01", 
        "@locale": "KR"
      }, 
      {
        "@id": "10600062", 
        "@level": "12", 
        "@name": "Magnetic spring", 
        "@tooltipDescription": "Powerful magnetic fields close your body! \\nThe movement speed is reduced by 36%", 
        "@feature": "CharacterBalance_01", 
        "@locale": "KR"
      }, 
      {
        "@id": "10600131", 
        "@level": "1", 
        "@name": "Satellite", 
        "@tooltipDescription": "Small satellites are exploring enemies. \\ N Laser bombardment of targeted enemies", 
        "@feature": "CharacterBalance_01", 
        "@locale": "KR"
      }, 
      {
        "@id": "10600131", 
        "@level": "2", 
        "@name": "Satellite", 
        "@tooltipDescription": "Small satellites are exploring enemies. \\ N Laser bombardment of targeted enemies", 
        "@feature": "CharacterBalance_01", 
        "@locale": "KR"
      }, 
      {
        "@id": "10600131", 
        "@level": "3", 
        "@name": "Satellite", 
        "@tooltipDescription": "Small satellites are exploring enemies. \\ N Laser bombardment of targeted enemies", 
        "@feature": "CharacterBalance_01", 
        "@locale": "KR"
      }, 
      {
        "@id": "10600131", 
        "@level": "4", 
        "@name": "Satellite", 
        "@tooltipDescription": "Small satellites are exploring enemies. \\ N Laser bombardment of targeted enemies", 
        "@feature": "CharacterBalance_01", 
        "@locale": "KR"
      }, 
      {
        "@id": "10600131", 
        "@level": "5", 
        "@name": "Satellite", 
        "@tooltipDescription": "Small satellites are exploring enemies. \\ N Laser bombardment of targeted enemies", 
        "@feature": "CharacterBalance_01", 
        "@locale": "KR"
      }, 
      {
        "@id": "10600131", 
        "@level": "6", 
        "@name": "Satellite", 
        "@tooltipDescription": "Small satellites are exploring enemies. \\ N Laser bombardment of targeted enemies", 
        "@feature": "CharacterBalance_01", 
        "@locale": "KR"
      }, 
      {
        "@id": "10600131", 
        "@level": "7", 
        "@name": "Satellite", 
        "@tooltipDescription": "Small satellites are exploring enemies. \\ N Laser bombardment of targeted enemies", 
        "@feature": "CharacterBalance_01", 
        "@locale": "KR"
      }, 
      {
        "@id": "10600131", 
        "@level": "8", 
        "@name": "Satellite", 
        "@tooltipDescription": "Small satellites are exploring enemies. \\ N Laser bombardment of targeted enemies", 
        "@feature": "CharacterBalance_01", 
        "@locale": "KR"
      }, 
      {
        "@id": "10600131", 
        "@level": "9", 
        "@name": "Satellite", 
        "@tooltipDescription": "Small satellites are exploring enemies. \\ N Laser bombardment of targeted enemies", 
        "@feature": "CharacterBalance_01", 
        "@locale": "KR"
      }, 
      {
        "@id": "10600131", 
        "@level": "10", 
        "@name": "Satellite", 
        "@tooltipDescription": "Small satellites are exploring enemies. \\ N Laser bombardment of targeted enemies", 
        "@feature": "CharacterBalance_01", 
        "@locale": "KR"
      }, 
      {
        "@id": "10600131", 
        "@level": "11", 
        "@name": "Satellite", 
        "@tooltipDescription": "Small satellites are exploring enemies. \\ N Laser bombardment of targeted enemies", 
        "@feature": "CharacterBalance_01", 
        "@locale": "KR"
      }, 
      {
        "@id": "10600131", 
        "@level": "12", 
        "@name": "Satellite", 
        "@tooltipDescription": "Small satellites are exploring enemies. \\ N Laser bombardment of targeted enemies", 
        "@feature": "CharacterBalance_01", 
        "@locale": "KR"
      }
    ]
  }
}