{
  "?xml": {
    "@version": "1.0", 
    "@encoding": "utf-8"
  }, 
  "ms2": {
    "key": [
      {
        "@skillID": "90200011", 
        "@default": "1", 
        "@reserved": "hi|hello|greet|wave", 
        "@locale": "KR"
      }, 
      {
        "@skillID": "90200022", 
        "@default": "1", 
        "@reserved": "respect|bow|salute", 
        "@locale": "KR"
      }, 
      {
        "@skillID": "90200001", 
        "@default": "1", 
        "@reserved": "angry|fume|rage|mad|tantrum", 
        "@locale": "KR"
      }, 
      {
        "@skillID": "90200023", 
        "@default": "1", 
        "@reserved": "surprised|gasp|shocked", 
        "@locale": "KR"
      }, 
      {
        "@skillID": "90200024", 
        "@default": "1", 
        "@reserved": "nope|donotwant|holdon", 
        "@locale": "KR"
      }, 
      {
        "@skillID": "90200003", 
        "@default": "1", 
        "@reserved": "pout|upset", 
        "@locale": "KR"
      }, 
      {
        "@skillID": "90200004", 
        "@default": "1", 
        "@reserved": "sly|sneaky|scheme", 
        "@locale": "KR"
      }, 
      {
        "@skillID": "90200005", 
        "@default": "1", 
        "@reserved": "dejected|sigh|smh", 
        "@locale": "KR"
      }, 
      {
        "@skillID": "90200006", 
        "@default": "1", 
        "@reserved": "yes|excited|happy|thumbsup", 
        "@locale": "KR"
      }, 
      {
        "@skillID": "90200031", 
        "@default": "1", 
        "@reserved": "sob|cry|bawl|sad", 
        "@locale": "KR"
      }, 
      {
        "@skillID": "90200041", 
        "@default": "1", 
        "@reserved": "sit", 
        "@locale": "KR"
      }, 
      {
        "@skillID": "90200042", 
        "@default": "1", 
        "@reserved": "chair|sitchair|sitledge|ledge", 
        "@locale": "KR"
      }, 
      {
        "@skillID": "90200011", 
        "@default": "1", 
        "@reserved": "hi|hello|greet|wave", 
        "@locale": "CN"
      }, 
      {
        "@skillID": "90200022", 
        "@default": "1", 
        "@reserved": "respect|bow|salute", 
        "@locale": "CN"
      }, 
      {
        "@skillID": "90200001", 
        "@default": "1", 
        "@reserved": "angry|fume|rage|mad|tantrum", 
        "@locale": "CN"
      }, 
      {
        "@skillID": "90200023", 
        "@default": "1", 
        "@reserved": "surprised|gasp|shocked", 
        "@locale": "CN"
      }, 
      {
        "@skillID": "90200024", 
        "@default": "1", 
        "@reserved": "nope|donotwant|holdon", 
        "@locale": "CN"
      }, 
      {
        "@skillID": "90200003", 
        "@default": "1", 
        "@reserved": "pout|upset", 
        "@locale": "CN"
      }, 
      {
        "@skillID": "90200004", 
        "@default": "1", 
        "@reserved": "sly|sneaky|scheme", 
        "@locale": "CN"
      }, 
      {
        "@skillID": "90200005", 
        "@default": "1", 
        "@reserved": "dejected|sigh|smh", 
        "@locale": "CN"
      }, 
      {
        "@skillID": "90200006", 
        "@default": "1", 
        "@reserved": "yes|excited|happy|thumbsup", 
        "@locale": "CN"
      }, 
      {
        "@skillID": "90200031", 
        "@default": "1", 
        "@reserved": "sob|cry|bawl|sad", 
        "@locale": "CN"
      }, 
      {
        "@skillID": "90200041", 
        "@default": "1", 
        "@reserved": "sit", 
        "@locale": "CN"
      }, 
      {
        "@skillID": "90200042", 
        "@default": "1", 
        "@reserved": "chair|sitchair|sitledge|ledge", 
        "@locale": "CN"
      }, 
      {
        "@skillID": "90200011", 
        "@default": "1", 
        "@reserved": "hi|hello|greet|wave", 
        "@locale": "NA"
      }, 
      {
        "@skillID": "90200004", 
        "@default": "1", 
        "@reserved": "sly|sneaky|scheme", 
        "@locale": "NA"
      }, 
      {
        "@skillID": "90200024", 
        "@default": "1", 
        "@reserved": "nope|donotwant|holdon", 
        "@locale": "NA"
      }, 
      {
        "@skillID": "90200041", 
        "@default": "1", 
        "@reserved": "sit", 
        "@locale": "NA"
      }, 
      {
        "@skillID": "90200042", 
        "@default": "1", 
        "@reserved": "chair|sitchair|sitledge|ledge", 
        "@locale": "NA"
      }, 
      {
        "@skillID": "90200057", 
        "@default": "1", 
        "@reserved": "fan|fandance", 
        "@locale": "NA"
      }, 
      {
        "@skillID": "90200043", 
        "@default": "1", 
        "@reserved": "aha|epiphany|right", 
        "@locale": "NA"
      }, 
      {
        "@skillID": "90200022", 
        "@default": "1", 
        "@reserved": "respect|bow|salute", 
        "@locale": "NA"
      }, 
      {
        "@skillID": "90200031", 
        "@default": "1", 
        "@reserved": "sob|cry|bawl|sad", 
        "@locale": "NA"
      }, 
      {
        "@skillID": "90200005", 
        "@default": "1", 
        "@reserved": "dejected|sigh|smh", 
        "@locale": "NA"
      }, 
      {
        "@skillID": "90200006", 
        "@default": "1", 
        "@reserved": "yes|excited|happy|thumbsup", 
        "@locale": "NA"
      }, 
      {
        "@skillID": "90200003", 
        "@default": "1", 
        "@reserved": "pout|upset", 
        "@locale": "NA"
      }, 
      {
        "@skillID": "90200092", 
        "@default": "1", 
        "@reserved": "highfive|hifive|hf", 
        "@locale": "NA"
      }, 
      {
        "@skillID": "90200077", 
        "@default": "1", 
        "@reserved": "bigfish|largefish|fish", 
        "@locale": "NA"
      }, 
      {
        "@skillID": "90200073", 
        "@default": "1", 
        "@reserved": "rich|makeitrain", 
        "@locale": "NA"
      }, 
      {
        "@skillID": "90200023", 
        "@default": "1", 
        "@reserved": "surprised|gasp|shocked", 
        "@locale": "NA"
      }, 
      {
        "@skillID": "90200001", 
        "@default": "1", 
        "@reserved": "angry|fume|rage|mad|tantrum", 
        "@locale": "NA"
      }, 
      {
        "@skillID": "90200019", 
        "@default": "1", 
        "@reserved": "Scissors", 
        "@locale": "NA"
      }, 
      {
        "@skillID": "90200020", 
        "@default": "1", 
        "@reserved": "Rock", 
        "@locale": "NA"
      }, 
      {
        "@skillID": "90200021", 
        "@default": "1", 
        "@reserved": "Paper", 
        "@locale": "NA"
      }, 
      {
        "@skillID": "90200011", 
        "@default": "1", 
        "@reserved": "hi|hello|greet|wave", 
        "@locale": "JP"
      }, 
      {
        "@skillID": "90200004", 
        "@default": "1", 
        "@reserved": "sly|sneaky|scheme", 
        "@locale": "JP"
      }, 
      {
        "@skillID": "90200024", 
        "@default": "1", 
        "@reserved": "nope|donotwant|holdon", 
        "@locale": "JP"
      }, 
      {
        "@skillID": "90200041", 
        "@default": "1", 
        "@reserved": "sit", 
        "@locale": "JP"
      }, 
      {
        "@skillID": "90200042", 
        "@default": "1", 
        "@reserved": "chair|sitchair|sitledge|ledge", 
        "@locale": "JP"
      }, 
      {
        "@skillID": "90200057", 
        "@default": "1", 
        "@reserved": "fan|fandance", 
        "@locale": "JP"
      }, 
      {
        "@skillID": "90200043", 
        "@default": "1", 
        "@reserved": "aha|epiphany|right", 
        "@locale": "JP"
      }, 
      {
        "@skillID": "90200022", 
        "@default": "1", 
        "@reserved": "respect|bow|salute", 
        "@locale": "JP"
      }, 
      {
        "@skillID": "90200031", 
        "@default": "1", 
        "@reserved": "sob|cry|bawl|sad", 
        "@locale": "JP"
      }, 
      {
        "@skillID": "90200005", 
        "@default": "1", 
        "@reserved": "dejected|sigh|smh", 
        "@locale": "JP"
      }, 
      {
        "@skillID": "90200006", 
        "@default": "1", 
        "@reserved": "yes|excited|happy|thumbsup", 
        "@locale": "JP"
      }, 
      {
        "@skillID": "90200003", 
        "@default": "1", 
        "@reserved": "pout|upset", 
        "@locale": "JP"
      }, 
      {
        "@skillID": "90200092", 
        "@default": "1", 
        "@reserved": "highfive|hifive|hf", 
        "@locale": "JP"
      }, 
      {
        "@skillID": "90200077", 
        "@default": "1", 
        "@reserved": "bigfish|largefish|fish", 
        "@locale": "JP"
      }, 
      {
        "@skillID": "90200073", 
        "@default": "1", 
        "@reserved": "rich|makeitrain", 
        "@locale": "JP"
      }, 
      {
        "@skillID": "90200023", 
        "@default": "1", 
        "@reserved": "surprised|gasp|shocked", 
        "@locale": "JP"
      }, 
      {
        "@skillID": "90200001", 
        "@default": "1", 
        "@reserved": "angry|fume|rage|mad|tantrum", 
        "@locale": "JP"
      }, 
      {
        "@skillID": "90200019", 
        "@default": "1", 
        "@reserved": "Scissors", 
        "@locale": "JP"
      }, 
      {
        "@skillID": "90200020", 
        "@default": "1", 
        "@reserved": "Rock", 
        "@locale": "JP"
      }, 
      {
        "@skillID": "90200021", 
        "@default": "1", 
        "@reserved": "Paper", 
        "@locale": "JP"
      }, 
      {
        "@skillID": "90200011", 
        "@default": "1", 
        "@reserved": "hi|hello|greet|wave", 
        "@locale": "TH"
      }, 
      {
        "@skillID": "90200004", 
        "@default": "1", 
        "@reserved": "sly|sneaky|scheme", 
        "@locale": "TH"
      }, 
      {
        "@skillID": "90200024", 
        "@default": "1", 
        "@reserved": "nope|donotwant|holdon", 
        "@locale": "TH"
      }, 
      {
        "@skillID": "90200041", 
        "@default": "1", 
        "@reserved": "sit", 
        "@locale": "TH"
      }, 
      {
        "@skillID": "90200042", 
        "@default": "1", 
        "@reserved": "chair|sitchair|sitledge|ledge", 
        "@locale": "TH"
      }, 
      {
        "@skillID": "90200057", 
        "@default": "1", 
        "@reserved": "fan|fandance", 
        "@locale": "TH"
      }, 
      {
        "@skillID": "90200043", 
        "@default": "1", 
        "@reserved": "aha|epiphany|right", 
        "@locale": "TH"
      }, 
      {
        "@skillID": "90200022", 
        "@default": "1", 
        "@reserved": "respect|bow|salute", 
        "@locale": "TH"
      }, 
      {
        "@skillID": "90200031", 
        "@default": "1", 
        "@reserved": "sob|cry|bawl|sad", 
        "@locale": "TH"
      }, 
      {
        "@skillID": "90200005", 
        "@default": "1", 
        "@reserved": "dejected|sigh|smh", 
        "@locale": "TH"
      }, 
      {
        "@skillID": "90200006", 
        "@default": "1", 
        "@reserved": "yes|excited|happy|thumbsup", 
        "@locale": "TH"
      }, 
      {
        "@skillID": "90200003", 
        "@default": "1", 
        "@reserved": "pout|upset", 
        "@locale": "TH"
      }, 
      {
        "@skillID": "90200092", 
        "@default": "1", 
        "@reserved": "highfive|hifive|hf", 
        "@locale": "TH"
      }, 
      {
        "@skillID": "90200077", 
        "@default": "1", 
        "@reserved": "bigfish|largefish|fish", 
        "@locale": "TH"
      }, 
      {
        "@skillID": "90200073", 
        "@default": "1", 
        "@reserved": "rich|makeitrain", 
        "@locale": "TH"
      }, 
      {
        "@skillID": "90200023", 
        "@default": "1", 
        "@reserved": "surprised|gasp|shocked", 
        "@locale": "TH"
      }, 
      {
        "@skillID": "90200001", 
        "@default": "1", 
        "@reserved": "angry|fume|rage|mad|tantrum", 
        "@locale": "TH"
      }, 
      {
        "@skillID": "90200019", 
        "@default": "1", 
        "@reserved": "Scissors", 
        "@locale": "TH"
      }, 
      {
        "@skillID": "90200020", 
        "@default": "1", 
        "@reserved": "Rock", 
        "@locale": "TH"
      }, 
      {
        "@skillID": "90200021", 
        "@default": "1", 
        "@reserved": "Paper", 
        "@locale": "TH"
      }, 
      {
        "@skillID": "90200011", 
        "@default": "1", 
        "@reserved": "hi|hello|greet|wave", 
        "@locale": "TW"
      }, 
      {
        "@skillID": "90200004", 
        "@default": "1", 
        "@reserved": "sly|sneaky|scheme", 
        "@locale": "TW"
      }, 
      {
        "@skillID": "90200024", 
        "@default": "1", 
        "@reserved": "nope|donotwant|holdon", 
        "@locale": "TW"
      }, 
      {
        "@skillID": "90200041", 
        "@default": "1", 
        "@reserved": "sit", 
        "@locale": "TW"
      }, 
      {
        "@skillID": "90200042", 
        "@default": "1", 
        "@reserved": "chair|sitchair|sitledge|ledge", 
        "@locale": "TW"
      }, 
      {
        "@skillID": "90200057", 
        "@default": "1", 
        "@reserved": "fan|fandance", 
        "@locale": "TW"
      }, 
      {
        "@skillID": "90200043", 
        "@default": "1", 
        "@reserved": "aha|epiphany|right", 
        "@locale": "TW"
      }, 
      {
        "@skillID": "90200022", 
        "@default": "1", 
        "@reserved": "respect|bow|salute", 
        "@locale": "TW"
      }, 
      {
        "@skillID": "90200031", 
        "@default": "1", 
        "@reserved": "sob|cry|bawl|sad", 
        "@locale": "TW"
      }, 
      {
        "@skillID": "90200005", 
        "@default": "1", 
        "@reserved": "dejected|sigh|smh", 
        "@locale": "TW"
      }, 
      {
        "@skillID": "90200006", 
        "@default": "1", 
        "@reserved": "yes|excited|happy|thumbsup", 
        "@locale": "TW"
      }, 
      {
        "@skillID": "90200003", 
        "@default": "1", 
        "@reserved": "pout|upset", 
        "@locale": "TW"
      }, 
      {
        "@skillID": "90200092", 
        "@default": "1", 
        "@reserved": "highfive|hifive|hf", 
        "@locale": "TW"
      }, 
      {
        "@skillID": "90200077", 
        "@default": "1", 
        "@reserved": "bigfish|largefish|fish", 
        "@locale": "TW"
      }, 
      {
        "@skillID": "90200073", 
        "@default": "1", 
        "@reserved": "rich|makeitrain", 
        "@locale": "TW"
      }, 
      {
        "@skillID": "90200023", 
        "@default": "1", 
        "@reserved": "surprised|gasp|shocked", 
        "@locale": "TW"
      }, 
      {
        "@skillID": "90200001", 
        "@default": "1", 
        "@reserved": "angry|fume|rage|mad|tantrum", 
        "@locale": "TW"
      }, 
      {
        "@skillID": "90200019", 
        "@default": "1", 
        "@reserved": "Scissors", 
        "@locale": "TW"
      }, 
      {
        "@skillID": "90200020", 
        "@default": "1", 
        "@reserved": "Rock", 
        "@locale": "TW"
      }, 
      {
        "@skillID": "90200021", 
        "@default": "1", 
        "@reserved": "Paper", 
        "@locale": "TW"
      }, 
      {
        "@skillID": "90200027", 
        "@default": "0", 
        "@reserved": "blowkiss|airkiss|bk"
      }, 
      {
        "@skillID": "90200002", 
        "@default": "0", 
        "@reserved": "power|martialshout|chi"
      }, 
      {
        "@skillID": "90200007", 
        "@default": "0", 
        "@reserved": "uhh|dunno|idk"
      }, 
      {
        "@skillID": "90200008", 
        "@default": "0", 
        "@reserved": "pose|tada"
      }, 
      {
        "@skillID": "90200009", 
        "@default": "0", 
        "@reserved": "despair|no|defeated"
      }, 
      {
        "@skillID": "90200017", 
        "@default": "0", 
        "@reserved": "para|parapara|paradance"
      }, 
      {
        "@skillID": "90200030", 
        "@default": "0", 
        "@reserved": "shimmy|shimmy dance"
      }, 
      {
        "@skillID": "90200029", 
        "@default": "0", 
        "@reserved": "tap|swing|tapdance"
      }, 
      {
        "@skillID": "90200010", 
        "@default": "0", 
        "@reserved": "daydream|dreamy|cute"
      }, 
      {
        "@skillID": "90200012", 
        "@default": "0", 
        "@reserved": "lol|mock|grin|tease"
      }, 
      {
        "@skillID": "90200014", 
        "@default": "0", 
        "@reserved": "timeout|knees"
      }, 
      {
        "@skillID": "90200015", 
        "@default": "0", 
        "@reserved": "beg|pushup|punish"
      }, 
      {
        "@skillID": "90200016", 
        "@default": "0", 
        "@reserved": "sleep|tired|nap|rest"
      }, 
      {
        "@skillID": "90200018", 
        "@default": "0", 
        "@reserved": "tantrum|temper|why|nofair"
      }, 
      {
        "@skillID": "90200019", 
        "@default": "0", 
        "@reserved": "Scissors"
      }, 
      {
        "@skillID": "90200020", 
        "@default": "0", 
        "@reserved": "Rock"
      }, 
      {
        "@skillID": "90200021", 
        "@default": "0", 
        "@reserved": "Paper"
      }, 
      {
        "@skillID": "90200025", 
        "@default": "0", 
        "@reserved": "provoke|bringit|come"
      }, 
      {
        "@skillID": "90200026", 
        "@default": "0", 
        "@reserved": "hmph|sulk|sullen"
      }, 
      {
        "@skillID": "90200013", 
        "@default": "0", 
        "@reserved": "dance|crazy|party"
      }, 
      {
        "@skillID": "90200028", 
        "@default": "0", 
        "@reserved": "mwah|kiss|kissy|smooch"
      }, 
      {
        "@skillID": "90200043", 
        "@default": "0", 
        "@reserved": "aha|epiphany|right"
      }, 
      {
        "@skillID": "90200044", 
        "@default": "0", 
        "@reserved": "mm|dilemma|thinking|problem"
      }, 
      {
        "@skillID": "90200045", 
        "@default": "0", 
        "@reserved": "meanie|jerk"
      }, 
      {
        "@skillID": "90200046", 
        "@default": "0", 
        "@reserved": "wave|wavy|wavedance"
      }, 
      {
        "@skillID": "90200047", 
        "@default": "0", 
        "@reserved": "spin|spindance|spinning"
      }, 
      {
        "@skillID": "90200048", 
        "@default": "0", 
        "@reserved": "bunny|bunnydance|bd"
      }, 
      {
        "@skillID": "90200049", 
        "@default": "0", 
        "@reserved": "shuffle|shuffledance"
      }, 
      {
        "@skillID": "90200050", 
        "@default": "0", 
        "@reserved": "point|pointdance|strut"
      }, 
      {
        "@skillID": "90200051", 
        "@default": "0", 
        "@reserved": "wiggle|worm|wormdance"
      }, 
      {
        "@skillID": "90200052", 
        "@default": "0", 
        "@reserved": "song|sing"
      }, 
      {
        "@skillID": "90200053", 
        "@default": "0", 
        "@reserved": "deepbow|kowtow"
      }, 
      {
        "@skillID": "90200054", 
        "@default": "0", 
        "@reserved": "goof|goofy|goofydance"
      }, 
      {
        "@skillID": "90200055", 
        "@default": "0", 
        "@reserved": "row|rowboat|rowboatdance"
      }, 
      {
        "@skillID": "90200056", 
        "@default": "0", 
        "@reserved": "lean|lean dance"
      }, 
      {
        "@skillID": "90200057", 
        "@default": "0", 
        "@reserved": "fan|fandance"
      }, 
      {
        "@skillID": "90200058", 
        "@default": "0", 
        "@reserved": "roll|roll dance"
      }, 
      {
        "@skillID": "90200059", 
        "@default": "0", 
        "@reserved": "GM Mannequin"
      }, 
      {
        "@skillID": "90200060", 
        "@default": "0", 
        "@reserved": "windmill|windmilldance"
      }, 
      {
        "@skillID": "90200061", 
        "@default": "0", 
        "@reserved": "Groove"
      }, 
      {
        "@skillID": "90200062", 
        "@default": "0", 
        "@reserved": "whip|whipdance"
      }, 
      {
        "@skillID": "90200063", 
        "@default": "0", 
        "@reserved": "goldthrone|gthrone"
      }, 
      {
        "@skillID": "90200064", 
        "@default": "0", 
        "@reserved": "silverthrone|sthrone"
      }, 
      {
        "@skillID": "90200065", 
        "@default": "0", 
        "@reserved": "bronzethrone|bthrone"
      }, 
      {
        "@skillID": "90200066", 
        "@default": "0", 
        "@reserved": "pim|ghost|haunted"
      }, 
      {
        "@skillID": "90200067", 
        "@default": "0", 
        "@reserved": "shade|spooky|terror"
      }, 
      {
        "@skillID": "90200068", 
        "@default": "0", 
        "@reserved": "zombie|zombiedance|zd"
      }, 
      {
        "@skillID": "90200069", 
        "@default": "0", 
        "@reserved": "hypnosis|hypnoticdance|hd"
      }, 
      {
        "@skillID": "90200070", 
        "@default": "0", 
        "@reserved": "Gift"
      }, 
      {
        "@skillID": "90200071", 
        "@default": "0", 
        "@reserved": "Snow"
      }, 
      {
        "@skillID": "90200072", 
        "@default": "0", 
        "@reserved": "Phoenix Throne"
      }, 
      {
        "@skillID": "90200073", 
        "@default": "0", 
        "@reserved": "rich|makeitrain"
      }, 
      {
        "@skillID": "90200074", 
        "@default": "0", 
        "@reserved": "bobby|bobkiss"
      }, 
      {
        "@skillID": "90200075", 
        "@default": "0", 
        "@reserved": "ruby|rkiss"
      }, 
      {
        "@skillID": "90200076", 
        "@default": "0", 
        "@reserved": "confess|rose"
      }, 
      {
        "@skillID": "90200077", 
        "@default": "0", 
        "@reserved": "bigfish|largefish|fish"
      }, 
      {
        "@skillID": "90200078", 
        "@default": "0", 
        "@reserved": "goldus|principal"
      }, 
      {
        "@skillID": "90200079", 
        "@default": "0", 
        "@reserved": "miel|studentteacher"
      }, 
      {
        "@skillID": "90200080", 
        "@default": "0", 
        "@reserved": "belma|moralteacher"
      }, 
      {
        "@skillID": "90200081", 
        "@default": "0", 
        "@reserved": "picnic|cherryblossom"
      }, 
      {
        "@skillID": "90200082", 
        "@default": "0", 
        "@reserved": "saltynoodles|sadnoodles"
      }, 
      {
        "@skillID": "90200083", 
        "@default": "0", 
        "@reserved": "noodles|tastynoodles"
      }, 
      {
        "@skillID": "90200084", 
        "@default": "0", 
        "@reserved": "hobbyhorse|bouncyhorse"
      }, 
      {
        "@skillID": "90200085", 
        "@default": "0", 
        "@reserved": "propose|marryme|ring"
      }, 
      {
        "@skillID": "90200086", 
        "@default": "0", 
        "@reserved": "sayyes|getengaged"
      }, 
      {
        "@skillID": "90200087", 
        "@default": "0", 
        "@reserved": "sayno|reject|scorn"
      }, 
      {
        "@skillID": "90200088", 
        "@default": "0", 
        "@reserved": "pinkbean|softpinkbean|pb"
      }, 
      {
        "@skillID": "90200089", 
        "@default": "0", 
        "@reserved": "zakum|zchair"
      }, 
      {
        "@skillID": "90200090", 
        "@default": "0", 
        "@reserved": "birthday|bday|cake"
      }, 
      {
        "@skillID": "90200091", 
        "@default": "0", 
        "@reserved": "Throne of Ambition"
      }, 
      {
        "@skillID": "90200092", 
        "@default": "0", 
        "@reserved": "High Five"
      }, 
      {
        "@skillID": "90200093", 
        "@default": "0", 
        "@reserved": "hsb|hopboogie|hop"
      }, 
      {
        "@skillID": "90200094", 
        "@default": "0", 
        "@reserved": "ray|ray dance"
      }, 
      {
        "@skillID": "90200095", 
        "@default": "0", 
        "@reserved": "ricecake|ricecakepound|pound"
      }, 
      {
        "@skillID": "90200096", 
        "@default": "0", 
        "@reserved": "bdaycake|specialcake|scake"
      }, 
      {
        "@skillID": "90200097", 
        "@default": "0", 
        "@reserved": "noblethrone|nthrone"
      }, 
      {
        "@skillID": "90200098", 
        "@default": "0", 
        "@reserved": "cheerup"
      }, 
      {
        "@skillID": "90200099", 
        "@default": "0", 
        "@reserved": "chococake|sweetbirthday"
      }, 
      {
        "@skillID": "90200100", 
        "@default": "0", 
        "@reserved": "orangemushroom|bounceshroom"
      }, 
      {
        "@skillID": "90200101", 
        "@default": "0", 
        "@reserved": "hipshimmy|hshimmy|hip"
      }, 
      {
        "@skillID": "90200102", 
        "@default": "0", 
        "@reserved": "internetstar|bj|broadcast"
      }, 
      {
        "@skillID": "90200103", 
        "@default": "0", 
        "@reserved": "fireworks|shootfireworks"
      }, 
      {
        "@skillID": "90200104", 
        "@default": "0", 
        "@reserved": "Spring flower kite | Spring flower kite"
      }, 
      {
        "@skillID": "90200105", 
        "@default": "0", 
        "@reserved": "On the vibration"
      }, 
      {
        "@skillID": "90200106", 
        "@default": "0", 
        "@reserved": "cbt|cbtcelebration|yaycbt"
      }, 
      {
        "@skillID": "90200107", 
        "@default": "0", 
        "@reserved": "Ushaisha | Together with power Ushusha"
      }, 
      {
        "@skillID": "90200108", 
        "@default": "0", 
        "@reserved": "Mush King Kiln | Mush King's Golden Kiln"
      }, 
      {
        "@skillID": "90200109", 
        "@default": "0", 
        "@reserved": "Gamakundance | Mush King Gama Kung Dance"
      }, 
      {
        "@skillID": "90200110", 
        "@default": "0", 
        "@reserved": "Camping | Camping now"
      }, 
      {
        "@skillID": "90200111", 
        "@default": "0", 
        "@reserved": "Ice cup | Aloha | Aloha from ice cup"
      }, 
      {
        "@skillID": "90200112", 
        "@default": "0", 
        "@reserved": "Mushroom Mushroom Dance | Mushroom Mushroom and Dance Dance"
      }, 
      {
        "@skillID": "90200113", 
        "@default": "0", 
        "@reserved": "Watermelon Cheese | Watermelon Cheese Chair | Cool Watermelon Cheese"
      }, 
      {
        "@skillID": "90200114", 
        "@default": "0", 
        "@reserved": "Congratulations on Panda | Congratulations on the 1st anniversary of Panda", 
        "@feature": "WorldChampionMushroom"
      }, 
      {
        "@skillID": "90200115", 
        "@default": "0", 
        "@reserved": "Shugishi group | Shugishi dance", 
        "@feature": "WorldChampionMushroom"
      }, 
      {
        "@skillID": "90200116", 
        "@default": "0", 
        "@reserved": "You can not |"
      }, 
      {
        "@skillID": "90200119", 
        "@default": "0", 
        "@reserved": "puppetshow"
      }, 
      {
        "@skillID": "90200120", 
        "@default": "0", 
        "@reserved": "Maple leaves |"
      }, 
      {
        "@skillID": "90200121", 
        "@default": "0", 
        "@reserved": "Shark Fishing | Shark Fishing Success"
      }, 
      {
        "@skillID": "90200122", 
        "@default": "0", 
        "@reserved": "Dream of pig |"
      }, 
      {
        "@skillID": "90200123", 
        "@default": "0", 
        "@reserved": "Half bath"
      }, 
      {
        "@skillID": "90200124", 
        "@default": "0", 
        "@reserved": "Like Mason |"
      }, 
      {
        "@skillID": "90200125", 
        "@default": "0", 
        "@reserved": "Step Dance | Step Shuffle Dance"
      }, 
      {
        "@skillID": "90200126", 
        "@default": "0", 
        "@reserved": "Flying Dancing", 
        "@feature": "Event"
      }, 
      {
        "@skillID": "90200127", 
        "@default": "0", 
        "@reserved": "Please play with me.", 
        "@feature": "Event"
      }, 
      {
        "@skillID": "90200128", 
        "@default": "0", 
        "@reserved": "Thermal"
      }, 
      {
        "@skillID": "90200129", 
        "@default": "0", 
        "@reserved": "Home |"
      }, 
      {
        "@skillID": "90200130", 
        "@default": "0", 
        "@reserved": "Insea | Insean Dance | Insea Dance"
      }, 
      {
        "@skillID": "90200131", 
        "@default": "0", 
        "@reserved": "Self-shot | Self-shot | Life shot"
      }, 
      {
        "@skillID": "90200132", 
        "@default": "0", 
        "@reserved": "Training | Personal Training |"
      }, 
      {
        "@skillID": "90200133", 
        "@default": "0", 
        "@reserved": "Hero appearance"
      }, 
      {
        "@skillID": "90200134", 
        "@default": "0", 
        "@reserved": "This time"
      }, 
      {
        "@skillID": "90200135", 
        "@default": "0", 
        "@reserved": "Appearance of this body"
      }, 
      {
        "@skillID": "90200137", 
        "@default": "0", 
        "@reserved": "Cherry trees | Under the cherry trees"
      }, 
      {
        "@skillID": "90220001", 
        "@default": "0", 
        "@reserved": ""
      }, 
      {
        "@skillID": "90220002", 
        "@default": "0", 
        "@reserved": ""
      }, 
      {
        "@skillID": "90220003", 
        "@default": "0", 
        "@reserved": ""
      }, 
      {
        "@skillID": "90220004", 
        "@default": "0", 
        "@reserved": ""
      }, 
      {
        "@skillID": "90220005", 
        "@default": "0", 
        "@reserved": ""
      }, 
      {
        "@skillID": "90220006", 
        "@default": "0", 
        "@reserved": ""
      }, 
      {
        "@skillID": "90220007", 
        "@default": "0", 
        "@reserved": ""
      }, 
      {
        "@skillID": "90220008", 
        "@default": "0", 
        "@reserved": ""
      }, 
      {
        "@skillID": "90220009", 
        "@default": "0", 
        "@reserved": ""
      }, 
      {
        "@skillID": "90220010", 
        "@default": "0", 
        "@reserved": "Coffee | hot hot"
      }, 
      {
        "@skillID": "90220011", 
        "@default": "0", 
        "@reserved": "Doki and dancing | Dokidance"
      }, 
      {
        "@skillID": "90220012", 
        "@default": "0", 
        "@reserved": ""
      }, 
      {
        "@skillID": "90220013", 
        "@default": "0", 
        "@reserved": ""
      }, 
      {
        "@skillID": "90220014", 
        "@default": "0", 
        "@reserved": ""
      }, 
      {
        "@skillID": "90220015", 
        "@default": "0", 
        "@reserved": ""
      }, 
      {
        "@skillID": "90220016", 
        "@default": "0", 
        "@reserved": ""
      }, 
      {
        "@skillID": "90220017", 
        "@default": "0", 
        "@reserved": ""
      }, 
      {
        "@skillID": "90220018", 
        "@default": "0", 
        "@reserved": ""
      }, 
      {
        "@skillID": "90220019", 
        "@default": "0", 
        "@reserved": ""
      }, 
      {
        "@skillID": "90220020", 
        "@default": "0", 
        "@reserved": ""
      }, 
      {
        "@skillID": "90220021", 
        "@default": "0", 
        "@reserved": ""
      }
    ]
  }
}