{
  "?xml": {
    "@version": "1.0", 
    "@encoding": "utf-8"
  }, 
  "ms2": {
    "Message": [
      {
        "@MaidID": "11000512", 
        "@npc": "모모", 
        "@SelectItem": "Like this?", 
        "@CraftRequest": "Leave it to me!", 
        "@CraftCancel": "But I've already put so much effort into this!", 
        "@RecieveItem": "I'm done! Do you... do you like it? I hope it meets your expectations!", 
        "@RecieveJackpot": "I'm really proud of this one!", 
        "@NotEnoughIgd": "I'd love to help, but you don't have all of the materials. You can buy gems from craft material merchants in major towns. You can get $item:40100023$ from dismantling Lv. 20 and above equipment items. Some materials can only be obtained from hunting monsters.", 
        "@Expired": "Um, <font color=\"#ffd200\">$OwnerName$</font>...? This might not be the best time, but I just got a call from Helping Hands. My contract with you is up... "
      }, 
      {
        "@MaidID": "11000767", 
        "@npc": "테리", 
        "@SelectItem": "Piece of cake!", 
        "@CraftRequest": "Gotcha, just give me a minute.", 
        "@CraftCancel": "Aw, but I was almost done! ", 
        "@RecieveItem": "Hey, look at that.", 
        "@RecieveJackpot": "Well, not too bad, heh.", 
        "@NotEnoughIgd": "I don't think you have all the materials. Craft material merchants sell most materials, but some can only be obtained by punching monsters.", 
        "@Expired": "Aw, man, I'd love to, but my contract expired. Gotta set some boundaries or I'll go broke, ya know?"
      }, 
      {
        "@MaidID": "11000768", 
        "@npc": "어흥이", 
        "@SelectItem": "You're determined you want this, aren't you?", 
        "@CraftRequest": "Do I have to? Fine.", 
        "@CraftCancel": "What? I could've been napping...", 
        "@RecieveItem": "Just take it.", 
        "@RecieveJackpot": "Whoa, even surprised myself with this.", 
        "@NotEnoughIgd": "Aw, too bad. I can't make that without the materials. You'll have to go all the way to a supply merchant in any major town to buy herbs or hunt some monsters. Some items can only be obtained from monsters. Sounds like you'll be out for a while. What a shame...", 
        "@Expired": "Our contract expired, so I'm just going to take a nap, okay?"
      }, 
      {
        "@MaidID": "11000769", 
        "@npc": "마누", 
        "@SelectItem": "Good, good. Whatever you like.", 
        "@CraftRequest": "It may take a few moments.", 
        "@CraftCancel": "Pity. It was turning out quite nicely.", 
        "@RecieveItem": "All done.  How do you like it?", 
        "@RecieveJackpot": "Must be my lucky day.", 
        "@NotEnoughIgd": "I need the right materials. You can obtain $item:40100001$ from supply merchants in major towns and $item:40100023$ from dismantling level 20 and higher equipment. Some materials can only be obtained by hunting monsters.", 
        "@Expired": "Ah, if we could take a moment to talk about my contract... I believe it's expired."
      }, 
      {
        "@MaidID": "11000770", 
        "@npc": "리나", 
        "@SelectItem": "That what you want?", 
        "@CraftRequest": "I'll be done in a jiffy.", 
        "@CraftCancel": "Oh, didja change your mind?", 
        "@RecieveItem": "All done!", 
        "@RecieveJackpot": "I had extra materials, so I thought, why the heck not.", 
        "@NotEnoughIgd": "I'm fresh outta ingredients. You can buy more from craft material merchants in major towns. Some of the good stuff can only be got by hunting monsters.", 
        "@Expired": "Looks like my contract expired, $OwnerName$. Didn't I warn ya this would happen a coupla days ago? Should've done something then, if ya ask me."
      }, 
      {
        "@MaidID": "11000771", 
        "@npc": "모밍", 
        "@SelectItem": "This, right?", 
        "@CraftRequest": "No sweat.", 
        "@CraftCancel": "Are you intentionally giving me a hard time?", 
        "@RecieveItem": "It's done.", 
        "@RecieveJackpot": "Oops, I made more than I intended.", 
        "@NotEnoughIgd": "That's not enough. You can buy most ingredients from craft material merchants in major towns, but some items can only be found by hunting monsters.", 
        "@Expired": "$OwnerName$... You let my contract expire. I really need this job! "
      }, 
      {
        "@MaidID": "11000772", 
        "@npc": "네네 0호기", 
        "@SelectItem": "Recipe found.", 
        "@CraftRequest": "Switching to crafting mode.", 
        "@CraftCancel": "Switching to recycling mode.", 
        "@RecieveItem": "Command executed.", 
        "@RecieveJackpot": "System glitch. Command executed in excess. Apologies.", 
        "@NotEnoughIgd": "Insufficient resources. Switching to information mode. Most cooking ingredients can be purchased from craft material merchants in major towns. Some cooking ingredients can only be obtained by hunting monsters.", 
        "@Expired": "Contract expired. Switching to hibernation mode."
      }, 
      {
        "@MaidID": "11000773", 
        "@npc": "쉐도우 닥터", 
        "@SelectItem": "Too easy. Tsk.", 
        "@CraftRequest": "It's going to take a while. Wait right there.", 
        "@CraftCancel": "Fickle, aren't we? Tsk.", 
        "@RecieveItem": "If you need more, you know where to find me.", 
        "@RecieveJackpot": "Sometimes, I even impress myself.", 
        "@NotEnoughIgd": "Materials, please? Tsk. Herbs can be purchased from Supply Merchants in major towns or by hunting monsters. Come to think of it, certain herbs can only be found on monsters.", 
        "@Expired": "You made a critical mistake, allowing my contract to expire. Now I no longer have reason to listen to you."
      }, 
      {
        "@MaidID": "11000774", 
        "@npc": "미노", 
        "@SelectItem": "I'm surging with inspiration!", 
        "@CraftRequest": "Mindfully, now. With intent.", 
        "@CraftCancel": "I understand. Everything must be weighed. Sometimes, the cost is too high.", 
        "@RecieveItem": "It was worth the wait, wasn't it?", 
        "@RecieveJackpot": "My muse sang to me for this one.", 
        "@NotEnoughIgd": "I create, but not from scratch. You can obtain $item:40100001$ from Supply Merchants in major towns, $item:40100023$ by dismantling Lv. 20 and above equipment, and the rest by hunting monsters.", 
        "@Expired": "My contract expired. You'd think it'd freeing to not have any constraints, but beautiful art can be made within the most rigid of circumstances. It forces your creativity to break through! Please renew my contract."
      }, 
      {
        "@MaidID": "11000777", 
        "@npc": "코델리아", 
        "@SelectItem": "You sure are specific...", 
        "@CraftRequest": "I'll see if I can find one.", 
        "@CraftCancel": "You changed your mind?", 
        "@RecieveItem": "It was kind of a hassle.", 
        "@RecieveJackpot": "Hm? I did you one better.", 
        "@NotEnoughIgd": "Do your job! Get $item:40100001$ from Supply Merchants in major town, $item:40100023$ from dismantling Lv. 20 or above equipment items, and the rest by hunting monsters.", 
        "@Expired": "I don't feel like it. Hey, if you give me some of those pretty blue things, I might change my mind."
      }, 
      {
        "@MaidID": "11000778", 
        "@npc": "민트", 
        "@SelectItem": "You want me to make you that?", 
        "@CraftRequest": "Just leave it to me!", 
        "@CraftCancel": "Aww, I was almost done...", 
        "@RecieveItem": "Isn't it great? It is, becuase I made it!", 
        "@RecieveJackpot": "$OwnerName$! $OwnerName$! Did you see what I made?", 
        "@NotEnoughIgd": "You don't have enough materials.  You'll have to go to a supply merchant in any major town to buy herbs or hunt some monsters. Some items can only be obtained from monsters.", 
        "@Expired": "I just can't, not after my contract expires. Not because I don't want to... Those are just the rules!"
      }, 
      {
        "@MaidID": "11000779", 
        "@npc": "제이시", 
        "@SelectItem": "Easy enough.", 
        "@CraftRequest": "Please wait a moment.", 
        "@CraftCancel": "Hm... If you insist...", 
        "@RecieveItem": "Does it meet expectations?", 
        "@RecieveJackpot": "I had extra materials, so I made more.", 
        "@NotEnoughIgd": "You need more ingredients. Remember, most items can be purchased from craft material merchants in major towns. Select ingredients can only be found by hunting monsters.", 
        "@Expired": "My contract has expired, and I live and breath by contracts. I can't work until you sign a new one."
      }, 
      {
        "@MaidID": "11000780", 
        "@npc": "혁이", 
        "@SelectItem": "Oh, that one? You got it!", 
        "@CraftRequest": "Okay. Just wait a bit. You trust me, right?", 
        "@CraftCancel": "Did you change your mind already? Haha! You're hopeless, you know that?", 
        "@RecieveItem": "Hehe. That was nothing.", 
        "@RecieveJackpot": "Huh? Look at this. I had a good feeling this time. Hehe.", 
        "@NotEnoughIgd": "Hey, you need the ingredients. You can purchase most cooking ingredients from the craft material merchant in major towns, but some you can only get from hunting monsters.", 
        "@Expired": "Wait, my alarm went off. I don't have a shoot today... What is it? Ah... $OwnerName$... It says my contract expired. "
      }, 
      {
        "@MaidID": "11000785", 
        "@npc": "머뭇", 
        "@SelectItem": "That's not hard, but...", 
        "@CraftRequest": "Do I... have a choice?", 
        "@CraftCancel": "I was actually trying, too. Oh, well.", 
        "@RecieveItem": "Is this what you requested?", 
        "@RecieveJackpot": "I think I made this one extra good. Or, did I? ", 
        "@NotEnoughIgd": "How am I supposed to do that when you don't have all the materials? You can get $item:40100001$ from the Supply Merchant in major towns, $item:40100023$ by dismantling Lv. 20 or higher equipment, and the rest by hunting monsters... Okay?", 
        "@Expired": "How should I put this... My contract expired. I won't work if you don't pay me. I'm not a volunteer! Whew, I said it... "
      }, 
      {
        "@MaidID": "11000786", 
        "@npc": "에카", 
        "@SelectItem": "You need that?", 
        "@CraftRequest": "Piece of cake.", 
        "@CraftCancel": "I was practically done...", 
        "@RecieveItem": "Here. Cherish it.", 
        "@RecieveJackpot": "This is great, even for me.", 
        "@NotEnoughIgd": "I need more materials. You can buy gems from craft material merchants in major towns. You can get $item:40100023$ from dismantling Lv. 20 and above equipment items. Some materials can only be obtained from hunting monsters.", 
        "@Expired": "My contract expired. You're not really trying to make me work without pay, are you?"
      }, 
      {
        "@MaidID": "11000787", 
        "@npc": "케이", 
        "@SelectItem": "Just say the word!", 
        "@CraftRequest": "Just give me some time. I got this.", 
        "@CraftCancel": "What? You serious?", 
        "@RecieveItem": "Here's what you ordered.", 
        "@RecieveJackpot": "I wasn't trying to make this much. But, you know me. Bursting with talent. Haha.", 
        "@NotEnoughIgd": "I'm all out of ingredients. You can buy most ingredients from craft material merchants in major towns, but some items can only be found by hunting monsters.", 
        "@Expired": "I could give you a list of two dozen reason why asking someone to labor without pay is wrong... Or you could just renew my contract."
      }, 
      {
        "@MaidID": "11000788", 
        "@npc": "해리", 
        "@SelectItem": "Oh, that one?", 
        "@CraftRequest": "All right! Time to show what I can do!", 
        "@CraftCancel": "Shall I just toss this, then?", 
        "@RecieveItem": "How is it? You like it? Haha.", 
        "@RecieveJackpot": "There I was, minding my own business, when BAM, it turned out like this. Amazing, right?", 
        "@NotEnoughIgd": "I just ran out of ingredients. You can buy most ingredients from craft material merchants in major towns, but some items can only be found by hunting monsters.", 
        "@Expired": "Oh no! My contract expired. How can you even eat right now?!"
      }, 
      {
        "@MaidID": "11000789", 
        "@npc": "아리타", 
        "@SelectItem": "That'll be easy.", 
        "@CraftRequest": "Fine, I'll give it a try.", 
        "@CraftCancel": "Hmph, typical human.", 
        "@RecieveItem": "I hope you cherish it.", 
        "@RecieveJackpot": "Does it... Does it look better than usual to you, too?", 
        "@NotEnoughIgd": "Not enough materials... You can buy gems from craft material merchants in major towns. You can get $item:40100023$ from dismantling Lv. 20 and above equipment items. Some materials can only be obtained from hunting monsters.", 
        "@Expired": "Huh? Wait. <font color=\"#ffd200\">$OwnerName$</font>, my contract expired..."
      }, 
      {
        "@MaidID": "11000790", 
        "@npc": "웅크린 엉덩이", 
        "@SelectItem": "That? Guess I could make it. Better than getting kicked out...", 
        "@CraftRequest": "You're really askin' an old man like me to work? You're heartless.", 
        "@CraftCancel": "Can you make up your gosh dang mind?!", 
        "@RecieveItem": "Take it or toss it. I don't need it.", 
        "@RecieveJackpot": "Huh? I wasn't trying to make this much...", 
        "@NotEnoughIgd": "Shouldn't you give me the materials before making the request? Herbs can be got from Supply Merchants in major towns or by hunting monsters. Some herbs can only be found on monsters.", 
        "@Expired": "Hey, our contract expired. You're still gonna feed me, right?"
      }, 
      {
        "@MaidID": "11000791", 
        "@npc": "솔베이", 
        "@SelectItem": "Are you talking about this?", 
        "@CraftRequest": "I'll do it! But I'll need some time.", 
        "@CraftCancel": "Do I have to throw this away then?", 
        "@RecieveItem": "It's complete!", 
        "@RecieveJackpot": "It's hard to believe I made this.", 
        "@NotEnoughIgd": "I can't since I don't have enough materials. You can get $item:40100001$ from the Supply Merchant in major towns, $item:40100023$ by dismantling Lv. 20 or higher equipment, and the rest by hunting monsters.", 
        "@Expired": "That may be difficult. You see, my contract has expired..."
      }, 
      {
        "@MaidID": "11000792", 
        "@npc": "호르헤", 
        "@SelectItem": "Hm, good idea.", 
        "@CraftRequest": "Okay! Just give me some time.", 
        "@CraftCancel": "Cancel? Now? What a waste, but what choice do I have?", 
        "@RecieveItem": "This is what you requested, right?", 
        "@RecieveJackpot": "I think I made too much...", 
        "@NotEnoughIgd": "I want to, but I can't without materials. Herbs can be purchased from Supply Merchants in major towns or by hunting monsters. Actually, certain herbs can only be found on monsters.", 
        "@Expired": "Sorry. Nope. I can't. My contract expired."
      }, 
      {
        "@MaidID": "11000793", 
        "@npc": "김여사", 
        "@SelectItem": "This one?", 
        "@CraftRequest": "I could do that.", 
        "@CraftCancel": "Decide for sure from now on.", 
        "@RecieveItem": "How's this?", 
        "@RecieveJackpot": "Good news! The result was extraordinary.", 
        "@NotEnoughIgd": "If you want it, provide the materials. You can buy gems from craft material merchants in major towns. You can get $item:40100023$ from dismantling Lv. 20 and above equipment items. Some materials can only be obtained from hunting monsters.", 
        "@Expired": "My contract has expired. Didn't anyone tell you? There's no such thing as a free lunch."
      }, 
      {
        "@MaidID": "11000794", 
        "@npc": "요요", 
        "@SelectItem": "Do you want that?", 
        "@CraftRequest": "Got it! I'll try making it without using magic!", 
        "@CraftCancel": "Seriously...?", 
        "@RecieveItem": "All done!", 
        "@RecieveJackpot": "Huh? This looks really good.", 
        "@NotEnoughIgd": "I need materials... You can buy gems from craft material merchants in major towns. You can get $item:40100023$ from dismantling Lv. 20 and above equipment items. Some materials can only be obtained from hunting monsters.", 
        "@Expired": "I can't! My contract's expired! I promised not to work without a contract! "
      }, 
      {
        "@MaidID": "11000544", 
        "@npc": "팀", 
        "@SelectItem": "Would you like me to make this for you?", 
        "@CraftRequest": "Rest assured. It shall be done.", 
        "@CraftCancel": "What a shame.", 
        "@RecieveItem": "As you requested.", 
        "@RecieveJackpot": "It's not too bad, if I do say so myself.", 
        "@NotEnoughIgd": "Apologies, but I cannot craft without adequate materials. Production material merchants in major towns sell gems, and $item:40100023$ can be obtained by dismantling Lv. 20 and above equipment items. Some materials can only be obtained through hunting monsters.", 
        "@Expired": "Apologies. Company policy prohibits me from working under an expired contract."
      }, 
      {
        "@MaidID": "11000764", 
        "@npc": "바닐라", 
        "@SelectItem": "That's what you want, hm?", 
        "@CraftRequest": "All right. No peeking!", 
        "@CraftCancel": "What would you like me to do with the one I was making?", 
        "@RecieveItem": "Not bad, huh?", 
        "@RecieveJackpot": "Wow, I did such an amazing job, I kind of want to keep it...", 
        "@NotEnoughIgd": "I can't do much without the right materials. Craft material merchants in major towns sell gems, and $item:40100023$ can be obtained by dismantling Lv. 20 and above equipment items. Some materials can only be obtained through hunting monsters.", 
        "@Expired": "No pay, no service. Simple as that, hon."
      }, 
      {
        "@MaidID": "11000758", 
        "@npc": "레베카", 
        "@SelectItem": "Is that what you'd like me to cook?", 
        "@CraftRequest": "I'll start work on that right away.", 
        "@CraftCancel": "Oh. Okay.", 
        "@RecieveItem": "Here you go. All done.", 
        "@RecieveJackpot": "Oh, this is even better than usual.", 
        "@NotEnoughIgd": "You don't have all the ingredients. Most cooking ingredients can be purchased from craft material merchants in major towns, but some can only be found by hunting monsters.", 
        "@Expired": "$OwnerName$... My contract has expired. I... Oh, never mind."
      }, 
      {
        "@MaidID": "11000759", 
        "@npc": "미카엘", 
        "@SelectItem": "Is that it?", 
        "@CraftRequest": "You can go about your business while I take care of this for you.", 
        "@CraftCancel": "Very well. I'll just throw this away, then.", 
        "@RecieveItem": "Here's the item you requested.", 
        "@RecieveJackpot": "It was not my intention, but I may have made a bit too much...", 
        "@NotEnoughIgd": "Are you asking me to gather materials for you? That is not part of my contract. You can buy herbs from the supply merchant in major towns or gather them yourself by hunting monsters. Some materials can only be obtained by hunting, too.", 
        "@Expired": "My contract has expired. I am no longer in your employ."
      }
    ]
  }
}