{
  "?xml": {
    "@version": "1.0", 
    "@encoding": "utf-8"
  }, 
  "ms2": {
    "key": [
      {
        "@id": "80000001", 
        "@name": "Pocket Realm"
      }, 
      {
        "@id": "80000002", 
        "@name": "Pocket Realm"
      }, 
      {
        "@id": "80000003", 
        "@name": "Pocket Realm"
      }, 
      {
        "@id": "80000004", 
        "@name": "Pocket Realm"
      }, 
      {
        "@id": "80000005", 
        "@name": "Pocket Realm"
      }, 
      {
        "@id": "80000006", 
        "@name": "Pocket Realm"
      }, 
      {
        "@id": "80000007", 
        "@name": "Pocket Realm"
      }, 
      {
        "@id": "80000008", 
        "@name": "Pocket Realm"
      }, 
      {
        "@id": "80000009", 
        "@name": "Pocket Realm"
      }, 
      {
        "@id": "80000010", 
        "@name": "Pocket Realm"
      }, 
      {
        "@id": "80000011", 
        "@name": "Pocket Realm"
      }, 
      {
        "@id": "80000012", 
        "@name": "Pocket Vortex"
      }, 
      {
        "@id": "80000013", 
        "@name": "Pocket Vortex"
      }, 
      {
        "@id": "03000002", 
        "@name": "Twisted Pocket Realm"
      }, 
      {
        "@id": "03000013", 
        "@name": "Twisted Pocket Realm"
      }, 
      {
        "@id": "03000015", 
        "@name": "Twisted Pocket Realm"
      }, 
      {
        "@id": "03000017", 
        "@name": "Twisted Pocket Realm"
      }, 
      {
        "@id": "03000021", 
        "@name": "Twisted Pocket Realm"
      }, 
      {
        "@id": "03000036", 
        "@name": "Twisted Pocket Realm"
      }, 
      {
        "@id": "03000038", 
        "@name": "Twisted Pocket Realm"
      }, 
      {
        "@id": "03000039", 
        "@name": "Twisted Pocket Realm"
      }, 
      {
        "@id": "03000045", 
        "@name": "Twisted Pocket Realm"
      }, 
      {
        "@id": "03000046", 
        "@name": "Twisted Pocket Realm"
      }, 
      {
        "@id": "03000054", 
        "@name": "Twisted Pocket Realm"
      }, 
      {
        "@id": "03000056", 
        "@name": "Twisted Pocket Realm"
      }, 
      {
        "@id": "03000058", 
        "@name": "Twisted Pocket Realm"
      }, 
      {
        "@id": "03000062", 
        "@name": "Twisted Pocket Realm"
      }, 
      {
        "@id": "03000076", 
        "@name": "Twisted Pocket Realm"
      }, 
      {
        "@id": "03000083", 
        "@name": "Twisted Pocket Realm"
      }, 
      {
        "@id": "03000084", 
        "@name": "Twisted Pocket Realm"
      }, 
      {
        "@id": "03000085", 
        "@name": "Twisted Pocket Realm"
      }, 
      {
        "@id": "03000086", 
        "@name": "Twisted Pocket Realm"
      }, 
      {
        "@id": "03000087", 
        "@name": "Twisted Pocket Realm"
      }, 
      {
        "@id": "03000088", 
        "@name": "Twisted Pocket Realm"
      }, 
      {
        "@id": "03000091", 
        "@name": "Twisted Pocket Realm"
      }, 
      {
        "@id": "03000104", 
        "@name": "Twisted Pocket Realm"
      }, 
      {
        "@id": "03000110", 
        "@name": "Twisted Pocket Realm"
      }, 
      {
        "@id": "03000111", 
        "@name": "Twisted Pocket Realm"
      }, 
      {
        "@id": "03000114", 
        "@name": "Twisted Pocket Realm"
      }, 
      {
        "@id": "03000137", 
        "@name": "Twisted Pocket Realm"
      }, 
      {
        "@id": "03000147", 
        "@name": "Twisted Pocket Realm"
      }, 
      {
        "@id": "03000203", 
        "@name": "Twisted Pocket Realm"
      }
    ]
  }
}