{
  "?xml": {
    "@version": "1.0", 
    "@encoding": "utf-8"
  }, 
  "ms2": {
    "key": [
      {
        "@id": "60000001", 
        "@name": "Pengy"
      }, 
      {
        "@id": "60000002", 
        "@name": "Pinky"
      }, 
      {
        "@id": "60000003", 
        "@name": "Dengy"
      }, 
      {
        "@id": "60000004", 
        "@name": "Rupert"
      }, 
      {
        "@id": "60000005", 
        "@name": "Nigel"
      }, 
      {
        "@id": "60000006", 
        "@name": "Cedric"
      }, 
      {
        "@id": "60000007", 
        "@name": "Draco"
      }, 
      {
        "@id": "60000008", 
        "@name": "Graco"
      }, 
      {
        "@id": "60000009", 
        "@name": "Braco"
      }, 
      {
        "@id": "60000010", 
        "@name": "Cheez"
      }, 
      {
        "@id": "60000011", 
        "@name": "Millie"
      }, 
      {
        "@id": "60000012", 
        "@name": "Sasha"
      }, 
      {
        "@id": "60000013", 
        "@name": "Little Griffin"
      }, 
      {
        "@id": "60000014", 
        "@name": "Little Griffina"
      }, 
      {
        "@id": "60000015", 
        "@name": "Little Horus"
      }, 
      {
        "@id": "60000016", 
        "@name": "Strong Doby"
      }, 
      {
        "@id": "60000017", 
        "@name": "Agile Doby"
      }, 
      {
        "@id": "60000018", 
        "@name": "Clever Doby"
      }, 
      {
        "@id": "60000019", 
        "@name": "Vivi"
      }, 
      {
        "@id": "60000020", 
        "@name": "Little Lernos"
      }, 
      {
        "@id": "60000021", 
        "@name": "Little Pekanos"
      }, 
      {
        "@id": "60000022", 
        "@name": "Little Kalcinos"
      }, 
      {
        "@id": "60000023", 
        "@name": "Milo"
      }, 
      {
        "@id": "60000024", 
        "@name": "Tallow"
      }, 
      {
        "@id": "60000025", 
        "@name": "Carrow"
      }, 
      {
        "@id": "60000026", 
        "@name": "Grumble"
      }, 
      {
        "@id": "60000027", 
        "@name": "Grizzle"
      }, 
      {
        "@id": "60000028", 
        "@name": "Growly"
      }, 
      {
        "@id": "60000029", 
        "@name": "Koko"
      }, 
      {
        "@id": "60000030", 
        "@name": "Ari"
      }, 
      {
        "@id": "60000031", 
        "@name": "Pipi"
      }, 
      {
        "@id": "60000032", 
        "@name": "Strong Piggy"
      }, 
      {
        "@id": "60000033", 
        "@name": "Agile Piggy"
      }, 
      {
        "@id": "60000034", 
        "@name": "Clever Piggy"
      }, 
      {
        "@id": "60000035", 
        "@name": "Strong Vivi"
      }, 
      {
        "@id": "60000036", 
        "@name": "Agile Vivi"
      }, 
      {
        "@id": "60000037", 
        "@name": "Clever Vivi"
      }, 
      {
        "@id": "60000041", 
        "@name": "Sullen Mini Bean"
      }, 
      {
        "@id": "60000042", 
        "@name": "Halloween Carriage"
      }, 
      {
        "@id": "60000043", 
        "@name": "Fluffy Ram"
      }, 
      {
        "@id": "60000044", 
        "@name": "Milky Pharaoh Cat"
      }, 
      {
        "@id": "60000045", 
        "@name": "Pharaoh Cat"
      }, 
      {
        "@id": "60000046", 
        "@name": "Red-Nosed Reindeer"
      }, 
      {
        "@id": "60000047", 
        "@name": "Proud Sphinx Cat"
      }, 
      {
        "@id": "60000048", 
        "@name": "Chow Chow"
      }, 
      {
        "@id": "60000049", 
        "@name": "Rainbow Slime"
      }, 
      {
        "@id": "60000050", 
        "@name": "Merky"
      }, 
      {
        "@id": "60000051", 
        "@name": "Lil Gobbler"
      }, 
      {
        "@id": "60000052", 
        "@name": "Little Pumky"
      }, 
      {
        "@id": "60000054", 
        "@name": "Bouncy Kangaroo"
      }, 
      {
        "@id": "60000055", 
        "@name": "Flower Fairy"
      }, 
      {
        "@id": "61000002", 
        "@name": "Slime", 
        "@feature": "PetBattle"
      }, 
      {
        "@id": "61000005", 
        "@name": "Duckling", 
        "@feature": "PetList_Taming"
      }, 
      {
        "@id": "61000007", 
        "@name": "Red Snail", 
        "@feature": "PetBattle"
      }, 
      {
        "@id": "61000009", 
        "@name": "Lil Boogie", 
        "@feature": "PetList_Taming"
      }, 
      {
        "@id": "61000016", 
        "@name": "Birk", 
        "@feature": "PetBattle"
      }, 
      {
        "@id": "61000018", 
        "@name": "Stump", 
        "@feature": "PetBattle"
      }, 
      {
        "@id": "61000019", 
        "@name": "Cerbe", 
        "@feature": "PetBattle"
      }, 
      {
        "@id": "61000026", 
        "@name": "Baby Boar", 
        "@feature": "PetBattle"
      }, 
      {
        "@id": "61000029", 
        "@name": "Tree Sprite", 
        "@feature": "PetBattle"
      }, 
      {
        "@id": "61000033", 
        "@name": "Frost Fang", 
        "@feature": "PetList_Taming"
      }, 
      {
        "@id": "61000041", 
        "@name": "Baby Moonbear", 
        "@feature": "PetBattle"
      }, 
      {
        "@id": "61000046", 
        "@name": "Needler", 
        "@feature": "PetList_Taming"
      }, 
      {
        "@id": "61000047", 
        "@name": "Homegrown Mushroom", 
        "@feature": "PetBattle"
      }, 
      {
        "@id": "61000057", 
        "@name": "Urza", 
        "@feature": "PetBattle"
      }, 
      {
        "@id": "61000059", 
        "@name": "Baby Coli", 
        "@feature": "PetBattle"
      }, 
      {
        "@id": "61000067", 
        "@name": "Veil Ox", 
        "@feature": "PetList_Taming"
      }, 
      {
        "@id": "61000077", 
        "@name": "Twingo", 
        "@feature": "PetBattle"
      }, 
      {
        "@id": "61000079", 
        "@name": "Balrog", 
        "@feature": "PetUpdate01"
      }, 
      {
        "@id": "61000084", 
        "@name": "Block Golem Y", 
        "@feature": "PetBattle"
      }, 
      {
        "@id": "61000096", 
        "@name": "Lupin", 
        "@feature": "PetBattle"
      }, 
      {
        "@id": "61000097", 
        "@name": "Woodi", 
        "@feature": "PetBattle"
      }, 
      {
        "@id": "61000098", 
        "@name": "Contaminated Gelime", 
        "@feature": "PetBattle"
      }, 
      {
        "@id": "61000099", 
        "@name": "Koborc", 
        "@feature": "PetBattle"
      }, 
      {
        "@id": "61000100", 
        "@name": "Twingoo", 
        "@feature": "PetBattle"
      }, 
      {
        "@id": "61000152", 
        "@name": "Mountain Bunny", 
        "@feature": "PetBattle"
      }, 
      {
        "@id": "61000153", 
        "@name": "맹독 놀라쥬", 
        "@feature": "Pet_70Lv_Taming"
      }, 
      {
        "@id": "61000154", 
        "@name": "터렛 MK-I", 
        "@feature": "Pet_70Lv_Taming"
      }, 
      {
        "@id": "61000155", 
        "@name": "붉은 아룸", 
        "@feature": "Pet_70Lv_Taming"
      }, 
      {
        "@id": "61000156", 
        "@name": "솔저레토", 
        "@feature": "Pet_70Lv_Taming"
      }, 
      {
        "@id": "61000157", 
        "@name": "푸른 쿠우쿠", 
        "@feature": "Pet_70Lv_Taming"
      }, 
      {
        "@id": "61000158", 
        "@name": "초록 포잉", 
        "@feature": "Pet_70Lv_Taming"
      }, 
      {
        "@id": "61000159", 
        "@name": "튼튼모랑", 
        "@feature": "Pet_70Lv_Taming"
      }, 
      {
        "@id": "61000160", 
        "@name": "가드 MK-II", 
        "@feature": "Pet_70Lv_Taming"
      }, 
      {
        "@id": "61000161", 
        "@name": "타이렌 MK-I-S", 
        "@feature": "Pet_70Lv_Taming"
      }, 
      {
        "@id": "61000163", 
        "@name": "레드 메카랩터", 
        "@feature": "Pet_70Lv_Taming"
      }, 
      {
        "@id": "61000164", 
        "@name": "메카캐논", 
        "@feature": "Pet_70Lv_Taming"
      }, 
      {
        "@id": "61000165", 
        "@name": "킬러휴롯", 
        "@feature": "Pet_70Lv_Taming"
      }, 
      {
        "@id": "61000166", 
        "@name": "블루 메카티라노", 
        "@feature": "Pet_70Lv_Taming"
      }, 
      {
        "@id": "61000167", 
        "@name": "분홍 꿈트리", 
        "@feature": "Pet_70Lv_Taming"
      }, 
      {
        "@id": "61000168", 
        "@name": "버럭모랑", 
        "@feature": "Pet_70Lv_Taming"
      }, 
      {
        "@id": "61000169", 
        "@name": "나이트레토", 
        "@feature": "Pet_70Lv_Taming"
      }, 
      {
        "@id": "61000170", 
        "@name": "헤비휴롯", 
        "@feature": "Pet_70Lv_Taming"
      }, 
      {
        "@id": "61100010", 
        "@name": "Pyrros Fard", 
        "@feature": "PetBattle"
      }, 
      {
        "@id": "61100020", 
        "@name": "Kabo", 
        "@feature": "PetBattle"
      }, 
      {
        "@id": "61100030", 
        "@name": "Varrekant", 
        "@feature": "PetUpdate01"
      }, 
      {
        "@id": "61100040", 
        "@name": "Kandura", 
        "@feature": "PetUpdate01"
      }, 
      {
        "@id": "61100050", 
        "@name": "Devorak", 
        "@feature": "PetUpdate01"
      }, 
      {
        "@id": "61100060", 
        "@name": "Captain Moc", 
        "@feature": "PetUpdate01"
      }, 
      {
        "@id": "61100070", 
        "@name": "Papulatus", 
        "@feature": "PetUpdate01"
      }, 
      {
        "@id": "61100090", 
        "@name": "Nutaman", 
        "@feature": "PetUpdate01"
      }, 
      {
        "@id": "61100100", 
        "@name": "기간티카", 
        "@feature": "Gigantica01"
      }, 
      {
        "@id": "61100110", 
        "@name": "저주의 자쿰", 
        "@feature": "Pet_Zakum"
      }, 
      {
        "@id": "61100111", 
        "@name": "저주의 자쿰", 
        "@feature": "Pet_Zakum"
      }, 
      {
        "@id": "61100120", 
        "@name": "수호의 자쿰", 
        "@feature": "Pet_Zakum"
      }, 
      {
        "@id": "61100121", 
        "@name": "수호의 자쿰", 
        "@feature": "Pet_Zakum"
      }, 
      {
        "@id": "61100130", 
        "@name": "분노의 자쿰", 
        "@feature": "Pet_Zakum"
      }, 
      {
        "@id": "61100131", 
        "@name": "분노의 자쿰", 
        "@feature": "Pet_Zakum"
      }, 
      {
        "@id": "61100132", 
        "@name": "셀린", 
        "@feature": "Pet_60Lv"
      }, 
      {
        "@id": "61100133", 
        "@name": "알바노스", 
        "@feature": "Pet_60Lv"
      }, 
      {
        "@id": "61100134", 
        "@name": "에르다", 
        "@feature": "Pet_60Lv"
      }, 
      {
        "@id": "61100135", 
        "@name": "베놈 스피릿", 
        "@feature": "Pet_60Lv"
      }, 
      {
        "@id": "61100136", 
        "@name": "기간틱 마드론 스파토이", 
        "@feature": "Pet_60Lv"
      }, 
      {
        "@id": "61100137", 
        "@name": "포보스", 
        "@feature": "Pet_60Lv"
      }, 
      {
        "@id": "61100138", 
        "@name": "루카락스", 
        "@feature": "Pet_60Lv"
      }, 
      {
        "@id": "61100139", 
        "@name": "비에른", 
        "@feature": "Pet_60Lv"
      }, 
      {
        "@id": "61100140", 
        "@name": "핑크빈", 
        "@feature": "Pet_60Lv"
      }, 
      {
        "@id": "61100141", 
        "@name": "유페리아", 
        "@feature": "Pet_60Lv"
      }, 
      {
        "@id": "61100142", 
        "@name": "렌듀비앙", 
        "@feature": "Pet_60Lv"
      }, 
      {
        "@id": "61100143", 
        "@name": "이슈라", 
        "@feature": "Pet_60Lv"
      }, 
      {
        "@id": "61100144", 
        "@name": "강화형 발록", 
        "@feature": "Pet_70Lv_Boss"
      }, 
      {
        "@id": "61100145", 
        "@name": "강화형 인페르녹", 
        "@feature": "Pet_70Lv_Boss"
      }, 
      {
        "@id": "61100146", 
        "@name": "자쿰의 손", 
        "@feature": "Pet_70Lv_Boss"
      }, 
      {
        "@id": "61100147", 
        "@name": "페이카", 
        "@feature": "Pet_70Lv_Boss"
      }, 
      {
        "@id": "61100149", 
        "@name": "Infernog", 
        "@feature": "Pet_Infernog"
      }, 
      {
        "@id": "61200001", 
        "@name": "Sleepy Shroom", 
        "@feature": "SurvivalContents01"
      }, 
      {
        "@id": "61200002", 
        "@name": "머쉬킹", 
        "@feature": "WorldChampionMushroom"
      }, 
      {
        "@id": "62000011", 
        "@name": "Kirin", 
        "@feature": "PetBattle"
      }, 
      {
        "@id": "62000013", 
        "@name": "Sun Wukong", 
        "@feature": "PetBattle"
      }, 
      {
        "@id": "62900001", 
        "@name": "QQ Penguin", 
        "@feature": "GemPetSkin"
      }, 
      {
        "@id": "62900002", 
        "@name": "Redcap Pup", 
        "@feature": "PetBattle"
      }
    ]
  }
}