{
  "?xml": {
    "@version": "1.0", 
    "@encoding": "utf-8"
  }, 
  "ms2": {
    "PVPMessage": [
      {
        "@key": "DualWin1", 
        "@msg": "s_dualwin1", 
        "@sound": "trade_lock", 
        "@isWorldMessage": "false"
      }, 
      {
        "@key": "DualWin2", 
        "@msg": "s_dualwin2", 
        "@sound": "trade_lock", 
        "@isWorldMessage": "false"
      }, 
      {
        "@key": "DualWin3", 
        "@msg": "s_dualwin3", 
        "@sound": "trade_lock", 
        "@isWorldMessage": "false"
      }, 
      {
        "@key": "DualWin4", 
        "@msg": "s_dualwin4", 
        "@sound": "trade_lock", 
        "@isWorldMessage": "false"
      }, 
      {
        "@key": "DualWin5", 
        "@msg": "s_dualwin5", 
        "@sound": "trade_lock", 
        "@isWorldMessage": "false"
      }, 
      {
        "@key": "DualWin6", 
        "@msg": "s_dualwin6", 
        "@sound": "trade_lock", 
        "@isWorldMessage": "false"
      }, 
      {
        "@key": "DualWin7", 
        "@msg": "s_dualwin7", 
        "@sound": "trade_lock", 
        "@isWorldMessage": "false"
      }, 
      {
        "@key": "DualWin8", 
        "@msg": "s_dualwin8", 
        "@sound": "trade_lock", 
        "@isWorldMessage": "false"
      }, 
      {
        "@key": "DualWin9", 
        "@msg": "s_dualwin9", 
        "@sound": "trade_lock", 
        "@isWorldMessage": "false"
      }, 
      {
        "@key": "DualPreparePlayer", 
        "@msg": "s_dualprepareplayer", 
        "@sound": "", 
        "@isWorldMessage": "false"
      }, 
      {
        "@key": "DualStartCombat", 
        "@msg": "s_dualstartcombat", 
        "@sound": "", 
        "@isWorldMessage": "false"
      }, 
      {
        "@key": "DualWinnerMessage", 
        "@msg": "s_dualwinnermessage", 
        "@sound": "", 
        "@isWorldMessage": "false"
      }, 
      {
        "@key": "DualLoserMessage", 
        "@msg": "s_duallosermessage", 
        "@sound": "", 
        "@isWorldMessage": "false"
      }, 
      {
        "@key": "FreeForAllWin", 
        "@msg": "s_freeforallwin", 
        "@sound": "BattleField_NoticeWinner", 
        "@isWorldMessage": "false"
      }, 
      {
        "@key": "GuildDualPrepare", 
        "@msg": "s_guilddualprepare", 
        "@sound": "", 
        "@isWorldMessage": "false"
      }, 
      {
        "@key": "GuildDualStartCombat", 
        "@msg": "s_guilddualstartcombat", 
        "@sound": "trade_lock", 
        "@isWorldMessage": "false"
      }, 
      {
        "@key": "GuildTeamNotifyCombat", 
        "@msg": "s_guildteamnotifycombat", 
        "@sound": "", 
        "@isWorldMessage": "false"
      }, 
      {
        "@key": "GuildTeamNotifyLastCombat", 
        "@msg": "s_guildteamnotifylastcombat", 
        "@sound": "", 
        "@isWorldMessage": "false"
      }, 
      {
        "@key": "GuildTeamNotifyGameStart", 
        "@msg": "s_guildteamnotifygamestart", 
        "@sound": "system_notice_GuildBattleGuide01", 
        "@isWorldMessage": "false"
      }, 
      {
        "@key": "GuildTeamNotifyGameStartDetail1", 
        "@msg": "s_guildteamnotifygamestartdetail1", 
        "@sound": "", 
        "@isWorldMessage": "false"
      }, 
      {
        "@key": "GuildTeamNotifyGameStartDetail2", 
        "@msg": "s_guildteamnotifygamestartdetail2", 
        "@sound": "", 
        "@isWorldMessage": "false"
      }, 
      {
        "@key": "GuildTeamNotifyGameStartDetail3", 
        "@msg": "s_guildteamnotifygamestartdetail3", 
        "@sound": "system_notice_GuildBattleGuide02", 
        "@isWorldMessage": "false"
      }, 
      {
        "@key": "GuildTeamNotifyPreparePlayer", 
        "@msg": "s_guildteamnotifyprepareplayer", 
        "@sound": "system_notice_GuildBattleGuide03", 
        "@isWorldMessage": "false"
      }, 
      {
        "@key": "GuildTeamNotifyPrepareArena", 
        "@msg": "s_guildteamnotifypreparearena", 
        "@sound": "system_notice_GuildBattleGuide04", 
        "@isWorldMessage": "false"
      }, 
      {
        "@key": "GuildTeamStartCombat", 
        "@msg": "s_guildteamstartcombat", 
        "@sound": "", 
        "@isWorldMessage": "false"
      }, 
      {
        "@key": "TeamNotifyGameDetail1", 
        "@msg": "s_teamnotifygamedetail1", 
        "@sound": "", 
        "@isWorldMessage": "false"
      }, 
      {
        "@key": "TeamNotifyGameDetail2", 
        "@msg": "s_teamnotifygamedetail2", 
        "@sound": "", 
        "@isWorldMessage": "false"
      }, 
      {
        "@key": "TeamNotifyGameDetail3", 
        "@msg": "s_teamnotifygamedetail3", 
        "@sound": "", 
        "@isWorldMessage": "false"
      }, 
      {
        "@key": "TeamPrepare", 
        "@msg": "s_teamprepare", 
        "@sound": "", 
        "@isWorldMessage": "false"
      }
    ]
  }
}