{
  "?xml": {
    "@version": "1.0", 
    "@encoding": "utf-8"
  }, 
  "ms2": {
    "quest": [
      {
        "@questID": "90000000", 
        "@name": "A New Path", 
        "@desc": "The large door behind $map:02000001$'s $npc:11000160$ leads to $map:02000188$. Let's find someone who has already walked the path of the job I desire, and go through with the job advancement.", 
        "@manual": "Head to $map:02000188$ in $map:02000001$ and go through with the job advancement", 
        "@complete": "", 
        "@count": "0", 
        "@locale": "", 
        "@locking": "0"
      }, 
      {
        "@questID": "90000010", 
        "@name": "스타일 체인지!", 
        "@desc": "$map:02000001$에서 광고 전단을 나눠주는 아르바이트생 $npc:11000373$에게 $map:02000107$에 관한 정보를 들었다.\n$map:02000107$$pp2:로,으로$ 가서 $npc:11000462$$pp:를,을$ 만나 스타일을 바꿀 수 있는 방법을 더 자세하게 알아봐야겠다.", 
        "@manual": "", 
        "@complete": "$map:02000107$에서 $npc:11000462$ 만나기", 
        "@count": "", 
        "@locale": "", 
        "@locking": "1"
      }, 
      {
        "@questID": "90000020", 
        "@name": "철 없는 아가씨", 
        "@desc": "$map:02000107$에서 만난 $npc:11000154$$pp:는,은$ 방금 뷰티샵에서 바꾼 헤어스타일이 마음에 들지 않아 다시 해야겠다며, 오빠 $npc:11000331$에게 돈을 들고 $map:52000008$$pp2:로,으로$ 오라고 전해 달라는 부탁을 해왔다.\n꽤나 마음이 조급한 모양인지 $map:02000001$까지 택시를 타고 가라는데… 그녀의 말대로 택시를 불러서 타고 가볼까?", 
        "@manual": "", 
        "@complete": "$map:02000001$에서 $npc:11000331$ 만나기", 
        "@count": "", 
        "@locale": "", 
        "@locking": "1"
      }, 
      {
        "@questID": "90000030", 
        "@name": "소중한 물건은 금고에", 
        "@desc": "$npc:11000325$의 부탁대로 $npc:11000011$에게 가서 $npcName:11000325$의 반지를 잘 보관하고 있는지 물어보자! $npc:11000011$$pp:는,은$  $map:02000034$에 있다.", 
        "@manual": "", 
        "@complete": "$map:02000001$ $map:02000034$에서 $npc:11000011$ 만나기", 
        "@count": "", 
        "@locale": "", 
        "@locking": "1"
      }, 
      {
        "@questID": "90000040", 
        "@name": "엄청난 지진의 여파", 
        "@desc": "지진의 여파가 정말 엄청난 것 같다. 대체 땅이 얼마나 깊게 갈라진 것인지 $npc:11000112$ 옆에 있는 망원경으로 살펴보자.", 
        "@manual": "", 
        "@complete": "$map:02000115$를 망원경으로 살펴보고 $npc:11000112$와 이야기하기 ", 
        "@count": "", 
        "@locale": "", 
        "@locking": "1"
      }, 
      {
        "@questID": "90000050", 
        "@name": "음식에 필요한 재료", 
        "@desc": "알현식 연회 음식 재료로 사용할 닭고기가 절벽 아래로 떨어져버렸다고 한다. 절벽 아래로 내려가 $item:20000063$$pp:를,을$ 가지고 오자. \n절벽을 오르내릴 때 $skill:20000011$ 스킬을 활용하면 훨씬 쉽게 가지고 올 수 있을 것 같다.", 
        "@manual": "$npc:11000159$ 뒤편의 솟아오른 땅에서 $item:20000063$ 찾아오기", 
        "@complete": "$map:02000118$에서 $npc:11000159$ 만나기", 
        "@count": "1", 
        "@locale": "", 
        "@locking": "1"
      }, 
      {
        "@questID": "90000060", 
        "@name": "단풍 아파트 입주 행사", 
        "@desc": "골두스 건설과 $map:02000123$$pp:가,이$ 제휴 기념으로 프로모션을 준비했다고 한다. 최고급만을 추구하는 골두스 건설에서 이번에 새로 짓는 '단풍 아파트'가 있는데 오픈 기념으로 입주권을 무료로 나눠준다는 것!\n이런 황금 같은 기회를 놓칠 순 없지! \n어서 $map:02000001$에 있는 $map:02000123$$pp2:로,으로$ 가서 $npc:11000600$$pp:를,을$ 만나 봐야겠다!", 
        "@manual": "", 
        "@complete": "$map:02000001$에 있는 $map:02000123$에서 $npc:11000600$ 만나기", 
        "@count": "", 
        "@locale": "", 
        "@locking": "1"
      }, 
      {
        "@questID": "90000070", 
        "@name": "빛나는 크리스탈", 
        "@desc": "나이트 전직 교관인 $npc:11000040$$pp:가,이$ 나에게 더 강해지는 방법을 알려주겠다고 한다.\n", 
        "@manual": "", 
        "@complete": "$map:02000001$의 $map:02000188$에서 $npc:11000040$ 만나기", 
        "@count": "", 
        "@locale": "", 
        "@locking": "1"
      }, 
      {
        "@questID": "90000080", 
        "@name": "빛나는 크리스탈", 
        "@desc": "버서커 전직 교관인 $npc:11000041$$pp:가,이$ 나에게 더 강해지는 방법을 알려주겠다고 한다.\n", 
        "@manual": "", 
        "@complete": "$map:02000001$의 $map:02000188$에서 $npc:11000041$ 만나기", 
        "@count": "", 
        "@locale": "", 
        "@locking": "1"
      }, 
      {
        "@questID": "90000090", 
        "@name": "빛나는 크리스탈", 
        "@desc": "위자드 전직 교관인 $npc:11000042$$pp:가,이$ 나에게 더 강해지는 방법을 알려주겠다고 한다.\n", 
        "@manual": "", 
        "@complete": "$map:02000001$의 $map:02000188$에서 $npc:11000042$ 만나기", 
        "@count": "", 
        "@locale": "", 
        "@locking": "1"
      }, 
      {
        "@questID": "90000100", 
        "@name": "빛나는 크리스탈", 
        "@desc": "프리스트 전직 교관인 $npc:11000043$$pp:가,이$ 나에게 더 강해지는 방법을 알려주겠다고 한다.\n", 
        "@manual": "", 
        "@complete": "$map:02000001$의 $map:02000188$에서 $npc:11000043$ 만나기", 
        "@count": "", 
        "@locale": "", 
        "@locking": "1"
      }, 
      {
        "@questID": "90000110", 
        "@name": "빛나는 크리스탈", 
        "@desc": "레인저 전직 교관인 $npc:11000045$$pp:가,이$ 나에게 더 강해지는 방법을 알려주겠다고 한다.\n", 
        "@manual": "", 
        "@complete": "$map:02000001$의 $map:02000188$에서 $npc:11000045$ 만나기", 
        "@count": "", 
        "@locale": "", 
        "@locking": "1"
      }, 
      {
        "@questID": "90000120", 
        "@name": "빛나는 크리스탈", 
        "@desc": "헤비거너 전직 교관인 $npc:11000046$$pp:가,이$ 나에게 더 강해지는 방법을 알려주겠다고 한다.\n", 
        "@manual": "", 
        "@complete": "$map:02000001$의 $map:02000188$에서 $npc:11000046$ 만나기", 
        "@count": "", 
        "@locale": "", 
        "@locking": "1"
      }, 
      {
        "@questID": "90000130", 
        "@name": "빛나는 크리스탈", 
        "@desc": "시프 전직 교관인 $npc:11000050$$pp:가,이$ 나에게 더 강해지는 방법을 알려주겠다고 한다.\n", 
        "@manual": "", 
        "@complete": "$map:02000001$의 $map:02000188$에서 $npc:11000050$ 만나기", 
        "@count": "", 
        "@locale": "", 
        "@locking": "1"
      }, 
      {
        "@questID": "90000140", 
        "@name": "빛나는 크리스탈", 
        "@desc": "어쌔신 전직 교관인 $npc:11000051$$pp:가,이$ 나에게 더 강해지는 방법을 알려주겠다고 한다.\n", 
        "@manual": "", 
        "@complete": "$map:02000001$의 $map:02000188$에서 $npc:11000051$ 만나기", 
        "@count": "", 
        "@locale": "", 
        "@locking": "1"
      }, 
      {
        "@questID": "90000180", 
        "@name": "꽃가루 알레르기", 
        "@desc": "꽃가루 알레르기에는 $item:30000125$$pp:가,이$ 즉효라는데 정작 $npc:11000408$$pp:는,은$ 알레르기 때문에 꿀을 딸 수가 없다고 한다. 아무래도 아저씨를 도와주고 가야겠다.\n어서 들꽃에서 $item:30000125$$pp:를,을$ 따오자.", 
        "@manual": "", 
        "@complete": "", 
        "@count": "", 
        "@locale": "", 
        "@locking": "1"
      }, 
      {
        "@questID": "90000190", 
        "@name": "도움!", 
        "@desc": "$npc:99000041$때문에 이곳 오솔길이 위험해졌다고 한다. $npc:11000409$$pp:를,을$ 도와 $npc:99000041$$pp:를,을$ 처치하자.", 
        "@manual": "", 
        "@complete": "", 
        "@count": "", 
        "@locale": "", 
        "@locking": "1"
      }, 
      {
        "@questID": "90000191", 
        "@name": "안전통행", 
        "@desc": "$npc:11000409$$pp:는,은$ 혼자 있을 $npc:11000410$$pp:를,을$ 걱정하고 있다. 어서 포털을 타고 $map:63000010$$pp2:로,으로$ 가서 $npc:11000410$$pp:가,이$ 어디 있는지 찾아보자.", 
        "@manual": "", 
        "@complete": "", 
        "@count": "", 
        "@locale": "", 
        "@locking": "1"
      }, 
      {
        "@questID": "90000192", 
        "@name": "돼지를 막아야 되지", 
        "@desc": "오솔길을 안전하게 하기 위해 노력하고 있는 $npc:11000410$. 어서 $npc:11000410$$pp:를,을$ 도와 $npc:99000042$$pp:를,을$ 처치하자. 스킬을 사용하면 더욱 쉽게 처치할 수 있을 것 같다!", 
        "@manual": "", 
        "@complete": "", 
        "@count": "", 
        "@locale": "", 
        "@locking": "1"
      }, 
      {
        "@questID": "90000200", 
        "@name": "강한 자가 더 강해지려면?", 
        "@desc": "나이트 전직 교관인 $npc:11000040$$pp:가,이$ 나에게 더 강해지는 방법을 알려주겠다고 한다.\n", 
        "@manual": "", 
        "@complete": "$map:02000001$의 $map:02000188$에서 $npc:11000040$ 만나기", 
        "@count": "", 
        "@locale": "", 
        "@locking": "1"
      }, 
      {
        "@questID": "90000210", 
        "@name": "강한 자가 더 강해지려면?", 
        "@desc": "버서커 전직 교관인 $npc:11000041$$pp:가,이$ 나에게 더 강해지는 방법을 알려주겠다고 한다.\n", 
        "@manual": "", 
        "@complete": "$map:02000001$의 $map:02000188$에서 $npc:11000041$ 만나기", 
        "@count": "", 
        "@locale": "", 
        "@locking": "1"
      }, 
      {
        "@questID": "90000220", 
        "@name": "강한 자가 더 강해지려면?", 
        "@desc": "위자드 전직 교관인 $npc:11000042$$pp:가,이$ 나에게 더 강해지는 방법을 알려주겠다고 한다.\n", 
        "@manual": "", 
        "@complete": "$map:02000001$의 $map:02000188$에서 $npc:11000042$ 만나기", 
        "@count": "", 
        "@locale": "", 
        "@locking": "1"
      }, 
      {
        "@questID": "90000230", 
        "@name": "강한 자가 더 강해지려면?", 
        "@desc": "프리스트 전직 교관인 $npc:11000043$$pp:가,이$ 나에게 더 강해지는 방법을 알려주겠다고 한다.\n", 
        "@manual": "", 
        "@complete": "$map:02000001$의 $map:02000188$에서 $npc:11000043$ 만나기", 
        "@count": "", 
        "@locale": "", 
        "@locking": "1"
      }, 
      {
        "@questID": "90000240", 
        "@name": "강한 자가 더 강해지려면?", 
        "@desc": "레인저 전직 교관인 $npc:11000045$$pp:가,이$ 나에게 더 강해지는 방법을 알려주겠다고 한다.\n", 
        "@manual": "", 
        "@complete": "$map:02000001$의 $map:02000188$에서 $npc:11000045$ 만나기", 
        "@count": "", 
        "@locale": "", 
        "@locking": "1"
      }, 
      {
        "@questID": "90000250", 
        "@name": "강한 자가 더 강해지려면?", 
        "@desc": "헤비거너 전직 교관인 $npc:11000046$$pp:가,이$ 나에게 더 강해지는 방법을 알려주겠다고 한다.\n", 
        "@manual": "", 
        "@complete": "$map:02000001$의 $map:02000188$에서 $npc:11000046$ 만나기", 
        "@count": "", 
        "@locale": "", 
        "@locking": "1"
      }, 
      {
        "@questID": "90000260", 
        "@name": "강한 자가 더 강해지려면?", 
        "@desc": "시프 전직 교관인 $npc:11000050$$pp:가,이$ 나에게 더 강해지는 방법을 알려주겠다고 한다.\n", 
        "@manual": "", 
        "@complete": "$map:02000001$의 $map:02000188$에서 $npc:11000050$ 만나기", 
        "@count": "", 
        "@locale": "", 
        "@locking": "1"
      }, 
      {
        "@questID": "90000270", 
        "@name": "강한 자가 더 강해지려면?", 
        "@desc": "어쌔신 전직 교관인 $npc:11000051$$pp:가,이$ 나에게 더 강해지는 방법을 알려주겠다고 한다.\n", 
        "@manual": "", 
        "@complete": "$map:02000001$의 $map:02000188$에서 $npc:11000051$ 만나기", 
        "@count": "", 
        "@locale": "", 
        "@locking": "1"
      }, 
      {
        "@questID": "90000280", 
        "@name": "회오리 검술", 
        "@desc": "스킬창을 열어 새로 배운 스킬인 $skill:10100011$$pp:를,을$ 퀵슬롯에 장착한 뒤, $skill:10100011$$pp:를,을$ 사용해보자.", 
        "@manual": "토네이도 슬래쉬 사용하기", 
        "@complete": "", 
        "@count": "1", 
        "@locale": "", 
        "@locking": "1"
      }, 
      {
        "@questID": "90000281", 
        "@name": "허공을 가르는 칼날", 
        "@desc": "스킬창을 열어 새로 배운 스킬인 $skill:10100001$$pp:를,을$ 퀵슬롯에 장착한 뒤, $skill:10100001$$pp:를,을$ 사용해보자.", 
        "@manual": "$skill:10100001$ 사용하기", 
        "@complete": "", 
        "@count": "1", 
        "@locale": "", 
        "@locking": "1"
      }, 
      {
        "@questID": "90000290", 
        "@name": "모두 쓸어버려", 
        "@desc": "스킬창을 열어 새로 배운 스킬인 $skill:10200011$$pp:를,을$ 퀵슬롯에 장착한 뒤, $skill:10200011$$pp:를,을$ 사용해보자.", 
        "@manual": "$skill:10200011$ 사용하기", 
        "@complete": "", 
        "@count": "1", 
        "@locale": "", 
        "@locking": "1"
      }, 
      {
        "@questID": "90000291", 
        "@name": "분노의 일격", 
        "@desc": "스킬창을 열어 새로 배운 스킬인 $skill:10200001$$pp:를,을$ 퀵슬롯에 장착한 뒤, $skill:10200001$$pp:를,을$ 사용해보자.", 
        "@manual": "$skill:10200001$ 사용하기", 
        "@complete": "", 
        "@count": "1", 
        "@locale": "", 
        "@locking": "1"
      }, 
      {
        "@questID": "90000300", 
        "@name": "몰아치는 번개", 
        "@desc": "스킬창을 열어 새로 배운 스킬인 $skill:10300031$$pp:를,을$ 퀵슬롯에 장착한 뒤, $skill:10300031$$pp:를,을$ 사용해보자.", 
        "@manual": "$skill:10300031$ 사용하기", 
        "@complete": "", 
        "@count": "1", 
        "@locale": "", 
        "@locking": "1"
      }, 
      {
        "@questID": "90000301", 
        "@name": "성난 발톱", 
        "@desc": "스킬창을 열어 새로 배운 스킬인 $skill:10300001$$pp:를,을$ 퀵슬롯에 장착한 뒤, $skill:10300001$$pp:를,을$ 사용해보자.", 
        "@manual": "$skill:10300001$ 사용하기", 
        "@complete": "", 
        "@count": "1", 
        "@locale": "", 
        "@locking": "1"
      }, 
      {
        "@questID": "90000310", 
        "@name": "폭발하는 빛", 
        "@desc": "스킬창을 열어 새로 배운 스킬인 $skill:10400011$$pp:를,을$ 퀵슬롯에 장착한 뒤, $skill:10400011$$pp:를,을$ 사용해보자.", 
        "@manual": "$skill:10400011$ 사용하기", 
        "@complete": "", 
        "@count": "1", 
        "@locale": "", 
        "@locking": "1"
      }, 
      {
        "@questID": "90000311", 
        "@name": "신성한 빛", 
        "@desc": "스킬창을 열어 새로 배운 스킬인 $skill:10400001$$pp:를,을$ 퀵슬롯에 장착한 뒤, $skill:10400001$$pp:를,을$ 사용해보자.", 
        "@manual": "$skill:10400001$ 사용하기", 
        "@complete": "", 
        "@count": "1", 
        "@locale": "", 
        "@locking": "1"
      }, 
      {
        "@questID": "90000320", 
        "@name": "바람을 가르는 화살", 
        "@desc": "스킬창을 열어 새로 배운 스킬인 $skill:10500011$$pp:를,을$ 퀵슬롯에 장착한 뒤, $skill:10500011$$pp:를,을$ 사용해보자.", 
        "@manual": "$skill:10500011$ 사용하기", 
        "@complete": "", 
        "@count": "1", 
        "@locale": "", 
        "@locking": "1"
      }, 
      {
        "@questID": "90000321", 
        "@name": "벌처럼 쏴라!", 
        "@desc": "스킬창을 열어 새로 배운 스킬인 $skill:10500001$$pp:를,을$ 퀵슬롯에 장착한 뒤, $skill:10500001$$pp:를,을$ 사용해보자.", 
        "@manual": "$skill:10500001$ 사용하기", 
        "@complete": "", 
        "@count": "1", 
        "@locale": "", 
        "@locking": "1"
      }, 
      {
        "@questID": "90000330", 
        "@name": "화끈한 화염", 
        "@desc": "스킬창을 열어 새로 배운 스킬인 $skill:10600021$$pp:를,을$ 퀵슬롯에 장착한 뒤, $skill:10600021$$pp:를,을$ 사용해보자.", 
        "@manual": "$skill:10600021$ 사용하기", 
        "@complete": "", 
        "@count": "1", 
        "@locale": "", 
        "@locking": "1"
      }, 
      {
        "@questID": "90000331", 
        "@name": "속사포 캐논", 
        "@desc": "스킬창을 열어 새로 배운 스킬인 $skill:10600001$$pp:를,을$ 퀵슬롯에 장착한 뒤, $skill:10600001$$pp:를,을$ 사용해보자.", 
        "@manual": "$skill:10600001$ 사용하기", 
        "@complete": "", 
        "@count": "1", 
        "@locale": "", 
        "@locking": "1"
      }, 
      {
        "@questID": "90000340", 
        "@name": "독술의 기초", 
        "@desc": "스킬창을 열어 새로 배운 스킬인 $skill:10700011$$pp:를,을$ 퀵슬롯에 장착한 뒤, $skill:10700011$$pp:를,을$ 사용해보자.", 
        "@manual": "$skill:10700011$ 사용하기", 
        "@complete": "", 
        "@count": "1", 
        "@locale": "", 
        "@locking": "1"
      }, 
      {
        "@questID": "90000341", 
        "@name": "빛보다 빠르게", 
        "@desc": "스킬창을 열어 새로 배운 스킬인 $skill:10700001$$pp:를,을$ 퀵슬롯에 장착한 뒤, $skill:10700001$$pp:를,을$ 사용해보자.", 
        "@manual": "$skill:10700001$ 사용하기", 
        "@complete": "", 
        "@count": "1", 
        "@locale": "", 
        "@locking": "1"
      }, 
      {
        "@questID": "90000350", 
        "@name": "흩뿌려진 표창", 
        "@desc": "스킬창을 열어 새로 배운 스킬인 $skill:10800021$$pp:를,을$ 퀵슬롯에 장착한 뒤, $skill:10800021$$pp:를,을$ 사용해보자.", 
        "@manual": "$skill:10800021$ 사용하기", 
        "@complete": "", 
        "@count": "1", 
        "@locale": "", 
        "@locking": "1"
      }, 
      {
        "@questID": "90000351", 
        "@name": "표창의 반전", 
        "@desc": "스킬창을 열어 새로 배운 스킬인 $skill:10800001$$pp:를,을$ 퀵슬롯에 장착한 뒤, $skill:10800001$$pp:를,을$ 사용해보자.", 
        "@manual": "$skill:10800001$ 사용하기", 
        "@complete": "", 
        "@count": "1", 
        "@locale": "", 
        "@locking": "1"
      }, 
      {
        "@questID": "90000360", 
        "@name": "둠칫 두둠칫!", 
        "@desc": "$npc:11000324$$pp:가,이$ 알려준 대로 채팅 입력창 옆에 있는 다이나믹 액션 버튼을 눌러 원하는 감정 표현을 아무것이나 클릭해보자.", 
        "@manual": "", 
        "@complete": "", 
        "@count": "", 
        "@locale": "", 
        "@locking": "1"
      }, 
      {
        "@questID": "90000370", 
        "@name": "빚의 굴레", 
        "@desc": "$npc:11000609$$pp:는,은$ 흑성회와 비밀리에 $item:20000046$$pp:를,을$ 거래하던 레이먼의 심부름꾼이었다. \n그러던 어느 날, 레이먼이 $item:20000046$ 대금을 흑성회에 지급하지 않은 채 흔적도 없이 사라져 버렸고, 모든 빚을 대신 뒤집어쓰게 되었다. \n흑성회에 쫓기던 $npcName:11000609$$pp:는,은$ 평소 잘 알고 지내던 흑성회 $npc:11000610$에게 사정을 설명하고 레이먼을 찾을 때까지 대금 지급을 미뤄달라고 부탁하려 한다.\n하지만 $npcName:11000609$$pp:가,이$ 직접 어둠의 땅으로 내려가면 사정 설명을 하기도 전에 당장 끌려갈 판이니 내가 대신 어둠의 땅으로 가서 $npcName:11000610$$pp:를,을$ 만나 그의 딱한 사정을 얘기해봐야겠다.", 
        "@manual": "", 
        "@complete": "어둠의 땅 $map:03000014$$pp2:로,으로$ 가서 $npc:11000610$ 만나기", 
        "@count": "", 
        "@locale": "", 
        "@locking": "1"
      }, 
      {
        "@questID": "90000371", 
        "@name": "위험한 노동", 
        "@desc": "흑성회에는 봐주는 것 따윈 없다고 딱 잘라 말해버리는 $npc:11000610$. 야박하기 짝이 없다.\n게다가 땅끝까지라도 쫓아가 $npc:11000609$$pp:를,을$ 끌고 올거라고 말하는 걸 보니 역시 보통 나쁜 놈들이 아닌 것 같다.\n불쌍한 $npc:11000609$$pp:를,을$ 대신해 $item:20000102$$pp:를,을$ 구해봐야겠다.", 
        "@manual": "$map:03000014$에 있는 빠두란 독초에서 $item:20000102$ 따기", 
        "@complete": "$map:03000014$에서 $npc:11000610$ 만나기", 
        "@count": "1", 
        "@locale": "", 
        "@locking": "1"
      }, 
      {
        "@questID": "90000372", 
        "@name": "떠돌이 원혼", 
        "@desc": "$npc:11000610$$pp:는,은$ 이 정도론 빚을 탕감해줄 수 없다며 더 어려운 것을 요구해왔다. $map:03000014$의 어둠 속에서 눈을 번뜩이며 광기를 내뿜는 괴수들을 처치하고 $item:30000331$$pp:를,을$ 찾아서 오라는 것!\n$npc:11000609$의 빚을 탕감해주기 위해서는 선택의 여지가 없을 것 같다. \n$map:03000014$의 몬스터를 처치하고 $item:30000331$$pp:를,을$ 찾아보자!", 
        "@manual": "$map:03000014$의 몬스터를 처치하고 $item:30000331$ 찾기", 
        "@complete": "$map:03000014$에서 $npc:11000610$ 만나기", 
        "@count": "1", 
        "@locale": "", 
        "@locking": "1"
      }, 
      {
        "@questID": "90000373", 
        "@name": "족쇄를 벗어나", 
        "@desc": "드디어 $npc:11000610$$pp:가,이$ $npc:11000609$의 빚을 탕감해주었다! 이 기쁜 소식을 어서 $npcName:11000609$에게 말해주러 가야겠다.", 
        "@manual": "", 
        "@complete": "$map:02000146$에서 $npc:11000609$ 만나기", 
        "@count": "", 
        "@locale": "", 
        "@locking": "1"
      }, 
      {
        "@questID": "90000390", 
        "@name": "양심선언", 
        "@desc": "$map:02000203$에 있는 $npc:11000511$$pp:는,은$ 대량의 $item:40100023$$pp:를,을$ 잃어버린 사람을 찾고 있다고 한다.", 
        "@manual": "", 
        "@complete": "$map:02000203$에서 $npc:11000511$ 만나기", 
        "@count": "", 
        "@locale": "", 
        "@locking": "1"
      }, 
      {
        "@questID": "90000400", 
        "@name": "꿈꾸는 메이드", 
        "@desc": "$map:02000001$의 $npc:11000160$$pp:는,은$ 드림네이즈 취업 홍보 이벤트로 메이드에 대한 정보를 알려주고 있다며, $npc:11000700$$pp:를,을$ 찾아가 보라고 제안했다.\n메이드에 대해 상세하게 알 수 있는 기회가 될 것 같다.", 
        "@manual": "", 
        "@complete": "$map:02000001$에서 $npc:11000700$ 만나기", 
        "@count": "", 
        "@locale": "", 
        "@locking": "1"
      }, 
      {
        "@questID": "90000410", 
        "@name": "Fallen Star", 
        "@desc": "", 
        "@manual": "Go to $map:63000011$", 
        "@complete": "Meet $npcName:11001232$ at $map:63000011$", 
        "@count": "0", 
        "@locale": "", 
        "@locking": "0"
      }, 
      {
        "@questID": "90000411", 
        "@name": "Calling of the Rune", 
        "@desc": "", 
        "@manual": "Collect $item:30000439$", 
        "@complete": "Speak with $npcName:11001232$", 
        "@count": "1", 
        "@locale": "", 
        "@locking": "0"
      }, 
      {
        "@questID": "90000412", 
        "@name": "In Search of a Friend", 
        "@desc": "", 
        "@manual": "Find and enter $map:52000015$", 
        "@complete": "Look over the condition for the fallen $npcName:11001233$", 
        "@count": "0", 
        "@locale": "", 
        "@locking": "0"
      }, 
      {
        "@questID": "90000413", 
        "@name": "Jibritta's Revolt", 
        "@desc": "", 
        "@manual": "", 
        "@complete": "Meet $npcName:11001229$ at $map:52000015$", 
        "@count": "", 
        "@locale": "", 
        "@locking": "0"
      }, 
      {
        "@questID": "90000414", 
        "@name": "How to Survive", 
        "@desc": "", 
        "@manual": "Practice $skill:10900031$ or $skill:10900151$ again", 
        "@complete": "Meet $npcName:11001233$ at $map:63000012$", 
        "@count": "1", 
        "@locale": "", 
        "@locking": "0"
      }, 
      {
        "@questID": "90000415", 
        "@name": "A Reason for Change", 
        "@desc": "", 
        "@manual": "", 
        "@complete": "Meet the Acting Leader, $npcName:11001230$, at $map:63000012$", 
        "@count": "", 
        "@locale": "", 
        "@locking": "0"
      }, 
      {
        "@questID": "90000416", 
        "@name": "Master's Request", 
        "@desc": "", 
        "@manual": "", 
        "@complete": "Meet $npc:11001234$ at $map:63000012$", 
        "@count": "", 
        "@locale": "", 
        "@locking": "0"
      }, 
      {
        "@questID": "90000417", 
        "@name": "Knowledge of the Ancestors", 
        "@desc": "", 
        "@manual": "Enter $map:52000016$ | Learn about $map:52000016$'s situation", 
        "@complete": "Meet the Acting Leader, $npcName:11001230$, at $map:63000012$", 
        "@count": "0|0", 
        "@locale": "", 
        "@locking": "0"
      }, 
      {
        "@questID": "90000418", 
        "@name": "Path of the Rune", 
        "@desc": "", 
        "@manual": "Go to $map:63000013$", 
        "@complete": "Speak with $npc:11001257$ of $map:63000013$", 
        "@count": "0", 
        "@locale": "", 
        "@locking": "0"
      }, 
      {
        "@questID": "90000419", 
        "@name": "In Search of the Master", 
        "@desc": "$npc:11001257$ shared that $npcName:11001229$ has departed for $map:2000001$ in Victoria Island, and asked me to wait as the rune magic to teleport me there is being prepared.\n$map:2000001$... $npcName:11001229$ said that there was someone special there... Just who could it be?\nLet's utilize the power of the rune magic, and teleport to where $npcName:11001229$ is to meet him.", 
        "@manual": "Speak to $map:63000013$'s $npc:11001257$ and teleport to $npcName:11001229$", 
        "@complete": "Speak with $npcName:11001229$", 
        "@count": "0", 
        "@locale": "", 
        "@locking": "0"
      }, 
      {
        "@questID": "90000420", 
        "@name": "Faster Than the Eye Can See", 
        "@desc": "", 
        "@manual": "Use the $skill:10900031$ skill", 
        "@complete": "Speak with $npcName:11001232$", 
        "@count": "1", 
        "@locale": "", 
        "@locking": "0"
      }, 
      {
        "@questID": "90000421", 
        "@name": "Invisible Sword", 
        "@desc": "", 
        "@manual": "Use the $skill:10900151$ skill", 
        "@complete": "Speak with $npcName:11001232$", 
        "@count": "1", 
        "@locale": "", 
        "@locking": "0"
      }, 
      {
        "@questID": "90000430", 
        "@name": "Trading scheme of the underworld", 
        "@desc": "The godfather of the underworld boss and heukseong meeting $npc:11001618$$pp:는,은$\nFight and win the champion of $map:63000020$ profess I'd want to listen to conditions.\nPeople do that to guide the way to go $map:63000020$$pp2:로,으로$ waiting outside the office is one $map:63000015$$pp:를,을$ I wish I meet some guidance.", 
        "@manual": "Talking $npc:11001618$$pp:와,과$", 
        "@complete": "Talking $npc:11001618$$pp:와,과$", 
        "@count": "0", 
        "@feature": "Striker", 
        "@locale": "", 
        "@locking": "0"
      }, 
      {
        "@questID": "90000431", 
        "@name": "Leader of the underground passages", 
        "@desc": "For $map:63000020$ champion of feasting and games ready\n$npc:11001620$$pp:는,은$ and guidance to $npc:11001545$ hayeotdago instructions in the underground passage.\nLet $npc:11001545$$pp:와,과$ in contact $map:63000017$.", 
        "@manual": "$npc:11001545$$pp:와,과$ tangential to members in $map:63000017$", 
        "@complete": "$npc:11001545$$pp:와,과$ tangential to members in $map:63000017$", 
        "@count": "0", 
        "@feature": "Striker", 
        "@locale": "", 
        "@locking": "0"
      }, 
      {
        "@questID": "90000432", 
        "@name": "Pollution is riding a sewer pipe", 
        "@desc": "$map:63000020$ a troubled look sick guidance for participation in $npc:29000098$ problem came flowing through the sewage pipes of $npc:11001545$$pp:는,은$ $map:63000017$ trying.\nDo I even have swallowed up $npc:29000098$$pp:가,이$ find $item:30000553$$pp:를,을$ $npc:29000098$$pp:를,을$'d better hurry processed.", 
        "@manual": "$item:30000553$ to recover from the $npc:29000098$", 
        "@complete": "Reporting to the situation $npc:11001545$", 
        "@count": "1", 
        "@feature": "Striker", 
        "@locale": "", 
        "@locking": "0"
      }, 
      {
        "@questID": "90000433", 
        "@name": "Player registration", 
        "@desc": "It can also leave a day sipbeon is left unintentionally in this guide with all kinds of problems to other colleagues $npc:11001545$.\n$npc:11001545$ in the waiting room of a fellow player, let $npc:11001546$$pp:를,을$ to meet.", 
        "@manual": "Find members $npc:11001546$ $map:63000018$", 
        "@complete": "Talking $npc:11001546$$pp:와,과$", 
        "@count": "0", 
        "@feature": "Striker", 
        "@locale": "", 
        "@locking": "0"
      }, 
      {
        "@questID": "90000434", 
        "@name": "Sound separates the wind", 
        "@desc": "$npc:11001546$ describe the strength of a champion and is called $map:63000020$ $npc:11001547$ released two ago, even the body enough to play in the game. $map:63000018$ lightly punching bag of hope even better to warm up.", 
        "@manual": "To warm up a punching bag", 
        "@complete": "$npc:11001546$$pp:와,과$ members to talk", 
        "@count": "1", 
        "@feature": "Striker", 
        "@locale": "", 
        "@locking": "0"
      }, 
      {
        "@questID": "90000435", 
        "@name": "Faster than sound", 
        "@desc": "In $npc:11001546$$pp:는,은$ $map:63000020$$pp:를,을$ unfold trifled gatdamyeo will see that their skills and their'd led directly.\nIf you gently relax your body enough I should be fine to see unfold is like $skill:11000001$$pp:를,을$ once.", 
        "@manual": "Using $skill:11000001$", 
        "@complete": "$npc:11001546$$pp:와,과$ members to talk", 
        "@count": "1", 
        "@feature": "Striker", 
        "@locale": "", 
        "@locking": "0"
      }, 
      {
        "@questID": "90000436", 
        "@name": "Bullet shots fist", 
        "@desc": "$npc:11001546$$pp:는,은$ $skill:11000001$ expand the power of the light seems to be unexpectedly surprised. But to not to flatter ground quickly to the changing level of technical basics say ... I hope to see unfold a different technique once. $skill:11000011$$pp:라면,이라면$ seems to be appropriate.", 
        "@manual": "Using $skill:11000011$", 
        "@complete": "$npc:11001546$$pp:와,과$ members to talk", 
        "@count": "1", 
        "@feature": "Striker", 
        "@locale": "", 
        "@locking": "0"
      }, 
      {
        "@questID": "90000437", 
        "@name": "VIP calls", 
        "@desc": "$npc:11001546$ $map:63000020$ game does not start until there is an indication of $npc:11001623$. Do you call that $map:63000019$$pp2:로,으로$ $npc:11001623$$pp:가,이$ Let go $map:63000019$$pp2:로,으로$.", 
        "@manual": "$map:63000019$$pp2:로,으로$To move", 
        "@complete": "$npc:11001623$$pp:와,과$Chat", 
        "@count": "0", 
        "@feature": "Striker", 
        "@locale": "", 
        "@locking": "0"
      }, 
      {
        "@questID": "90000438", 
        "@name": "Courtesy of VIP", 
        "@desc": "The wanted ahead of the duel between former champions $npc:11001623$$pp:는,은$ the game, holding the toast.\nBefore the duel, command your troops free mind is not cup it seemed much want to be fine. Let your $npc:11001624$ of Hong $npc:11001623$$pp:가,이$ $map:63000019$ to ask for drink orders.", 
        "@manual": "Order a drink of $npc:11001624$ $map:63000019$", 
        "@complete": "Get a drink of $npc:11001624$ $map:63000019$", 
        "@count": "0", 
        "@feature": "Striker", 
        "@locale": "", 
        "@locking": "0"
      }, 
      {
        "@questID": "90000439", 
        "@name": "New lesson", 
        "@desc": "Just in case I wanted as expected, according to the $npc:11001628$ seems that recommended to drink shots often about $npc:11001629$$pp:는,은$ before the match to the opponent.\nI will go back to work $map:63000019$$pp2:로,으로$ weigh met $npc:11001629$$pp:를,을$.", 
        "@manual": "Meet $map:63000019$ $npc:11001629$$pp:와,과$", 
        "@complete": "To trick the accused to $npc:11001629$ $map:63000019$", 
        "@count": "0", 
        "@feature": "Striker", 
        "@locale": "", 
        "@locking": "0"
      }, 
      {
        "@questID": "90000440", 
        "@name": "There is no option business", 
        "@desc": "The event is seen $npc:11001629$$pp:는,은$ $map:02000001$ VW wants to know the progress going on properly conducted by the royal family. He made the members indicated separately that they do not wish to $map:63000023$ priority will meet them.", 
        "@manual": "$map:63000023$Go to", 
        "@complete": "And tangential to the organizers waiting in $map:63000023$", 
        "@count": "0", 
        "@feature": "Striker", 
        "@locale": "", 
        "@locking": "0"
      }, 
      {
        "@questID": "90000441", 
        "@name": "Risas Port", 
        "@desc": "$map:63000023$The the members who were waiting on were in the face of cotton. $map:63000017$$pp:와,과$ $map:63000018$  $npc:11001545$$pp:와,과$ $npc:11001546$  According to the end of the Hyeonsig, I think it is expensive to sell out the items that are sold in the Black Crusade in advance... $npcName:11001631$  I'm really unwilling to help those guys...\nThere is no choice to present.\n\n어서 $map:02000062$$pp2:로,으로$ 가보자.", 
        "@manual": "$map:02000062$$pp2:로,으로$To move", 
        "@complete": "$npcName:11003180$$pp:와,과$Chat", 
        "@count": "0", 
        "@feature": "Striker", 
        "@locale": "", 
        "@locking": "0"
      }, 
      {
        "@questID": "90000442", 
        "@name": "Bench-unexpected", 
        "@desc": "$npc:11001624$$pp:가,이$ handing drinks drank enough drink.\nI hope that you return to $npc:11001623$.", 
        "@manual": "$npc:11001629$$pp:가,이$ evaluation for authorization drinks", 
        "@complete": "$npc:11001629$$pp:가,이$ evaluation for authorization drinks", 
        "@count": "0", 
        "@feature": "Striker", 
        "@locale": "", 
        "@locking": "0"
      }, 
      {
        "@questID": "90000443", 
        "@name": "A mysterious book", 
        "@desc": "", 
        "@manual": "Chaenggigi training equipment on Showcase", 
        "@complete": "Talking $npc:11001558$$pp:와,과$", 
        "@count": "0", 
        "@feature": "SoulBinder", 
        "@locale": "", 
        "@locking": "0"
      }, 
      {
        "@questID": "90000444", 
        "@name": "For followers of guidance", 
        "@desc": "", 
        "@manual": "$npcName:11001557$ meeting in death and $map:63000025$", 
        "@complete": "$npcName:11001557$ to death with dialogue", 
        "@count": "0", 
        "@feature": "SoulBinder", 
        "@locale": "", 
        "@locking": "0"
      }, 
      {
        "@questID": "90000445", 
        "@name": "Map of rigorous for students", 
        "@desc": "", 
        "@manual": "To go up on a pole balance training", 
        "@complete": "$npcName:11001557$ to death with dialogue", 
        "@count": "0", 
        "@feature": "SoulBinder", 
        "@locale": "", 
        "@locking": "0"
      }, 
      {
        "@questID": "90000446", 
        "@name": "Annie Marquez crystallization, Basic", 
        "@desc": "", 
        "@manual": "Using $skill:11100011$", 
        "@complete": "$npcName:11001557$ receive the death penalty to evaluate progress $skill:11100011$", 
        "@count": "1", 
        "@feature": "SoulBinder", 
        "@locale": "", 
        "@locking": "0"
      }, 
      {
        "@questID": "90000447", 
        "@name": "Rapid aggregation and release", 
        "@desc": "", 
        "@manual": "Using $skill:11100041$", 
        "@complete": "$npcName:11001557$ receive the death penalty to evaluate progress $skill:11100041$", 
        "@count": "1", 
        "@feature": "SoulBinder", 
        "@locale": "", 
        "@locking": "0"
      }, 
      {
        "@questID": "90000448", 
        "@name": "Master's Call", 
        "@desc": "", 
        "@manual": "$map:63000029$ $npcTitle:11001556$ visit the", 
        "@complete": "Talking $npcName:11001655$$pp:와,과$", 
        "@count": "0", 
        "@feature": "SoulBinder", 
        "@locale": "", 
        "@locking": "0"
      }, 
      {
        "@questID": "90000449", 
        "@name": "Light veil of enchantment Mountain", 
        "@desc": "", 
        "@manual": "Chains of seats to ensure $map:63000014$", 
        "@complete": "Talking $npc:11001655$$pp:와,과$", 
        "@count": "1", 
        "@feature": "SoulBinder", 
        "@locale": "", 
        "@locking": "0"
      }, 
      {
        "@questID": "90000450", 
        "@name": "Bizarre signs", 
        "@desc": "", 
        "@manual": "$map:63000029$$pp2:로,으로$ heading", 
        "@complete": "Communicating with the presence of unidentified", 
        "@count": "0", 
        "@feature": "SoulBinder", 
        "@locale": "", 
        "@locking": "0"
      }, 
      {
        "@questID": "90000451", 
        "@name": "Stars, modify, and ...", 
        "@desc": "", 
        "@manual": "Back $map:63000026$$pp2:로,으로$", 
        "@complete": "$npcName:11001671$ to death with dialogue", 
        "@count": "0", 
        "@feature": "SoulBinder", 
        "@locale": "", 
        "@locking": "0"
      }, 
      {
        "@questID": "90000452", 
        "@name": "Waves of shadow", 
        "@desc": "", 
        "@manual": "Entering $map:63000029$$pp2:로,으로$", 
        "@complete": "Talking $npc:11001673$$pp:와,과$", 
        "@count": "0", 
        "@feature": "SoulBinder", 
        "@locale": "", 
        "@locking": "0"
      }, 
      {
        "@questID": "90000453", 
        "@name": "Muna revelations of Crowley", 
        "@desc": "", 
        "@manual": "To prevent the entrance of the rocks $map:63000029$", 
        "@complete": "Talking $npc:11001556$$pp:와,과$", 
        "@count": "0", 
        "@feature": "SoulBinder", 
        "@locale": "", 
        "@locking": "0"
      }, 
      {
        "@questID": "90000454", 
        "@name": "Justification of the journey", 
        "@desc": "", 
        "@manual": "Listening to plan $npc:11001656$", 
        "@complete": "Ask $npcName:11001657$ opinion of the death penalty", 
        "@count": "0", 
        "@feature": "SoulBinder", 
        "@locale": "", 
        "@locking": "0"
      }, 
      {
        "@questID": "90000455", 
        "@name": "Hasan", 
        "@desc": "Guidance party while behind the veil cast light mountain burned revelation of the master, to promote the future was decided to $map:02000001$ line. Let's have a black shadow to hurry to swallow up even before facing $map:02000001$$pp2:로,으로$ $map:63000030$.", 
        "@manual": "$map:02000001$$pp2:로,으로$ heading", 
        "@complete": "$npcName:11003180$$pp:와,과$Chat", 
        "@count": "0", 
        "@feature": "SoulBinder", 
        "@locale": "", 
        "@locking": "0"
      }, 
      {
        "@questID": "90000456", 
        "@name": "Fist of 1 100", 
        "@desc": "", 
        "@manual": "Listening to the story of $npc:11001545$", 
        "@complete": "Listening to the story of $npc:11001545$", 
        "@count": "0", 
        "@feature": "Striker", 
        "@locale": "", 
        "@locking": "0"
      }, 
      {
        "@questID": "90000460", 
        "@name": "Shining Crystal", 
        "@desc": "To $map:02000100$$pp:를,을$ out activities on a larger stage to be strong than to say that now $npcName:11001674$. Finish the eyes of the boss, even if not the gender of the gray wolf chatneun skills, and that there was instructed to tell you how strong.", 
        "@manual": "", 
        "@complete": "Meet $npc:11001674$ in $map:52000034$ of $map:02000001$", 
        "@count": "", 
        "@feature": "Striker", 
        "@locale": "", 
        "@locking": "1"
      }, 
      {
        "@questID": "90000470", 
        "@name": "Strong man to become stronger?", 
        "@desc": "In the eyes of the boss than the car it should still have the skills of a gray wolf castle. Directed juraneun teach you how to be stronger and come down.", 
        "@manual": "", 
        "@complete": "Meet $npc:11001674$ in $map:52000034$ of $map:02000001$", 
        "@count": "", 
        "@feature": "Striker", 
        "@locale": "", 
        "@locking": "1"
      }, 
      {
        "@questID": "90000480", 
        "@name": "Shining Crystal", 
        "@desc": "$npc:11001716$ constantly emphasized that the veil of light should not neglect to perform came down from the mountain. If you listen to the words of the great things it said $npcName:11001707$$pp:는,은$ death may have naljido, strong, and he would tell you how.", 
        "@manual": "", 
        "@complete": "Meet $npc:11001707$ in $map:52000041$ of $map:02000001$", 
        "@count": "", 
        "@feature": "SoulBinder", 
        "@locale": "", 
        "@locking": "1"
      }, 
      {
        "@questID": "90000490", 
        "@name": "Strong man to become stronger?", 
        "@desc": "Information and navigation should be stronger than the well nyago well and also would occur even more clues to find a shape memory performance $npc:11001716$$pp:가,이$ told $npc:11001707$.\nHow to teach a stronger getdamyeo calling $npc:11001707$$pp:가,이$.", 
        "@manual": "", 
        "@complete": "Meet $npc:11001707$ in $map:52000041$ of $map:02000001$", 
        "@count": "", 
        "@feature": "SoulBinder", 
        "@locale": "", 
        "@locking": "1"
      }, 
      {
        "@questID": "90000500", 
        "@name": "The Basics of Fishing", 
        "@desc": "$npc:11001861$, who sells fishing goods in $map:52000058$, kindly hands you a fishing pole and suggests that you to enjoy $map:52000058$'s wonderful sea breeze and try fishing.", 
        "@manual": "Catch Pineapple Fish in $map:52000058$", 
        "@complete": "Speak with $npc:11001861$ in $map:63000044$", 
        "@count": "1", 
        "@feature": "ContentsGuide01", 
        "@locale": "", 
        "@locking": "0"
      }, 
      {
        "@questID": "90000501", 
        "@name": "미끼의 유혹", 
        "@desc": "$map:52000058$에서 낚시용품을 팔고 있는 $npc:11001861$$pp:는,은$ 선심 쓰듯 $item:20000342$ 미끼를 건네주며 별사탕 꽃게를 낚아보라고 권유한다.\n\n별사탕 꽃게는 오직 $item:20000342$ 미끼를 사용할 때만 낚을 수 있다.\n$item:20000342$ 미끼는 $npc:11001861$에게서 추가 구입할 수 있다.", 
        "@manual": "$item:20000342$ 미끼 사용하기|$map:63000044$에서 $item:20000342$ 미끼로 별사탕 꽃게 낚기", 
        "@complete": "$map:63000044$에서 $npc:11001861$$pp:와,과$ 대화하기", 
        "@count": "1|1", 
        "@feature": "ContentsGuide01", 
        "@locale": "", 
        "@locking": "1"
      }, 
      {
        "@questID": "90000510", 
        "@name": "낚시꾼의 길", 
        "@desc": "$map:52000058$에서 낚시용품을 팔고 있는 $npc:11001861$$pp:는,은$ 물이 잔뜩 오른 물고기가 가득하다며 물때가 넘기 전에 낚시를 하라고 권한다.", 
        "@manual": "$map:63000044$에서 물고기 낚기", 
        "@complete": "$map:63000044$에서 $npc:11001861$$pp:와,과$ 대화하기", 
        "@count": "1", 
        "@feature": "ContentsGuide01", 
        "@locale": "", 
        "@locking": "1"
      }, 
      {
        "@questID": "90000511", 
        "@name": "낚시의 기술", 
        "@desc": "$map:52000058$에서 낚시용품을 팔고 있는 $npc:11001861$$pp:는,은$ 선심 쓰듯 $item:32000020$ 하나를 건네주며 일반 낚싯대로 느낄 수 없는 뛰어난 성능을 체험해보라고 한다.", 
        "@manual": "$map:63000044$에서 $item:32000020$$pp:를,을$ 이용해 물고기 낚기", 
        "@complete": "$map:63000044$에서 $npc:11001861$$pp:와,과$ 대화하기", 
        "@count": "1", 
        "@feature": "ContentsGuide01", 
        "@locale": "", 
        "@locking": "1"
      }, 
      {
        "@questID": "90000520", 
        "@name": "낚시꾼의 호기심이란… ", 
        "@desc": "원인 모를 오염원으로 탁해진 $map:52000058$!\n$npc:11001861$$pp:는,은$ 그 속에서 지금껏 보지 못했던 괴이한 물고기를 확인해보고 싶다며 함께 낚시를 시도해보자고 말한다.", 
        "@manual": "오염된 $map:52000058$에서 괴이한 물고기 낚기", 
        "@complete": "$map:52000058$에서 $npc:11001861$$pp:와,과$ 대화하기", 
        "@count": "1", 
        "@feature": "ContentsGuide01", 
        "@locale": "", 
        "@locking": "1"
      }, 
      {
        "@questID": "90000521", 
        "@name": "불바다의 신비", 
        "@desc": "순식간에 폭발해버린 화산… \n$map:52000058$의 본모습은 바다 깊은 곳에서부터 부글부글 끓어오르고 있던 화산이었다. 그리고… 끓어오르는 용암 속에서 정체모를 괴이한 생명체가 튀어오르는데…  ", 
        "@manual": "용암이 끓어오르는 $map:52000059$에서 괴이한 물고기 낚기", 
        "@complete": "$map:52000059$에서 $npc:11001861$$pp:와,과$ 대화하기", 
        "@count": "1", 
        "@feature": "ContentsGuide01", 
        "@locale": "", 
        "@locking": "1"
      }, 
      {
        "@questID": "90000530", 
        "@name": "Melody to My Ears", 
        "@desc": "You accidentally came across $map:52000060$, attracted by its music!\nTo participate in the upcoming Moonlight Ensemble, everyone is hard at work with their practice. While this is going on, you were lucky enough to obtain an instrument and music score for training from $npcName:11001866$.\nPick up the instrument and try performing.", 
        "@manual": "Use Music Score and Play Piano in $map:52000060$", 
        "@complete": "Speak with $npc:11001866$ in $map:52000060$", 
        "@count": "0", 
        "@feature": "ContentsGuide01", 
        "@locale": "", 
        "@locking": "0"
      }, 
      {
        "@questID": "90000540", 
        "@name": "손 끝의 선율", 
        "@desc": "$map:52000060$의 $npc:11001866$$pp:는,은$ 새로운 악기 연주도 해보라고 권유한다.", 
        "@manual": "$map:52000060$에서 악보를 보고 기타 연주 연습하기", 
        "@complete": "$map:52000060$에서 $npc:11001866$$pp:와,과$ 대화하기", 
        "@count": "0", 
        "@feature": "ContentsGuide01", 
        "@locale": "", 
        "@locking": "1"
      }, 
      {
        "@questID": "90000550", 
        "@name": "환상의 연주", 
        "@desc": "$map:52000061$에서 당황한 얼굴로 어쩔 줄 몰라하며 서 있던 $npc:11001866$!\n합주회 공연날인데 주인공이나 다름없는 피아노 연주자가 연락도 없이 나타나지 않고 있다고… \n공연이 마냥 지체되도록 내버려 둘 수는 없을 것 같다. \n마음을 가다듬고 공연 무대로 나서보자.", 
        "@manual": "$map:52000061$에서 달빛 합주회 공연하기", 
        "@complete": "$map:52000061$에서 $npc:11001866$$pp:와,과$ 대화하기", 
        "@count": "0", 
        "@feature": "ContentsGuide01", 
        "@locale": "", 
        "@locking": "1"
      }, 
      {
        "@questID": "90000560", 
        "@name": "Homespun Fashion", 
        "@desc": "$npcName:11001176$ is the most prestigious designer in Maple World, and she's convinced she has got the fashion for you. But can she really come up with an outfit that fits with your style?", 
        "@manual": "Use a Template to Design Your Own Outfit", 
        "@complete": "Speak with $npc:11001176$ in $map:52000062$", 
        "@count": "0", 
        "@feature": "ContentsGuide01", 
        "@locale": "", 
        "@locking": "0"
      }, 
      {
        "@questID": "90000561", 
        "@name": "A Perfect Fit", 
        "@desc": "$npcName:11001176$ of $map:52000062$ won't acknowledge your talent for design until you model your new outfit for her.", 
        "@manual": "Equip the Outfit You Designed", 
        "@complete": "Speak with $npc:11001176$ in $map:52000062$", 
        "@count": "0", 
        "@feature": "ContentsGuide01", 
        "@locale": "", 
        "@locking": "0"
      }, 
      {
        "@questID": "90000562", 
        "@name": "Smile!", 
        "@desc": "$npcName:11001176$ of $map:52000062$ begrudgingly admits that you may have an eye for fashion. Speak to her for an introduction to the League of Fashionistas.", 
        "@manual": "Change Your Profile Picture", 
        "@complete": "Speak with $npc:11001176$ in $map:52000062$", 
        "@count": "0", 
        "@feature": "ContentsGuide01", 
        "@locale": "", 
        "@locking": "0"
      }, 
      {
        "@questID": "90000590", 
        "@name": "Introduction to Reforging", 
        "@desc": "$npc:11001867$ possesses a special reforging talent in creating charming accessories!\nThey greet you with a warm welcome as soon as you walk into the workshop and hands you materials, telling you to try creating something.\n\nThrough the bottom right [Life Skill] menu, open the [Life Skill > Craft > Reforging] window and try crafting.", 
        "@manual": "Create $item:12000004$ from $item:33000004$", 
        "@complete": "Speak with $npc:11001867$ in $map:63000045$", 
        "@count": "1", 
        "@feature": "ContentsGuide01", 
        "@locale": "", 
        "@locking": "0"
      }, 
      {
        "@questID": "90000600", 
        "@name": "Labor of Goodness", 
        "@desc": "You've come across $npc:11001867$ again in $map:63000046$!\nThey ask that you help them get important material to create an accessory for a special order they received.", 
        "@manual": "Mine $item:33000023$ in $map:63000046$|Gather $item:33000023$", 
        "@complete": "Meet Rachael at Nerman Mines", 
        "@count": "1|1", 
        "@feature": "ContentsGuide01", 
        "@locale": "", 
        "@locking": "0"
      }, 
      {
        "@questID": "90000610", 
        "@name": "Affection of Sisters", 
        "@desc": "$npc:11001867$ appears troubled because she was just about to head off to entrust her sister with an enchantment.\nShe says that right when she was about to leave, with a crash, the door had burst open and $npcName:11001871$ had stormed in, saying that they had an item that needed to be reforged.\n$npcName:11001871$ says they dislike standing around doing nothing while $npc:11001868$ is reforging, and tells you that if you have something to enchant, you should bring it.", 
        "@manual": "Succeed at the enchantment you've entrusted $npcName:11001871$ with", 
        "@complete": "Speak with $npc:11001871$ in $map:52000057$", 
        "@count": "1", 
        "@feature": "ContentsGuide01", 
        "@locale": "", 
        "@locking": "0"
      }, 
      {
        "@questID": "90000611", 
        "@name": "The Cost of Smithing", 
        "@desc": "$npc:11001871$, who you met in $map:52000057$, says they're feeling great and would like to enchant some more.", 
        "@manual": "Succeed at enchanting", 
        "@complete": "Speak with $npc:11001871$ in $map:52000057$", 
        "@count": "1", 
        "@feature": "ContentsGuide01", 
        "@locale": "", 
        "@locking": "0"
      }, 
      {
        "@questID": "90000620", 
        "@name": "숲과 바다", 
        "@desc": "$map:63000046$의 특이한 지질학적 구조 때문에  $map:02000076$에서 쉽게 구하기 힘든 숲에서 나오는 $item:33000024$와 해변가에서 구할 수 있는 $item:33000025$$pp:를,을$ 채광할 수 있다고 말한다.", 
        "@manual": "$map:63000046$에서 채광으로 $item:33000024$ 모으기|$map:63000046$에서 채광으로 $item:33000025$ 모으기", 
        "@complete": "$map:63000046$에서 $npc:11001867$$pp:와,과$ 대화하기", 
        "@count": "1|1", 
        "@feature": "ContentsGuide01", 
        "@locale": "", 
        "@locking": "1"
      }, 
      {
        "@questID": "90000630", 
        "@name": "끝나지 않는 부탁", 
        "@desc": "$map:63000046$에서 만난 $npc:11001867$$pp:는,은$ 세공품 주문을 한번에 너무 많이 받아 재료가 턱없이 모자라다며 도움을 요청한다.", 
        "@manual": "$map:63000046$에서 채광으로 $item:33000023$ 모으기", 
        "@complete": "$map:63000046$에서 $npc:11001867$$pp:와,과$ 대화하기", 
        "@count": "1", 
        "@feature": "ContentsGuide01", 
        "@locale": "", 
        "@locking": "1"
      }, 
      {
        "@questID": "90000631", 
        "@name": "채광의 묘수", 
        "@desc": "$npc:11001867$$pp:는,은$ 이 속도로는 약속한 납품일에 맞춰서 제작하기가 힘들다고 말하며, $item:20000343$$pp:가,이$ 있으면 훨씬 더 빠르게 작업할 수 있을 거라고 푸념한다.", 
        "@manual": "", 
        "@complete": "$map:63000046$에서 $npc:11001870$$pp:와,과$ 대화하기", 
        "@count": "", 
        "@feature": "ContentsGuide01", 
        "@locale": "", 
        "@locking": "1"
      }, 
      {
        "@questID": "90000632", 
        "@name": "살랑 살랑 꼬리털", 
        "@desc": "외양간에서 일을 하던 $npc:11001870$$pp:는,은$ $item:20000343$$pp:는,은$ 모두 떨어져 버렸지만, 만들 수는 있을 거라고 말한다.", 
        "@manual": "$map:63000046$ 외양간에서 $item:33000041$ 모으기", 
        "@complete": "$map:63000046$에서 $npc:11001870$$pp:와,과$ 대화하기", 
        "@count": "1", 
        "@feature": "ContentsGuide01", 
        "@locale": "", 
        "@locking": "1"
      }, 
      {
        "@questID": "90000633", 
        "@name": "꼬리털의 변신", 
        "@desc": "$npc:11001870$$pp:는,은$ $item:33000041$$pp2:로,으로$ $item:20000343$$pp:를,을$ 직접 만들어보라고 한다.", 
        "@manual": "$item:20000343$ 제작하기", 
        "@complete": "$map:63000046$에서 $npc:11001867$$pp:와,과$ 대화하기", 
        "@count": "1", 
        "@feature": "ContentsGuide01", 
        "@locale": "", 
        "@locking": "1"
      }, 
      {
        "@questID": "90000634", 
        "@name": "번개같은 채광", 
        "@desc": "$npc:11001867$$pp:는,은$ 마침 다른 길드원이 남는 $item:20000343$$pp:를,을$ 건네주고 갔다며, 제작한 $item:20000343$$pp:를,을$ 직접 사용해서 세공 재료 구하는 것을 마저 도와달라고 말한다.", 
        "@manual": "$item:20000343$ 사용하기|$map:63000046$에서 채광으로 $item:33000023$ 모으기", 
        "@complete": "$map:63000046$에서 $npc:11001867$$pp:와,과$ 대화하기", 
        "@count": "1|1", 
        "@feature": "ContentsGuide01", 
        "@locale": "", 
        "@locking": "1"
      }, 
      {
        "@questID": "90000640", 
        "@name": "Far and Beyond", 
        "@desc": "You've randomly come across $map:52000063$!\n$npc:11001873$ was looking for a good driver to test the super engine that they've invented. You've agreed to enter the rally upon their request and ride the car that has the super engine equipped. \nYou might as well get first place while you're at it, right?", 
        "@manual": "Follow $map:52000063$'s track and drive to the target point", 
        "@complete": "Meet $npc:11001872$ at $map:52000063$", 
        "@count": "0", 
        "@feature": "ContentsGuide01", 
        "@locale": "", 
        "@locking": "0"
      }, 
      {
        "@questID": "90000650", 
        "@name": "Higher Than Ever", 
        "@desc": "You've come across $npc:11001873$ again in $map:52000064$!\nThey tell you that they've put the super engine invention on hold and have been focusing on flight research, and presents you with $item:40400001$.\nIs it really safe to entrust this huge balloon with your life...?\nAlthough a bit uneasy, you're no quitter. You're a true adventurer!\nRelax your body and mind and entrust this balloon with your body, and fly over to the building on the other side!", 
        "@manual": "Follow $map:52000064$'s rainbow and fly to the building on the other side", 
        "@complete": "Meet $npc:11001874$ at $map:52000064$", 
        "@count": "0", 
        "@feature": "ContentsGuide01", 
        "@locale": "", 
        "@locking": "0"
      }, 
      {
        "@questID": "90000660", 
        "@name": "Fundamentals of Furnishing", 
        "@desc": "$npc:11000185$ has temporarily dispatched a head servant as an after service to help decorate your empty house to make it more lively.\n\nClick the 'My House' icon on the bottom right or press the shortcut key [T] to go to your house.\n\nPress the shortcut key [B] in your house to change to Furnish Mode, then search for  [$item:50200094$] from the furnishing items to proceed with the quest.", 
        "@manual": "Install $item:50200094$|Rotate $item:50200094$|Remove $item:50200094$", 
        "@complete": "Speak with $npc:11001876$ at your house", 
        "@count": "1|1|1", 
        "@feature": "ContentsGuide01", 
        "@locale": "", 
        "@locking": "0"
      }, 
      {
        "@questID": "90000661", 
        "@name": "Style Search", 
        "@desc": "$npc:11001876$ suggests that you purchase items that fit your taste and to try placing them.\n\nPress the shortcut key [B] in your house to change to Furnish Mode, then search for [$item:50200108$] from the furnishing items to proceed with the quest.", 
        "@manual": "Purchase and place $item:50200108$", 
        "@complete": "Speak with $npc:11001876$ at your house", 
        "@count": "1", 
        "@feature": "ContentsGuide01", 
        "@locale": "", 
        "@locking": "0"
      }, 
      {
        "@questID": "90000670", 
        "@name": "The Importance of Decorating", 
        "@desc": "$npc:11001876$ gives you $item:50200299$ and tells you to try placing it inside the house. \n\nWhile inside your house, press the Furnishing mode shortcut key (<font color=\"#ffd200\"><b>B</b></font> by default), then search for [$item:50200299$] from among the furnishings to proceed with the quest.", 
        "@manual": "Arrange $item:50200299$ in your home", 
        "@complete": "Speak with $npc:11001876$ at your house", 
        "@count": "1", 
        "@feature": "ContentsGuide01", 
        "@locale": "", 
        "@locking": "0"
      }, 
      {
        "@questID": "90000680", 
        "@name": "Classy Interior", 
        "@desc": "$npc:11001876$ says the house looks gloomy and says to replace the props with those of the latest trend.\n\nPress the shortcut key [B] in your house to change to Furnish Mode, then search for [$item:50200300$] and [$item:50200080$] from the furnishing items to proceed with the quest.", 
        "@manual": "Place $item:50200300$|Place $item:50200080$", 
        "@complete": "Speak with $npc:11001876$ at your house", 
        "@count": "1|1", 
        "@feature": "ContentsGuide01", 
        "@locale": "", 
        "@locking": "0"
      }, 
      {
        "@questID": "90000690", 
        "@name": "Form a Family", 
        "@desc": "$npcName:11001877$ that manages the livestock farm in the $map:02000076$ vicinity says they will give you $item:50400159$ for free and to try raising it.\n\nPress the shortcut key [B] in your house to change to Furnish Mode, then search for [$item:50400159$] from the stockbreeding items to proceed with the quest.", 
        "@manual": "Install $item:50400159$ in your home", 
        "@complete": "Speak with $npc:11001877$ at your house", 
        "@count": "1", 
        "@feature": "ContentsGuide01", 
        "@locale": "", 
        "@locking": "0"
      }, 
      {
        "@questID": "90000691", 
        "@name": "무럭무럭 자라다", 
        "@desc": "$npc:11001877$$pp:는,은$ $item:50400159$ 안에 있는 녀석들이 배가 고픈 것 같다며 먹이를 주라고 말한다.\n\n초록색 큐브가 달린 [$item:50400159$] 근처로 가서 액션 키를 누르고 사료를 주도록 하자.", 
        "@manual": "내 집에 설치된 $item:50400159$에 먹이주기", 
        "@complete": "내 집에서 $npc:11001877$$pp:와,과$ 대화하기", 
        "@count": "1", 
        "@feature": "ContentsGuide01", 
        "@locale": "", 
        "@locking": "1"
      }, 
      {
        "@questID": "90000692", 
        "@name": "Gratitude", 
        "@desc": "$npc:11001877$ says that its time to thin out the feathers of $item:50400159$'s chickens.\n\nGo near [$item:50400160$] with a green cube and press the action key to harvest the product.", 
        "@manual": "Attempt to harvest $item:33000026$ from $item:50400159$ installed in your house", 
        "@complete": "Speak with $npc:11001877$ at your house", 
        "@count": "1", 
        "@feature": "ContentsGuide01", 
        "@locale": "", 
        "@locking": "0"
      }, 
      {
        "@questID": "90000693", 
        "@name": "파다다닭", 
        "@desc": "$npc:11001877$$pp:는,은$ $item:50400159$의 닭들의 깃털은 옷감을 만들 때 유용한 재료로 쓰인다며, 깃털이 망가지지 않게 솎을 수 있도록 연습이 필요하다고 말한다.\n\n초록색 큐브가 달린 [$item:50400159$] 근처로 가서 액션 키를 누르고 생산물을 수확하자.\n단축키 [B]를 눌러서 건설 모드로 전환 후, [$item:50400159$]$pp:를,을$ 추가로 설치하면 더 빨리 생산물을 수확할 수 있다.", 
        "@manual": "내 집에 설치된 $item:50400159$에서 $item:33000026$ 수확하기", 
        "@complete": "내 집에서 $npc:11001877$$pp:와,과$ 대화하기", 
        "@count": "1", 
        "@feature": "ContentsGuide01", 
        "@locale": "", 
        "@locking": "1"
      }, 
      {
        "@questID": "90000700", 
        "@name": "새로운 식구", 
        "@desc": "$npc:11001877$$pp:는,은$ 다른 가축도 한번 키워봐야 하지 않겠냐며 $item:50400160$$pp:를,을$ 내준다.\n\n내 집에서 단축키 [B]를 눌러서 건설 모드로 전환 후, 축산용 자재 아이템 중  [$item:50400160$]$pp:를,을$ 검색해서 찾은 후 퀘스트를 진행해보자.", 
        "@manual": "내 집에 $item:50400160$ 설치하기", 
        "@complete": "내 집에서 $npc:11001877$$pp:와,과$ 대화하기", 
        "@count": "1", 
        "@feature": "ContentsGuide01", 
        "@locale": "", 
        "@locking": "1"
      }, 
      {
        "@questID": "90000710", 
        "@name": "축산 기술의 세계", 
        "@desc": "$npc:11001877$$pp:는,은$ 한결 쉽게 수확을 할 수 있도록 $item:20000350$$pp:를,을$ 만들어보자며 그 재료가 되는 $item:33000001$$pp:를,을$ 건네준다.\n\n오른쪽 하단 [생활] 메뉴에서 [생활 기술 > 제작 > 대장] 창을 열어서 제작을 시도해보자.\n\n재료가 없거나 부족할 경우에는 $map:02000002$에서 구리 광맥을 찾아 직접 채광을 하도록 하자.\n", 
        "@manual": "$item:33000001$$pp2:로,으로$ $item:20000350$ 제작하기", 
        "@complete": "내 집에서 $npc:11001877$$pp:와,과$ 대화하기", 
        "@count": "1", 
        "@feature": "ContentsGuide01", 
        "@locale": "", 
        "@locking": "1"
      }, 
      {
        "@questID": "90000711", 
        "@name": "축산계의 신기술", 
        "@desc": "$npc:11001877$$pp:는,은$ $item:20000350$ 효과를 체험해보라고 한다.\n$item:20000350$$pp:를,을$ 이용해서 $item:33000027$$pp:를,을$ 수확해보자.\n\n초록색 큐브가 달린 [$item:50400160$] 근처로 가서 액션 키를 누르고 생산물을 수확하자.", 
        "@manual": "$item:20000350$ 사용하기|내 집에 설치된 $item:50400160$에서 $item:33000027$ 수확하기", 
        "@complete": "내 집에서 $npc:11001877$$pp:와,과$ 대화하기", 
        "@count": "1|1", 
        "@feature": "ContentsGuide01", 
        "@locale": "", 
        "@locking": "1"
      }, 
      {
        "@questID": "90000720", 
        "@name": "Let's enjoy Maple World together!", 
        "@desc": "The Maple Guild Union supports all guilds and helps the lives of the adventurers of Maple World!\n$npc:11003079$, who is in charge of various tasks, urges you to join a guild and take part in hearty exchanges with other adventurers! Take advantage of the various benefits!\n\nFrom the bottom right [Community] menu, open the [Guild] window and search for guilds. Apply for a guild or create a new guild and become the guild leader!\n(If you've already applied to a guild, either wait until the guild application is approved or try applying again!)", 
        "@manual": "Try applying to a guild you want to be a part of or create a guild", 
        "@complete": "Speak with $npc:11003079$ in $map:02000394$", 
        "@count": "0", 
        "@feature": "ContentsGuide01", 
        "@locale": "", 
        "@locking": "0"
      }, 
      {
        "@questID": "90000730", 
        "@name": "Herb Doctor Jorge", 
        "@desc": "$npc:11003140$, who you met in $map:63000052$, farms ancient and endangered species of rare herbs. They introduce the flower garden that preserves these herbs to you. They ask that you try collecting the $item:33000166$ herb yourself and experience its unique scent.", 
        "@manual": "Mine $item:33000166$ in $map:63000052$|Gather $item:33000166$", 
        "@complete": "Speak with $npc:11003140$ in $map:63000052$", 
        "@count": "1|1", 
        "@feature": "ContentsGuide02", 
        "@locale": "", 
        "@locking": "0"
      }, 
      {
        "@questID": "90000740", 
        "@name": "새로운 향기", 
        "@desc": "$map:63000052$의 $npc:11003140$$pp:는,은$ 멸종된 줄 알았다가 우연히 건조된 뿌리를 발견해서 재배에 성공한 $item:33000167$$pp:와,과$ $item:33000168$ 채집을 도와달라고 말한다.", 
        "@manual": "$map:63000052$에서 채집으로 $item:33000167$ 모으기|$map:63000052$에서 채집으로 $item:33000168$ 모으기", 
        "@complete": "$map:63000052$에서 $npc:11003140$$pp:와,과$ 대화하기", 
        "@count": "1|1", 
        "@feature": "ContentsGuide02", 
        "@locale": "", 
        "@locking": "1"
      }, 
      {
        "@questID": "90000750", 
        "@name": "연금술사의 주문", 
        "@desc": "$map:63000052$에 갑자기 나타난 의문의 $npc:11003143$!\n$map:02000146$에서 부상을 입은 수호군들의 치료제를 만들 목적으로 대량의 $item:33000166$$pp:를,을$ 주문하고서는 바람같이 사라진다.\n그의 정체 확인은 $npcName:11003140$에게 맡기고, 요정들을 도와서 $map:63000052$에 있는 $item:33000166$$pp:를,을$ 채집하자.", 
        "@manual": "$map:63000052$에서 $item:33000166$ 채집하기", 
        "@complete": "$map:63000052$에서 $npc:11003140$$pp:와,과$ 대화하기", 
        "@count": "1", 
        "@feature": "ContentsGuide02", 
        "@locale": "", 
        "@locking": "1"
      }, 
      {
        "@questID": "90000751", 
        "@name": "화원의 요리사", 
        "@desc": "$map:63000052$의 $npc:11003140$$pp:는,은$ 화원 언덕에서 요정들을 위해 요리를 하고 있는 $npcName:11003141$에게 $item:33000169$$pp:를,을$ 가져다 주고 $item:20000444$$pp:를,을$ 만들어 달라는 부탁을 전하라고 한다.", 
        "@manual": "$map:63000052$에서 $item:33000169$ 따기", 
        "@complete": "$map:63000052$에서 $npc:11003141$$pp:와,과$ 대화하기", 
        "@count": "1", 
        "@feature": "ContentsGuide02", 
        "@locale": "", 
        "@locking": "1"
      }, 
      {
        "@questID": "90000752", 
        "@name": "비법 전수", 
        "@desc": "$map:63000052$ 언덕에서 요정들을 위해 요리를 하고 있는 $npcTitle:11003141$$pp:는,은$ 레시피를 알려줄 테니 $npc:11003140$$pp:가,이$ 부탁한 $item:20000444$$pp:를,을$ 직접 만들어 보라고 말한다.", 
        "@manual": "$map:63000052$에서 딴 $item:33000169$으로 $item:20000444$ 만들기", 
        "@complete": "$map:63000052$에서 $npc:11003140$$pp:와,과$ 대화하기", 
        "@count": "1", 
        "@feature": "ContentsGuide02", 
        "@locale": "", 
        "@locking": "1"
      }, 
      {
        "@questID": "90000753", 
        "@name": "쫀득쫀득 감말랭이", 
        "@desc": "$map:63000052$의 $npc:11003140$$pp:는,은$ $item:20000444$$pp:를,을$ 먹고 $item:33000166$$pp:를,을$ 채집해보라고 말한다.\n\n요리 재료가 되는 $item:33000169$$pp:가,이$ 부족하다면 $map:63000052$의 감나무에서 추가로 획득할 수 있다.\n오른쪽 하단 [생활기술] 메뉴를 통해 $item:20000444$$pp:를,을$ 추가로 만들 수 있다.", 
        "@manual": "$item:20000444$ 먹기|$map:63000052$에서 $item:33000166$ 모으기", 
        "@complete": "$map:63000052$에서 $npc:11003140$$pp:와,과$ 대화하기", 
        "@count": "1|1", 
        "@feature": "ContentsGuide02", 
        "@locale": "", 
        "@locking": "1"
      }, 
      {
        "@questID": "90000760", 
        "@name": "Starlight Boy's Gift", 
        "@desc": "One day, $npcName:11003142$, a mystical, blonde boy unexpectedly appeared at my house! \nThey said they want to become my friend and hands you a gift.", 
        "@manual": "Install $item:50400191$ in your home", 
        "@complete": "Speak with $npc:11003142$ at your house", 
        "@count": "1", 
        "@feature": "ContentsGuide02", 
        "@locale": "", 
        "@locking": "0"
      }, 
      {
        "@questID": "90000761", 
        "@name": "정성어린 손길", 
        "@desc": "어느 날 갑자기 예고도 없이 우리 집을 찾아온 금발의 신비한 소년 $npcName:11003142$! \n우정의 선물로 자신이 준 $item:50400191$에 거름을 주라고 한다.", 
        "@manual": "내 집에 설치된 $item:50400191$에 거름 주기", 
        "@complete": "내 집에서 $npc:11003142$$pp:와,과$ 대화하기", 
        "@count": "1", 
        "@feature": "ContentsGuide02", 
        "@locale": "", 
        "@locking": "1"
      }, 
      {
        "@questID": "90000762", 
        "@name": "The Joy of Harvest", 
        "@desc": "One day, $npcName:11003142$, a mystical, blonde boy unexpectedly appeared at my house!\nThey ask that you harvest $item:33000118$ from$item:50400191$ that they gave you as a gift of friendship. ", 
        "@manual": "Attempt to harvest $item:33000118$ from $item:50400191$ installed in your house", 
        "@complete": "Speak with $npc:11003142$ at your house", 
        "@count": "1", 
        "@feature": "ContentsGuide02", 
        "@locale": "", 
        "@locking": "0"
      }, 
      {
        "@questID": "90000763", 
        "@name": "풍요로운 시간", 
        "@desc": "어느 날 갑자기 예고도 없이 우리 집을 찾아온 금발의 신비한 소년 $npcName:11003142$! \n우정의 선물로 자신이 준 $item:50400191$에서 $item:33000118$$pp:를,을$ 수확하라고 한다. ", 
        "@manual": "내 집에 설치된 $item:50400191$에서 $item:33000118$ 수확하기", 
        "@complete": "내 집에서 $npc:11003142$$pp:와,과$ 대화하기", 
        "@count": "1", 
        "@feature": "ContentsGuide02", 
        "@locale": "", 
        "@locking": "1"
      }, 
      {
        "@questID": "90000770", 
        "@name": "넝쿨째 굴러오다", 
        "@desc": "친구로서 다시 찾아온 금발의 신비한 소년 $npcName:11003142$! \n이번에는 우정의 선물로 $item:50400192$$pp:를,을$ 주며 키워보라고 말한다.", 
        "@manual": "내 집에 $item:50400192$ 설치하기", 
        "@complete": "내 집에서 $npc:11003142$$pp:와,과$ 대화하기", 
        "@count": "1", 
        "@feature": "ContentsGuide02", 
        "@locale": "", 
        "@locking": "1"
      }, 
      {
        "@questID": "90000780", 
        "@name": "연금술사의 묘약", 
        "@desc": "$npcName:11003142$$pp:를,을$ 따라 내 집에 방문한 낯선 손님. \n자신을 $npc:11003143$$pp:라,이라$ 소개하며, 재배 활동에 도움이 되는 약을 제조할 수 있는 연금 레시피를 알려준다.\n\n$item:20000445$의 연금 재료가 되는 $item:33000099$$pp:는,은$ 채집 활동을 통해 추가로 획득할 수 있다. ", 
        "@manual": "$item:33000099$$pp:를,을$ 연금 재료로 $item:20000445$ 만들기", 
        "@complete": "내 집에서 $npc:11003143$$pp:와,과$ 대화하기", 
        "@count": "1", 
        "@feature": "ContentsGuide02", 
        "@locale": "", 
        "@locking": "1"
      }, 
      {
        "@questID": "90000781", 
        "@name": "호박 대잔치", 
        "@desc": "$npc:11003143$$pp:는,은$ $item:20000445$$pp:를,을$ 먹고 영양제 효능이 유지되는 동안 내 집에서 재배 중인 $item:33000120$$pp:를,을$ 수확해보라고 말한다.\n\n$item:20000445$의 연금 재료가 되는 $item:33000099$$pp:는,은$ 채집 활동을 통해 추가로 획득할 수 있다. \n", 
        "@manual": "$item:20000445$ 먹기|내 집에서 $item:33000120$ 수확하기", 
        "@complete": "내 집에서 $npc:11003142$$pp:와,과$ 대화하기", 
        "@count": "1|1", 
        "@feature": "ContentsGuide02", 
        "@locale": "", 
        "@locking": "1"
      }, 
      {
        "@questID": "90000790", 
        "@name": "Hungry monsters?", 
        "@desc": "$npc:11003505$$pp:는,은$If you want to know how to housebreak a monster, make a walk to the horse. $npc:11003507$ ", 
        "@manual": "$npc:11003507$$pp:와,과$Chat", 
        "@complete": "$npc:11003507$$pp:와,과$Chat", 
        "@count": "0", 
        "@feature": "ContentsGuide03", 
        "@locale": "", 
        "@locking": "0"
      }, 
      {
        "@questID": "90000791", 
        "@name": "Hungry Monster's Special meal", 
        "@desc": "$npc:11003507$$pp:는,은$If you want to tame monsters, you need special items. I'd be giving him a break out of the box when it comes out. $npc:11003508$  $item:63000000$$pp:를,을$ $item:30000882$$pp:를,을$", 
        "@manual": "$item:30000882$Save", 
        "@complete": "$npc:11003507$$pp:와,과$Chat", 
        "@count": "1", 
        "@feature": "ContentsGuide03", 
        "@locale": "", 
        "@locking": "0"
      }, 
      {
        "@questID": "90000792", 
        "@name": "Taming the Hungry Monster", 
        "@desc": "$npc:11003503$$pp:는,은$You can use the hungry monsters to make your monsters come and go. $item:63000000$$pp:를,을$ You can also meet other than hungry.\n$item:61000002$$pp:는,은$ $map:63000056$ The haunted area is confirmed by the pet.", 
        "@manual": "Tame on the Hungry $item:61000002$$pp:를,을$", 
        "@complete": "$npc:11003503$$pp:와,과$Chat", 
        "@count": "1", 
        "@feature": "ContentsGuide03", 
        "@locale": "", 
        "@locking": "0"
      }, 
      {
        "@questID": "90000793", 
        "@name": "Monster Hunter's Road", 
        "@desc": "$npc:11003503$$pp:는,은$A naïve monster can be used to take the first step. $item:63100000$$pp:를,을$ $item:63100000$$pp:를,을$", 
        "@manual": "$item:63100000$Making", 
        "@complete": "$npc:11003507$$pp:와,과$Chat", 
        "@count": "5", 
        "@feature": "ContentsGuide03", 
        "@locale": "", 
        "@locking": "0"
      }, 
      {
        "@questID": "90000794", 
        "@name": "You my pet!", 
        "@desc": "$npc:11003503$$pp:는,은$You can use the monster to make it and then try to take it. $item:63000000$$pp:를,을$ $item:63100000$$pp:를,을$ You can also meet other than hungry.\n$item:61000002$$pp:는,은$ $map:63000056$ The haunted area is confirmed by the pet.", 
        "@manual": "Hungry on Tame | $item:61000002$$pp:를,을$ Take $item:61000002$", 
        "@complete": "$npc:11003503$$pp:와,과$Chat", 
        "@count": "1|1", 
        "@feature": "ContentsGuide03", 
        "@locale": "", 
        "@locking": "0"
      }, 
      {
        "@questID": "90000795", 
        "@name": "How to grow your pet", 
        "@desc": "$npc:11003510$$pp:는,은$If you have multiple pets, you can raise the experience to the synthesis, and you should look up the experience of the through synthesis. $item:61000002$ ", 
        "@manual": "Synthesis of pet Experience $item:61000002$", 
        "@complete": "$npc:11003510$$pp:와,과$Chat", 
        "@count": "1", 
        "@feature": "ContentsGuide03", 
        "@locale": "", 
        "@locking": "0"
      }, 
      {
        "@questID": "90000796", 
        "@name": "Sealed Embers", 
        "@desc": "In order to get the flaming embers sealed in the soul of the Shadow sulk Deborah, you must kill Deborah.", 
        "@manual": "From the Altar of Chaos Shadow Corps to kill Deborah the shadow liquor", 
        "@complete": "Talk with beauty in the reverse gate", 
        "@count": "1", 
        "@feature": "Pet_Zakum", 
        "@locale": "", 
        "@locking": "0"
      }, 
      {
        "@questID": "90000797", 
        "@name": "Stolen Embers", 
        "@desc": "Defeat Captain Mosley, who stole the blazing embers and turn the flaming embers back.", 
        "@manual": "Kill Captain Mok in the Fortress of Chaos Moonlight", 
        "@complete": "Talk with beauty in the reverse gate", 
        "@count": "1", 
        "@feature": "Pet_Zakum", 
        "@locale": "", 
        "@locking": "0"
      }, 
      {
        "@questID": "90000798", 
        "@name": "The embers of this world", 
        "@desc": "Is this world's visitor barkant, he has a blazing embers and really surprisingly with the other embers? Kill and check out Barkant.", 
        "@manual": "Kill barkant at Chaos Rubel risk", 
        "@complete": "Talk with beauty in the reverse gate", 
        "@count": "1", 
        "@feature": "Pet_Zakum", 
        "@locale": "", 
        "@locking": "0"
      }, 
      {
        "@questID": "90000799", 
        "@name": "Origins of the Embers", 
        "@desc": "Blazing embers with rumors that the Ballock was created. In fact, you can not know. The obvious thing is that you can get a flaming embers by killing your feet.", 
        "@manual": "Defeat the foot rock in the Temple of Chaos Immortal", 
        "@complete": "Talk with beauty in the reverse gate", 
        "@count": "1", 
        "@feature": "Pet_Zakum", 
        "@locale": "", 
        "@locking": "0"
      }
    ]
  }
}