{
  "?xml": {
    "@version": "1.0", 
    "@encoding": "utf-8"
  }, 
  "ms2": {
    "quest": [
      {
        "@questID": "73000001", 
        "@name": "Monster Mash", 
        "@desc": "Defeat overworld enemies. <b>(Requires 3 or more guild members)</b>\n\nYou've received a guild mission from $npcName:11200005$. Form a party with 3 or more guild members and defeat overworld monsters.", 
        "@manual": "Defeat overworld enemies alongside members of your guild ", 
        "@complete": "Speak with $npcName:11200005$ at your guild house. ", 
        "@count": "1", 
        "@feature": "Season1", 
        "@locale": "", 
        "@locking": "0"
      }, 
      {
        "@questID": "73000002", 
        "@name": "Maple World in Harmony!", 
        "@desc": "Defeat mechanical foes <b>(Requires 3 or more guild members)</b>\n\nYou've received a guild mission from $npcName:11200005$. Form a party with 3 or more guild members and defeat mechanical enemies. ", 
        "@manual": "Defeat machine-type enemies alongside members of your guild ", 
        "@complete": "Speak with $npcName:11200005$ at your guild house. ", 
        "@count": "1", 
        "@feature": "Season1", 
        "@locale": "", 
        "@locking": "0"
      }, 
      {
        "@questID": "73000003", 
        "@name": "Maple World in Harmony!", 
        "@desc": "Defeat insect foes <b>(Requires 3 or more guild members)</b>\n\nYou've received a guild mission from $npcName:11200005$. Form a party with 3 or more guild members and defeat insect enemies. ", 
        "@manual": "Defeat insect enemies alongside members of your guild ", 
        "@complete": "Speak with $npcName:11200005$ at your guild house. ", 
        "@count": "1", 
        "@feature": "Season1", 
        "@locale": "", 
        "@locking": "0"
      }, 
      {
        "@questID": "73000004", 
        "@name": "Maple World in Harmony!", 
        "@desc": "Defeat inanimate foes<b>(Requires 3 or more guild members)</b>\n\nYou've received a guild mission from $npcName:11200005$. Form a party with 3 or more guild members and hunt inanimate enemies.", 
        "@manual": "Defeat inanimate enemies alongside members of your guild ", 
        "@complete": "Speak with $npcName:11200005$ at your guild house. ", 
        "@count": "1", 
        "@feature": "Season1", 
        "@locale": "", 
        "@locking": "0"
      }, 
      {
        "@questID": "73000005", 
        "@name": "Maple World in Harmony!", 
        "@desc": "Defeat plant foes<b>(Requires 3 or more guild members)</b>\n\nYou've received a guild mission from $npcName:11200005$. Form a party with 3 or more guild members and defeat plant enemies.", 
        "@manual": "Defeat plant-type enemies alongside members of your guild ", 
        "@complete": "Speak with $npcName:11200005$ at your guild house. ", 
        "@count": "1", 
        "@feature": "Season1", 
        "@locale": "", 
        "@locking": "0"
      }, 
      {
        "@questID": "73000006", 
        "@name": "Maple World in Harmony!", 
        "@desc": "Defeat divine beasts <b>(Requires 3 or more guild members)</b>\n\nYou've received a guild mission from $npcName:11200005$. Form a party with 3 or more guild members and defeat divine beasts.", 
        "@manual": "Defeat divine beasts alongside members of your guild ", 
        "@complete": "Speak with $npcName:11200005$ at your guild house. ", 
        "@count": "1", 
        "@feature": "Season1", 
        "@locale": "", 
        "@locking": "0"
      }, 
      {
        "@questID": "73000007", 
        "@name": "Maple World in Harmony!", 
        "@desc": "Defeat devil-type foes <b>(Requires 3 or more guild members)</b>\n\nYou've received a guild mission from $npcName:11200005$. Form a party with 3 or more guild members and defeat devil-type enemies.", 
        "@manual": "Defeat devil-type enemies alongside members of your guild ", 
        "@complete": "Speak with $npcName:11200005$ at your guild house. ", 
        "@count": "1", 
        "@feature": "Season1", 
        "@locale": "", 
        "@locking": "0"
      }, 
      {
        "@questID": "73000008", 
        "@name": "Maple World in Harmony!", 
        "@desc": "Defeat beast foes <b>(Requires 3 or more guild members)</b>\n\nYou've received a guild mission from $npcName:11200005$. Form a party with 3 or more guild members and defeat beast enemies.", 
        "@manual": "Defeat beast enemies alongside members of your guild ", 
        "@complete": "Speak with $npcName:11200005$ at your guild house. ", 
        "@count": "1", 
        "@feature": "Season1", 
        "@locale": "", 
        "@locking": "0"
      }, 
      {
        "@questID": "73000009", 
        "@name": "Maple World in Harmony!", 
        "@desc": "Defeat undead opponents <b>(Requires 3 or more guild members)</b>\n\nYou've received a guild mission from $npcName:11200005$. Form a party with 3 or more guild members and defeat undead enemies.", 
        "@manual": "Defeat undead enemies alongside members of your guild ", 
        "@complete": "Speak with $npcName:11200005$ at your guild house. ", 
        "@count": "1", 
        "@feature": "Season1", 
        "@locale": "", 
        "@locking": "0"
      }, 
      {
        "@questID": "73000010", 
        "@name": "Maple World in Harmony!", 
        "@desc": "Defeat fairies <b>(Requires 3 or more guild members)</b>\n\nYou've received a guild mission from $npcName:11200005$. Form a party with 3 or more guild members and defeat fairies.", 
        "@manual": "Defeat fairies alongside members of your guild ", 
        "@complete": "Speak with $npcName:11200005$ at your guild house. ", 
        "@count": "1", 
        "@feature": "Season1", 
        "@locale": "", 
        "@locking": "0"
      }, 
      {
        "@questID": "73000011", 
        "@name": "Maple World in Harmony!", 
        "@desc": "Defeat humanoid enemies <b>(Requires 3 or more guild members)</b>\n\nYou've received a guild mission from $npcName:11200005$. Form a party with 3 or more guild members and defeat humanoid foes.", 
        "@manual": "Defeat humanoid enemies alongside members of your guild ", 
        "@complete": "Speak with $npcName:11200005$ at your guild house. ", 
        "@count": "1", 
        "@feature": "Season1", 
        "@locale": "", 
        "@locking": "0"
      }, 
      {
        "@questID": "73000012", 
        "@name": "Maple World in Harmony!", 
        "@desc": "Defeat spirits <b>(Requires 3 or more guild members)</b>\n\nYou've received a guild mission from $npcName:11200005$. Form a party with 3 or more guild members and defeat spirit enemies.", 
        "@manual": "Defeat spirits alongside members of your guild ", 
        "@complete": "Speak with $npcName:11200005$ at your guild house. ", 
        "@count": "1", 
        "@feature": "Season1", 
        "@locale": "", 
        "@locking": "0"
      }, 
      {
        "@questID": "73000013", 
        "@name": "Boss Beatdown", 
        "@desc": "Defeat world bosses <b>(Requires 3 or more guild members)</b>\n\nYou've received a guild mission from $npcName:11200005$. Form a party with 3 or more guild members and defeat any of the following world bosses:\n\n$npcName:23000013$, $npcName:23000018$, $npcName:23000001$, $npcName:23000019$, $npcName:23000054$, $npcName:23000020$, $npcName:23000035$, $npcName:23000099$, $npcName:23000017$, $npcName:23000047$, $npcName:23000024$, $npcName:23000034$, $npcName:23000045$, $npcName:23000057$, $npcName:23000026$, $npcName:23000012$, $npcName:23000009$, or $npcName:23000029$", 
        "@manual": "Defeat world bosses alongside members of your guild ", 
        "@complete": "Speak with $npcName:11200005$ at your guild house. ", 
        "@count": "1", 
        "@feature": "FieldEventSpawn", 
        "@locale": "", 
        "@locking": "0"
      }, 
      {
        "@questID": "73000014", 
        "@name": "United in Fishing", 
        "@desc": "Catch freshwater fish <b>(Requires 3 or more guild members)</b>\n\nYou've received a guild request today from $npcName:11200005$. Party up with 3 or more guild members and catch freshwater fish.", 
        "@manual": "Catch freshwater fish alongside members of your guild ", 
        "@complete": "Speak with $npcName:11200005$ at your guild house. ", 
        "@count": "1", 
        "@feature": "Fishing", 
        "@locale": "", 
        "@locking": "0"
      }, 
      {
        "@questID": "73000015", 
        "@name": "United in Fishing", 
        "@desc": "Catch saltwater fish <b>(Requires 3 or more guild members)</b>\n\nYou've received a guild request today from $npcName:11200005$. Party up with 3 or more guild members and catch saltwater fish.", 
        "@manual": "Catch saltwater fish alongside members of your guild ", 
        "@complete": "Speak with $npcName:11200005$ at your guild house. ", 
        "@count": "1", 
        "@feature": "Fishing", 
        "@locale": "", 
        "@locking": "0"
      }, 
      {
        "@questID": "73000016", 
        "@name": "United in Fishing", 
        "@desc": "Catch lava fish <b>(Requires 3 or more guild members)</b>\n\nYou've received a guild request today from $npcName:11200005$. Party up with 3 or more guild members and catch lava fish.", 
        "@manual": "Catch lava fish alongside members of your guild ", 
        "@complete": "Speak with $npcName:11200005$ at your guild house. ", 
        "@count": "1", 
        "@feature": "Fishing", 
        "@locale": "", 
        "@locking": "0"
      }, 
      {
        "@questID": "73000017", 
        "@name": "United in Fishing", 
        "@desc": "Catch foulwater fish <b>(Requires 3 or more guild members)</b>\n\nYou've received a guild request today from $npcName:11200005$. Party up with 3 or more guild members and catch foulwater fish.", 
        "@manual": "Catch foulwater fish alongside members of your guild ", 
        "@complete": "Speak with $npcName:11200005$ at your guild house. ", 
        "@count": "1", 
        "@feature": "Fishing", 
        "@locale": "", 
        "@locking": "0"
      }, 
      {
        "@questID": "73000018", 
        "@name": "Banding Together", 
        "@desc": "Put on an ensemble performance <b>(Requires 3 or more guild members)</b>\n\nYou've received a guild request today from $npcName:11200005$. Party up with 3 or more guild members and put on an ensemble performance. ", 
        "@manual": "Put on an ensemble performance with members of your guild ", 
        "@complete": "Speak with $npcName:11200005$ at your guild house. ", 
        "@count": "1", 
        "@feature": "MusicInstrument", 
        "@locale": "", 
        "@locking": "0"
      }, 
      {
        "@questID": "73000019", 
        "@name": "Coffer Chasers", 
        "@desc": "Open golden treasure chests <b>(Requires 3 or more guild members)</b>\n\nYou've received a guild request today from $npcName:11200005$. Party up with 3 or more guild members and find golden treasure chests to open.", 
        "@manual": "Open golden treasure chests alongside members of your guild ", 
        "@complete": "Speak with $npcName:11200005$ at your guild house. ", 
        "@count": "1", 
        "@feature": "Season1", 
        "@locale": "", 
        "@locking": "0"
      }, 
      {
        "@questID": "73000020", 
        "@name": "Coffer Chasers", 
        "@desc": "Open wooden treasure chests <b>(Requires 3 or more guild members)</b>\n\nYou've received a guild request today from $npcName:11200005$. Party up with 3 or more guild members and find wooden treasure chests to open.", 
        "@manual": "Open wooden treasure chests alongside members of your guild ", 
        "@complete": "Speak with $npcName:11200005$ at your guild house. ", 
        "@count": "1", 
        "@feature": "Season1", 
        "@locale": "", 
        "@locking": "0"
      }, 
      {
        "@questID": "73000021", 
        "@name": "Monster Mash", 
        "@desc": "Defeat overworld enemies. <b>(Requires 3 or more guild members)</b>\n\nYou've received a guild mission from $npcName:11200005$. Form a party with 3 or more guild members and defeat overworld monsters.", 
        "@manual": "Defeat overworld enemies alongside members of your guild ", 
        "@complete": "Speak with $npcName:11200005$ at your guild house. ", 
        "@count": "1", 
        "@feature": "Season1", 
        "@locale": "", 
        "@locking": "0"
      }, 
      {
        "@questID": "73000022", 
        "@name": "Maple World in Harmony!", 
        "@desc": "Defeat mechanical foes <b>(Requires 3 or more guild members)</b>\n\nYou've received a guild mission from $npcName:11200005$. Form a party with 3 or more guild members and defeat mechanical enemies. ", 
        "@manual": "Defeat machine-type enemies alongside members of your guild ", 
        "@complete": "Speak with $npcName:11200005$ at your guild house. ", 
        "@count": "1", 
        "@feature": "Season1", 
        "@locale": "", 
        "@locking": "0"
      }, 
      {
        "@questID": "73000023", 
        "@name": "Maple World in Harmony!", 
        "@desc": "Defeat insect foes <b>(Requires 3 or more guild members)</b>\n\nYou've received a guild mission from $npcName:11200005$. Form a party with 3 or more guild members and defeat insect enemies. ", 
        "@manual": "Defeat insect enemies alongside members of your guild ", 
        "@complete": "Speak with $npcName:11200005$ at your guild house. ", 
        "@count": "1", 
        "@feature": "Season1", 
        "@locale": "", 
        "@locking": "0"
      }, 
      {
        "@questID": "73000024", 
        "@name": "Maple World in Harmony!", 
        "@desc": "Defeat inanimate foes<b>(Requires 3 or more guild members)</b>\n\nYou've received a guild mission from $npcName:11200005$. Form a party with 3 or more guild members and hunt inanimate enemies.", 
        "@manual": "Defeat inanimate enemies alongside members of your guild ", 
        "@complete": "Speak with $npcName:11200005$ at your guild house. ", 
        "@count": "1", 
        "@feature": "Season1", 
        "@locale": "", 
        "@locking": "0"
      }, 
      {
        "@questID": "73000025", 
        "@name": "Maple World in Harmony!", 
        "@desc": "Defeat plant foes<b>(Requires 3 or more guild members)</b>\n\nYou've received a guild mission from $npcName:11200005$. Form a party with 3 or more guild members and defeat plant enemies.", 
        "@manual": "Defeat plant-type enemies alongside members of your guild ", 
        "@complete": "Speak with $npcName:11200005$ at your guild house. ", 
        "@count": "1", 
        "@feature": "Season1", 
        "@locale": "", 
        "@locking": "0"
      }, 
      {
        "@questID": "73000026", 
        "@name": "Maple World in Harmony!", 
        "@desc": "Defeat divine beasts <b>(Requires 3 or more guild members)</b>\n\nYou've received a guild mission from $npcName:11200005$. Form a party with 3 or more guild members and defeat divine beasts.", 
        "@manual": "Defeat divine beasts alongside members of your guild ", 
        "@complete": "Speak with $npcName:11200005$ at your guild house. ", 
        "@count": "1", 
        "@feature": "Season1", 
        "@locale": "", 
        "@locking": "0"
      }, 
      {
        "@questID": "73000027", 
        "@name": "Maple World in Harmony!", 
        "@desc": "Defeat devil-type foes <b>(Requires 3 or more guild members)</b>\n\nYou've received a guild mission from $npcName:11200005$. Form a party with 3 or more guild members and defeat devil-type enemies.", 
        "@manual": "Defeat devil-type enemies alongside members of your guild ", 
        "@complete": "Speak with $npcName:11200005$ at your guild house. ", 
        "@count": "1", 
        "@feature": "Season1", 
        "@locale": "", 
        "@locking": "0"
      }, 
      {
        "@questID": "73000028", 
        "@name": "Maple World in Harmony!", 
        "@desc": "Defeat beast foes <b>(Requires 3 or more guild members)</b>\n\nYou've received a guild mission from $npcName:11200005$. Form a party with 3 or more guild members and defeat beast enemies.", 
        "@manual": "Defeat beast enemies alongside members of your guild ", 
        "@complete": "Speak with $npcName:11200005$ at your guild house. ", 
        "@count": "1", 
        "@feature": "Season1", 
        "@locale": "", 
        "@locking": "0"
      }, 
      {
        "@questID": "73000029", 
        "@name": "Maple World in Harmony!", 
        "@desc": "Defeat undead opponents <b>(Requires 3 or more guild members)</b>\n\nYou've received a guild mission from $npcName:11200005$. Form a party with 3 or more guild members and defeat undead enemies.", 
        "@manual": "Defeat undead enemies alongside members of your guild ", 
        "@complete": "Speak with $npcName:11200005$ at your guild house. ", 
        "@count": "1", 
        "@feature": "Season1", 
        "@locale": "", 
        "@locking": "0"
      }, 
      {
        "@questID": "73000030", 
        "@name": "Maple World in Harmony!", 
        "@desc": "Defeat fairies <b>(Requires 3 or more guild members)</b>\n\nYou've received a guild mission from $npcName:11200005$. Form a party with 3 or more guild members and defeat fairies.", 
        "@manual": "Defeat fairies alongside members of your guild ", 
        "@complete": "Speak with $npcName:11200005$ at your guild house. ", 
        "@count": "1", 
        "@feature": "Season1", 
        "@locale": "", 
        "@locking": "0"
      }, 
      {
        "@questID": "73000031", 
        "@name": "Maple World in Harmony!", 
        "@desc": "Defeat humanoid enemies <b>(Requires 3 or more guild members)</b>\n\nYou've received a guild mission from $npcName:11200005$. Form a party with 3 or more guild members and defeat humanoid foes.", 
        "@manual": "Defeat humanoid enemies alongside members of your guild ", 
        "@complete": "Speak with $npcName:11200005$ at your guild house. ", 
        "@count": "1", 
        "@feature": "Season1", 
        "@locale": "", 
        "@locking": "0"
      }, 
      {
        "@questID": "73000032", 
        "@name": "Maple World in Harmony!", 
        "@desc": "Defeat spirits <b>(Requires 3 or more guild members)</b>\n\nYou've received a guild mission from $npcName:11200005$. Form a party with 3 or more guild members and defeat spirit enemies.", 
        "@manual": "Defeat spirits alongside members of your guild ", 
        "@complete": "Speak with $npcName:11200005$ at your guild house. ", 
        "@count": "1", 
        "@feature": "Season1", 
        "@locale": "", 
        "@locking": "0"
      }, 
      {
        "@questID": "73000033", 
        "@name": "Boss Beatdown", 
        "@desc": "Defeat world bosses <b>(Requires 3 or more guild members)</b>\n\nYou've received a guild mission from $npcName:11200005$. Form a party with 3 or more guild members and defeat any of the following world bosses:\n\n$npcName:23000013$, $npcName:23000018$, $npcName:23000001$, $npcName:23000019$, $npcName:23000054$, $npcName:23000020$, $npcName:23000035$, $npcName:23000099$, $npcName:23000017$, $npcName:23000047$, $npcName:23000024$, $npcName:23000034$, $npcName:23000045$, $npcName:23000057$, $npcName:23000026$, $npcName:23000012$, $npcName:23000009$, or $npcName:23000029$", 
        "@manual": "Defeat world bosses alongside members of your guild ", 
        "@complete": "Speak with $npcName:11200005$ at your guild house. ", 
        "@count": "1", 
        "@feature": "FieldEventSpawn", 
        "@locale": "", 
        "@locking": "0"
      }, 
      {
        "@questID": "73000034", 
        "@name": "United in Fishing", 
        "@desc": "Catch freshwater fish <b>(Requires 3 or more guild members)</b>\n\nYou've received a guild request today from $npcName:11200005$. Party up with 3 or more guild members and catch freshwater fish.", 
        "@manual": "Catch freshwater fish alongside members of your guild ", 
        "@complete": "Speak with $npcName:11200005$ at your guild house. ", 
        "@count": "1", 
        "@feature": "Fishing", 
        "@locale": "", 
        "@locking": "0"
      }, 
      {
        "@questID": "73000035", 
        "@name": "United in Fishing", 
        "@desc": "Catch saltwater fish <b>(Requires 3 or more guild members)</b>\n\nYou've received a guild request today from $npcName:11200005$. Party up with 3 or more guild members and catch saltwater fish.", 
        "@manual": "Catch saltwater fish alongside members of your guild ", 
        "@complete": "Speak with $npcName:11200005$ at your guild house. ", 
        "@count": "1", 
        "@feature": "Fishing", 
        "@locale": "", 
        "@locking": "0"
      }, 
      {
        "@questID": "73000036", 
        "@name": "United in Fishing", 
        "@desc": "Catch lava fish <b>(Requires 3 or more guild members)</b>\n\nYou've received a guild request today from $npcName:11200005$. Party up with 3 or more guild members and catch lava fish.", 
        "@manual": "Catch lava fish alongside members of your guild ", 
        "@complete": "Speak with $npcName:11200005$ at your guild house. ", 
        "@count": "1", 
        "@feature": "Fishing", 
        "@locale": "", 
        "@locking": "0"
      }, 
      {
        "@questID": "73000037", 
        "@name": "United in Fishing", 
        "@desc": "Catch foulwater fish <b>(Requires 3 or more guild members)</b>\n\nYou've received a guild request today from $npcName:11200005$. Party up with 3 or more guild members and catch foulwater fish.", 
        "@manual": "Catch foulwater fish alongside members of your guild ", 
        "@complete": "Speak with $npcName:11200005$ at your guild house. ", 
        "@count": "1", 
        "@feature": "Fishing", 
        "@locale": "", 
        "@locking": "0"
      }, 
      {
        "@questID": "73000038", 
        "@name": "Banding Together", 
        "@desc": "Put on an ensemble performance <b>(Requires 3 or more guild members)</b>\n\nYou've received a guild request today from $npcName:11200005$. Party up with 3 or more guild members and put on an ensemble performance. ", 
        "@manual": "Put on an ensemble performance with members of your guild ", 
        "@complete": "Speak with $npcName:11200005$ at your guild house. ", 
        "@count": "1", 
        "@feature": "MusicInstrument", 
        "@locale": "", 
        "@locking": "0"
      }, 
      {
        "@questID": "73000039", 
        "@name": "Coffer Chasers", 
        "@desc": "Open golden treasure chests <b>(Requires 3 or more guild members)</b>\n\nYou've received a guild request today from $npcName:11200005$. Party up with 3 or more guild members and find golden treasure chests to open.", 
        "@manual": "Open golden treasure chests alongside members of your guild ", 
        "@complete": "Speak with $npcName:11200005$ at your guild house. ", 
        "@count": "1", 
        "@feature": "Season1", 
        "@locale": "", 
        "@locking": "0"
      }, 
      {
        "@questID": "73000040", 
        "@name": "Coffer Chasers", 
        "@desc": "Open wooden treasure chests <b>(Requires 3 or more guild members)</b>\n\nYou've received a guild request today from $npcName:11200005$. Party up with 3 or more guild members and find wooden treasure chests to open.", 
        "@manual": "Open wooden treasure chests alongside members of your guild ", 
        "@complete": "Speak with $npcName:11200005$ at your guild house. ", 
        "@count": "1", 
        "@feature": "Season1", 
        "@locale": "", 
        "@locking": "0"
      }, 
      {
        "@questID": "73000050", 
        "@name": "Dungeon: $dungeonTitle:20014002$", 
        "@desc": "$dungeonTitle:20014002$\n(Required: party with 3 or more guild members!)\n\nDungeons to go adventure with guild members this week\n $dungeonTitle:20014002$ !!\nLet's not forget that at least three of the party expeditions that are gathered together must be members of the same guild as you!", 
        "@manual": "Adventure [Difficulty]: Eliminate $npc:23000011$ from \"$dungeonTitle:20014002$\" with guild members", 
        "@complete": "$npcName:11200005$ in the guildhouse$pp:와,과$ Talking", 
        "@count": "1", 
        "@feature": "Season3", 
        "@locale": "", 
        "@locking": "0"
      }, 
      {
        "@questID": "73000051", 
        "@name": "Dungeon: $dungeonTitle:20016002$", 
        "@desc": "$dungeonTitle:20016002$\n(Required: party with 3 or more guild members!)\n\nDungeons to venture with guild members this week\n $dungeonTitle:20016002$ !!\nLet's not forget that at least three of the party expeditions that are gathered together must be members of the same guild as you!", 
        "@manual": "Adventure [Difficulty]: Eliminate $npc:23000052$ from \"$dungeonTitle:20016002$\" with guild members", 
        "@complete": "$npcName:11200005$ in the guildhouse$pp:와,과$ Talking", 
        "@count": "1", 
        "@feature": "KarkarIsland", 
        "@locale": "", 
        "@locking": "0"
      }, 
      {
        "@questID": "73000052", 
        "@name": "Dungeon: $dungeonTitle:20020002$", 
        "@desc": "$dungeonTitle:20020002$\n(Required: party with 3 or more guild members!)\n\nDungeons to go adventure with guild members this week\n $dungeonTitle:20020002$ !!\nLet's not forget that at least three of the party expeditions that are gathered together must be members of the same guild as you!", 
        "@manual": "Adventure [Difficulty]: Eliminate $npc:23000082$ from \"$dungeonTitle:20020002$\" with guild members", 
        "@complete": "$npcName:11200005$ in the guildhouse$pp:와,과$ Talking", 
        "@count": "1", 
        "@feature": "Kandura", 
        "@locale": "", 
        "@locking": "0"
      }, 
      {
        "@questID": "73000053", 
        "@name": "Dungeon: $dungeonTitle:20018002$", 
        "@desc": "$dungeonTitle:20018002$\n(Required: party with 3 or more guild members!)\n\nDungeons to venture with guild members this week\n $dungeonTitle:20018002$ !!\nLet's not forget that at least three of the party expeditions that are gathered together must be members of the same guild as you!", 
        "@manual": "Adventure [Difficulty]: Eliminate $npc:23000068$ from \"$dungeonTitle:20018002$\" with guild members", 
        "@complete": "$npcName:11200005$ in the guildhouse$pp:와,과$ Talking", 
        "@count": "1", 
        "@feature": "KarkarIsland", 
        "@locale": "", 
        "@locking": "0"
      }, 
      {
        "@questID": "73000054", 
        "@name": "Dungeon: $dungeonTitle:20019002$", 
        "@desc": "$dungeonTitle:20019002$\n(Required: party with 3 or more guild members!)\n\nDungeons to go adventure with guild members this week\n $dungeonTitle:20019002$ !!\nLet's not forget that at least three of the party expeditions that are gathered together must be members of the same guild as you!", 
        "@manual": "Adventure [Difficulty]: Eliminate $npc:23000080$ from \"$dungeonTitle:20019002$\" with guild members", 
        "@complete": "$npcName:11200005$ in the guildhouse$pp:와,과$ Talking", 
        "@count": "1", 
        "@feature": "NutaNuta", 
        "@locale": "", 
        "@locking": "0"
      }, 
      {
        "@questID": "73000055", 
        "@name": "Dungeon: $dungeonTitle:20014002$", 
        "@desc": "$dungeonTitle:20014002$\n(Required: party with 3 or more guild members!)\n\nDungeons to go adventure with guild members this week\n $dungeonTitle:20014002$ !!\nLet's not forget that at least three of the party expeditions that are gathered together must be members of the same guild as you!", 
        "@manual": "Adventure [Difficulty]: Eliminate $npc:23000011$ from \"$dungeonTitle:20014002$\" with guild members", 
        "@complete": "$npcName:11200005$ in the guildhouse$pp:와,과$ Talking", 
        "@count": "1", 
        "@feature": "Season3", 
        "@locale": "", 
        "@locking": "0"
      }, 
      {
        "@questID": "73000056", 
        "@name": "Dungeon: $dungeonTitle:20016002$", 
        "@desc": "$dungeonTitle:20016002$\n(Required: party with 3 or more guild members!)\n\nDungeons to venture with guild members this week\n $dungeonTitle:20016002$ !!\nLet's not forget that at least three of the party expeditions that are gathered together must be members of the same guild as you!", 
        "@manual": "Adventure [Difficulty]: Eliminate $npc:23000052$ from \"$dungeonTitle:20016002$\" with guild members", 
        "@complete": "$npcName:11200005$ in the guildhouse$pp:와,과$ Talking", 
        "@count": "1", 
        "@feature": "KarkarIsland", 
        "@locale": "", 
        "@locking": "0"
      }, 
      {
        "@questID": "73000057", 
        "@name": "Dungeon: $dungeonTitle:20020002$", 
        "@desc": "$dungeonTitle:20020002$\n(Required: party with 3 or more guild members!)\n\nDungeons to venture with guild members this week\n $dungeonTitle:20020002$ !!\nLet's not forget that at least three of the party expeditions that are gathered together must be members of the same guild as you!", 
        "@manual": "Adventure [Difficulty]: Eliminate $npc:23000082$ from \"$dungeonTitle:20020002$\" with guild members", 
        "@complete": "$npcName:11200005$ in the guildhouse$pp:와,과$ Talking", 
        "@count": "1", 
        "@feature": "Kandura", 
        "@locale": "", 
        "@locking": "0"
      }, 
      {
        "@questID": "73000058", 
        "@name": "Dungeon: $dungeonTitle:20018002$", 
        "@desc": "$dungeonTitle:20018002$\n(Required: party with 3 or more guild members!)\n\nDungeons to go adventure with guild members this week\n $dungeonTitle:20018002$ !!\nLet's not forget that at least three of the party expeditions that are gathered together must be members of the same guild as you!", 
        "@manual": "Adventure [Difficulty]: Eliminate $npc:23000068$ from \"$dungeonTitle:20018002$\" with guild members", 
        "@complete": "$npcName:11200005$ in the guildhouse$pp:와,과$ Talking", 
        "@count": "1", 
        "@feature": "KarkarIsland", 
        "@locale": "", 
        "@locking": "0"
      }, 
      {
        "@questID": "73000059", 
        "@name": "Dungeon: $dungeonTitle:20019002$", 
        "@desc": "$dungeonTitle:20019002$\n(Required: party with 3 or more guild members!)\n\nDungeons to go adventure with guild members this week\n $dungeonTitle:20019002$ !!\nLet's not forget that at least three of the party expeditions that are gathered together must be members of the same guild as you!", 
        "@manual": "Adventure [Difficulty]: Eliminate $npc:23000080$ from \"$dungeonTitle:20019002$\" with guild members", 
        "@complete": "$npcName:11200005$ in the guildhouse$pp:와,과$ Talking", 
        "@count": "1", 
        "@feature": "NutaNuta", 
        "@locale": "", 
        "@locking": "0"
      }
    ]
  }
}