{
  "?xml": {
    "@version": "1.0", 
    "@encoding": "utf-8"
  }, 
  "ms2": {
    "key": [
      {
        "@id": "unknown", 
        "@name": "Unknown"
      }, 
      {
        "@id": "plant", 
        "@name": "Plant"
      }, 
      {
        "@id": "animal", 
        "@name": "Beast"
      }, 
      {
        "@id": "bug", 
        "@name": "Insect"
      }, 
      {
        "@id": "mystic", 
        "@name": "Divine"
      }, 
      {
        "@id": "spirit", 
        "@name": "Spirit"
      }, 
      {
        "@id": "fairy", 
        "@name": "Fairfolk"
      }, 
      {
        "@id": "combine", 
        "@name": "Humanoid"
      }, 
      {
        "@id": "undead", 
        "@name": "Undead"
      }, 
      {
        "@id": "devil", 
        "@name": "Devil"
      }, 
      {
        "@id": "machine", 
        "@name": "Machine"
      }, 
      {
        "@id": "creature", 
        "@name": "Inanimate"
      }
    ]
  }
}