{
  "?xml": {
    "@version": "1.0", 
    "@encoding": "utf-8"
  }, 
  "ms2": {
    "key": [
      {
        "@id": "1", 
        "@name": "Amherst"
      }, 
      {
        "@id": "2", 
        "@name": "Lith Harbor"
      }, 
      {
        "@id": "3", 
        "@name": "Tria"
      }, 
      {
        "@id": "4", 
        "@name": "Kerning City"
      }, 
      {
        "@id": "5", 
        "@name": "Henesys"
      }, 
      {
        "@id": "6", 
        "@name": "Perion"
      }, 
      {
        "@id": "7", 
        "@name": "Ellinia"
      }, 
      {
        "@id": "8", 
        "@name": "Taliskar"
      }, 
      {
        "@id": "9", 
        "@name": "Ludibrium Breach"
      }, 
      {
        "@id": "11", 
        "@name": "Ludari City"
      }, 
      {
        "@id": "12", 
        "@name": "Minar"
      }, 
      {
        "@id": "13", 
        "@name": "Nazkar Temple Gate"
      }, 
      {
        "@id": "14", 
        "@name": "Calibre Fortress"
      }, 
      {
        "@id": "15", 
        "@name": "Kritias"
      }, 
      {
        "@id": "100", 
        "@name": "Picardiv"
      }
    ]
  }
}