{
  "?xml": {
    "@version": "1.0", 
    "@encoding": "utf-8"
  }, 
  "ms2": {
    "key": [
      {
        "@id": "0628212818002889", 
        "@feature": "", 
        "@locale": "", 
        "@npc": "민트", 
        "@name": "$MyPCName$님, $MyPCName$님!\n혹시 레인보우 슬라임이라고 들어 보셨나요?\n음… 그냥 슬라임이랑은 달라요. 슬라임과 비슷하게 생겼지만 몸에서 무지개 빛깔이 돌고, 날개도 있고, 아무튼 많이 다르다구요!"
      }, 
      {
        "@id": "0628212818002890", 
        "@feature": "", 
        "@locale": "", 
        "@npc": "민트", 
        "@name": "갑자기 웬 레인보우 슬라임 얘기냐구요? \n사실 제가 얼마 전에 귀여운 레인보우 슬라임을 발견했는데요, 어릴 때는 색깔이 하나지만 자라면서 아름다운 무지개 색깔로 변하는 슬라임이랍니다~\n괜찮다면 $MyPCName$님이 맡아서 키워 주시면 어떨까요?"
      }, 
      {
        "@id": "0628212818002891", 
        "@feature": "", 
        "@locale": "", 
        "@npc": "민트", 
        "@name": "레인보우 슬라임은 입맛도 까다로워서 특별한 먹이만 먹는다고 해요.\n메이플 월드에 있는 시간에 따라 매일 최대 4개까지 먹이를 받을 수 있으니까 구하기 어렵진 않을 거예요.\n아참, 다른 분들이 갖고 있는 레인보우 슬라임과 놀아 주면 매일 2개까지 추가로 먹이를 받을 수 있어요."
      }, 
      {
        "@id": "0628212818002892", 
        "@feature": "", 
        "@locale": "", 
        "@npc": "민트", 
        "@name": "여기 레인보우 슬라임의 보금자리를 드릴 테니, 집 안에 설치해서 슬라임을 키워 주세요. 먹이도 잘 챙겨 주시고 애정을 담아 키워 주실 거라 믿어요!"
      }, 
      {
        "@id": "0628212818002893", 
        "@feature": "", 
        "@locale": "", 
        "@npc": "민트", 
        "@name": "제가 드렸던 $item:50400282$$pp:를,을$ 집 안에 설치해 보세요.\n아직은 초록색이지만, $MyPCName$님의 애정으로 무럭무럭 자라면 아름다운 무지개 색으로 변할 거예요~"
      }, 
      {
        "@id": "0628212818002894", 
        "@feature": "", 
        "@locale": "", 
        "@npc": "민트", 
        "@name": "$item:50400282$$pp:를,을$ 집 안에 설치해 보세요.\n$npc:50400282$$pp:가,이$ 얼마나 귀엽고 예쁘다구요!"
      }, 
      {
        "@id": "0628212818002895", 
        "@feature": "", 
        "@locale": "", 
        "@npc": "민트", 
        "@name": "여기 $item:20301497$$pp:를,을$ 드릴 테니, 배고픈 $npc:50400282$에게 어서 먹이를 주세요~ 주인님의 손길만 기다리고 있을 거라구요!"
      }, 
      {
        "@id": "0913155418002896", 
        "@feature": "", 
        "@locale": "", 
        "@npc": "바비", 
        "@name": "안녕하세요, $MyPCName$님~\n메이플 월드 곳곳에 등장한 다양한 펫들은 만나 보셨나요?\n필드를 돌아다니다 보면 여러 종류의 펫을 만날 수 있는데요.\n어찌나 귀여운지 저도 몇 마리 갖고 싶을 정도예요!"
      }, 
      {
        "@id": "0913155418002897", 
        "@feature": "", 
        "@locale": "", 
        "@npc": "바비", 
        "@name": "$MyPCName$님이 <font color=\"#ffd200\">펫을 15마리 포획</font>해 주세요!\n<font color=\"#ffd200\">펫을 15마리 포획</font>하시면 귀여운 '$item:60000032$'$pp:를,을$ 드릴게요.\n펫마다 만날 수 있는 장소가 다르고, 필드에서는 만날 수 없는 펫들도 있다고 해요.\n원하는 펫이 있다면 다른 분들과 정보를 교환해 보시는 건 어떨까요?"
      }, 
      {
        "@id": "0913155418002898", 
        "@feature": "", 
        "@locale": "", 
        "@npc": "바비", 
        "@name": "$MyPCName$님이 <font color=\"#ffd200\">펫을 15마리 포획</font>해 주세요!\n<font color=\"#ffd200\">펫을 15마리 포획</font>하시면 귀여운 '$item:60000032$'$pp:를,을$ 드릴게요.\n펫마다 만날 수 있는 장소가 다르고, 필드에서는 만날 수 없는 펫들도 있다고 해요.\n원하는 펫이 있다면 다른 분들과 정보를 교환해 보시는 건 어떨까요?"
      }, 
      {
        "@id": "0913155418002899", 
        "@feature": "", 
        "@locale": "", 
        "@npc": "바비", 
        "@name": "우와! 벌써 펫을 15마리나 잡으셨나요? 선물로 $item:60000032$$pp:를,을$ 드릴게요!\n이제 $MyPCName$님이 건강하게 잘 키워 주세요~"
      }, 
      {
        "@id": "0913174818002900", 
        "@feature": "", 
        "@locale": "", 
        "@npc": "바비", 
        "@name": "안녕하세요, $MyPCName$님!\n혹시 <font color=\"#ffd200\">$map:02000350$</font>에 가 보셨나요?\n들리는 소문에는 <font color=\"#ffd200\">$map:02000350$</font>$pp:는,은$ 짙은 어둠만이 가득한 곳이래요."
      }, 
      {
        "@id": "0913174818002901", 
        "@feature": "", 
        "@locale": "", 
        "@npc": "바비", 
        "@name": "<font color=\"#ffd200\">$map:02000350$</font>$pp:가,이$ 어떤 곳인지 $MyPCName$님이 다녀와서 알려 주세요.\n<font color=\"#ffd200\">$map:02000350$</font>에서 <font color=\"#ffd200\">열다섯 번째 어둠</font>을 걷어 내고 돌아 오시면 선물을 드릴게요!"
      }, 
      {
        "@id": "0913174818002902", 
        "@feature": "", 
        "@locale": "", 
        "@npc": "바비", 
        "@name": "<font color=\"#ffd200\">$map:02000350$</font>$pp:가,이$ 어떤 곳인지 $MyPCName$님이 다녀와서 알려 주세요.\n<font color=\"#ffd200\">$map:02000350$</font>에서 <font color=\"#ffd200\">열다섯 번째 어둠</font>을 걷어 내고 돌아 오시면 선물을 드릴게요!"
      }, 
      {
        "@id": "0913174818002903", 
        "@feature": "", 
        "@locale": "", 
        "@npc": "바비", 
        "@name": "역시 $MyPCName$님이라면 해내실 줄 알았어요!\n약속했던 $item:20301989$$pp:를,을$ 드릴게요~"
      }, 
      {
        "@id": "0919182218002904", 
        "@feature": "", 
        "@locale": "", 
        "@npc": "루비", 
        "@name": "어서 오세요, $MyPCName$님. \n메이플 월드에 이렇게 많은 분들이 모험을 즐기러 오신 게 너무 신나요!\n그래서 제가 더 즐거운 모험을 기약하며 월드 곳곳에 별풍선을 등장하게 했어요!"
      }, 
      {
        "@id": "0919182218002905", 
        "@feature": "", 
        "@locale": "", 
        "@npc": "루비", 
        "@name": "별풍선을 터트리면 별빛보다 반짝이는 폭죽이 터지면서 축제 분위기가 물씬 느껴질 거예요.\n$MyPCName$님도 월드 곳곳에서 별풍선을 찾아서 터트려보세요. \n별풍선을 10번 터트리고 알려 주시면 혀를 톡톡 쏘는 달콤한 '$item:20001034$' 을 드릴게요!"
      }, 
      {
        "@id": "0919182218002906", 
        "@feature": "", 
        "@locale": "", 
        "@npc": "루비", 
        "@name": "별풍선을 터트리면 별빛보다 반짝이는 폭죽이 터지면서 축제 분위기가 물씬 느껴질 거예요.\n$MyPCName$님도 월드 곳곳에서 별풍선을 찾아서 터트려보세요. \n<font color=\"#ffd200\">별풍선 조사</font>를 10번 마치고 알려 주시면 혀를 톡톡 쏘는 달콤한 '$item:20001034$' 을 드릴게요!"
      }, 
      {
        "@id": "0919182218002907", 
        "@feature": "", 
        "@locale": "", 
        "@npc": "루비", 
        "@name": "어땠어요? 펑펑 터지는 폭죽에 축제 분위기가 물씬 느껴졌죠?\n약속했던 '$item:20001034$'를 드릴게요!\n참, 이벤트 기간 동안에는 하루에 한 번 저를 도와주실 수 있다는 점, 잊지 마세요!"
      }, 
      {
        "@id": "0927173618002912", 
        "@feature": "", 
        "@locale": "", 
        "@npc": "민트", 
        "@name": "$MyPCName$님, $MyPCName$님!\n혹시 $npc:50400309$라는 생물에 대해서 아시나요? $npc:50400309$는 호박을 좋아하는 꼬마 악마예요. \n할로윈에 장난치러 인간 세상에 들렀던 꼬마 악마가 호박을 너무 좋아한 나머지 호박 모양이 되었다는 소문이 있어요!"
      }, 
      {
        "@id": "0927173618002913", 
        "@feature": "", 
        "@locale": "", 
        "@npc": "민트", 
        "@name": "호박 모양을 한 악마라니, 그런 게 정말 존재하기는 하냐구요?\n호호, 사실 제가 얼마 전에 귀여운 $npc:50400309$를 발견했는데요, 관심 있으시다면 $MyPCName$님이 맡아서 키워 보시는 건 어떨까요?"
      }, 
      {
        "@id": "0927173618002914", 
        "@feature": "", 
        "@locale": "", 
        "@npc": "민트", 
        "@name": "$npc:50400309$는 촉촉하고 달콤한 호박으로 만든 호박 파이를 참 좋아한다고 해요.\n메이플 월드에 있는 시간에 따라 매일 최대 9개까지 $item:20302004$를 받을 수 있으니까 구하기 어렵진 않을 거예요.\n그리고 다른 분들의 집에 있는 $npc:50400309$와 놀아 주면 매일 3개까지 추가로 $item:20302004$를 받을 수도 있어요."
      }, 
      {
        "@id": "0927173618002915", 
        "@feature": "", 
        "@locale": "", 
        "@npc": "민트", 
        "@name": "여기 $item:50400309$를 드릴 테니, 집 안에 설치해서 $npc:50400309$를 키워 주세요. \n후후, 악마의 모습을 하고 있긴 하지만 일단 귀여우니까 해는 끼치지 않을 거예요.\n너~무 귀여워서 $MyPCName$님의 심장이 아플 수도 있다는 건 알아 두세요!"
      }, 
      {
        "@id": "0927173618002916", 
        "@feature": "", 
        "@locale": "", 
        "@npc": "민트", 
        "@name": "이제 $item:50400309$$pp:를,을$ 집 안에 설치해 보세요.\n작디작은 꼬마 악마지만 $MyPCName$님의 애정으로 무럭무럭 자라면 커다래질지도 모르죠!"
      }, 
      {
        "@id": "0927173618002917", 
        "@feature": "", 
        "@locale": "", 
        "@npc": "민트", 
        "@name": "어서 $item:50400309$$pp:를,을$ 집 안에 설치해 보세요.\n$npc:50400309$$pp:가,이$ $MyPCName$님을 맞이할 거예요."
      }, 
      {
        "@id": "0927173618002918", 
        "@feature": "", 
        "@locale": "", 
        "@npc": "민트", 
        "@name": "여기 $npc:50400309$$pp:가,이$ 좋아하는 $item:20302004$$pp:를,을$ 드릴 테니 $npc:50400309$에게 먹이를 주어 성장시켜 보세요.\n$item:20302004$$pp:는,은$ 다른 집에 있는 $npc:50400309$와 놀아 주면 매일 3개까지, 접속 시간에 따라 매일 9개까지 추가로 얻을 수 있다는 사실도 잊지 마세요!"
      }, 
      {
        "@id": "1023175818002912", 
        "@feature": "", 
        "@locale": "", 
        "@npc": "루비", 
        "@name": "안녕하세요, $MyPCName$님!\n그 소식 들었어요?"
      }, 
      {
        "@id": "1023175818002913", 
        "@feature": "", 
        "@locale": "", 
        "@npc": "pc", 
        "@name": "무슨 소식인지 물어본다."
      }, 
      {
        "@id": "1023175818002914", 
        "@feature": "", 
        "@locale": "", 
        "@npc": "루비", 
        "@name": "조만간 메이플 월드 수호를 목적으로 하는 함대가 출격할 거래요.\n아직 자세한 내용들은 알려지지 않았지만… 함대에 합류할 특별한 인재들을 곧 모으겠죠?"
      }, 
      {
        "@id": "1023175818002915", 
        "@feature": "", 
        "@locale": "", 
        "@npc": "루비", 
        "@name": "아무튼… 근데 그 함대를 이끄는 지휘관 중에 <font color=\"#ffd200\">신관기사 메이슨</font>이라는 분이 있는데, \n무슨 이유인지는 모르겠지만 본인과 취향이 비슷한 모험가들이 있다면 특별한 인연을 맺고 싶다네요.\n후후후… $MyPCName$님도 함대 출격 전에 미리 그 분과 인연을 맺어보시겠어요?"
      }, 
      {
        "@id": "1023175818002916", 
        "@feature": "", 
        "@locale": "", 
        "@npc": "pc", 
        "@name": "인연을 어떻게 맺으면 되는지 물어본다."
      }, 
      {
        "@id": "1023175818002917", 
        "@feature": "", 
        "@locale": "", 
        "@npc": "루비", 
        "@name": "이벤트 기간 동안 제가 매일 한 번씩 드리는 [메이슨의 사적 취향] 퀘스트를 완료하고 <font color=\"#ffd200\">$item:30001051$</font>$pp:를,을$ 모으시면 된답니다.\n어때요? 도전해보시겠어요?"
      }, 
      {
        "@id": "1023175818002918", 
        "@feature": "", 
        "@locale": "", 
        "@npc": "루비", 
        "@name": "신관기사님과 특별한 인연을 맺고 싶다면, \n이벤트 기간 동안 제가 매일 한 번씩 드리는 [메이슨의 사적 취향] 퀘스트를 완료하고 <font color=\"#ffd200\">$item:30001051$</font>$pp:를,을$ 모으시면 된답니다."
      }, 
      {
        "@id": "1023175818002919", 
        "@feature": "", 
        "@locale": "", 
        "@npc": "루비", 
        "@name": "$MyPCName$님… 정말 성실하게 꼬박꼬박 열심히 모으셨네요.\n신관기사 메이슨님과 특별한 인연을 맺을 자격이 충분하신 것 같아요."
      }, 
      {
        "@id": "1023175818002920", 
        "@feature": "", 
        "@locale": "", 
        "@npc": "루비", 
        "@name": "메이슨님과 특별한 인연을 맺은 증표로 [$item:50600192$]$pp:를,을$ 드릴게요!\n조만간 스카이 포트리스 공중 함대가 출격할텐데 함대에 꼭 합류하셔서 신관기사 메이슨님과 특별한 인연 계속 이어나가시길 바랄게요! "
      }, 
      {
        "@id": "1023175818002921", 
        "@feature": "", 
        "@locale": "", 
        "@npc": "루비", 
        "@name": "곧 함대 출격을 준비 중인  <font color=\"#ffd200\">신관기사 메이슨</font>님의 남다른 취향! 궁금하시죠?\n겉으로 보기에는 냉철하고 이지적이지만 귀엽고 깜찍한 존재들을 보면 흔들리는 마음을 주체할 수 없는 분이라고 해요."
      }, 
      {
        "@id": "1023175818002922", 
        "@feature": "", 
        "@locale": "", 
        "@npc": "루비", 
        "@name": "요즘 그 분의 마음을 사로잡고 있는 게 바로 <font color=\"#ffd200\">휴먼 메럿</font> 이랍니다.\n통통 튀는 깜찍이들이 메이플 월드 곳곳에 수시로 나타나서 모험가님들과 숨바꼭질을 즐기는데, \n<font color=\"#ffd200\">신관기사 메이슨</font>님도 바쁜 와중에 틈틈이 이 휴먼 메럿들을 찾아 헤매신다고… 후후… "
      }, 
      {
        "@id": "1023175818002923", 
        "@feature": "", 
        "@locale": "", 
        "@npc": "루비", 
        "@name": "$MyPCName$님도 메이플 월드 곳곳에서 휴먼 메럿들을 찾아보세요.\n만나면 반갑다고 쓰담쓰담 해주시면 좋은 일이 생길 거에요!"
      }, 
      {
        "@id": "1023175818002924", 
        "@feature": "", 
        "@locale": "", 
        "@npc": "루비", 
        "@name": "$MyPCName$님도 메이플 월드 곳곳에서 휴먼 메럿들을 찾아보세요.\n만나면 반갑다고 쓰담쓰담 해주시면 좋은 일이 생길 거에요!"
      }, 
      {
        "@id": "1023175818002925", 
        "@feature": "", 
        "@locale": "", 
        "@npc": "루비", 
        "@name": "휴먼 메럿을 찾으셨군요! \n신관기사 메이슨님의 마음을 사로잡을 정도로 귀엽고 깜찍하죠? 후훗."
      }, 
      {
        "@id": "1101164818002926", 
        "@feature": "", 
        "@locale": "", 
        "@npc": "루비", 
        "@name": "$MyPCName$님, 큰일이에요! 추수감사절만 되면 모험가들의 식탁에 오르는 신세가 된 칠면조들이 더 이상 참지 못하고 추수감사절을 망치기 위해 메이플 월드를 습격했어요! 보통의 칠면조라면 그저 아름다운 작은 새지만, 무슨 영문인지 $map:02000092$에 나타난 $npc:27000051$$pp:는,은$ 엄청나게 거대하고 난폭하다고 해요!"
      }, 
      {
        "@id": "1101164818002927", 
        "@feature": "", 
        "@locale": "", 
        "@npc": "루비", 
        "@name": "$npc:27000051$$pp:는,은$ 매 시 정각에 $map:02000092$에 나타난다는 소문이에요. $npc:27000051$$pp:가,이$ 메이플 월드의 주민들을 해치지 못하도록 $MyPCName$님이 처치해 주세요!"
      }, 
      {
        "@id": "1101164818002928", 
        "@feature": "", 
        "@locale": "", 
        "@npc": "루비", 
        "@name": "$npc:27000051$$pp:는,은$ 매 시 정각에 $map:02000092$에 나타난다는 소문이에요. $npc:27000051$$pp:가,이$ 메이플 월드의 주민들을 해치지 못하도록 $MyPCName$님이 처치해 주세요!"
      }, 
      {
        "@id": "1101164818002929", 
        "@feature": "", 
        "@locale": "", 
        "@npc": "루비", 
        "@name": "$MyPCName$님, $npc:27000051$$pp:를,을$ 처리해 주셨군요! 메이플 월드 주민을 대표해서 감사의 표시로 맛있는 $item:20001130$$pp:를,을$ 드릴게요!"
      }, 
      {
        "@id": "1101164818002930", 
        "@feature": "", 
        "@locale": "", 
        "@npc": "루비", 
        "@name": "$map:02000092$에서 연일 목격되는 $npc:27000051$$pp:는,은$ 보통의 칠면조와는 비교도 할 수 없을 만큼 훌륭한 진미라는 소문이 있어요! 그래서인지 성대한 추수감사절 파티를 열기 위해 $npc:27000051$$pp:를,을$ 대량으로 사들이는 사람도 있을 정도랍니다."
      }, 
      {
        "@id": "1101164818002931", 
        "@feature": "", 
        "@locale": "", 
        "@npc": "루비", 
        "@name": "올해 추수감사절 기간에는 저도 $npc:27000051$$pp:로,으로$ 만든 요리로 손님들을 대접하고 싶은데, 아시다시피 제 손님들이 워낙 많아서 파티가 하루에 끝나지 않을 것 같아서 말이죠! 성공적인 추수감사절 파티를 위해 $MyPCName$님이 열흘 동안 신선한 $npc:27000051$$pp:를,을$ 잡아다 주실 수 있을까요?"
      }, 
      {
        "@id": "1101164818002932", 
        "@feature": "", 
        "@locale": "", 
        "@npc": "루비", 
        "@name": "올해 추수감사절 기간에는 저도 $npc:27000051$$pp:로,으로$ 만든 요리로 손님들을 대접하고 싶은데, 아시다시피 제 손님들이 워낙 많아서 파티가 하루에 끝나지 않을 것 같아서 말이죠! 성공적인 추수감사절 파티를 위해 $MyPCName$님이 열흘 동안 신선한 $npc:27000051$$pp:를,을$ 잡아다 주실 수 있을까요?"
      }, 
      {
        "@id": "1101164818002933", 
        "@feature": "", 
        "@locale": "", 
        "@npc": "루비", 
        "@name": "$MyPCName$님 덕분에 맛있는 칠면조 요리를 잔뜩 준비할 수 있었어요. 이건 제가 드리는 감사의 선물이에요!"
      }, 
      {
        "@id": "1211185418002934", 
        "@feature": "", 
        "@locale": "", 
        "@npc": "루비", 
        "@name": "안녕하세요, $MyPCName$님!\n살랑살랑 눈꽃송이가 흩날리는 겨울 날엔, 술래잡기 놀이가 제격이죠. \n<font color=\"#ffd200\">오늘의 친구</font>를 찾아보는 거 어떠세요? 재밌겠죠?\n오늘의 친구를 찾은 후 제게 돌아오시면 <font color=\"#ffd200\">$item:20302275$</font>$pp:를,을$ 드린답니다!"
      }, 
      {
        "@id": "1211185418002935", 
        "@feature": "", 
        "@locale": "", 
        "@npc": "루비", 
        "@name": "오늘의 친구는 바로~\n<font color=\"#ffd200\">$item:11300052$$pp:를,을$ 착용한 친구</font>랍니다!\n메이플 월드 어딘가에서는 만날 수 있을 거예요. 행운을 빌어요!"
      }, 
      {
        "@id": "1211185418002936", 
        "@feature": "", 
        "@locale": "", 
        "@npc": "루비", 
        "@name": "<font color=\"#ffd200\">$item:11300052$$pp:를,을$ 착용한 친구</font>를 찾아 보세요!\n포기하지 않고 찾아 보신다면 금방 만날 수 있을 겁니다. "
      }, 
      {
        "@id": "1211185418002937", 
        "@feature": "", 
        "@locale": "", 
        "@npc": "루비", 
        "@name": "오늘의 친구를 찾으셨군요! 약속했던 대로 <font color=\"#ffd200\">$item:20302275$</font>$pp:를,을$ 드릴게요.\n<font color=\"#ffd200\">$item:20302275$</font>$pp2:로,으로$ 행운이 따르는 2019년을 시작하시길 바랄게요!"
      }, 
      {
        "@id": "1211185418002938", 
        "@feature": "", 
        "@locale": "", 
        "@npc": "루비", 
        "@name": "안녕하세요, $MyPCName$님!\n살랑살랑 눈꽃송이가 흩날리는 겨울 날엔, 술래잡기 놀이가 제격이죠. \n<font color=\"#ffd200\">오늘의 친구</font>를 찾아보는 거 어떠세요? 재밌겠죠?\n오늘의 친구를 찾은 후 제게 돌아오시면 <font color=\"#ffd200\">$item:20302275$</font>$pp:를,을$ 드린답니다!"
      }, 
      {
        "@id": "1211185418002939", 
        "@feature": "", 
        "@locale": "", 
        "@npc": "루비", 
        "@name": "오늘의 친구는 바로~\n<font color=\"#ffd200\">\"마음을 훔치는\" 칭호를 한 친구</font>랍니다!\n메이플 월드 어딘가에서는 만날 수 있을 거예요. 행운을 빌어요!"
      }, 
      {
        "@id": "1211185418002940", 
        "@feature": "", 
        "@locale": "", 
        "@npc": "루비", 
        "@name": "<font color=\"#ffd200\">\"마음을 훔치는\" 칭호를 한 친구</font>를 찾아 보세요!\n포기하지 않고 찾아 보신다면 금방 만날 수 있을 겁니다. "
      }, 
      {
        "@id": "1211185418002941", 
        "@feature": "", 
        "@locale": "", 
        "@npc": "루비", 
        "@name": "오늘의 친구를 찾으셨군요! 약속했던 대로 <font color=\"#ffd200\">$item:20302275$</font>$pp:를,을$ 드릴게요.\n<font color=\"#ffd200\">$item:20302275$</font>$pp2:로,으로$ 행운이 따르는 2019년을 시작하시길 바랄게요!"
      }, 
      {
        "@id": "1211185418002942", 
        "@feature": "", 
        "@locale": "", 
        "@npc": "루비", 
        "@name": "안녕하세요, $MyPCName$님!\n살랑살랑 눈꽃송이가 흩날리는 겨울 날엔, 술래잡기 놀이가 제격이죠. \n<font color=\"#ffd200\">오늘의 친구</font>를 찾아보는 거 어떠세요? 재밌겠죠?\n오늘의 친구를 찾은 후 제게 돌아오시면 <font color=\"#ffd200\">$item:20302275$</font>$pp:를,을$ 드린답니다!"
      }, 
      {
        "@id": "1211185418002943", 
        "@feature": "", 
        "@locale": "", 
        "@npc": "루비", 
        "@name": "오늘의 친구는 바로~\n<font color=\"#ffd200\">\"전문 낚시꾼\" 칭호를 한 친구</font>랍니다!\n메이플 월드 어딘가에서는 만날 수 있을 거예요. 행운을 빌어요!"
      }, 
      {
        "@id": "1211185418002944", 
        "@feature": "", 
        "@locale": "", 
        "@npc": "루비", 
        "@name": "<font color=\"#ffd200\">\"전문 낚시꾼\" 칭호를 한 친구</font>를 찾아 보세요!\n포기하지 않고 찾아 보신다면 금방 만날 수 있을 겁니다. "
      }, 
      {
        "@id": "1211185418002945", 
        "@feature": "", 
        "@locale": "", 
        "@npc": "루비", 
        "@name": "오늘의 친구를 찾으셨군요! 약속했던 대로 <font color=\"#ffd200\">$item:20302275$</font>$pp:를,을$ 드릴게요.\n<font color=\"#ffd200\">$item:20302275$</font>$pp2:로,으로$ 행운이 따르는 2019년을 시작하시길 바랄게요!"
      }, 
      {
        "@id": "1211185418002946", 
        "@feature": "", 
        "@locale": "", 
        "@npc": "루비", 
        "@name": "안녕하세요, $MyPCName$님!\n살랑살랑 눈꽃송이가 흩날리는 겨울 날엔, 술래잡기 놀이가 제격이죠. \n<font color=\"#ffd200\">오늘의 친구</font>를 찾아보는 거 어떠세요? 재밌겠죠?\n오늘의 친구를 찾은 후 제게 돌아오시면 <font color=\"#ffd200\">$item:20302275$</font>$pp:를,을$ 드린답니다!"
      }, 
      {
        "@id": "1211185418002947", 
        "@feature": "", 
        "@locale": "", 
        "@npc": "루비", 
        "@name": "오늘의 친구는 바로~\n<font color=\"#ffd200\">30레벨 이상의 남자 헤비거너 친구</font>랍니다!\n메이플 월드 어딘가에서는 만날 수 있을 거예요. 행운을 빌어요!"
      }, 
      {
        "@id": "1211185418002948", 
        "@feature": "", 
        "@locale": "", 
        "@npc": "루비", 
        "@name": "<font color=\"#ffd200\">30레벨 이상의 남자 헤비거너 친구</font>를 찾아 보세요!\n포기하지 않고 찾아 보신다면 금방 만날 수 있을 겁니다. "
      }, 
      {
        "@id": "1211185418002949", 
        "@feature": "", 
        "@locale": "", 
        "@npc": "루비", 
        "@name": "오늘의 친구를 찾으셨군요! 약속했던 대로 <font color=\"#ffd200\">$item:20302275$</font>$pp:를,을$ 드릴게요.\n<font color=\"#ffd200\">$item:20302275$</font>$pp2:로,으로$ 행운이 따르는 2019년을 시작하시길 바랄게요!"
      }, 
      {
        "@id": "1211185418002950", 
        "@feature": "", 
        "@locale": "", 
        "@npc": "루비", 
        "@name": "안녕하세요, $MyPCName$님!\n살랑살랑 눈꽃송이가 흩날리는 겨울 날엔, 술래잡기 놀이가 제격이죠. \n<font color=\"#ffd200\">오늘의 친구</font>를 찾아보는 거 어떠세요? 재밌겠죠?\n오늘의 친구를 찾은 후 제게 돌아오시면 <font color=\"#ffd200\">$item:20302275$</font>$pp:를,을$ 드린답니다!"
      }, 
      {
        "@id": "1211185418002951", 
        "@feature": "", 
        "@locale": "", 
        "@npc": "루비", 
        "@name": "오늘의 친구는 바로~\n<font color=\"#ffd200\">\"액션배우\" 칭호를 한 친구</font>랍니다!\n메이플 월드 어딘가에서는 만날 수 있을 거예요. 행운을 빌어요!"
      }, 
      {
        "@id": "1211185418002952", 
        "@feature": "", 
        "@locale": "", 
        "@npc": "루비", 
        "@name": "<font color=\"#ffd200\">\"액션배우\" 칭호를 한 친구</font>를 찾아 보세요!\n포기하지 않고 찾아 보신다면 금방 만날 수 있을 겁니다. "
      }, 
      {
        "@id": "1211185418002953", 
        "@feature": "", 
        "@locale": "", 
        "@npc": "루비", 
        "@name": "오늘의 친구를 찾으셨군요! 약속했던 대로 <font color=\"#ffd200\">$item:20302275$</font>$pp:를,을$ 드릴게요.\n<font color=\"#ffd200\">$item:20302275$</font>$pp2:로,으로$ 행운이 따르는 2019년을 시작하시길 바랄게요!"
      }, 
      {
        "@id": "1211185418002954", 
        "@feature": "", 
        "@locale": "", 
        "@npc": "루비", 
        "@name": "안녕하세요, $MyPCName$님!\n살랑살랑 눈꽃송이가 흩날리는 겨울 날엔, 술래잡기 놀이가 제격이죠. \n<font color=\"#ffd200\">오늘의 친구</font>를 찾아보는 거 어떠세요? 재밌겠죠?\n오늘의 친구를 찾은 후 제게 돌아오시면 <font color=\"#ffd200\">$item:20302275$</font>$pp:를,을$ 드린답니다!"
      }, 
      {
        "@id": "1211185418002955", 
        "@feature": "", 
        "@locale": "", 
        "@npc": "루비", 
        "@name": "오늘의 친구는 바로~\n<font color=\"#ffd200\">40레벨 이상의 여자 레인저 친구</font>랍니다!\n메이플 월드 어딘가에서는 만날 수 있을 거예요. 행운을 빌어요!"
      }, 
      {
        "@id": "1211185418002956", 
        "@feature": "", 
        "@locale": "", 
        "@npc": "루비", 
        "@name": "<font color=\"#ffd200\">40레벨 이상의 여자 레인저 친구</font>를 찾아 보세요!\n포기하지 않고 찾아 보신다면 금방 만날 수 있을 겁니다. "
      }, 
      {
        "@id": "1211185418002957", 
        "@feature": "", 
        "@locale": "", 
        "@npc": "루비", 
        "@name": "오늘의 친구를 찾으셨군요! 약속했던 대로 <font color=\"#ffd200\">$item:20302275$</font>$pp:를,을$ 드릴게요.\n<font color=\"#ffd200\">$item:20302275$</font>$pp2:로,으로$ 행운이 따르는 2019년을 시작하시길 바랄게요!"
      }, 
      {
        "@id": "1211185418002958", 
        "@feature": "", 
        "@locale": "", 
        "@npc": "루비", 
        "@name": "안녕하세요, $MyPCName$님!\n살랑살랑 눈꽃송이가 흩날리는 겨울 날엔, 술래잡기 놀이가 제격이죠. \n<font color=\"#ffd200\">오늘의 친구</font>를 찾아보는 거 어떠세요? 재밌겠죠?\n오늘의 친구를 찾은 후 제게 돌아오시면 <font color=\"#ffd200\">$item:20302275$</font>$pp:를,을$ 드린답니다!"
      }, 
      {
        "@id": "1211185418002959", 
        "@feature": "", 
        "@locale": "", 
        "@npc": "루비", 
        "@name": "오늘의 친구는 바로~\n<font color=\"#ffd200\">30레벨 이상의 $item:11300049$$pp:를,을$ 착용한 여자 친구</font>랍니다!\n메이플 월드 어딘가에서는 만날 수 있을 거예요. 행운을 빌어요!"
      }, 
      {
        "@id": "1211185418002960", 
        "@feature": "", 
        "@locale": "", 
        "@npc": "루비", 
        "@name": "<font color=\"#ffd200\">30레벨 이상의 $item:11300049$$pp:를,을$ 착용한 여자 친구</font>를 찾아 보세요!\n포기하지 않고 찾아 보신다면 금방 만날 수 있을 겁니다. "
      }, 
      {
        "@id": "1211185418002961", 
        "@feature": "", 
        "@locale": "", 
        "@npc": "루비", 
        "@name": "오늘의 친구를 찾으셨군요! 약속했던 대로 <font color=\"#ffd200\">$item:20302275$</font>$pp:를,을$ 드릴게요.\n<font color=\"#ffd200\">$item:20302275$</font>$pp2:로,으로$ 행운이 따르는 2019년을 시작하시길 바랄게요!"
      }, 
      {
        "@id": "1211185418002962", 
        "@feature": "", 
        "@locale": "", 
        "@npc": "루비", 
        "@name": "안녕하세요, $MyPCName$님!\n살랑살랑 눈꽃송이가 흩날리는 겨울 날엔, 술래잡기 놀이가 제격이죠. \n<font color=\"#ffd200\">오늘의 친구</font>를 찾아보는 거 어떠세요? 재밌겠죠?\n오늘의 친구를 찾은 후 제게 돌아오시면 <font color=\"#ffd200\">$item:20302275$</font>$pp:를,을$ 드린답니다!"
      }, 
      {
        "@id": "1211185418002963", 
        "@feature": "", 
        "@locale": "", 
        "@npc": "루비", 
        "@name": "오늘의 친구는 바로~\n<font color=\"#ffd200\">$item:11050002$$pp:를,을$ 착용한 남자 친구</font>랍니다!\n메이플 월드 어딘가에서는 만날 수 있을 거예요. 행운을 빌어요!"
      }, 
      {
        "@id": "1211185418002964", 
        "@feature": "", 
        "@locale": "", 
        "@npc": "루비", 
        "@name": "<font color=\"#ffd200\">$item:11050002$$pp:를,을$ 착용한 남자 친구</font>를 찾아 보세요!\n포기하지 않고 찾아 보신다면 금방 만날 수 있을 겁니다. "
      }, 
      {
        "@id": "1211185418002965", 
        "@feature": "", 
        "@locale": "", 
        "@npc": "루비", 
        "@name": "오늘의 친구를 찾으셨군요! 약속했던 대로 <font color=\"#ffd200\">$item:20302275$</font>$pp:를,을$ 드릴게요.\n<font color=\"#ffd200\">$item:20302275$</font>$pp2:로,으로$ 행운이 따르는 2019년을 시작하시길 바랄게요!"
      }, 
      {
        "@id": "1211185418002966", 
        "@feature": "", 
        "@locale": "", 
        "@npc": "루비", 
        "@name": "안녕하세요, $MyPCName$님!\n살랑살랑 눈꽃송이가 흩날리는 겨울 날엔, 술래잡기 놀이가 제격이죠. \n<font color=\"#ffd200\">오늘의 친구</font>를 찾아보는 거 어떠세요? 재밌겠죠?\n오늘의 친구를 찾은 후 제게 돌아오시면 <font color=\"#ffd200\">$item:20302275$</font>$pp:를,을$ 드린답니다!"
      }, 
      {
        "@id": "1211185418002967", 
        "@feature": "", 
        "@locale": "", 
        "@npc": "루비", 
        "@name": "오늘의 친구는 바로~\n<font color=\"#ffd200\">50레벨 이상의 $item:11300050$$pp:를,을$ 착용한 친구</font>랍니다!\n메이플 월드 어딘가에서는 만날 수 있을 거예요. 행운을 빌어요!"
      }, 
      {
        "@id": "1211185418002968", 
        "@feature": "", 
        "@locale": "", 
        "@npc": "루비", 
        "@name": "<font color=\"#ffd200\">50레벨 이상의 $item:11300050$$pp:를,을$ 착용한 친구</font>를 찾아 보세요!\n포기하지 않고 찾아 보신다면 금방 만날 수 있을 겁니다. "
      }, 
      {
        "@id": "1211185418002969", 
        "@feature": "", 
        "@locale": "", 
        "@npc": "루비", 
        "@name": "오늘의 친구를 찾으셨군요! 약속했던 대로 <font color=\"#ffd200\">$item:20302275$</font>$pp:를,을$ 드릴게요.\n<font color=\"#ffd200\">$item:20302275$</font>$pp2:로,으로$ 행운이 따르는 2019년을 시작하시길 바랄게요!"
      }, 
      {
        "@id": "1211185418002970", 
        "@feature": "", 
        "@locale": "", 
        "@npc": "루비", 
        "@name": "안녕하세요, $MyPCName$님!\n살랑살랑 눈꽃송이가 흩날리는 겨울 날엔, 술래잡기 놀이가 제격이죠. \n<font color=\"#ffd200\">오늘의 친구</font>를 찾아보는 거 어떠세요? 재밌겠죠?\n오늘의 친구를 찾은 후 제게 돌아오시면 <font color=\"#ffd200\">$item:20302275$</font>$pp:를,을$ 드린답니다!"
      }, 
      {
        "@id": "1211185418002971", 
        "@feature": "", 
        "@locale": "", 
        "@npc": "루비", 
        "@name": "오늘의 친구는 바로~\n<font color=\"#ffd200\">40레벨 이상의 나이트 친구</font>랍니다!\n메이플 월드 어딘가에서는 만날 수 있을 거예요. 행운을 빌어요!"
      }, 
      {
        "@id": "1211185418002972", 
        "@feature": "", 
        "@locale": "", 
        "@npc": "루비", 
        "@name": "<font color=\"#ffd200\">40레벨 이상의 나이트 친구</font>를 찾아 보세요!\n포기하지 않고 찾아 보신다면 금방 만날 수 있을 겁니다. "
      }, 
      {
        "@id": "1211185418002973", 
        "@feature": "", 
        "@locale": "", 
        "@npc": "루비", 
        "@name": "오늘의 친구를 찾으셨군요! 약속했던 대로 <font color=\"#ffd200\">$item:20302275$</font>$pp:를,을$ 드릴게요.\n<font color=\"#ffd200\">$item:20302275$</font>$pp2:로,으로$ 행운이 따르는 2019년을 시작하시길 바랄게요!"
      }, 
      {
        "@id": "1211185418002974", 
        "@feature": "", 
        "@locale": "", 
        "@npc": "루비", 
        "@name": "안녕하세요, $MyPCName$님!\n살랑살랑 눈꽃송이가 흩날리는 겨울 날엔, 술래잡기 놀이가 제격이죠. \n<font color=\"#ffd200\">오늘의 친구</font>를 찾아보는 거 어떠세요? 재밌겠죠?\n오늘의 친구를 찾은 후 제게 돌아오시면 <font color=\"#ffd200\">$item:20302275$</font>$pp:를,을$ 드린답니다!"
      }, 
      {
        "@id": "1211185418002975", 
        "@feature": "", 
        "@locale": "", 
        "@npc": "루비", 
        "@name": "오늘의 친구는 바로~\n<font color=\"#ffd200\">40레벨 이상의 버서커 친구</font>랍니다!\n메이플 월드 어딘가에서는 만날 수 있을 거예요. 행운을 빌어요!"
      }, 
      {
        "@id": "1211185418002976", 
        "@feature": "", 
        "@locale": "", 
        "@npc": "루비", 
        "@name": "<font color=\"#ffd200\">40레벨 이상의 버서커 친구</font>를 찾아 보세요!\n포기하지 않고 찾아 보신다면 금방 만날 수 있을 겁니다. "
      }, 
      {
        "@id": "1211185418002977", 
        "@feature": "", 
        "@locale": "", 
        "@npc": "루비", 
        "@name": "오늘의 친구를 찾으셨군요! 약속했던 대로 <font color=\"#ffd200\">$item:20302275$</font>$pp:를,을$ 드릴게요.\n<font color=\"#ffd200\">$item:20302275$</font>$pp2:로,으로$ 행운이 따르는 2019년을 시작하시길 바랄게요!"
      }, 
      {
        "@id": "1211185418002978", 
        "@feature": "", 
        "@locale": "", 
        "@npc": "루비", 
        "@name": "안녕하세요, $MyPCName$님!\n살랑살랑 눈꽃송이가 흩날리는 겨울 날엔, 술래잡기 놀이가 제격이죠. \n<font color=\"#ffd200\">오늘의 친구</font>를 찾아보는 거 어떠세요? 재밌겠죠?\n오늘의 친구를 찾은 후 제게 돌아오시면 <font color=\"#ffd200\">$item:20302275$</font>$pp:를,을$ 드린답니다!"
      }, 
      {
        "@id": "1211185418002979", 
        "@feature": "", 
        "@locale": "", 
        "@npc": "루비", 
        "@name": "오늘의 친구는 바로~\n<font color=\"#ffd200\">$item:50600091$$pp:를,을$ 타고 있는 친구</font>랍니다!\n메이플 월드 어딘가에서는 만날 수 있을 거예요. 행운을 빌어요!"
      }, 
      {
        "@id": "1211185418002980", 
        "@feature": "", 
        "@locale": "", 
        "@npc": "루비", 
        "@name": "<font color=\"#ffd200\">$item:50600091$$pp:를,을$ 타고 있는 친구</font>를 찾아 보세요!\n포기하지 않고 찾아 보신다면 금방 만날 수 있을 겁니다. "
      }, 
      {
        "@id": "1211185418002981", 
        "@feature": "", 
        "@locale": "", 
        "@npc": "루비", 
        "@name": "오늘의 친구를 찾으셨군요! 약속했던 대로 <font color=\"#ffd200\">$item:20302275$</font>$pp:를,을$ 드릴게요.\n<font color=\"#ffd200\">$item:20302275$</font>$pp2:로,으로$ 행운이 따르는 2019년을 시작하시길 바랄게요!"
      }, 
      {
        "@id": "1211185418002982", 
        "@feature": "", 
        "@locale": "", 
        "@npc": "루비", 
        "@name": "안녕하세요, $MyPCName$님!\n살랑살랑 눈꽃송이가 흩날리는 겨울 날엔, 술래잡기 놀이가 제격이죠. \n<font color=\"#ffd200\">오늘의 친구</font>를 찾아보는 거 어떠세요? 재밌겠죠?\n오늘의 친구를 찾은 후 제게 돌아오시면 <font color=\"#ffd200\">$item:20302275$</font>$pp:를,을$ 드린답니다!"
      }, 
      {
        "@id": "1211185418002983", 
        "@feature": "", 
        "@locale": "", 
        "@npc": "루비", 
        "@name": "오늘의 친구는 바로~\n<font color=\"#ffd200\">30레벨 이상의 $item:11850014$$pp:를,을$ 착용한 친구</font>랍니다!\n메이플 월드 어딘가에서는 만날 수 있을 거예요. 행운을 빌어요!"
      }, 
      {
        "@id": "1211185418002984", 
        "@feature": "", 
        "@locale": "", 
        "@npc": "루비", 
        "@name": "<font color=\"#ffd200\">30레벨 이상의 $item:11850014$$pp:를,을$ 착용한 친구</font>를 찾아 보세요!\n포기하지 않고 찾아 보신다면 금방 만날 수 있을 겁니다. "
      }, 
      {
        "@id": "1211185418002985", 
        "@feature": "", 
        "@locale": "", 
        "@npc": "루비", 
        "@name": "오늘의 친구를 찾으셨군요! 약속했던 대로 <font color=\"#ffd200\">$item:20302275$</font>$pp:를,을$ 드릴게요.\n<font color=\"#ffd200\">$item:20302275$</font>$pp2:로,으로$ 행운이 따르는 2019년을 시작하시길 바랄게요!"
      }, 
      {
        "@id": "1211185418002986", 
        "@feature": "", 
        "@locale": "", 
        "@npc": "루비", 
        "@name": "안녕하세요, $MyPCName$님!\n살랑살랑 눈꽃송이가 흩날리는 겨울 날엔, 술래잡기 놀이가 제격이죠. \n<font color=\"#ffd200\">오늘의 친구</font>를 찾아보는 거 어떠세요? 재밌겠죠?\n오늘의 친구를 찾은 후 제게 돌아오시면 <font color=\"#ffd200\">$item:20302275$</font>$pp:를,을$ 드린답니다!"
      }, 
      {
        "@id": "1211185418002987", 
        "@feature": "", 
        "@locale": "", 
        "@npc": "루비", 
        "@name": "오늘의 친구는 바로~\n<font color=\"#ffd200\">40레벨 이상의 레인저 친구</font>랍니다!\n메이플 월드 어딘가에서는 만날 수 있을 거예요. 행운을 빌어요!"
      }, 
      {
        "@id": "1211185418002988", 
        "@feature": "", 
        "@locale": "", 
        "@npc": "루비", 
        "@name": "<font color=\"#ffd200\">40레벨 이상의 레인저 친구</font>를 찾아 보세요!\n포기하지 않고 찾아 보신다면 금방 만날 수 있을 겁니다. "
      }, 
      {
        "@id": "1211185418002989", 
        "@feature": "", 
        "@locale": "", 
        "@npc": "루비", 
        "@name": "오늘의 친구를 찾으셨군요! 약속했던 대로 <font color=\"#ffd200\">$item:20302275$</font>$pp:를,을$ 드릴게요.\n<font color=\"#ffd200\">$item:20302275$</font>$pp2:로,으로$ 행운이 따르는 2019년을 시작하시길 바랄게요!"
      }, 
      {
        "@id": "1211185418002990", 
        "@feature": "", 
        "@locale": "", 
        "@npc": "루비", 
        "@name": "안녕하세요, $MyPCName$님!\n살랑살랑 눈꽃송이가 흩날리는 겨울 날엔, 술래잡기 놀이가 제격이죠. \n<font color=\"#ffd200\">오늘의 친구</font>를 찾아보는 거 어떠세요? 재밌겠죠?\n오늘의 친구를 찾은 후 제게 돌아오시면 <font color=\"#ffd200\">$item:20302275$</font>$pp:를,을$ 드린답니다!"
      }, 
      {
        "@id": "1211185418002991", 
        "@feature": "", 
        "@locale": "", 
        "@npc": "루비", 
        "@name": "오늘의 친구는 바로~\n<font color=\"#ffd200\">40레벨 이상의 시프 친구</font>랍니다!\n메이플 월드 어딘가에서는 만날 수 있을 거예요. 행운을 빌어요!"
      }, 
      {
        "@id": "1211185418002992", 
        "@feature": "", 
        "@locale": "", 
        "@npc": "루비", 
        "@name": "<font color=\"#ffd200\">40레벨 이상의 시프 친구</font>를 찾아 보세요!\n포기하지 않고 찾아 보신다면 금방 만날 수 있을 겁니다. "
      }, 
      {
        "@id": "1211185418002993", 
        "@feature": "", 
        "@locale": "", 
        "@npc": "루비", 
        "@name": "오늘의 친구를 찾으셨군요! 약속했던 대로 <font color=\"#ffd200\">$item:20302275$</font>$pp:를,을$ 드릴게요.\n<font color=\"#ffd200\">$item:20302275$</font>$pp2:로,으로$ 행운이 따르는 2019년을 시작하시길 바랄게요!"
      }, 
      {
        "@id": "1211185418002994", 
        "@feature": "", 
        "@locale": "", 
        "@npc": "루비", 
        "@name": "안녕하세요, $MyPCName$님!\n살랑살랑 눈꽃송이가 흩날리는 겨울 날엔, 술래잡기 놀이가 제격이죠. \n<font color=\"#ffd200\">오늘의 친구</font>를 찾아보는 거 어떠세요? 재밌겠죠?\n오늘의 친구를 찾은 후 제게 돌아오시면 <font color=\"#ffd200\">$item:20302275$</font>$pp:를,을$ 드린답니다!"
      }, 
      {
        "@id": "1211185418002995", 
        "@feature": "", 
        "@locale": "", 
        "@npc": "루비", 
        "@name": "오늘의 친구는 바로~\n<font color=\"#ffd200\">40레벨 이상의 어쌔신 친구</font>랍니다!\n메이플 월드 어딘가에서는 만날 수 있을 거예요. 행운을 빌어요!"
      }, 
      {
        "@id": "1211185418002996", 
        "@feature": "", 
        "@locale": "", 
        "@npc": "루비", 
        "@name": "<font color=\"#ffd200\">40레벨 이상의 어쌔신 친구</font>를 찾아 보세요!\n포기하지 않고 찾아 보신다면 금방 만날 수 있을 겁니다. "
      }, 
      {
        "@id": "1211185418002997", 
        "@feature": "", 
        "@locale": "", 
        "@npc": "루비", 
        "@name": "오늘의 친구를 찾으셨군요! 약속했던 대로 <font color=\"#ffd200\">$item:20302275$</font>$pp:를,을$ 드릴게요.\n<font color=\"#ffd200\">$item:20302275$</font>$pp2:로,으로$ 행운이 따르는 2019년을 시작하시길 바랄게요!"
      }, 
      {
        "@id": "1212160718002998", 
        "@feature": "", 
        "@locale": "", 
        "@npc": "루비", 
        "@name": "안녕하세요, $MyPCName$님!\n설레는 마음으로 맞이한 2019년! 메이플 월드에 활기를 더해보는 것 어때요?\n<font color=\"#ffd200\">MC케이의 이벤트에 참여</font> 후 제게 오시면 <font color=\"#ffd200\">$item:20302275$</font>$pp:를,을$ 드릴게요!"
      }, 
      {
        "@id": "1212160718002999", 
        "@feature": "", 
        "@locale": "", 
        "@npc": "루비", 
        "@name": "<font color=\"#ffd200\">MC케이의 이벤트에 참여</font> 후 제게 오시면 <font color=\"#ffd200\">$item:20302275$</font>$pp:를,을$ 드릴게요!"
      }, 
      {
        "@id": "1212160718003000", 
        "@feature": "", 
        "@locale": "", 
        "@npc": "루비", 
        "@name": "우와~ 덕분에 메이플 월드가 한층 더 활력이 넘치는 것 같아요! \n<font color=\"#ffd200\">$item:20302275$</font>$pp2:로,으로$ 행운이 따르는 2019년을 시작하시길 바랄게요!"
      }, 
      {
        "@id": "1212160718003001", 
        "@feature": "", 
        "@locale": "", 
        "@npc": "루비", 
        "@name": "안녕하세요, $MyPCName$님!\n설레는 마음으로 맞이한 2019년! 메이플 월드에 활기를 더해보는 것 어때요?\n<font color=\"#ffd200\">필드 보스 처치</font> 후 제게 오시면 <font color=\"#ffd200\">$item:20302275$</font>$pp:를,을$ 드릴게요!"
      }, 
      {
        "@id": "1212160718003002", 
        "@feature": "", 
        "@locale": "", 
        "@npc": "루비", 
        "@name": "<font color=\"#ffd200\">필드 보스 처치</font> 후 제게 오시면 <font color=\"#ffd200\">$item:20302275$</font>$pp:를,을$ 드릴게요!"
      }, 
      {
        "@id": "1212160718003003", 
        "@feature": "", 
        "@locale": "", 
        "@npc": "루비", 
        "@name": "우와~ 덕분에 메이플 월드가 한층 더 활력이 넘치는 것 같아요! \n<font color=\"#ffd200\">$item:20302275$</font>$pp2:로,으로$ 행운이 따르는 2019년을 시작하시길 바랄게요!"
      }, 
      {
        "@id": "1212160718003004", 
        "@feature": "", 
        "@locale": "", 
        "@npc": "루비", 
        "@name": "안녕하세요, $MyPCName$님!\n설레는 마음으로 맞이한 2019년! 메이플 월드에 활기를 더해보는 것 어때요?\n낚시로 <font color=\"#ffd200\">물고기를 잡은</font> 후 제게 오시면 <font color=\"#ffd200\">$item:20302275$</font>$pp:를,을$ 드릴게요!"
      }, 
      {
        "@id": "1212160718003005", 
        "@feature": "", 
        "@locale": "", 
        "@npc": "루비", 
        "@name": "낚시로 <font color=\"#ffd200\">물고기를 잡은</font> 후 제게 오시면 <font color=\"#ffd200\">$item:20302275$</font>$pp:를,을$ 드릴게요!"
      }, 
      {
        "@id": "1212160718003006", 
        "@feature": "", 
        "@locale": "", 
        "@npc": "루비", 
        "@name": "우와~ 덕분에 메이플 월드가 한층 더 활력이 넘치는 것 같아요! \n<font color=\"#ffd200\">$item:20302275$</font>$pp2:로,으로$ 행운이 따르는 2019년을 시작하시길 바랄게요!"
      }, 
      {
        "@id": "1212160718003007", 
        "@feature": "", 
        "@locale": "", 
        "@npc": "루비", 
        "@name": "안녕하세요, $MyPCName$님!\n설레는 마음으로 맞이한 2019년! 메이플 월드에 활기를 더해보는 것 어때요?\n아름다운 선율로 <font color=\"#ffd200\">연주</font> 후 제게 오시면 <font color=\"#ffd200\">$item:20302275$</font>$pp:를,을$ 드릴게요!"
      }, 
      {
        "@id": "1212160718003008", 
        "@feature": "", 
        "@locale": "", 
        "@npc": "루비", 
        "@name": "아름다운 선율로 <font color=\"#ffd200\">연주</font> 후 제게 오시면 <font color=\"#ffd200\">$item:20302275$</font>$pp:를,을$ 드릴게요!"
      }, 
      {
        "@id": "1212160718003009", 
        "@feature": "", 
        "@locale": "", 
        "@npc": "루비", 
        "@name": "우와~ 덕분에 메이플 월드가 한층 더 활력이 넘치는 것 같아요! \n<font color=\"#ffd200\">$item:20302275$</font>$pp2:로,으로$ 행운이 따르는 2019년을 시작하시길 바랄게요!"
      }, 
      {
        "@id": "1212160718003010", 
        "@feature": "", 
        "@locale": "", 
        "@npc": "루비", 
        "@name": "안녕하세요, $MyPCName$님!\n설레는 마음으로 맞이한 2019년! 메이플 월드에 활기를 더해보는 것 어때요?\n<font color=\"#ffd200\">오늘의 미션 완료</font> 후 제게 오시면 <font color=\"#ffd200\">$item:20302275$</font>$pp:를,을$ 드릴게요!"
      }, 
      {
        "@id": "1212160718003011", 
        "@feature": "", 
        "@locale": "", 
        "@npc": "루비", 
        "@name": "<font color=\"#ffd200\">오늘의 미션 완료</font> 후 제게 오시면 <font color=\"#ffd200\">$item:20302275$</font>$pp:를,을$ 드릴게요!"
      }, 
      {
        "@id": "1212160718003012", 
        "@feature": "", 
        "@locale": "", 
        "@npc": "루비", 
        "@name": "우와~ 덕분에 메이플 월드가 한층 더 활력이 넘치는 것 같아요! \n<font color=\"#ffd200\">$item:20302275$</font>$pp2:로,으로$ 행운이 따르는 2019년을 시작하시길 바랄게요!"
      }, 
      {
        "@id": "0111132118003013", 
        "@feature": "", 
        "@locale": "", 
        "@npc": "루비", 
        "@name": "$MyPCName$님! 혹시 주변에서 아기 복돼지들 못 보셨나요?\n12년 만에 돌아온 <font color=\"#ffd200\">돼지의 해</font>를 맞아 복돼지들의 파티가 열리는데, 몇몇 <font color=\"#ffd200\">아기 복돼지들</font>이 나타나지 않고 있대요. \n<font color=\"#ffd200\">파티를 아주 좋아하는 아이들</font>이니 신나게 꾸미고 달려갈텐데… 뭔가 이상해요."
      }, 
      {
        "@id": "0111132118003014", 
        "@feature": "", 
        "@locale": "", 
        "@npc": "루비", 
        "@name": "설마 <font color=\"#ffd200\">몬스터</font>를 만난 걸까요? <font color=\"#ffd200\">아기 복돼지들</font>은 겁이 많아 아주 무서워할 텐데….\n바닥에 꽁꽁 발이 묶여 꼼짝도 하지 못하겠죠… 너무 불쌍해요!\n주변이 안전하기만 하면 괜찮을 텐데. $MyPCName$님께서 도와주시겠어요?"
      }, 
      {
        "@id": "0111132118003015", 
        "@feature": "", 
        "@locale": "", 
        "@npc": "루비", 
        "@name": "복돼지 파티에 가는 아기 복돼지들은 등에 <font color=\"#ffd200\">풍선</font>을 매달고 있대요.\n그러니까, 주변 몬스터들을 물리친 후 도망가도 된다고 알려주면 풍선의 힘으로 빠르게 날아서 도망칠 수 있을 거예요.\n$MyPCName$님, <font color=\"#ffd200\">아기 복돼지들</font>을 발견하면 <font color=\"#ffd200\">날려 보내주세요!</font>"
      }, 
      {
        "@id": "0111132118003016", 
        "@feature": "", 
        "@locale": "", 
        "@npc": "루비", 
        "@name": "복돼지 파티에 가는 아기 복돼지들은 등에 <font color=\"#ffd200\">풍선</font>을 매달고 있대요.\n그러니까, 주변 몬스터들을 물리친 후 도망가도 된다고 알려주면 풍선의 힘으로 빠르게 날아서 도망칠 수 있을 거예요.\n$MyPCName$님, <font color=\"#ffd200\">아기 복돼지들</font>을 발견하면 <font color=\"#ffd200\">날려 보내주세요!</font>"
      }, 
      {
        "@id": "0111132118003017", 
        "@feature": "", 
        "@locale": "", 
        "@npc": "루비", 
        "@name": "$MyPCName$님 덕분에 아기 복돼지들이 파티장에 무사히 도착했다고 해요.\n<font color=\"#ffd200\">올해도 잘 부탁드릴게요,</font> $MyPCName$님!"
      }, 
      {
        "@id": "0118003418003018", 
        "@feature": "Event", 
        "@locale": "", 
        "@npc": "루비", 
        "@name": "$MyPCName$님, 해피 발렌타인~!\n발렌타인 데이를 맞아 메이플 월드 최고의 제빵사 멘델님이 특별한 이벤트를 \n준비했다고 해요!\n초콜릿 재료만 준비하면, 멘델님이 직접 만든 초콜릿을 받을 수 있다는 소식!\n절대 놓칠 수 없겠죠?"
      }, 
      {
        "@id": "0118003418003019", 
        "@feature": "Event", 
        "@locale": "", 
        "@npc": "루비", 
        "@name": "준비해야 할 초콜릿 재료는 $item:20000452$ 5개, $item:30000729$ 2개, \n$item:30000730$ 1개에요.\n$item:20000452$$pp:는,은$ 필드 곳곳에서 발견할 수 있는 초코볼 풍선 조사를 통해!\n$item:30000729$$pp:는,은$ 필드 보스 처치를 통해!\n$item:30000730$$pp:는,은$ 던전 보스 처치를 통해 획득할 수 있어요."
      }, 
      {
        "@id": "0118003418003020", 
        "@feature": "Event", 
        "@locale": "", 
        "@npc": "루비", 
        "@name": "준비해야 할 초콜릿 재료는 $item:20000452$ 5개, $item:30000729$ 2개, \n$item:30000730$ 1개에요.\n$item:20000452$$pp:는,은$ 필드 곳곳에서 발견할 수 있는 초코볼 풍선 조사를 통해!\n$item:30000729$$pp:는,은$ 필드 보스 처치를 통해!\n$item:30000730$$pp:는,은$ 던전 보스 처치를 통해 획득할 수 있어요."
      }, 
      {
        "@id": "0118003418003021", 
        "@feature": "Event", 
        "@locale": "", 
        "@npc": "루비", 
        "@name": "초콜릿 재료를 모두 모아오셨군요!\n여기 약속한 $item:20300637$ 입니다.\n$MyPCName$님의 마음을 가득 담아 소중한 이에게 선물해보세요!"
      }, 
      {
        "@id": "0118003418003022", 
        "@feature": "Event", 
        "@locale": "", 
        "@npc": "system", 
        "@name": "$item:20300638$$pp:를,을$ 선택하셨군요!\n$map:02000001$의 $npc:11000012[gender:0]$$pp:를,을$ 통해 <font color=\"#ffd200\">$npc:11000406[gender:0]$</font>에게 $MyPCName$님의 마음을 전하세요.\n"
      }, 
      {
        "@id": "0118003418003023", 
        "@feature": "Event", 
        "@locale": "", 
        "@npc": "system", 
        "@name": "$item:20300638$$pp:를,을$ 선택하셨군요!\n$map:02000001$의 $npc:11000012[gender:0]$$pp:를,을$ 통해 <font color=\"#ffd200\">$npc:11000406[gender:0]$</font>에게 $MyPCName$님의 마음을 전하세요.\n"
      }, 
      {
        "@id": "0118003418003024", 
        "@feature": "Event", 
        "@locale": "", 
        "@npc": "보기", 
        "@name": "아, <font color=\"#ffd200\">$npc:11000406[gender:0]$</font>에게 초콜릿 배달을 의뢰하러 오셨다고요?\n<font color=\"#ffd200\">$npc:11000406[gender:0]$</font>$pp:가,이$ 배달을 받으면 또 이렇게 말하겠군요."
      }, 
      {
        "@id": "0118003418003025", 
        "@feature": "Event", 
        "@locale": "", 
        "@npc": "혁이", 
        "@name": "하아, 이놈의 인기는…\n역시 이번 인기투표 나를 위한 것이었나!"
      }, 
      {
        "@id": "0118003418003026", 
        "@feature": "Event", 
        "@locale": "", 
        "@npc": "보기", 
        "@name": "후후… 아무튼 의뢰하신 초콜릿은 안전하게 배달할테니 걱정마세요!"
      }, 
      {
        "@id": "0118003418003027", 
        "@feature": "Event", 
        "@locale": "", 
        "@npc": "system", 
        "@name": "$item:20300638$$pp:를,을$ 선택하셨군요!\n$map:02000001$의 $npc:11000012[gender:0]$$pp:를,을$ 통해 <font color=\"#ffd200\">$npc:11001229[gender:0]$</font>님에게 $MyPCName$님의 마음을 전하세요.\n"
      }, 
      {
        "@id": "0118003418003028", 
        "@feature": "Event", 
        "@locale": "", 
        "@npc": "system", 
        "@name": "$item:20300638$$pp:를,을$ 선택하셨군요!\n$map:02000001$의 $npc:11000012[gender:0]$$pp:를,을$ 통해 <font color=\"#ffd200\">$npc:11001229[gender:0]$</font>님에게 $MyPCName$님의 마음을 전하세요.\n"
      }, 
      {
        "@id": "0118003418003029", 
        "@feature": "Event", 
        "@locale": "", 
        "@npc": "보기", 
        "@name": "아, <font color=\"#ffd200\">$npc:11001229[gender:0]$</font>님에게 초콜릿 배달을 의뢰하러 오셨다고요?\n<font color=\"#ffd200\">$npc:11001229[gender:0]$</font>님이 배달을 받으면 분명 이렇게 말씀하실 겁니다."
      }, 
      {
        "@id": "0118003418003030", 
        "@feature": "Event", 
        "@locale": "", 
        "@npc": "이슈라", 
        "@name": "나를 기억하고 찾아주는 이들의 마음에 가슴이 따뜻해지는구나.\n나 또한 이 마음들을 영원히 간직하겠다고 전해다오."
      }, 
      {
        "@id": "0118003418003031", 
        "@feature": "Event", 
        "@locale": "", 
        "@npc": "보기", 
        "@name": "제가 책임지고 $MyPCName$님의 마음까지 잘 전하겠습니다.\n"
      }, 
      {
        "@id": "0118003418003032", 
        "@feature": "Event", 
        "@locale": "", 
        "@npc": "system", 
        "@name": "$item:20300638$$pp:를,을$ 선택하셨군요!\n$map:02000001$의 $npc:11000012[gender:0]$$pp:를,을$ 통해 <font color=\"#ffd200\">$npc:11000252[gender:0]$</font>에게 $MyPCName$님의 마음을 전하세요.\n"
      }, 
      {
        "@id": "0118003418003033", 
        "@feature": "Event", 
        "@locale": "", 
        "@npc": "system", 
        "@name": "$item:20300638$$pp:를,을$ 선택하셨군요!\n$map:02000001$의 $npc:11000012[gender:0]$$pp:를,을$ 통해 <font color=\"#ffd200\">$npc:11000252[gender:0]$</font>에게 $MyPCName$님의 마음을 전하세요.\n"
      }, 
      {
        "@id": "0118003418003034", 
        "@feature": "Event", 
        "@locale": "", 
        "@npc": "보기", 
        "@name": "아, <font color=\"#ffd200\">$npc:11000252[gender:0]$</font>에게 초콜릿 배달을 의뢰하러 오셨다고요?\n<font color=\"#ffd200\">$npc:11000252[gender:0]$</font>$pp:가,이$ 배달을 받으면 또 이렇게 말하겠군요."
      }, 
      {
        "@id": "0118003418003035", 
        "@feature": "Event", 
        "@locale": "", 
        "@npc": "골두스", 
        "@name": "흠… 나에게 초콜릿을?! 거 보기 드문 뛰어난 인재로군!\n내 젊은 시절이 떠오르네.\n골~ 골~ 골두스~ 골골 거리며 살지 말고, 오늘만큼은 힘찬 사랑을 위해 살자!\n자, 따라 해보게!"
      }, 
      {
        "@id": "0118003418003036", 
        "@feature": "Event", 
        "@locale": "", 
        "@npc": "보기", 
        "@name": "후후… 아무튼 의뢰하신 초콜릿은 안전하게 배달할테니 걱정마세요!"
      }, 
      {
        "@id": "0118003418003037", 
        "@feature": "Event", 
        "@locale": "", 
        "@npc": "system", 
        "@name": "$item:20300638$$pp:를,을$ 선택하셨군요!\n$map:02000001$의 $npc:11000012[gender:0]$$pp:를,을$ 통해 <font color=\"#ffd200\">$npc:11000711[gender:1]$</font>에게 $MyPCName$님의 마음을 전하세요.\n"
      }, 
      {
        "@id": "0118003418003038", 
        "@feature": "Event", 
        "@locale": "", 
        "@npc": "system", 
        "@name": "$item:20300638$$pp:를,을$ 선택하셨군요!\n$map:02000001$의 $npc:11000012[gender:0]$$pp:를,을$ 통해 <font color=\"#ffd200\">$npc:11000711[gender:1]$</font>에게 $MyPCName$님의 마음을 전하세요.\n"
      }, 
      {
        "@id": "0118003418003039", 
        "@feature": "Event", 
        "@locale": "", 
        "@npc": "보기", 
        "@name": "아, <font color=\"#ffd200\">$npc:11000711[gender:1]$</font>에게 초콜릿 배달을 의뢰하러 오셨다고요?\n<font color=\"#ffd200\">$npc:11000711[gender:1]$</font>$pp:가,이$ 배달을 받으면 또 이렇게 말하겠군요."
      }, 
      {
        "@id": "0118003418003040", 
        "@feature": "Event", 
        "@locale": "", 
        "@npc": "민트", 
        "@name": "우와아~ 아저씨 또 오셨네요? \n이번에만 벌써 몇 번째 초콜릿 배달을 받는 건지… \n하하하. 제 초콜릿 배달 때문에 피곤하더라도 아자아자! 힘내시고 또 오세요~"
      }, 
      {
        "@id": "0118003418003041", 
        "@feature": "Event", 
        "@locale": "", 
        "@npc": "보기", 
        "@name": "후후… 아무튼 의뢰하신 초콜릿은 안전하게 배달할테니 걱정마세요!"
      }, 
      {
        "@id": "0118003418003042", 
        "@feature": "Event", 
        "@locale": "", 
        "@npc": "system", 
        "@name": "$item:20300638$$pp:를,을$ 선택하셨군요!\n$map:02000001$의 $npc:11000012[gender:0]$$pp:를,을$ 통해 <font color=\"#ffd200\">$npc:11003343[gender:1]$</font>에게 $MyPCName$님의 마음을 전하세요.\n"
      }, 
      {
        "@id": "0118003418003043", 
        "@feature": "Event", 
        "@locale": "", 
        "@npc": "system", 
        "@name": "$item:20300638$$pp:를,을$ 선택하셨군요!\n$map:02000001$의 $npc:11000012[gender:0]$$pp:를,을$ 통해 <font color=\"#ffd200\">$npc:11003343[gender:1]$</font>에게 $MyPCName$님의 마음을 전하세요.\n"
      }, 
      {
        "@id": "0118003418003044", 
        "@feature": "Event", 
        "@locale": "", 
        "@npc": "보기", 
        "@name": "아, <font color=\"#ffd200\">$npc:11003343[gender:1]$</font>에게 초콜릿 배달을 의뢰하러 오셨다고요?\n<font color=\"#ffd200\">$npc:11003343[gender:1]$</font>$pp:가,이$ 배달을 받으면 또 이렇게 말하겠군요."
      }, 
      {
        "@id": "0118003418003045", 
        "@feature": "Event", 
        "@locale": "", 
        "@npc": "피치", 
        "@name": "어머… 초콜릿… \n누가 또 보낸 거죠? 직접 와서 전해줘도 좋을 텐데… "
      }, 
      {
        "@id": "0118003418003046", 
        "@feature": "Event", 
        "@locale": "", 
        "@npc": "보기", 
        "@name": "후후… 아무튼 의뢰하신 초콜릿은 안전하게 배달할테니 걱정마세요!"
      }, 
      {
        "@id": "0118003418003047", 
        "@feature": "Event", 
        "@locale": "", 
        "@npc": "system", 
        "@name": "$item:20300638$$pp:를,을$ 선택하셨군요!\n$map:02000001$의 $npc:11000012[gender:0]$$pp:를,을$ 통해 <font color=\"#ffd200\">$npc:11003535[gender:1]$</font>에게 $MyPCName$님의 마음을 전하세요.\n"
      }, 
      {
        "@id": "0118003418003048", 
        "@feature": "Event", 
        "@locale": "", 
        "@npc": "system", 
        "@name": "$item:20300638$$pp:를,을$ 선택하셨군요!\n$map:02000001$의 $npc:11000012[gender:0]$$pp:를,을$ 통해 <font color=\"#ffd200\">$npc:11003535[gender:1]$</font>에게 $MyPCName$님의 마음을 전하세요.\n"
      }, 
      {
        "@id": "0118003418003049", 
        "@feature": "Event", 
        "@locale": "", 
        "@npc": "보기", 
        "@name": "아, <font color=\"#ffd200\">$npc:11003535[gender:1]$</font>에게 초콜릿 배달을 의뢰하러 오셨다고요?\n<font color=\"#ffd200\">$npc:11003535[gender:1]$</font>$pp:가,이$ 배달을 받으면 또 이렇게 말하겠군요."
      }, 
      {
        "@id": "0118003418003050", 
        "@feature": "Event", 
        "@locale": "", 
        "@npc": "샤텐", 
        "@name": "후후… 이렇게 자주 배달하다보면 아저씨도 지치지 않아?\n당 떨어지면 내 앞으로 배달되는 초콜릿 하나씩 까서 먹어도 모르는 척 넘어가줄게~\n내가 좀 쿨~ 하잖아?"
      }, 
      {
        "@id": "0118003418003051", 
        "@feature": "Event", 
        "@locale": "", 
        "@npc": "보기", 
        "@name": "후후… 아무튼 의뢰하신 초콜릿은 안전하게 배달할테니 걱정마세요!"
      }, 
      {
        "@id": "0215163318003052", 
        "@feature": "Event", 
        "@locale": "NA", 
        "@npc": "루비", 
        "@name": "안녕하세요, $MyPCName$ 님!\n글자 <font color=\"#ffd200\">'$item:30001330$', '$item:30001331$', '$item:30001332$'</font>을 모아 보세요!\n예쁜 에나멜 스트라이프 리본을 만들 수 있는 조각 아이템을 선물로 드려요."
      }, 
      {
        "@id": "0215163318003053", 
        "@feature": "Event", 
        "@locale": "NA", 
        "@npc": "루비", 
        "@name": "$npcName:23000013[gender:0]$, $npcName:23000018$, $npcName:23000001[gender:0]$, $npcName:23000019[gender:0]$, $npcName:23000054$, $npcName:23000020[gender:1]$, $npcName:23000035$, \n$npcName:23000099$, $npcName:23000017$, $npcName:23000047$, $npcName:23000024[gender:1]$, $npcName:23000034$, $npcName:23000045$,\n$npcName:23000057[gender:1]$, $npcName:23000026[gender:1]$, $npcName:23000012$, $npcName:23000009[gender:0]$, $npcName:23000029$. \n\n글자 <font color=\"#ffd200\">'$item:30001330$', '$item:30001331$', '$item:30001332$'</font>을 얻을 수 있는 보스가 이렇게 많답니다. \n글자 모으기, 어렵지 않겠죠?"
      }, 
      {
        "@id": "0215163318003054", 
        "@feature": "Event", 
        "@locale": "NA", 
        "@npc": "루비", 
        "@name": "자, 그럼 어서 필드로 출발해 보실까요?\n제가 말씀드린 보스들은 머리 위에 <font color=\"#ffd200\">'$item:30001330$', '$item:30001331$', '$item:30001332$'</font> 글자가 나타나 있어요.\n바로 알아보실 수 있을 거랍니다. "
      }, 
      {
        "@id": "0215163318003055", 
        "@feature": "Event", 
        "@locale": "NA", 
        "@npc": "루비", 
        "@name": "여기 약속한 선물입니다.\n저는 리본을 정말 좋아해요! $MyPCName$ 님도 아마 마음에 쏙 드실 거예요.\n예쁜 에나멜 스트라이프 리본을 완성하려면 총 14개의 조각이 필요해요.\n14개의 조각을 모아 리본의 주인이 되어 보세요!"
      }, 
      {
        "@id": "0215163318003056", 
        "@feature": "Event", 
        "@locale": "NA", 
        "@npc": "루비", 
        "@name": "안녕하세요, $MyPCName$ 님!\n글자 <font color=\"#ffd200\">'$item:30001333$', '$item:30001334$', '$item:30001335$'</font>를 모아 보세요!\n다 모으시면 예쁜 에나멜 스트라이프 리본을 만들 수 있는 조각 아이템을 선물로 드려요."
      }, 
      {
        "@id": "0215163318003057", 
        "@feature": "Event", 
        "@locale": "NA", 
        "@npc": "루비", 
        "@name": "$npcName:23000013[gender:0]$, $npcName:23000018$, $npcName:23000001[gender:0]$, $npcName:23000019[gender:0]$, $npcName:23000054$, $npcName:23000020[gender:1]$, $npcName:23000035$, \n$npcName:23000099$, $npcName:23000017$, $npcName:23000047$, $npcName:23000024[gender:1]$, $npcName:23000034$, $npcName:23000045$,\n$npcName:23000057[gender:1]$, $npcName:23000026[gender:1]$, $npcName:23000012$, $npcName:23000009[gender:0]$, $npcName:23000029$. \n\n글자 <font color=\"#ffd200\">'$item:30001333$', '$item:30001334$', '$item:30001335$'</font>를 얻을 수 있는 보스가 이렇게 많답니다. \n글자 모으기, 어렵지 않겠죠?"
      }, 
      {
        "@id": "0215163318003058", 
        "@feature": "Event", 
        "@locale": "NA", 
        "@npc": "루비", 
        "@name": "자, 그럼 어서 필드로 출발해 보실까요?\n제가 말씀드린 보스들은 머리 위에 <font color=\"#ffd200\">'$item:30001333$', '$item:30001334$', '$item:30001335$'</font> 글자가 나타나 있어요.\n바로 알아보실 수 있을 거랍니다. "
      }, 
      {
        "@id": "0215163318003059", 
        "@feature": "Event", 
        "@locale": "NA", 
        "@npc": "루비", 
        "@name": "여기 약속한 선물입니다.\n저는 리본을 정말 좋아해요! $MyPCName$ 님도 아마 마음에 쏙 드실 거예요.\n예쁜 에나멜 스트라이프 리본을 완성하려면 총 14개의 조각이 필요해요.\n14개의 조각을 모아 리본의 주인이 되어 보세요!"
      }, 
      {
        "@id": "0215163318003060", 
        "@feature": "Event", 
        "@locale": "NA", 
        "@npc": "루비", 
        "@name": "안녕하세요, $MyPCName$ 님!\n글자 <font color=\"#ffd200\">'$item:30001336$', '$item:30001337$', '$item:30001338$'</font>을 모아 보세요!\n예쁜 에나멜 스트라이프 리본을 만들 수 있는 조각 아이템을 선물로 드려요."
      }, 
      {
        "@id": "0215163318003061", 
        "@feature": "Event", 
        "@locale": "NA", 
        "@npc": "루비", 
        "@name": "$npcName:23000013[gender:0]$, $npcName:23000018$, $npcName:23000001[gender:0]$, $npcName:23000019[gender:0]$, $npcName:23000054$, $npcName:23000020[gender:1]$, $npcName:23000035$, \n$npcName:23000099$, $npcName:23000017$, $npcName:23000047$, $npcName:23000024[gender:1]$, $npcName:23000034$, $npcName:23000045$,\n$npcName:23000057[gender:1]$, $npcName:23000026[gender:1]$, $npcName:23000012$, $npcName:23000009[gender:0]$, $npcName:23000029$. \n\n글자 <font color=\"#ffd200\">'$item:30001336$', '$item:30001337$', '$item:30001338$'</font>을 얻을 수 있는 보스가 이렇게 많답니다. \n글자 모으기, 어렵지 않겠죠?"
      }, 
      {
        "@id": "0215163318003062", 
        "@feature": "Event", 
        "@locale": "NA", 
        "@npc": "루비", 
        "@name": "자, 그럼 어서 필드로 출발해 보실까요?\n제가 말씀드린 보스들은 머리 위에 <font color=\"#ffd200\">'$item:30001336$', '$item:30001337$', '$item:30001338$'</font> 글자가 나타나 있어요.\n바로 알아보실 수 있을 거랍니다. "
      }, 
      {
        "@id": "0215163318003063", 
        "@feature": "Event", 
        "@locale": "NA", 
        "@npc": "루비", 
        "@name": "여기 약속한 선물입니다.\n저는 리본을 정말 좋아해요! $MyPCName$ 님도 아마 마음에 쏙 드실 거예요.\n예쁜 에나멜 스트라이프 리본을 완성하려면 총 14개의 조각이 필요해요.\n14개의 조각을 모아 리본의 주인이 되어 보세요!"
      }, 
      {
        "@id": "0215163318003064", 
        "@feature": "Event", 
        "@locale": "NA", 
        "@npc": "루비", 
        "@name": "안녕하세요, $MyPCName$ 님!\n글자 <font color=\"#ffd200\">'$item:30001339$', '$item:30001340$', '$item:30001341$'</font>를 모아 보세요!\n예쁜 에나멜 스트라이프 리본을 만들 수 있는 조각 아이템을 선물로 드려요."
      }, 
      {
        "@id": "0215163318003065", 
        "@feature": "Event", 
        "@locale": "NA", 
        "@npc": "루비", 
        "@name": "$npcName:23000013[gender:0]$, $npcName:23000018$, $npcName:23000001[gender:0]$, $npcName:23000019[gender:0]$, $npcName:23000054$, $npcName:23000020[gender:1]$, $npcName:23000035$, \n$npcName:23000099$, $npcName:23000017$, $npcName:23000047$, $npcName:23000024[gender:1]$, $npcName:23000034$, $npcName:23000045$,\n$npcName:23000057[gender:1]$, $npcName:23000026[gender:1]$, $npcName:23000012$, $npcName:23000009[gender:0]$, $npcName:23000029$. \n\n글자 <font color=\"#ffd200\">'$item:30001339$', '$item:30001340$', '$item:30001341$'</font>를 얻을 수 있는 보스가 이렇게 많답니다. \n글자 모으기, 어렵지 않겠죠?"
      }, 
      {
        "@id": "0215163318003066", 
        "@feature": "Event", 
        "@locale": "NA", 
        "@npc": "루비", 
        "@name": "자, 그럼 어서 필드로 출발해 보실까요?\n제가 말씀드린 보스들은 머리 위에 <font color=\"#ffd200\">'$item:30001339$', '$item:30001340$', '$item:30001341$'</font> 글자가 나타나 있어요.\n바로 알아보실 수 있을 거랍니다. "
      }, 
      {
        "@id": "0215163318003067", 
        "@feature": "Event", 
        "@locale": "NA", 
        "@npc": "루비", 
        "@name": "여기 약속한 선물입니다.\n저는 리본을 정말 좋아해요! $MyPCName$ 님도 아마 마음에 쏙 드실 거예요.\n예쁜 에나멜 스트라이프 리본을 완성하려면 총 14개의 조각이 필요해요.\n14개의 조각을 모아 리본의 주인이 되어 보세요!"
      }, 
      {
        "@id": "0311152418003068", 
        "@feature": "Event", 
        "@locale": "NA", 
        "@npc": "루비", 
        "@name": "즐거운 만우절 주간! \n오늘과 내일, 용사님들 OX 퀴즈에 참여해 보시겠어요?\n참고로 만우절 당일에는 OX 퀴즈에서 MC 케이가 특별한 장난을 칩니다. "
      }, 
      {
        "@id": "0311152418003069", 
        "@feature": "Event", 
        "@locale": "NA", 
        "@npc": "루비", 
        "@name": "4월 1일, 4월 2일 양일간! OX 퀴즈에 참여해 주시면 특별한 선물을 드려요.\n지금 바로 참여해 보세요. \n참여 후에는 꼭 저에게 와서 선물을 받아가셔야해요."
      }, 
      {
        "@id": "0311152418003070", 
        "@feature": "Event", 
        "@locale": "NA", 
        "@npc": "루비", 
        "@name": "4월 1일, 4월 2일 양일간! OX 퀴즈에 참여해 주시면 특별한 선물을 드려요.\n지금 바로 참여해 보세요. \n참여 후에는 꼭 저에게 와서 선물을 받아가셔야해요."
      }, 
      {
        "@id": "0311152418003071", 
        "@feature": "Event", 
        "@locale": "NA", 
        "@npc": "루비", 
        "@name": "MC케이의 OX 퀴즈는 즐거우셨나요?\n제가 준비한 선물을 받아가세요!"
      }, 
      {
        "@id": "0311152418003072", 
        "@feature": "Event", 
        "@locale": "NA", 
        "@npc": "루비", 
        "@name": "만우절을 모르는 용사님은 안 계시겠지요?\n그 맘 저도 다 압니다.\n장난치고 싶고, 누군가를 속이고 싶고 그렇죠?"
      }, 
      {
        "@id": "0311152418003073", 
        "@feature": "Event", 
        "@locale": "NA", 
        "@npc": "루비", 
        "@name": "하지만 조심하세요. 너무 과한 장난은 화를 부를 수도 있답니다. \n제가 적당히 장난치는 법, 알려드릴까요?\n$quest:80020121$를 완료하고 받으신 <font color=\"#ffd200\">'$item:20000674$'</font> 어때요? 한번 먹어 보세요!"
      }, 
      {
        "@id": "0311152418003074", 
        "@feature": "Event", 
        "@locale": "NA", 
        "@npc": "루비", 
        "@name": "쑥쑥 알약을 먹고 거대해진 모습으로 친구들을 깜짝 놀래켜 보세요!\n시시하다고요?\n과한 장난은 화를 부른답니다! 쑥쑥 알약! 딱 좋아요! 딱! "
      }, 
      {
        "@id": "0311152418003075", 
        "@feature": "Event", 
        "@locale": "NA", 
        "@npc": "루비", 
        "@name": "쑥쑥 알약으로 친구들을 놀래켜 주는 데 성공하셨군요!\n축하드려요.\n만우절에 딱 어울리는 아주 재밌는 물건을 선물로 드리겠습니다."
      }
    ]
  }
}