{
  "?xml": {
    "@version": "1.0", 
    "@encoding": "utf-8"
  }, 
  "ms2": {
    "key": [
      {
        "@id": "0830123414003822", 
        "@feature": "", 
        "@locale": "", 
        "@npc": "Cordia", 
        "@name": "Nice to meet you! $MyPCName$ sir! What I noticed was that the adventurer's outfit is very special! Does $MyPCName$ know about the myth of Olympus?"
      }, 
      {
        "@id": "0830123414003823", 
        "@feature": "", 
        "@locale": "", 
        "@npc": "Cordia", 
        "@name": "I have a funny story about Taurus. Zeus, who was in the beauty of Eauropé who was beautiful when she saw it, turned into a bull and earned her interest."
      }, 
      {
        "@id": "0830123414003824", 
        "@feature": "", 
        "@locale": "", 
        "@npc": "Cordia", 
        "@name": "At that time, the bull who borrowed his appearance for a while said that he later became the constellation bull of the sky! Why are you talking about this? It will be possible to know when wearing Olympus skin ~"
      }, 
      {
        "@id": "0830123414003825", 
        "@feature": "", 
        "@locale": "", 
        "@npc": "Cordia", 
        "@name": "I still do not have enough gold to finish the Olympus skin set!"
      }, 
      {
        "@id": "0830123414003826", 
        "@feature": "", 
        "@locale": "", 
        "@npc": "Cordia", 
        "@name": "Oh my gosh! It looks like it just popped up in mythology from a distance! $MyPCName$ You must be destined to be with $item:50600194$$pp:와,과$!"
      }, 
      {
        "@id": "0831180815000001", 
        "@feature": "", 
        "@locale": "", 
        "@npc": "Cordia", 
        "@name": "Nice to meet you! $MyPCName$ sir! What I noticed was that the adventurer's outfit is very special! $MyPCName$ Do you like cats?"
      }, 
      {
        "@id": "0831180815000002", 
        "@feature": "", 
        "@locale": "", 
        "@npc": "Cordia", 
        "@name": "Of course you like cats and you're wearing these clothes. Was that a question? In fact, I really like cats too, but ... the clothes you wear are not just clothes that just mimic cats! Designed with cats and neon lights meet, they radiate a unique beauty!"
      }, 
      {
        "@id": "0831180815000003", 
        "@feature": "", 
        "@locale": "", 
        "@npc": "Cordia", 
        "@name": "Funky meeting of cat and neon light! How beautiful would it be to wear all the funky neon cat skins? If you show me the adventurer wearing all the parts of the funky neon cat skins, I will give you a gift to match with the funky neon cat skins!"
      }, 
      {
        "@id": "0831180815000004", 
        "@feature": "", 
        "@locale": "", 
        "@npc": "Cordia", 
        "@name": "I still do not have enough gold to finish the set of funky neon cat skins!"
      }, 
      {
        "@id": "0831180815000005", 
        "@feature": "", 
        "@locale": "", 
        "@npc": "Cordia", 
        "@name": "My God ~ Funky funky from a distance! It's funky! $MyPCName$ You must be destined to be with $item:20301955$$pp:와,과$!"
      }, 
      {
        "@id": "1010150215000040", 
        "@feature": "", 
        "@locale": "", 
        "@npc": "Cordia", 
        "@name": "Nice to meet you! $MyPCName$ sir! What I noticed was that the adventurer's outfit is very special! $MyPCName$ What do you think about the dignity of the adventurer?"
      }, 
      {
        "@id": "1010150215000041", 
        "@feature": "", 
        "@locale": "", 
        "@npc": "Cordia", 
        "@name": "sure! The adventurer is dressed in any kind of clothing, but there are clothes to spare. Do you think the clothes you are wearing are the clothes that will save the adventurer's dignity? Old-fashion design and silhouette is heavy ~!"
      }, 
      {
        "@id": "1010150215000042", 
        "@feature": "", 
        "@locale": "", 
        "@npc": "Cordia", 
        "@name": "I am very excited about the elegance that will emerge when I wear all of the Digitimer armor skins. If you show me the adventurer wearing all the parts of the Decanter Armor Skins, I will give you a gift that will match the Digunit Armor Skin in return!"
      }, 
      {
        "@id": "1010150215000043", 
        "@feature": "", 
        "@locale": "", 
        "@npc": "Cordia", 
        "@name": "I still do not have enough gold to finish the set of Digimeter armor skin!"
      }, 
      {
        "@id": "1010150215000044", 
        "@feature": "", 
        "@locale": "", 
        "@npc": "Cordia", 
        "@name": "My eyesight was not wrong. This kind of overflowing elegance. Is my gift $item:40400090$$pp:와,과$ just right? I will look forward to the adventurer's wonderful appearance from now on."
      }, 
      {
        "@id": "1106141115000045", 
        "@feature": "", 
        "@locale": "", 
        "@npc": "Cordia", 
        "@name": "Nice to meet you! $MyPCName$ sir! What I noticed was that the adventurer's outfit is very special! $MyPCName$ You also want to look like a cute cat."
      }, 
      {
        "@id": "1106141115000046", 
        "@feature": "", 
        "@locale": "", 
        "@npc": "Cordia", 
        "@name": "In that regard, I think the kitten made skins that I prepared for $MyPCName$ are really good. Even though I am still, I am thrilled with the cute and sweetness that flows overflowing."
      }, 
      {
        "@id": "1106141115000047", 
        "@feature": "", 
        "@locale": "", 
        "@npc": "Cordia", 
        "@name": "If you show me $MyPCName$ wearing all the parts of the kitten made skins, I will give you $item:20302118$$pp:를,을$ in return."
      }, 
      {
        "@id": "1106141115000048", 
        "@feature": "", 
        "@locale": "", 
        "@npc": "Cordia", 
        "@name": "I still do not have enough gold to finish Kitten Maid Skin Set!"
      }, 
      {
        "@id": "1106141115000049", 
        "@feature": "", 
        "@locale": "", 
        "@npc": "Cordia", 
        "@name": "If you get a double cuteness! It looks more than I expected. I will make my cat's cuteness up to $item:20302118$ with my gift!"
      }, 
      {
        "@id": "1119135915000050", 
        "@feature": "", 
        "@locale": "", 
        "@npc": "Cordia", 
        "@name": "$MyPCName$ Do you have an image that comes up when you are an angel? Did you ever think of a beautiful angel with pure white wings as a pure, sacred being? The story that I want to tell you is about a fallen angel."
      }, 
      {
        "@id": "1119135915000051", 
        "@feature": "", 
        "@locale": "", 
        "@npc": "Cordia", 
        "@name": "Some people think that the devil is a fallen angel in other words. There are so many stories that the devil was deported and became a fallen angel. But if you imagine a fallen angel to be so, I think it is very attractive."
      }, 
      {
        "@id": "1119135915000052", 
        "@feature": "", 
        "@locale": "", 
        "@npc": "Cordia", 
        "@name": "So it may be that we have appeared to us with such beautiful appearance! Like the clothes that $MyPCName$ is wearing right now! If you wear all of your fallen angelic clothes, I'll give you a symbolic badge as a gift!"
      }, 
      {
        "@id": "1119135915000053", 
        "@feature": "", 
        "@locale": "", 
        "@npc": "Cordia", 
        "@name": "I still do not have enough gold to finish the fallen angel skin set!"
      }, 
      {
        "@id": "1119135915000054", 
        "@feature": "", 
        "@locale": "", 
        "@npc": "Cordia", 
        "@name": "Wow! It's totally dark, but I feel integrity! This is one of the most beautiful adventurers I have seen recently!"
      }, 
      {
        "@id": "1127124615000055", 
        "@feature": "", 
        "@locale": "", 
        "@npc": "Cordia", 
        "@name": "$MyPCName$ I have already come to such a cold winter. But winter is not as cold as it seems. I can see this shining white dress like you are now!"
      }, 
      {
        "@id": "1127124615000056", 
        "@feature": "", 
        "@locale": "", 
        "@npc": "Cordia", 
        "@name": "Imagine somehow the spark of white snow will make your eyes shine to give joy to all. Did I talk too fairy tale?"
      }, 
      {
        "@id": "1127124615000057", 
        "@feature": "", 
        "@locale": "", 
        "@npc": "Cordia", 
        "@name": "But $MyPCName$ 's figure makes me imagine it ~ Can you imagine how pretty it would be to wear all the clothes? I am looking forward to it ... I will give you a weapon skin that matches the spirit of an eye in a fairy tale!"
      }, 
      {
        "@id": "1127124615000058", 
        "@feature": "", 
        "@locale": "", 
        "@npc": "Cordia", 
        "@name": "I still do not have enough gold to finish the snow tail skin set!"
      }, 
      {
        "@id": "1127124615000059", 
        "@feature": "", 
        "@locale": "", 
        "@npc": "Cordia", 
        "@name": "Oh! It looks like you're really going to let your eyes down! It's beautiful and beautiful!"
      }, 
      {
        "@id": "1214152515000060", 
        "@feature": "", 
        "@locale": "", 
        "@npc": "Cordia", 
        "@name": "$MyPCName$, do you like to shine? Oh, what are you talking about all of a sudden? When I see the clothes you are wearing, I think of these words ~ 'Shining is beautiful.'"
      }, 
      {
        "@id": "1214152515000061", 
        "@feature": "", 
        "@locale": "", 
        "@npc": "Cordia", 
        "@name": "$MyPCName$ Look at what your clothes are literally shining ~ It is so beautiful! The shiny things are beautiful too!"
      }, 
      {
        "@id": "1214152515000062", 
        "@feature": "", 
        "@locale": "", 
        "@npc": "Cordia", 
        "@name": "I also like to shine. $MyPCName$ If you wear all your clothes, I am looking forward to how beautiful it will be ~ ~ I will give you a matching gift if you come to me wearing sparkling, sparkling, beautifully shining clothes!"
      }, 
      {
        "@id": "1214152515000063", 
        "@feature": "", 
        "@locale": "", 
        "@npc": "Cordia", 
        "@name": "I still do not have enough gold to finish Luminarie skin set!"
      }, 
      {
        "@id": "1214152515000064", 
        "@feature": "", 
        "@locale": "", 
        "@npc": "Cordia", 
        "@name": "Oh! It's a shining shine! It is dazzlingly beautiful ~"
      }, 
      {
        "@id": "1227162015000065", 
        "@feature": "", 
        "@locale": "", 
        "@npc": "Cordia", 
        "@name": "Sometimes when I look at the blue sky, I feel better. $MyPCName$ Looking at you, it makes you think that you are living in the sky!"
      }, 
      {
        "@id": "1227162015000066", 
        "@feature": "", 
        "@locale": "", 
        "@npc": "Cordia", 
        "@name": "I would have listened to all the stories about the good men and the fairies once and for all ~ Heavenly sky ~ I am so graceful!"
      }, 
      {
        "@id": "1227162015000067", 
        "@feature": "", 
        "@locale": "", 
        "@npc": "Cordia", 
        "@name": "$MyPCName$ It looks like you can fly to the sky soon! Take a look at the ancestors and fly in the wonderful fan I prepared!"
      }, 
      {
        "@id": "1227162015000068", 
        "@feature": "", 
        "@locale": "", 
        "@npc": "Cordia", 
        "@name": "I still do not have enough gold to finish the set of the celestial skin!"
      }, 
      {
        "@id": "1227162015000069", 
        "@feature": "", 
        "@locale": "", 
        "@npc": "Cordia", 
        "@name": "It is now! Show me a wonderful flight to the sky right now!"
      }, 
      {
        "@id": "0304143915000070", 
        "@feature": "", 
        "@locale": "", 
        "@npc": "Cordia", 
        "@name": "$MyPCName$ You look like a magician. I just can not get past this call!"
      }, 
      {
        "@id": "0304143915000071", 
        "@feature": "", 
        "@locale": "", 
        "@npc": "Cordia", 
        "@name": "braided! When you 뿅! I think it's a matter of time before becoming a popular star of MapleWorld if you become a wonderful magician who makes you disappear!"
      }, 
      {
        "@id": "0304143915000072", 
        "@feature": "", 
        "@locale": "", 
        "@npc": "Cordia", 
        "@name": "$MyPCName$ If you make a debut as a magician, you will have a chance to become a wonderful helper of the magician because Codya will definitely go sight seeing!"
      }, 
      {
        "@id": "0304143915000073", 
        "@feature": "", 
        "@locale": "", 
        "@npc": "Cordia", 
        "@name": "I still do not have enough gold to finish the Illusionist Skin Set!"
      }, 
      {
        "@id": "0304143915000074", 
        "@feature": "", 
        "@locale": "", 
        "@npc": "Cordia", 
        "@name": "$MyPCName$ To be a magician I thought that time was very precious and I prepared it!"
      }, 
      {
        "@id": "0912180315000030", 
        "@feature": "", 
        "@locale": "", 
        "@npc": "Cordia", 
        "@name": "Hi! $MyPCName$ sir! I came to the adventurer in a hurry to let you know that there is a special quest hidden in the pretty skin items you can meet in the future!"
      }, 
      {
        "@id": "0912180315000031", 
        "@feature": "", 
        "@locale": "", 
        "@npc": "Cordia", 
        "@name": "Item icons are hidden quests will be displayed so <font color=\"#ffd200\">the quest mark.</font> <font color=\"#ffd200\">If</font> you wear a <font color=\"#ffd200\">quest mark</font> with a skin you can <font color=\"#ffd200\">proceed</font> with a <font color=\"#ffd200\">special quest</font> ~"
      }, 
      {
        "@id": "0912180315000032", 
        "@feature": "", 
        "@locale": "", 
        "@npc": "Cordia", 
        "@name": "You can receive instructions that there are hidden quests in the item description ~! If you put the mouse cursor on the item icon, you can see the detailed explanation ~ <font color=\"#ffd200\">If</font> you wear <font color=\"#ffd200\">this guiding</font> skin, this Codia will visit the adventurer!"
      }, 
      {
        "@id": "0912180315000033", 
        "@feature": "", 
        "@locale": "", 
        "@npc": "Cordia", 
        "@name": "Was my explanation a little short ~?"
      }, 
      {
        "@id": "0912180315000034", 
        "@feature": "", 
        "@locale": "", 
        "@npc": "Cordia", 
        "@name": "It's a secret that any skin item hides the quest! $MyPCName$ I want you to experience a surprise quest and I will give you a present ~ I will see you again!"
      }, 
      {
        "@id": "0907145915000018", 
        "@feature": "", 
        "@locale": "", 
        "@npc": "Scarlet", 
        "@name": "Hi! $MyPCName$ sir! I'm going to let you know that there is a special quest hidden in pretty skin items that you can meet in the future!"
      }, 
      {
        "@id": "0907145915000019", 
        "@feature": "", 
        "@locale": "", 
        "@npc": "Scarlet", 
        "@name": "Item icons are hidden quests will be displayed so <font color=\"#ffd200\">the quest mark.</font> <font color=\"#ffd200\">If</font> you wear a <font color=\"#ffd200\">quest mark</font> with a skin you can <font color=\"#ffd200\">proceed</font> with a <font color=\"#ffd200\">special quest</font> ~"
      }, 
      {
        "@id": "0912171715000022", 
        "@feature": "", 
        "@locale": "", 
        "@npc": "Scarlet", 
        "@name": "If you put the mouse cursor on the icon of the item that the quest is hiding, you can see the detailed explanation <font color=\"#ffd200\">like this</font> ~ <font color=\"#ffd200\">When</font> you wear the skin with <font color=\"#ffd200\">this mark</font> , my friend $npc:11001612[gender:1]$ will visit the adventurer!"
      }, 
      {
        "@id": "0907145915000020", 
        "@feature": "", 
        "@locale": "", 
        "@npc": "Scarlet", 
        "@name": "How do you know what quests are hidden? I can find it among the things I sell, so why do not you visit me often?"
      }, 
      {
        "@id": "0907145915000021", 
        "@feature": "", 
        "@locale": "", 
        "@npc": "Scarlet", 
        "@name": "I hope $MyPCName$ can experience a surprise quest ~ So next time I'll see you again!"
      }
    ]
  }
}