{
  "?xml": {
    "@version": "1.0", 
    "@encoding": "utf-8"
  }, 
  "ms2": {
    "key": [
      {
        "@id": "15123101", 
        "@name": "Lumen Cor Set"
      }, 
      {
        "@id": "15123102", 
        "@name": "Lumen Ravus Set"
      }, 
      {
        "@id": "15123103", 
        "@name": "Lumen Magia Set"
      }, 
      {
        "@id": "15123104", 
        "@name": "Lumen Deus Set"
      }, 
      {
        "@id": "15123105", 
        "@name": "Lumen Tero Set"
      }, 
      {
        "@id": "15123106", 
        "@name": "Lumen Libro Set"
      }, 
      {
        "@id": "15123107", 
        "@name": "Lumen Erebus Set"
      }, 
      {
        "@id": "15123108", 
        "@name": "Lumen Sica Set"
      }, 
      {
        "@id": "15123109", 
        "@name": "Lumen Polus Set"
      }, 
      {
        "@id": "16022501", 
        "@name": "Black Star Record Set"
      }, 
      {
        "@id": "16042801", 
        "@name": "Cute Duckling Set"
      }, 
      {
        "@id": "16042802", 
        "@name": "Chic Duckling Set"
      }, 
      {
        "@id": "16042803", 
        "@name": "Embarrassed Duckling Set"
      }, 
      {
        "@id": "16063001", 
        "@name": "Elegant Gothic Set"
      }, 
      {
        "@id": "16063002", 
        "@name": "Elegant Gothic Set"
      }, 
      {
        "@id": "16071401", 
        "@name": "Lumen Manus Set"
      }, 
      {
        "@id": "16072801", 
        "@name": "Ifrit Fairy Set"
      }, 
      {
        "@id": "16072802", 
        "@name": "Ifrit Fairy Set"
      }, 
      {
        "@id": "16081101", 
        "@name": "Fantastic Ritual Set"
      }, 
      {
        "@id": "16081102", 
        "@name": "Lumen Animus Set"
      }, 
      {
        "@id": "16082501", 
        "@name": "Pure Wedding Set"
      }, 
      {
        "@id": "16082502", 
        "@name": "Pure Wedding Set"
      }, 
      {
        "@id": "16082503", 
        "@name": "Fierce Combat Set"
      }, 
      {
        "@id": "16082504", 
        "@name": "Fierce Frenzy Set"
      }, 
      {
        "@id": "16082505", 
        "@name": "Fierce Magic Set"
      }, 
      {
        "@id": "16082506", 
        "@name": "Fierce Holy Set"
      }, 
      {
        "@id": "16082507", 
        "@name": "Fierce Focus Set"
      }, 
      {
        "@id": "16082508", 
        "@name": "Fierce Explosive Set"
      }, 
      {
        "@id": "16082509", 
        "@name": "Fierce Chaos Set"
      }, 
      {
        "@id": "16082510", 
        "@name": "Fierce Lethal Set"
      }, 
      {
        "@id": "16082511", 
        "@name": "Fierce Sorcery Set"
      }, 
      {
        "@id": "16082512", 
        "@name": "Fierce Melee Set"
      }, 
      {
        "@id": "16082513", 
        "@name": "Fierce Ritual Set"
      }, 
      {
        "@id": "16082514", 
        "@name": "Narubashan Combat Set"
      }, 
      {
        "@id": "16082515", 
        "@name": "Narubashan Frenzy Set"
      }, 
      {
        "@id": "16082516", 
        "@name": "Narubashan Magic Set"
      }, 
      {
        "@id": "16082517", 
        "@name": "Narubashan Holy Set"
      }, 
      {
        "@id": "16082518", 
        "@name": "Narubashan Focus Set"
      }, 
      {
        "@id": "16082519", 
        "@name": "Narubashan Explosive Set"
      }, 
      {
        "@id": "16082520", 
        "@name": "Narubashan Chaos Set"
      }, 
      {
        "@id": "16082521", 
        "@name": "Narubashan Lethal Set"
      }, 
      {
        "@id": "16082522", 
        "@name": "Narubashan Sorcery Set"
      }, 
      {
        "@id": "16082523", 
        "@name": "Narubashan Melee Set"
      }, 
      {
        "@id": "16082524", 
        "@name": "Narubashan Ritual Set"
      }, 
      {
        "@id": "16092901", 
        "@name": "Excellent Diamond Set"
      }, 
      {
        "@id": "16092902", 
        "@name": "Excellent Onyx Set"
      }, 
      {
        "@id": "16092903", 
        "@name": "Shuabritze Family Honor Set"
      }, 
      {
        "@id": "16102701", 
        "@name": "Bloody Vampire Set"
      }, 
      {
        "@id": "16102702", 
        "@name": "Bloody Vampire Set"
      }, 
      {
        "@id": "16121501", 
        "@name": "Merry Christmas Set"
      }, 
      {
        "@id": "16121502", 
        "@name": "Merry Christmas Set"
      }, 
      {
        "@id": "17011201", 
        "@name": "Wave Combat Set"
      }, 
      {
        "@id": "17011202", 
        "@name": "Wave Frenzy Set"
      }, 
      {
        "@id": "17011203", 
        "@name": "Wave Magic Set"
      }, 
      {
        "@id": "17011204", 
        "@name": "Wave Holy Set"
      }, 
      {
        "@id": "17011205", 
        "@name": "Wave Focus Set"
      }, 
      {
        "@id": "17011206", 
        "@name": "Wave Explosive Set"
      }, 
      {
        "@id": "17011207", 
        "@name": "Wave Chaos Set"
      }, 
      {
        "@id": "17011208", 
        "@name": "Wave Lethal Set"
      }, 
      {
        "@id": "17011209", 
        "@name": "Wave Sorcery Set"
      }, 
      {
        "@id": "17011210", 
        "@name": "Wave Melee Set"
      }, 
      {
        "@id": "17011211", 
        "@name": "Wave Ritual Set"
      }, 
      {
        "@id": "17011212", 
        "@name": "Lost Kingdom Combat Set"
      }, 
      {
        "@id": "17011213", 
        "@name": "Lost Kingdom Frenzy Set"
      }, 
      {
        "@id": "17011214", 
        "@name": "Lost Kingdom Magic Set"
      }, 
      {
        "@id": "17011215", 
        "@name": "Lost Kingdom Holy Set"
      }, 
      {
        "@id": "17011216", 
        "@name": "Lost Kingdom Focus Set"
      }, 
      {
        "@id": "17011217", 
        "@name": "Lost Kingdom Explosive Set"
      }, 
      {
        "@id": "17011218", 
        "@name": "Lost Kingdom Chaos Set"
      }, 
      {
        "@id": "17011219", 
        "@name": "Lost Kingdom Lethal Set"
      }, 
      {
        "@id": "17011220", 
        "@name": "Lost Kingdom Sorcery Set"
      }, 
      {
        "@id": "17011221", 
        "@name": "Lost Kingdom Melee Set"
      }, 
      {
        "@id": "17011222", 
        "@name": "Lost Kingdom Ritual Set"
      }, 
      {
        "@id": "17011223", 
        "@name": "Lumarigon Combat Set"
      }, 
      {
        "@id": "17011224", 
        "@name": "Lumarigon Frenzy Set"
      }, 
      {
        "@id": "17011225", 
        "@name": "Lumarigon Magic Set"
      }, 
      {
        "@id": "17011226", 
        "@name": "Lumarigon Holy Set"
      }, 
      {
        "@id": "17011227", 
        "@name": "Lumarigon Focus Set"
      }, 
      {
        "@id": "17011228", 
        "@name": "Lumarigon Explosive Set"
      }, 
      {
        "@id": "17011229", 
        "@name": "Lumarigon Chaos Set"
      }, 
      {
        "@id": "17011230", 
        "@name": "Lumarigon Lethal Set"
      }, 
      {
        "@id": "17011231", 
        "@name": "Lumarigon Sorcery Set"
      }, 
      {
        "@id": "17011232", 
        "@name": "Lumarigon Melee Set"
      }, 
      {
        "@id": "17011233", 
        "@name": "Lumarigon Ritual Set"
      }, 
      {
        "@id": "17020901", 
        "@name": "Scarlet Heart Set"
      }, 
      {
        "@id": "17020902", 
        "@name": "Scarlet Heart Set"
      }, 
      {
        "@id": "17020903", 
        "@name": "Maple Alliance Set"
      }, 
      {
        "@id": "17020904", 
        "@name": "Maple Alliance Set"
      }, 
      {
        "@id": "17020905", 
        "@name": "Maple Alliance Set"
      }, 
      {
        "@id": "17020906", 
        "@name": "Maple Alliance Set"
      }, 
      {
        "@id": "17020907", 
        "@name": "Maple Alliance Set"
      }, 
      {
        "@id": "17020908", 
        "@name": "Maple Alliance Set"
      }, 
      {
        "@id": "17020909", 
        "@name": "Maple Alliance Set"
      }, 
      {
        "@id": "17020910", 
        "@name": "Maple Alliance Set"
      }, 
      {
        "@id": "17020911", 
        "@name": "Maple Alliance Set"
      }, 
      {
        "@id": "17020912", 
        "@name": "Maple Alliance Set"
      }, 
      {
        "@id": "17020913", 
        "@name": "Maple Alliance Set"
      }, 
      {
        "@id": "17020914", 
        "@name": "Madrakan Monarch Set"
      }, 
      {
        "@id": "17030701", 
        "@name": "Maple Set"
      }, 
      {
        "@id": "17030901", 
        "@name": "Floria Fairy Set"
      }, 
      {
        "@id": "17030902", 
        "@name": "Floria Fairy Set"
      }, 
      {
        "@id": "17040401", 
        "@name": "Majestic Wing Set"
      }, 
      {
        "@id": "17040402", 
        "@name": "Majestic Wing Set"
      }, 
      {
        "@id": "17040601", 
        "@name": "Shiny Star Set"
      }, 
      {
        "@id": "17040602", 
        "@name": "Shiny Star Set"
      }, 
      {
        "@id": "17053101", 
        "@name": "Conspirator's Set"
      }, 
      {
        "@id": "17062901", 
        "@name": "Reverse Knight (Lv. 50) Set"
      }, 
      {
        "@id": "17062902", 
        "@name": "Reverse Berserker (Lv. 50) Set"
      }, 
      {
        "@id": "17062903", 
        "@name": "Reverse Wizard (Lv. 50) Set"
      }, 
      {
        "@id": "17062904", 
        "@name": "Reverse Priest (Lv. 50) Set"
      }, 
      {
        "@id": "17062905", 
        "@name": "Reverse Archer (Lv. 50) Set"
      }, 
      {
        "@id": "17062906", 
        "@name": "Reverse Heavy Gunner (Lv. 50) Set"
      }, 
      {
        "@id": "17062907", 
        "@name": "Reverse Thief (Lv. 50) Set"
      }, 
      {
        "@id": "17062908", 
        "@name": "Reverse Assassin (Lv. 50) Set"
      }, 
      {
        "@id": "17062909", 
        "@name": "Reverse Runeblade (Lv. 50) Set"
      }, 
      {
        "@id": "17062910", 
        "@name": "Reverse Striker (Lv. 50) Set"
      }, 
      {
        "@id": "17062911", 
        "@name": "Reverse Soul Binder (Lv. 50) Set"
      }, 
      {
        "@id": "17062912", 
        "@name": "Reverse Knight (Lv. 56) Set"
      }, 
      {
        "@id": "17062913", 
        "@name": "Reverse Berserker (Lv. 56) Set"
      }, 
      {
        "@id": "17062914", 
        "@name": "Reverse Wizard (Lv. 56) Set"
      }, 
      {
        "@id": "17062915", 
        "@name": "Reverse Priest (Lv. 56) Set"
      }, 
      {
        "@id": "17062916", 
        "@name": "Reverse Archer (Lv. 56) Set"
      }, 
      {
        "@id": "17062917", 
        "@name": "Reverse Heavy Gunner (Lv. 56) Set"
      }, 
      {
        "@id": "17062918", 
        "@name": "Reverse Thief (Lv. 56) Set"
      }, 
      {
        "@id": "17062919", 
        "@name": "Reverse Assassin (Lv. 56) Set"
      }, 
      {
        "@id": "17062920", 
        "@name": "Reverse Runeblade (Lv. 56) Set"
      }, 
      {
        "@id": "17062921", 
        "@name": "Reverse Striker (Lv. 56) Set"
      }, 
      {
        "@id": "17062922", 
        "@name": "Reverse Soul Binder (Lv. 56) Set"
      }, 
      {
        "@id": "17081823", 
        "@name": "Mooncake Set"
      }, 
      {
        "@id": "17083101", 
        "@name": "Pumpkin Witch Set"
      }, 
      {
        "@id": "17083102", 
        "@name": "Pumpkin Witch Set"
      }, 
      {
        "@id": "17090101", 
        "@name": "Aehem Hanbok Set"
      }, 
      {
        "@id": "17090102", 
        "@name": "Fluffy Hanbok Set"
      }, 
      {
        "@id": "17110801", 
        "@name": "Frantic Combat Set"
      }, 
      {
        "@id": "17110802", 
        "@name": "Frantic Frenzy Set"
      }, 
      {
        "@id": "17110803", 
        "@name": "Frantic Magic Set"
      }, 
      {
        "@id": "17110804", 
        "@name": "Frantic Holy Set"
      }, 
      {
        "@id": "17110805", 
        "@name": "Frantic Focus Set"
      }, 
      {
        "@id": "17110806", 
        "@name": "Frantic Explosive Set"
      }, 
      {
        "@id": "17110807", 
        "@name": "Frantic Chaos Set"
      }, 
      {
        "@id": "17110808", 
        "@name": "Frantic Lethal Set"
      }, 
      {
        "@id": "17110809", 
        "@name": "Frantic Sorcery Set"
      }, 
      {
        "@id": "17110810", 
        "@name": "Frantic Melee Set"
      }, 
      {
        "@id": "17110811", 
        "@name": "Frantic Ritual Set"
      }, 
      {
        "@id": "17110812", 
        "@name": "Eternal Bloody Dusk Set"
      }, 
      {
        "@id": "17110813", 
        "@name": "Eternal Skeleton Set"
      }, 
      {
        "@id": "17110814", 
        "@name": "Eternal Ennes Set"
      }, 
      {
        "@id": "17110815", 
        "@name": "Eternal Savior Set"
      }, 
      {
        "@id": "17110816", 
        "@name": "Eternal Watchman Set"
      }, 
      {
        "@id": "17110817", 
        "@name": "Eternal Pilot Set"
      }, 
      {
        "@id": "17110818", 
        "@name": "Eternal Nimble Beat Set"
      }, 
      {
        "@id": "17110819", 
        "@name": "Eternal Phantom Set"
      }, 
      {
        "@id": "17110820", 
        "@name": "Eternal Void Set"
      }, 
      {
        "@id": "17110821", 
        "@name": "Eternal Fighter Set"
      }, 
      {
        "@id": "17110822", 
        "@name": "Eternal Soul Set"
      }, 
      {
        "@id": "17110823", 
        "@name": "Reverse Knight (Lv. 50) Set"
      }, 
      {
        "@id": "17110824", 
        "@name": "Reverse Berserker (Lv. 50) Set"
      }, 
      {
        "@id": "17110825", 
        "@name": "Reverse Wizard (Lv. 50) Set"
      }, 
      {
        "@id": "17110826", 
        "@name": "Reverse Priest (Lv. 50) Set"
      }, 
      {
        "@id": "17110827", 
        "@name": "Reverse Archer (Lv. 50) Set"
      }, 
      {
        "@id": "17110828", 
        "@name": "Reverse Heavy Gunner (Lv. 50) Set"
      }, 
      {
        "@id": "17110829", 
        "@name": "Reverse Thief (Lv. 50) Set"
      }, 
      {
        "@id": "17110830", 
        "@name": "Reverse Assassin (Lv. 50) Set"
      }, 
      {
        "@id": "17110831", 
        "@name": "Reverse Runeblade (Lv. 50) Set"
      }, 
      {
        "@id": "17110832", 
        "@name": "Reverse Striker (Lv. 50) Set"
      }, 
      {
        "@id": "17110833", 
        "@name": "Reverse Soul Binder (Lv. 50) Set"
      }, 
      {
        "@id": "17110834", 
        "@name": "Pluto Set"
      }, 
      {
        "@id": "17110835", 
        "@name": "Mars Set"
      }, 
      {
        "@id": "17110836", 
        "@name": "Pluto Set"
      }, 
      {
        "@id": "17110837", 
        "@name": "Mars Set"
      }, 
      {
        "@id": "17112901", 
        "@name": "Glowing Star Set"
      }, 
      {
        "@id": "17112902", 
        "@name": "Glowing Star Set"
      }, 
      {
        "@id": "17121101", 
        "@name": "Fierce Combat Set"
      }, 
      {
        "@id": "17121102", 
        "@name": "Fierce Frenzy Set"
      }, 
      {
        "@id": "17121103", 
        "@name": "Fierce Magic Set"
      }, 
      {
        "@id": "17121104", 
        "@name": "Fierce Holy Set"
      }, 
      {
        "@id": "17121105", 
        "@name": "Fierce Focus Set"
      }, 
      {
        "@id": "17121106", 
        "@name": "Fierce Explosive Set"
      }, 
      {
        "@id": "17121107", 
        "@name": "Fierce Chaos Set"
      }, 
      {
        "@id": "17121108", 
        "@name": "Fierce Lethal Set"
      }, 
      {
        "@id": "17121109", 
        "@name": "Fierce Sorcery Set"
      }, 
      {
        "@id": "17121110", 
        "@name": "Fierce Melee Set"
      }, 
      {
        "@id": "17121111", 
        "@name": "Fierce Ritual Set"
      }, 
      {
        "@id": "18011801", 
        "@name": "Pluto Set"
      }, 
      {
        "@id": "18011802", 
        "@name": "Mars Set"
      }, 
      {
        "@id": "18011803", 
        "@name": "Pluto Set"
      }, 
      {
        "@id": "18011804", 
        "@name": "Mars Set"
      }, 
      {
        "@id": "18011501", 
        "@name": "Dreaming Butterfly Set"
      }, 
      {
        "@id": "18011502", 
        "@name": "Dreaming Butterfly Set"
      }, 
      {
        "@id": "18011805", 
        "@name": "Crimson Balrog's Combat Set"
      }, 
      {
        "@id": "18011806", 
        "@name": "Crimson Balrog's Frenzy Set"
      }, 
      {
        "@id": "18011807", 
        "@name": "Crimson Balrog's Magic Set"
      }, 
      {
        "@id": "18011808", 
        "@name": "Crimson Balrog's Holy Set"
      }, 
      {
        "@id": "18011809", 
        "@name": "Crimson Balrog's Focus Set"
      }, 
      {
        "@id": "18011810", 
        "@name": "Crimson Balrog's Explosive Set"
      }, 
      {
        "@id": "18011811", 
        "@name": "Crimson Balrog's Chaos Set"
      }, 
      {
        "@id": "18011812", 
        "@name": "Crimson Balrog's Lethal Set"
      }, 
      {
        "@id": "18011813", 
        "@name": "Crimson Balrog's Sorcery Set"
      }, 
      {
        "@id": "18011814", 
        "@name": "Crimson Balrog's Melee Set"
      }, 
      {
        "@id": "18011815", 
        "@name": "Crimson Balrog's Ritual Set"
      }, 
      {
        "@id": "18011816", 
        "@name": "Crimson Balrog's Combat Set"
      }, 
      {
        "@id": "18011817", 
        "@name": "Crimson Balrog's Frenzy Set"
      }, 
      {
        "@id": "18011818", 
        "@name": "Crimson Balrog's Magic Set"
      }, 
      {
        "@id": "18011819", 
        "@name": "Crimson Balrog's Holy Set"
      }, 
      {
        "@id": "18011820", 
        "@name": "Crimson Balrog's Focus Set"
      }, 
      {
        "@id": "18011821", 
        "@name": "Crimson Balrog's Explosive Set"
      }, 
      {
        "@id": "18011822", 
        "@name": "Crimson Balrog's Chaos Set"
      }, 
      {
        "@id": "18011823", 
        "@name": "Crimson Balrog's Lethal Set"
      }, 
      {
        "@id": "18011824", 
        "@name": "Crimson Balrog's Sorcery Set"
      }, 
      {
        "@id": "18011825", 
        "@name": "Crimson Balrog's Melee Set"
      }, 
      {
        "@id": "18011826", 
        "@name": "Crimson Balrog's Ritual Set"
      }, 
      {
        "@id": "18011827", 
        "@name": "Bright Star's Combat Set"
      }, 
      {
        "@id": "18011828", 
        "@name": "Bright Star's Frenzy Set"
      }, 
      {
        "@id": "18011829", 
        "@name": "Bright Star's Magic Set"
      }, 
      {
        "@id": "18011830", 
        "@name": "Bright Star's Holy Set"
      }, 
      {
        "@id": "18011831", 
        "@name": "Bright Star's Focus Set"
      }, 
      {
        "@id": "18011832", 
        "@name": "Bright Star's Explosive Set"
      }, 
      {
        "@id": "18011833", 
        "@name": "Bright Star's Chaos Set"
      }, 
      {
        "@id": "18011834", 
        "@name": "Bright Star's Lethal Set"
      }, 
      {
        "@id": "18011835", 
        "@name": "Bright Star's Sorcery Set"
      }, 
      {
        "@id": "18011836", 
        "@name": "Bright Star's Melee Set"
      }, 
      {
        "@id": "18011837", 
        "@name": "Bright Star's Ritual Set"
      }, 
      {
        "@id": "18052834", 
        "@name": "Behemoth Night Set", 
        "@feature": "Level60Item"
      }, 
      {
        "@id": "18052835", 
        "@name": "Behemoth Berserker Set", 
        "@feature": "Level60Item"
      }, 
      {
        "@id": "18052836", 
        "@name": "Behemoth Wizard Set", 
        "@feature": "Level60Item"
      }, 
      {
        "@id": "18052837", 
        "@name": "Behemoth Priest Set", 
        "@feature": "Level60Item"
      }, 
      {
        "@id": "18052838", 
        "@name": "Behemoth Ranger Set", 
        "@feature": "Level60Item"
      }, 
      {
        "@id": "18052839", 
        "@name": "Behemoth Heavy Gun Set", 
        "@feature": "Level60Item"
      }, 
      {
        "@id": "18052840", 
        "@name": "Behemoth Sheifset", 
        "@feature": "Level60Item"
      }, 
      {
        "@id": "18052841", 
        "@name": "Behemoth Assassin Set", 
        "@feature": "Level60Item"
      }, 
      {
        "@id": "18052842", 
        "@name": "Behemoth Runeblender Set", 
        "@feature": "Level60Item"
      }, 
      {
        "@id": "18052843", 
        "@name": "Behemoth striker set", 
        "@feature": "Level60Item"
      }, 
      {
        "@id": "18052844", 
        "@name": "Behemoth Soul Binder Set", 
        "@feature": "Level60Item"
      }, 
      {
        "@id": "18052845", 
        "@name": "Ailion Night Set", 
        "@feature": "Level60Item"
      }, 
      {
        "@id": "18052846", 
        "@name": "Aillion Berserker Set", 
        "@feature": "Level60Item"
      }, 
      {
        "@id": "18052847", 
        "@name": "Aileron Wizard Set", 
        "@feature": "Level60Item"
      }, 
      {
        "@id": "18052848", 
        "@name": "Aillion Priest Set", 
        "@feature": "Level60Item"
      }, 
      {
        "@id": "18052849", 
        "@name": "Aillion Ranger Set", 
        "@feature": "Level60Item"
      }, 
      {
        "@id": "18052850", 
        "@name": "Ailion Heavy Gun Set", 
        "@feature": "Level60Item"
      }, 
      {
        "@id": "18052851", 
        "@name": "Aillion Shepset", 
        "@feature": "Level60Item"
      }, 
      {
        "@id": "18052852", 
        "@name": "Aillion Assassin Set", 
        "@feature": "Level60Item"
      }, 
      {
        "@id": "18052853", 
        "@name": "Aileron Run Blair Set", 
        "@feature": "Level60Item"
      }, 
      {
        "@id": "18052854", 
        "@name": "Aillion striker set", 
        "@feature": "Level60Item"
      }, 
      {
        "@id": "18052855", 
        "@name": "Aillion Soul Binder Set", 
        "@feature": "Level60Item"
      }, 
      {
        "@id": "18052856", 
        "@name": "Black Vanguard Night Set", 
        "@feature": "Level60Item"
      }, 
      {
        "@id": "18052857", 
        "@name": "Black Vanguard Berserker Set", 
        "@feature": "Level60Item"
      }, 
      {
        "@id": "18052858", 
        "@name": "Black Vanguard Wizard Set", 
        "@feature": "Level60Item"
      }, 
      {
        "@id": "18052859", 
        "@name": "Black Vanguard Priest Set", 
        "@feature": "Level60Item"
      }, 
      {
        "@id": "18052860", 
        "@name": "Black Vanguard Ranger Set", 
        "@feature": "Level60Item"
      }, 
      {
        "@id": "18052861", 
        "@name": "Black Vanguard Heavy Gun Set", 
        "@feature": "Level60Item"
      }, 
      {
        "@id": "18052862", 
        "@name": "Black Vanguard Sheifset", 
        "@feature": "Level60Item"
      }, 
      {
        "@id": "18052863", 
        "@name": "Black Vanguard Assassin Set", 
        "@feature": "Level60Item"
      }, 
      {
        "@id": "18052864", 
        "@name": "Black Vanguard Run Blender Set", 
        "@feature": "Level60Item"
      }, 
      {
        "@id": "18052865", 
        "@name": "Black Vanguard striker set", 
        "@feature": "Level60Item"
      }, 
      {
        "@id": "18052866", 
        "@name": "Black Vanguard Soul Binder Set", 
        "@feature": "Level60Item"
      }, 
      {
        "@id": "18052867", 
        "@name": "Level 60 Epic 1 Night Set", 
        "@feature": "Level60Item"
      }, 
      {
        "@id": "18052868", 
        "@name": "Level 60 Epic 1 Berserker Set", 
        "@feature": "Level60Item"
      }, 
      {
        "@id": "18052869", 
        "@name": "Level 60 Epic 1 Wizard Set", 
        "@feature": "Level60Item"
      }, 
      {
        "@id": "18052870", 
        "@name": "Level 60 Epic 1 Priest Set", 
        "@feature": "Level60Item"
      }, 
      {
        "@id": "18052871", 
        "@name": "Level 60 Epic 1 Ranger Set", 
        "@feature": "Level60Item"
      }, 
      {
        "@id": "18052872", 
        "@name": "Level 60 Epic 1 Heavy Gunner Set", 
        "@feature": "Level60Item"
      }, 
      {
        "@id": "18052873", 
        "@name": "Level 60 Epic 1 Thief Set", 
        "@feature": "Level60Item"
      }, 
      {
        "@id": "18052874", 
        "@name": "Level 60 Epic 1 Assassin Set", 
        "@feature": "Level60Item"
      }, 
      {
        "@id": "18052875", 
        "@name": "Level 60 Epic 1 Rune Blender Set", 
        "@feature": "Level60Item"
      }, 
      {
        "@id": "18052876", 
        "@name": "Level 60 Epic 1 striker set", 
        "@feature": "Level60Item"
      }, 
      {
        "@id": "18052877", 
        "@name": "Level 60 Epic 1 Soul Binder Set", 
        "@feature": "Level60Item"
      }, 
      {
        "@id": "18052878", 
        "@name": "Level 60 Epic 2 Night Set", 
        "@feature": "Level60Item"
      }, 
      {
        "@id": "18052879", 
        "@name": "Level 60 Epic 2 Berserker Set", 
        "@feature": "Level60Item"
      }, 
      {
        "@id": "18052880", 
        "@name": "Level 60 Epic 2 Wizard Set", 
        "@feature": "Level60Item"
      }, 
      {
        "@id": "18052881", 
        "@name": "Level 60 Epic 2 Priest Set", 
        "@feature": "Level60Item"
      }, 
      {
        "@id": "18052882", 
        "@name": "Level 60 Epic 2 Ranger Set", 
        "@feature": "Level60Item"
      }, 
      {
        "@id": "18052883", 
        "@name": "Level 60 Epic 2 Heavy Gunner Set", 
        "@feature": "Level60Item"
      }, 
      {
        "@id": "18052884", 
        "@name": "Level 60 Epic 2 Thief Set", 
        "@feature": "Level60Item"
      }, 
      {
        "@id": "18052885", 
        "@name": "Level 60 Epic 2 Assassin Set", 
        "@feature": "Level60Item"
      }, 
      {
        "@id": "18052886", 
        "@name": "Level 60 Epic 2 Rune Blender Set", 
        "@feature": "Level60Item"
      }, 
      {
        "@id": "18052887", 
        "@name": "Level 60 Epic 2 striker set", 
        "@feature": "Level60Item"
      }, 
      {
        "@id": "18052888", 
        "@name": "Level 60 Epic 2 Soul Binder Set", 
        "@feature": "Level60Item"
      }, 
      {
        "@id": "18052891", 
        "@name": "Level 60 Epic Accessories 1 Earring, Necklace, Ring Set", 
        "@feature": "Level60Item"
      }, 
      {
        "@id": "18052892", 
        "@name": "Level 60 Epic Accessories 1 Cloak, Belt Set", 
        "@feature": "Level60Item"
      }, 
      {
        "@id": "18052893", 
        "@name": "Level 60 Epic Accessories 2 Earrings, Necklace, Ring Set", 
        "@feature": "Level60Item"
      }, 
      {
        "@id": "18052894", 
        "@name": "Level 60 Epic Accessories 2 Cloak, Belt Set", 
        "@feature": "Level60Item"
      }, 
      {
        "@id": "18052895", 
        "@name": "Mad Lakan monarch set", 
        "@feature": "Level60Item"
      }, 
      {
        "@id": "18052896", 
        "@name": "Centurion set", 
        "@feature": "Level60Item"
      }, 
      {
        "@id": "18052897", 
        "@name": "Centurion set", 
        "@feature": "Level60Item"
      }, 
      {
        "@id": "18061701", 
        "@name": "Behemoth Night Set", 
        "@feature": "Level60Item"
      }, 
      {
        "@id": "18061702", 
        "@name": "Behemoth Berserker Set", 
        "@feature": "Level60Item"
      }, 
      {
        "@id": "18061703", 
        "@name": "Behemoth Wizard Set", 
        "@feature": "Level60Item"
      }, 
      {
        "@id": "18061704", 
        "@name": "Behemoth Priest Set", 
        "@feature": "Level60Item"
      }, 
      {
        "@id": "18061705", 
        "@name": "Behemoth Ranger Set", 
        "@feature": "Level60Item"
      }, 
      {
        "@id": "18061706", 
        "@name": "Behemoth Heavy Gun Set", 
        "@feature": "Level60Item"
      }, 
      {
        "@id": "18061707", 
        "@name": "Behemoth Sheifset", 
        "@feature": "Level60Item"
      }, 
      {
        "@id": "18061708", 
        "@name": "Behemoth Assassin Set", 
        "@feature": "Level60Item"
      }, 
      {
        "@id": "18061709", 
        "@name": "Behemoth Runeblender Set", 
        "@feature": "Level60Item"
      }, 
      {
        "@id": "18061710", 
        "@name": "Behemoth striker set", 
        "@feature": "Level60Item"
      }, 
      {
        "@id": "18061711", 
        "@name": "Behemoth Soul Binder Set", 
        "@feature": "Level60Item"
      }, 
      {
        "@id": "18061712", 
        "@name": "Ailion Night Set", 
        "@feature": "Level60Item"
      }, 
      {
        "@id": "18061713", 
        "@name": "Aillion Berserker Set", 
        "@feature": "Level60Item"
      }, 
      {
        "@id": "18061714", 
        "@name": "Aileron Wizard Set", 
        "@feature": "Level60Item"
      }, 
      {
        "@id": "18061715", 
        "@name": "Aillion Priest Set", 
        "@feature": "Level60Item"
      }, 
      {
        "@id": "18061716", 
        "@name": "Aillion Ranger Set", 
        "@feature": "Level60Item"
      }, 
      {
        "@id": "18061717", 
        "@name": "Ailion Heavy Gun Set", 
        "@feature": "Level60Item"
      }, 
      {
        "@id": "18061718", 
        "@name": "Aillion Shepset", 
        "@feature": "Level60Item"
      }, 
      {
        "@id": "18061719", 
        "@name": "Aillion Assassin Set", 
        "@feature": "Level60Item"
      }, 
      {
        "@id": "18061720", 
        "@name": "Aileron Run Blair Set", 
        "@feature": "Level60Item"
      }, 
      {
        "@id": "18061721", 
        "@name": "Aillion striker set", 
        "@feature": "Level60Item"
      }, 
      {
        "@id": "18061722", 
        "@name": "Aillion Soul Binder Set", 
        "@feature": "Level60Item"
      }, 
      {
        "@id": "18061723", 
        "@name": "Black Vanguard Night Set", 
        "@feature": "Level60Item"
      }, 
      {
        "@id": "18061724", 
        "@name": "Black Vanguard Berserker Set", 
        "@feature": "Level60Item"
      }, 
      {
        "@id": "18061725", 
        "@name": "Black Vanguard Wizard Set", 
        "@feature": "Level60Item"
      }, 
      {
        "@id": "18061726", 
        "@name": "Black Vanguard Priest Set", 
        "@feature": "Level60Item"
      }, 
      {
        "@id": "18061727", 
        "@name": "Black Vanguard Ranger Set", 
        "@feature": "Level60Item"
      }, 
      {
        "@id": "18061728", 
        "@name": "Black Vanguard Heavy Gun Set", 
        "@feature": "Level60Item"
      }, 
      {
        "@id": "18061729", 
        "@name": "Black Vanguard Sheifset", 
        "@feature": "Level60Item"
      }, 
      {
        "@id": "18061730", 
        "@name": "Black Vanguard Assassin Set", 
        "@feature": "Level60Item"
      }, 
      {
        "@id": "18061731", 
        "@name": "Black Vanguard Run Blender Set", 
        "@feature": "Level60Item"
      }, 
      {
        "@id": "18061732", 
        "@name": "Black Vanguard striker set", 
        "@feature": "Level60Item"
      }, 
      {
        "@id": "18061733", 
        "@name": "Black Vanguard Soul Binder Set", 
        "@feature": "Level60Item"
      }, 
      {
        "@id": "18061734", 
        "@name": "Centurion set", 
        "@feature": "Level60Item"
      }, 
      {
        "@id": "18061735", 
        "@name": "Centurion set", 
        "@feature": "Level60Item"
      }, 
      {
        "@id": "18061736", 
        "@name": "Level 60 Epic 1 Night Set", 
        "@feature": "Level60Item"
      }, 
      {
        "@id": "18061737", 
        "@name": "Level 60 Epic 1 Berserker Set", 
        "@feature": "Level60Item"
      }, 
      {
        "@id": "18061738", 
        "@name": "Level 60 Epic 1 Wizard Set", 
        "@feature": "Level60Item"
      }, 
      {
        "@id": "18061739", 
        "@name": "Level 60 Epic 1 Priest Set", 
        "@feature": "Level60Item"
      }, 
      {
        "@id": "18061740", 
        "@name": "Level 60 Epic 1 Ranger Set", 
        "@feature": "Level60Item"
      }, 
      {
        "@id": "18061741", 
        "@name": "Level 60 Epic 1 Heavy Gunner Set", 
        "@feature": "Level60Item"
      }, 
      {
        "@id": "18061742", 
        "@name": "Level 60 Epic 1 Thief Set", 
        "@feature": "Level60Item"
      }, 
      {
        "@id": "18061743", 
        "@name": "Level 60 Epic 1 Assassin Set", 
        "@feature": "Level60Item"
      }, 
      {
        "@id": "18061744", 
        "@name": "Level 60 Epic 1 Rune Blender Set", 
        "@feature": "Level60Item"
      }, 
      {
        "@id": "18061745", 
        "@name": "Level 60 Epic 1 striker set", 
        "@feature": "Level60Item"
      }, 
      {
        "@id": "18061746", 
        "@name": "Level 60 Epic 1 Soul Binder Set", 
        "@feature": "Level60Item"
      }, 
      {
        "@id": "18061747", 
        "@name": "Level 60 Epic 2 Night Set", 
        "@feature": "Level60Item"
      }, 
      {
        "@id": "18061748", 
        "@name": "Level 60 Epic 2 Berserker Set", 
        "@feature": "Level60Item"
      }, 
      {
        "@id": "18061749", 
        "@name": "Level 60 Epic 2 Wizard Set", 
        "@feature": "Level60Item"
      }, 
      {
        "@id": "18061750", 
        "@name": "Level 60 Epic 2 Priest Set", 
        "@feature": "Level60Item"
      }, 
      {
        "@id": "18061751", 
        "@name": "Level 60 Epic 2 Ranger Set", 
        "@feature": "Level60Item"
      }, 
      {
        "@id": "18061752", 
        "@name": "Level 60 Epic 2 Heavy Gunner Set", 
        "@feature": "Level60Item"
      }, 
      {
        "@id": "18061753", 
        "@name": "Level 60 Epic 2 Thief Set", 
        "@feature": "Level60Item"
      }, 
      {
        "@id": "18061754", 
        "@name": "Level 60 Epic 2 Assassin Set", 
        "@feature": "Level60Item"
      }, 
      {
        "@id": "18061755", 
        "@name": "Level 60 Epic 2 Rune Blender Set", 
        "@feature": "Level60Item"
      }, 
      {
        "@id": "18061756", 
        "@name": "Level 60 Epic 2 striker set", 
        "@feature": "Level60Item"
      }, 
      {
        "@id": "18061757", 
        "@name": "Level 60 Epic 2 Soul Binder Set", 
        "@feature": "Level60Item"
      }, 
      {
        "@id": "18061758", 
        "@name": "Level 60 Epic Accessories 1 Earring, Necklace, Ring Set", 
        "@feature": "Level60Item"
      }, 
      {
        "@id": "18061759", 
        "@name": "Level 60 Epic Accessories 1 Cloak, Belt Set", 
        "@feature": "Level60Item"
      }, 
      {
        "@id": "18061760", 
        "@name": "Level 60 Epic Accessories 2 Earrings, Necklace, Ring Set", 
        "@feature": "Level60Item"
      }, 
      {
        "@id": "18061761", 
        "@name": "Level 60 Epic Accessories 2 Cloak, Belt Set", 
        "@feature": "Level60Item"
      }, 
      {
        "@id": "18062801", 
        "@name": "Olympus set"
      }, 
      {
        "@id": "18062802", 
        "@name": "Olympus set"
      }, 
      {
        "@id": "18081301", 
        "@name": "Fierce Battle Set", 
        "@feature": "Season3"
      }, 
      {
        "@id": "18081302", 
        "@name": "Extreme Frenzy Set", 
        "@feature": "Season3"
      }, 
      {
        "@id": "18081303", 
        "@name": "Extreme Magic Set", 
        "@feature": "Season3"
      }, 
      {
        "@id": "18081304", 
        "@name": "Extreme Deity Set", 
        "@feature": "Season3"
      }, 
      {
        "@id": "18081305", 
        "@name": "Extreme Concentration Set", 
        "@feature": "Season3"
      }, 
      {
        "@id": "18081306", 
        "@name": "Ultimate Shooting Set", 
        "@feature": "Season3"
      }, 
      {
        "@id": "18081307", 
        "@name": "Extreme confusion set", 
        "@feature": "Season3"
      }, 
      {
        "@id": "18081308", 
        "@name": "Extreme assassination set", 
        "@feature": "Season3"
      }, 
      {
        "@id": "18081309", 
        "@name": "Extreme Magical Set", 
        "@feature": "Season3"
      }, 
      {
        "@id": "18081310", 
        "@name": "Extreme Melee Set", 
        "@feature": "Season3"
      }, 
      {
        "@id": "18081311", 
        "@name": "Extreme Ritual Set", 
        "@feature": "Season3"
      }, 
      {
        "@id": "18081312", 
        "@name": "Wild Flames Set", 
        "@feature": "Season3"
      }, 
      {
        "@id": "18081313", 
        "@name": "Wild Glacier Set", 
        "@feature": "Season3"
      }, 
      {
        "@id": "18081314", 
        "@name": "Wild Darkness Set", 
        "@feature": "Season3"
      }, 
      {
        "@id": "18081315", 
        "@name": "A violent lightning set", 
        "@feature": "Season3"
      }, 
      {
        "@id": "18081316", 
        "@name": "Wild light set", 
        "@feature": "Season3"
      }, 
      {
        "@id": "18081317", 
        "@name": "Rusty Toxicity Set", 
        "@feature": "Season3"
      }, 
      {
        "@id": "18081318", 
        "@name": "Wild Soul Set", 
        "@feature": "Season3"
      }, 
      {
        "@id": "18081319", 
        "@name": "Wild ice set", 
        "@feature": "Season3"
      }, 
      {
        "@id": "18081320", 
        "@name": "Rogue Wreck Set", 
        "@feature": "Season3"
      }, 
      {
        "@id": "18081321", 
        "@name": "Wild Set", 
        "@feature": "Season3"
      }, 
      {
        "@id": "18081322", 
        "@name": "Violent Offensive Set", 
        "@feature": "Season3"
      }, 
      {
        "@id": "18081323", 
        "@name": "Berserk Battle Set", 
        "@feature": "Season3"
      }, 
      {
        "@id": "18081324", 
        "@name": "Berserk Frenzy Set", 
        "@feature": "Season3"
      }, 
      {
        "@id": "18081325", 
        "@name": "Berserk magic set", 
        "@feature": "Season3"
      }, 
      {
        "@id": "18081326", 
        "@name": "Berserk divinity set", 
        "@feature": "Season3"
      }, 
      {
        "@id": "18081327", 
        "@name": "Berserk Focus Set", 
        "@feature": "Season3"
      }, 
      {
        "@id": "18081328", 
        "@name": "Berserk Crusade Set", 
        "@feature": "Season3"
      }, 
      {
        "@id": "18081329", 
        "@name": "Berserk chaotic set", 
        "@feature": "Season3"
      }, 
      {
        "@id": "18081330", 
        "@name": "Berserk assassination set", 
        "@feature": "Season3"
      }, 
      {
        "@id": "18081331", 
        "@name": "Berserk magic set", 
        "@feature": "Season3"
      }, 
      {
        "@id": "18081332", 
        "@name": "A berserk melee set", 
        "@feature": "Season3"
      }, 
      {
        "@id": "18081333", 
        "@name": "Berserk ceremony set", 
        "@feature": "Season3"
      }, 
      {
        "@id": "18092001", 
        "@name": "Fallen Angel Set"
      }, 
      {
        "@id": "18092002", 
        "@name": "Fallen Angel Set"
      }, 
      {
        "@id": "18091401", 
        "@name": "Pluto set", 
        "@feature": "LegendaryAccessory01"
      }, 
      {
        "@id": "18091402", 
        "@name": "Pluto set", 
        "@feature": "LegendaryAccessory01"
      }, 
      {
        "@id": "18091403", 
        "@name": "Mars set", 
        "@feature": "LegendaryAccessory01"
      }, 
      {
        "@id": "18091404", 
        "@name": "Mars set", 
        "@feature": "LegendaryAccessory01"
      }, 
      {
        "@id": "18110701", 
        "@name": "Dignity Battle Set", 
        "@feature": "PvPRankingDuelMode"
      }, 
      {
        "@id": "18110702", 
        "@name": "Frenzy set of elegance", 
        "@feature": "PvPRankingDuelMode"
      }, 
      {
        "@id": "18110703", 
        "@name": "Magic set of elegance", 
        "@feature": "PvPRankingDuelMode"
      }, 
      {
        "@id": "18110704", 
        "@name": "Divinity set of decency", 
        "@feature": "PvPRankingDuelMode"
      }, 
      {
        "@id": "18110705", 
        "@name": "Focus set of elegance", 
        "@feature": "PvPRankingDuelMode"
      }, 
      {
        "@id": "18110706", 
        "@name": "Dignity Bombardment Set", 
        "@feature": "PvPRankingDuelMode"
      }, 
      {
        "@id": "18110707", 
        "@name": "Confusion set of decency", 
        "@feature": "PvPRankingDuelMode"
      }, 
      {
        "@id": "18110708", 
        "@name": "Dignity assassination set", 
        "@feature": "PvPRankingDuelMode"
      }, 
      {
        "@id": "18110709", 
        "@name": "Witch's Witch Set", 
        "@feature": "PvPRankingDuelMode"
      }, 
      {
        "@id": "18110710", 
        "@name": "Dignity Set", 
        "@feature": "PvPRankingDuelMode"
      }, 
      {
        "@id": "18110711", 
        "@name": "Ceremonial set of elegance", 
        "@feature": "PvPRankingDuelMode"
      }, 
      {
        "@id": "18110712", 
        "@name": "Accessory set of elegance", 
        "@feature": "PvPRankingDuelMode"
      }, 
      {
        "@id": "18112001", 
        "@name": "Illusionist set"
      }, 
      {
        "@id": "18112002", 
        "@name": "Illusionist set"
      }, 
      {
        "@id": "18122101", 
        "@name": "Fighting Set of Enhanced Dignity", 
        "@feature": "Level70Item"
      }, 
      {
        "@id": "18122102", 
        "@name": "Frenzy set of enhanced elegance", 
        "@feature": "Level70Item"
      }, 
      {
        "@id": "18122103", 
        "@name": "Enchanted set of enhanced goods", 
        "@feature": "Level70Item"
      }, 
      {
        "@id": "18122104", 
        "@name": "Divine set of enhanced elegance", 
        "@feature": "Level70Item"
      }, 
      {
        "@id": "18122105", 
        "@name": "Intensive set of enhanced elegance", 
        "@feature": "Level70Item"
      }, 
      {
        "@id": "18122106", 
        "@name": "Bombardment set with enhanced dignity", 
        "@feature": "Level70Item"
      }, 
      {
        "@id": "18122107", 
        "@name": "Confused set of enhanced elegance", 
        "@feature": "Level70Item"
      }, 
      {
        "@id": "18122108", 
        "@name": "Assassination Set of Enhanced Dignity", 
        "@feature": "Level70Item"
      }, 
      {
        "@id": "18122109", 
        "@name": "Enchanted Set of Enhanced Dignity", 
        "@feature": "Level70Item"
      }, 
      {
        "@id": "18122110", 
        "@name": "Enhanced Dignity Set", 
        "@feature": "Level70Item"
      }, 
      {
        "@id": "18122111", 
        "@name": "Conscious Set of Enhanced Dignity", 
        "@feature": "Level70Item"
      }, 
      {
        "@id": "18122112", 
        "@name": "Enhanced accessory set", 
        "@feature": "Level70Item"
      }, 
      {
        "@id": "18122701", 
        "@name": "Creutias Lapenshard Accessory Set", 
        "@feature": "Level70Item"
      }, 
      {
        "@id": "18122702", 
        "@name": "Power of construction accessories set", 
        "@feature": "Level70Item"
      }, 
      {
        "@id": "19010301", 
        "@name": "Tyren Commander Combat Night Set", 
        "@feature": "Level70Item"
      }, 
      {
        "@id": "19010302", 
        "@name": "Tyren Commander Combat Berserker Set", 
        "@feature": "Level70Item"
      }, 
      {
        "@id": "19010303", 
        "@name": "Tyren Commander Combat Wizard Set", 
        "@feature": "Level70Item"
      }, 
      {
        "@id": "19010304", 
        "@name": "Tyren Commander Combat Priest Set", 
        "@feature": "Level70Item"
      }, 
      {
        "@id": "19010305", 
        "@name": "Tyren Commander Combat Ranger Set", 
        "@feature": "Level70Item"
      }, 
      {
        "@id": "19010306", 
        "@name": "Tyren Commander Combat Heavy Gun Set", 
        "@feature": "Level70Item"
      }, 
      {
        "@id": "19010307", 
        "@name": "Tyren Commander Combat Thief Set", 
        "@feature": "Level70Item"
      }, 
      {
        "@id": "19010308", 
        "@name": "Tyren Commander Combat Assassin Set", 
        "@feature": "Level70Item"
      }, 
      {
        "@id": "19010309", 
        "@name": "Tyren Commander Combat Rune Blader Set", 
        "@feature": "Level70Item"
      }, 
      {
        "@id": "19010310", 
        "@name": "Tyren Commander Combat Striker Set", 
        "@feature": "Level70Item"
      }, 
      {
        "@id": "19010311", 
        "@name": "Tyren Commander Combat Soul Binder Set", 
        "@feature": "Level70Item"
      }, 
      {
        "@id": "19010312", 
        "@name": "Antique Inpenuk Night Set", 
        "@feature": "Level70Item"
      }, 
      {
        "@id": "19010313", 
        "@name": "Antique Inpenuch Berserker Set", 
        "@feature": "Level70Item"
      }, 
      {
        "@id": "19010314", 
        "@name": "Antique Inferno Wizard Set", 
        "@feature": "Level70Item"
      }, 
      {
        "@id": "19010315", 
        "@name": "Antique Infernuk Priest Set", 
        "@feature": "Level70Item"
      }, 
      {
        "@id": "19010316", 
        "@name": "Antique Infernuk Ranger Set", 
        "@feature": "Level70Item"
      }, 
      {
        "@id": "19010317", 
        "@name": "Antique Inferno Heavy Gun Set", 
        "@feature": "Level70Item"
      }, 
      {
        "@id": "19010318", 
        "@name": "Antique Inpenukshif Set", 
        "@feature": "Level70Item"
      }, 
      {
        "@id": "19010319", 
        "@name": "Antique Inpenuk Assassin Set", 
        "@feature": "Level70Item"
      }, 
      {
        "@id": "19010320", 
        "@name": "Antique Infernuk Run Blazer Set", 
        "@feature": "Level70Item"
      }, 
      {
        "@id": "19010321", 
        "@name": "Antique Inpenu striker set", 
        "@feature": "Level70Item"
      }, 
      {
        "@id": "19010322", 
        "@name": "Antique Inpenuk Soul Binder Set", 
        "@feature": "Level70Item"
      }, 
      {
        "@id": "19011101", 
        "@name": "Tyren Combat Night Set", 
        "@feature": "Level70Item"
      }, 
      {
        "@id": "19011102", 
        "@name": "Tyren Combat Berserker Set", 
        "@feature": "Level70Item"
      }, 
      {
        "@id": "19011103", 
        "@name": "Tyren Combat Wizard Set", 
        "@feature": "Level70Item"
      }, 
      {
        "@id": "19011104", 
        "@name": "Tyren Combat Priest Set", 
        "@feature": "Level70Item"
      }, 
      {
        "@id": "19011105", 
        "@name": "Tyren Combat Ranger Set", 
        "@feature": "Level70Item"
      }, 
      {
        "@id": "19011106", 
        "@name": "Tyren Combat Heavy Gun Set", 
        "@feature": "Level70Item"
      }, 
      {
        "@id": "19011107", 
        "@name": "Tyren Combat Thief Set", 
        "@feature": "Level70Item"
      }, 
      {
        "@id": "19011108", 
        "@name": "Tyren Combat Assassin Set", 
        "@feature": "Level70Item"
      }, 
      {
        "@id": "19011109", 
        "@name": "Tyren Combat Rune Blader Set", 
        "@feature": "Level70Item"
      }, 
      {
        "@id": "19011110", 
        "@name": "Tyren Combat Striker Set", 
        "@feature": "Level70Item"
      }, 
      {
        "@id": "19011111", 
        "@name": "Tyren Combat Soul Binder Set", 
        "@feature": "Level70Item"
      }, 
      {
        "@id": "19011112", 
        "@name": "Antique Erragon Night Set", 
        "@feature": "Level70Item"
      }, 
      {
        "@id": "19011113", 
        "@name": "Antique Eragon Berserker Set", 
        "@feature": "Level70Item"
      }, 
      {
        "@id": "19011114", 
        "@name": "Antique Eragon Wizard Set", 
        "@feature": "Level70Item"
      }, 
      {
        "@id": "19011115", 
        "@name": "Antique Eragon Priest Set", 
        "@feature": "Level70Item"
      }, 
      {
        "@id": "19011116", 
        "@name": "Antique Eragon Ranger Set", 
        "@feature": "Level70Item"
      }, 
      {
        "@id": "19011117", 
        "@name": "Antique Eragon Heavy Gun Set", 
        "@feature": "Level70Item"
      }, 
      {
        "@id": "19011118", 
        "@name": "Antique Eragon Shep Set", 
        "@feature": "Level70Item"
      }, 
      {
        "@id": "19011119", 
        "@name": "Antique Eragon Assassin Set", 
        "@feature": "Level70Item"
      }, 
      {
        "@id": "19011120", 
        "@name": "Antique Eragon Run Blazer Set", 
        "@feature": "Level70Item"
      }, 
      {
        "@id": "19011121", 
        "@name": "Antique Eragon striker set", 
        "@feature": "Level70Item"
      }, 
      {
        "@id": "19011122", 
        "@name": "Antique Eragon Soul Binder Set", 
        "@feature": "Level70Item"
      }, 
      {
        "@id": "19011801", 
        "@name": "Georg kai accessories set", 
        "@feature": "Level70Item"
      }, 
      {
        "@id": "19011802", 
        "@name": "Georg kai accessories set", 
        "@feature": "Level70Item"
      }, 
      {
        "@id": "19011803", 
        "@name": "Thai Royal Set Accessory", 
        "@feature": "Level70Item"
      }, 
      {
        "@id": "19011804", 
        "@name": "Thai Royal Set Accessory", 
        "@feature": "Level70Item"
      }, 
      {
        "@id": "19011805", 
        "@name": "Tyren Royal Night Set", 
        "@feature": "Level70Item"
      }, 
      {
        "@id": "19011806", 
        "@name": "Thai Royal Berserker Set", 
        "@feature": "Level70Item"
      }, 
      {
        "@id": "19011807", 
        "@name": "Tyren Royal Wizard Set", 
        "@feature": "Level70Item"
      }, 
      {
        "@id": "19011808", 
        "@name": "Tyrolean Royal Priest Set", 
        "@feature": "Level70Item"
      }, 
      {
        "@id": "19011809", 
        "@name": "Tyren Royal Ranger Set", 
        "@feature": "Level70Item"
      }, 
      {
        "@id": "19011810", 
        "@name": "Tyren Royal Heavy Gun Set", 
        "@feature": "Level70Item"
      }, 
      {
        "@id": "19011811", 
        "@name": "Tyrolean Royal Sheeps Set", 
        "@feature": "Level70Item"
      }, 
      {
        "@id": "19011812", 
        "@name": "Tyrolean Royal Assassin Set", 
        "@feature": "Level70Item"
      }, 
      {
        "@id": "19011813", 
        "@name": "Tyren Royal Rune Blender Set", 
        "@feature": "Level70Item"
      }, 
      {
        "@id": "19011814", 
        "@name": "Tyren Royal Striker Set", 
        "@feature": "Level70Item"
      }, 
      {
        "@id": "19011815", 
        "@name": "Tyrolean Royal Soul Binder Set", 
        "@feature": "Level70Item"
      }, 
      {
        "@id": "19021801", 
        "@name": "Behemoth Night Set", 
        "@feature": "Level60Item"
      }, 
      {
        "@id": "19021802", 
        "@name": "Behemoth Berserker Set", 
        "@feature": "Level60Item"
      }, 
      {
        "@id": "19021803", 
        "@name": "Behemoth Wizard Set", 
        "@feature": "Level60Item"
      }, 
      {
        "@id": "19021804", 
        "@name": "Behemoth Priest Set", 
        "@feature": "Level60Item"
      }, 
      {
        "@id": "19021805", 
        "@name": "Behemoth Ranger Set", 
        "@feature": "Level60Item"
      }, 
      {
        "@id": "19021806", 
        "@name": "Behemoth Heavy Gun Set", 
        "@feature": "Level60Item"
      }, 
      {
        "@id": "19021807", 
        "@name": "Behemoth Shepherds Set", 
        "@feature": "Level60Item"
      }, 
      {
        "@id": "19021808", 
        "@name": "Behemoth Assassin Set", 
        "@feature": "Level60Item"
      }, 
      {
        "@id": "19021809", 
        "@name": "Behemoth Runeblender Set", 
        "@feature": "Level60Item"
      }, 
      {
        "@id": "19021810", 
        "@name": "Behemoth striker set", 
        "@feature": "Level60Item"
      }, 
      {
        "@id": "19021811", 
        "@name": "Behemoth Soul Binder Set", 
        "@feature": "Level60Item"
      }, 
      {
        "@id": "19021812", 
        "@name": "Ailion Night Set", 
        "@feature": "Level60Item"
      }, 
      {
        "@id": "19021813", 
        "@name": "Aillion Berserker Set", 
        "@feature": "Level60Item"
      }, 
      {
        "@id": "19021814", 
        "@name": "Alyon Wizard Set", 
        "@feature": "Level60Item"
      }, 
      {
        "@id": "19021815", 
        "@name": "Aillion Priest Set", 
        "@feature": "Level60Item"
      }, 
      {
        "@id": "19021816", 
        "@name": "Aillion Ranger Set", 
        "@feature": "Level60Item"
      }, 
      {
        "@id": "19021817", 
        "@name": "Ailion Heavy Gun Set", 
        "@feature": "Level60Item"
      }, 
      {
        "@id": "19021818", 
        "@name": "Aillion Shepset", 
        "@feature": "Level60Item"
      }, 
      {
        "@id": "19021819", 
        "@name": "Aillion Assassin Set", 
        "@feature": "Level60Item"
      }, 
      {
        "@id": "19021820", 
        "@name": "Aileron Run Blazer Set", 
        "@feature": "Level60Item"
      }, 
      {
        "@id": "19021821", 
        "@name": "Aillion striker set", 
        "@feature": "Level60Item"
      }, 
      {
        "@id": "19021822", 
        "@name": "Aillion Soul Binder Set", 
        "@feature": "Level60Item"
      }, 
      {
        "@id": "19021823", 
        "@name": "Black Vanguard Night Set", 
        "@feature": "Level60Item"
      }, 
      {
        "@id": "19021824", 
        "@name": "Black Vanguard Berserker Set", 
        "@feature": "Level60Item"
      }, 
      {
        "@id": "19021825", 
        "@name": "Black Vanguard Wizard Set", 
        "@feature": "Level60Item"
      }, 
      {
        "@id": "19021826", 
        "@name": "Black Vanguard Priest Set", 
        "@feature": "Level60Item"
      }, 
      {
        "@id": "19021827", 
        "@name": "Black Vanguard Ranger Set", 
        "@feature": "Level60Item"
      }, 
      {
        "@id": "19021828", 
        "@name": "Black Vanguard Heavy Gun Set", 
        "@feature": "Level60Item"
      }, 
      {
        "@id": "19021829", 
        "@name": "Black Vanguard Sheifset", 
        "@feature": "Level60Item"
      }, 
      {
        "@id": "19021830", 
        "@name": "Black Vanguard Assassin Set", 
        "@feature": "Level60Item"
      }, 
      {
        "@id": "19021831", 
        "@name": "Black Vanguard Run Blender Set", 
        "@feature": "Level60Item"
      }, 
      {
        "@id": "19021832", 
        "@name": "Black Vanguard striker set", 
        "@feature": "Level60Item"
      }, 
      {
        "@id": "19021833", 
        "@name": "Black Vanguard Soul Binder Set", 
        "@feature": "Level60Item"
      }, 
      {
        "@id": "19021834", 
        "@name": "Centurion set", 
        "@feature": "Level60Item"
      }, 
      {
        "@id": "19021835", 
        "@name": "Centurion set", 
        "@feature": "Level60Item"
      }, 
      {
        "@id": "19021836", 
        "@name": "Black Purity Night Set", 
        "@feature": "Level60Item"
      }, 
      {
        "@id": "19021837", 
        "@name": "Black Purity Berserker Set", 
        "@feature": "Level60Item"
      }, 
      {
        "@id": "19021838", 
        "@name": "Black Purity Wizard Set", 
        "@feature": "Level60Item"
      }, 
      {
        "@id": "19021839", 
        "@name": "Black Purity Priest Set", 
        "@feature": "Level60Item"
      }, 
      {
        "@id": "19021840", 
        "@name": "Black Purity Ranger Set", 
        "@feature": "Level60Item"
      }, 
      {
        "@id": "19021841", 
        "@name": "Black Purity Heavy Gun Set", 
        "@feature": "Level60Item"
      }, 
      {
        "@id": "19021842", 
        "@name": "Black Purity Sheaf Set", 
        "@feature": "Level60Item"
      }, 
      {
        "@id": "19021843", 
        "@name": "Black Furious Assassin Set", 
        "@feature": "Level60Item"
      }, 
      {
        "@id": "19021844", 
        "@name": "Black Pure Rune Blender Set", 
        "@feature": "Level60Item"
      }, 
      {
        "@id": "19021845", 
        "@name": "Black Purity Striker Set", 
        "@feature": "Level60Item"
      }, 
      {
        "@id": "19021846", 
        "@name": "Black Purity Soul Binder Set", 
        "@feature": "Level60Item"
      }, 
      {
        "@id": "19021847", 
        "@name": "Black Purity Accessory Set", 
        "@feature": "Level60Item"
      }, 
      {
        "@id": "19021848", 
        "@name": "Black Purity Accessory Set", 
        "@feature": "Level60Item"
      }, 
      {
        "@id": "19031301", 
        "@name": "Wedding day set"
      }, 
      {
        "@id": "19031302", 
        "@name": "Wedding day set"
      }, 
      {
        "@id": "19032001", 
        "@name": "Mad Lakan monarch set", 
        "@feature": "Level60Item"
      }
    ]
  }
}