{
  "?xml": {
    "@version": "1.0", 
    "@encoding": "utf-8"
  }, 
  "ms2": {
    "key": [
      {
        "@id": "10500001", 
        "@name": "Stripe"
      }, 
      {
        "@id": "10500011", 
        "@name": "Multi Shot"
      }, 
      {
        "@id": "10500021", 
        "@name": "Rapid Shot"
      }, 
      {
        "@id": "10500031", 
        "@name": "Ice Arrow"
      }, 
      {
        "@id": "10500041", 
        "@name": "Evasion Shot"
      }, 
      {
        "@id": "10500051", 
        "@name": "Bow Attack"
      }, 
      {
        "@id": "10500061", 
        "@name": "Sharp Eyes"
      }, 
      {
        "@id": "10500064", 
        "@name": "Improved Sharp Eyes", 
        "@feature": "JobChange_01"
      }, 
      {
        "@id": "10500065", 
        "@name": "Reinforced Sharp Eyes", 
        "@feature": "JobChange_01"
      }, 
      {
        "@id": "10500071", 
        "@name": "Golden Eagle"
      }, 
      {
        "@id": "10500081", 
        "@name": "Eagle Strike"
      }, 
      {
        "@id": "10500091", 
        "@name": "Eagle's horn"
      }, 
      {
        "@id": "10500093", 
        "@name": "Phoenix Spirit", 
        "@feature": "JobChange_02"
      }, 
      {
        "@id": "10500101", 
        "@name": "Arrowstorm"
      }, 
      {
        "@id": "10500111", 
        "@name": "Snipe"
      }, 
      {
        "@id": "10500121", 
        "@name": "Physical training"
      }, 
      {
        "@id": "10500131", 
        "@name": "Acrobat master"
      }, 
      {
        "@id": "10500141", 
        "@name": "Screw Drive Shot"
      }, 
      {
        "@id": "10500144", 
        "@name": "Screw Drive Shot"
      }, 
      {
        "@id": "10500151", 
        "@name": "Eagle Glide"
      }, 
      {
        "@id": "10500152", 
        "@name": "Enhanced Eagle Glide", 
        "@feature": "JobChange_01"
      }, 
      {
        "@id": "10500153", 
        "@name": "Captain Glide", 
        "@feature": "JobChange_02"
      }, 
      {
        "@id": "10500161", 
        "@name": "Direct shooter"
      }, 
      {
        "@id": "10500171", 
        "@name": "Flash Arrows Step 1", 
        "@feature": "JobChange_01"
      }, 
      {
        "@id": "10500172", 
        "@name": "Flash Arrow 2", 
        "@feature": "JobChange_01"
      }, 
      {
        "@id": "10500173", 
        "@name": "Flash Arrows Step 3", 
        "@feature": "JobChange_01"
      }, 
      {
        "@id": "10500174", 
        "@name": "Flash Arrows Step 4", 
        "@feature": "JobChange_01"
      }, 
      {
        "@id": "10500181", 
        "@name": "Concentration", 
        "@feature": "JobChange_01"
      }, 
      {
        "@id": "10500191", 
        "@name": "Multi-Drive Shot Phase 1", 
        "@feature": "JobChange_01"
      }, 
      {
        "@id": "10500192", 
        "@name": "Multi-Drive Shot Phase 2", 
        "@feature": "JobChange_01"
      }, 
      {
        "@id": "10500193", 
        "@name": "Multi-Drive Shot Phase 3", 
        "@feature": "JobChange_01"
      }, 
      {
        "@id": "10500201", 
        "@name": "Haster's Teachings", 
        "@feature": "JobChange_01"
      }, 
      {
        "@id": "10500211", 
        "@name": "Vertical Arrow", 
        "@feature": "JobChange_01"
      }, 
      {
        "@id": "10500221", 
        "@name": "Revolving Wind Arrow", 
        "@feature": "JobChange_01"
      }, 
      {
        "@id": "10500231", 
        "@name": "Secret Of A Treatment", 
        "@feature": "JobChange_01"
      }, 
      {
        "@id": "10500233", 
        "@name": "disengagement", 
        "@feature": "JobChange_01"
      }, 
      {
        "@id": "10500241", 
        "@name": "Spiral Arrow", 
        "@feature": "JobChange_01"
      }, 
      {
        "@id": "10500243", 
        "@name": "Enhanced Spiral Arrow", 
        "@feature": "JobChange_01"
      }, 
      {
        "@id": "10500251", 
        "@name": "Improved gliding", 
        "@feature": "JobChange_01"
      }, 
      {
        "@id": "10500261", 
        "@name": "Phoenix Strike Shot", 
        "@feature": "JobChange_02"
      }, 
      {
        "@id": "10500271", 
        "@name": "Phoenix form", 
        "@feature": "JobChange_02"
      }, 
      {
        "@id": "10500281", 
        "@name": "Aoming Arrow", 
        "@feature": "JobChange_02"
      }, 
      {
        "@id": "10500291", 
        "@name": "Eagle Squad", 
        "@feature": "JobChange_02"
      }, 
      {
        "@id": "10500293", 
        "@name": "Eagle Squad own effect", 
        "@feature": "JobChange_02"
      }, 
      {
        "@id": "10500295", 
        "@name": "Eagle Squad Debb", 
        "@feature": "JobChange_02"
      }, 
      {
        "@id": "10500296", 
        "@name": "Eagle Squad Ranger Effect", 
        "@feature": "JobChange_02"
      }, 
      {
        "@id": "10500298", 
        "@name": "Phoenix Foam Eagle Squad Effect", 
        "@feature": "JobChange_02"
      }
    ]
  }
}