{
  "?xml": {
    "@version": "1.0", 
    "@encoding": "utf-8"
  }, 
  "ms2": {
    "key": [
      {
        "@id": "1", 
        "@name": "Meeting Room"
      }, 
      {
        "@id": "2", 
        "@name": "Performance Hall"
      }, 
      {
        "@id": "3", 
        "@name": "Scarecrow"
      }, 
      {
        "@id": "4", 
        "@name": "Swimming Pool"
      }, 
      {
        "@id": "5", 
        "@name": "Tria Portal"
      }, 
      {
        "@id": "6", 
        "@name": "Kerning City Portal"
      }, 
      {
        "@id": "7", 
        "@name": "Henesys Portal"
      }, 
      {
        "@id": "8", 
        "@name": "Ellinia Portal"
      }, 
      {
        "@id": "9", 
        "@name": "Perion Portal"
      }, 
      {
        "@id": "10", 
        "@name": "Ludari City Portal"
      }, 
      {
        "@id": "11", 
        "@name": "Doctor"
      }, 
      {
        "@id": "12", 
        "@name": "Supply Merchant"
      }, 
      {
        "@id": "13", 
        "@name": "Music Merchant"
      }, 
      {
        "@id": "14", 
        "@name": "Large Poster"
      }, 
      {
        "@id": "15", 
        "@name": "Small Poster"
      }
    ]
  }
}