{
  "?xml": {
    "@version": "1.0", 
    "@encoding": "utf-8"
  }, 
  "ms2": {
    "key": [
      {
        "@id": "s_dualwin1", 
        "@name": "{0} wins!"
      }, 
      {
        "@id": "s_dualwin2", 
        "@name": "{0} wins a 2nd time!"
      }, 
      {
        "@id": "s_dualwin3", 
        "@name": "{0} wins a 3rd time!"
      }, 
      {
        "@id": "s_dualwin4", 
        "@name": "{0} wins a 4th time!"
      }, 
      {
        "@id": "s_dualwin5", 
        "@name": "{0} wins a 5th time!"
      }, 
      {
        "@id": "s_dualwin6", 
        "@name": "{0} wins a 6th time!"
      }, 
      {
        "@id": "s_dualwin7", 
        "@name": "{0} wins a 7th time!"
      }, 
      {
        "@id": "s_dualwin8", 
        "@name": "{0} wins a 8th time!"
      }, 
      {
        "@id": "s_dualwin9", 
        "@name": "{0} defeated all challengers."
      }, 
      {
        "@id": "s_dualprepareplayer", 
        "@name": "A match is about to begin."
      }, 
      {
        "@id": "s_dualstartcombat", 
        "@name": "Prepare to fight."
      }, 
      {
        "@id": "s_dualwinnermessage", 
        "@name": "Congratulations! You won."
      }, 
      {
        "@id": "s_duallosermessage", 
        "@name": "Better luck next time."
      }, 
      {
        "@id": "s_freeforallwin", 
        "@name": "{0} won in Crimson Tear Mine."
      }, 
      {
        "@id": "s_guilddualprepare", 
        "@name": "You will be moved to the arena shortly."
      }, 
      {
        "@id": "s_guilddualstartcombat", 
        "@name": "The battle is about to begin."
      }, 
      {
        "@id": "s_guildteamnotifycombat", 
        "@name": "Combatants, take your place on the red carpet.\\nThis match is {0} vs. {0}."
      }, 
      {
        "@id": "s_guildteamnotifylastcombat", 
        "@name": "Combatants, take your place on the red carpet.\\nThe final match will be {0} vs {0}."
      }, 
      {
        "@id": "s_guildteamnotifygamestart", 
        "@name": "The guild battle is about to begin."
      }, 
      {
        "@id": "s_guildteamnotifygamestartdetail1", 
        "@name": "Battles are 1 vs 1, 2 vs 2, or 3 vs 3, chosen at random.\\nVictory goes to the first guild to win 3 matches."
      }, 
      {
        "@id": "s_guildteamnotifygamestartdetail2", 
        "@name": "Take your place at the red carpet to participate as a combatant."
      }, 
      {
        "@id": "s_guildteamnotifygamestartdetail3", 
        "@name": "Combatants should go to the red carpet.\\nSpectators should come down."
      }, 
      {
        "@id": "s_guildteamnotifyprepareplayer", 
        "@name": "Player selection will begin soon."
      }, 
      {
        "@id": "s_guildteamnotifypreparearena", 
        "@name": "Prepare for battle."
      }, 
      {
        "@id": "s_guildteamstartcombat", 
        "@name": "The match will begin soon."
      }, 
      {
        "@id": "s_teamnotifygamedetail1", 
        "@name": "Land ho! It's Treasure Island."
      }, 
      {
        "@id": "s_teamnotifygamedetail2", 
        "@name": "Capture the flags and loot the enemy team's ship to score points."
      }, 
      {
        "@id": "s_teamnotifygamedetail3", 
        "@name": "The team with the highest score wins."
      }, 
      {
        "@id": "s_teamprepare", 
        "@name": "Get ready to duke it out!"
      }
    ]
  }
}