{
  "?xml": {
    "@version": "1.0", 
    "@encoding": "utf-8"
  }, 
  "ms2": {
    "key": [
      {
        "@id": "1", 
        "@name": "After the attack on the royal caravan, you were dispatched to find out who leaked the caravan route and schedule. When you tried to meet with $npc:11000492$, he vanished... making him the prime suspect.\n\nAfter some solid footwork, you finally managed to track him down... only to find him murdered!", 
        "@feature": "QuestChapter00"
      }, 
      {
        "@id": "2", 
        "@name": "After the attack on $map:02000100$, your shadowy enemies turned their sights on $map:02000076$. The great hero $npcName:11000001$ fell while saving his son from these mysterious invaders. Are these dark armies somehow connected to the $map:02000146$? What does the darkness have in store for Maple World?", 
        "@feature": "QuestChapter00"
      }, 
      {
        "@id": "3", 
        "@name": "$npcName:11003250$ and $npcName:11000032$ have long stood as unofficial guardians of $map:02000023$. But after $npcName:11000032$ succumbed to the darkness and made an attempt on the archmage's life, $map:02000023$ is left to stand alone. Now $npcName:11000032$ has been taken by a mysterious enemy and nearly half of the Seven Heroes have been removed from play. You are all that stands between Maple World and this shadowy threat.", 
        "@feature": "QuestChapter00"
      }, 
      {
        "@id": "4", 
        "@name": "For generations, the war chiefs of $map:02000051$ have protected their people by binding their life force with the $npc:11003392$. But when the $npc:11003392$ was corrupted by dark sorcery, War Chief $npcName:11000134$ was brought to the brink of death. Only by sacrificing his own life was he able to save the land he was sworn to protect. Is this the enemy's plan? To cut down the Seven Heroes, one at a time?", 
        "@feature": "QuestChapter00"
      }, 
      {
        "@id": "5", 
        "@name": "With the portal restored, the professors of Ellinel discovered $npc:11000032$ passed out in his library. When they attempted to heal him, he split into two beings: $npc:11000032$ and $npcName:11000068$, good and evil. What could have caused the Innocent to foster this darkness in his heart? And what will $npc:11000068$ do to ensure that he is never sealed away again?", 
        "@feature": "QuestChapter00"
      }, 
      {
        "@id": "6", 
        "@name": "With $npcName:11001026$'s testimony, the truth comes out at last: $npcName:11001024$ is guilty of the murder for which he accused $npcName:11001023$. The former captain of Dark Wind is now on the run. What will he plot next?", 
        "@feature": "QuestChapter00"
      }, 
      {
        "@id": "7", 
        "@name": "At last, $npcName:11001023$ had $npcName:11001965$ cornered. Before the battle could be decided, $npcName:11001025$ jumped in, urging the two rivals to stop and listen to each other. $npcName:11001965$ set aside his anger and allowed $npcName:11001025$ and $npcName:11001023$ to leave. A greater danger loomed, after all: the demon army of Madria was marching on Tria at that very moment.", 
        "@feature": "QuestChapter00"
      }, 
      {
        "@id": "8", 
        "@name": "The dragons known as the lumarigons were believed lost in the last war against the darkness, but rumor has it someone in Karkar Island has come to possess the Lumenstone, a great lumarigon relic. When the draconic $npcName:11003053$ and Blackstar arrive to steal this relic, you rise to thwart their plots and save $npcName:11000735$, heiress of the Dragon Master. She lets you hold onto the Lumenstone... for now.", 
        "@feature": "QuestChapter00"
      }, 
      {
        "@id": "9", 
        "@name": "It seems that the power of darkness is scattered all over the maple world. It's also very covert ... We can not collect information about the forces of darkness by the efforts of the guardian army, and decided to borrow the power of the adventurers. We have also encountered a heartwarming story by exploring the unfamiliar places of the sea and the snowy country and making new connections. I also heard some unintelligible stories. About the Lapenshad that was drenched in the dark ...", 
        "@feature": "LapentaFrontierQuest"
      }, 
      {
        "@id": "10", 
        "@name": "$npcName:11001820$$pp:를,을$ I decided to find her dragon to find out. I decided to take advantage of the ability of Wizard Master $npcName:11000042$ to track Lumiereragon's horsepower using LameStone. It was a survey starting from the assumption that the refined black shard was $npcName:11001820$ dragon, lumiereragon. Fortunately, the forecast was right, and the castle of $npcName:11001820$ appeared before Maple Alliance. A battle against the $npcName:11001820$ armies constantly coming together. The forces of the Frontier Foundation and Tria combined to win the championship.", 
        "@feature": "LapentaFrontierQuest"
      }, 
      {
        "@id": "11", 
        "@name": "The notebook of Barrota Trading Company's missing president, found next to $npcName:11000492$'s body. The new captain of Dark Wind, $npcName:11000044$, on the hunt for $npcName:11000064$—who stands accused of murdering the previous captain. How are these things connected? Who is telling the truth? And who is lying?", 
        "@feature": "QuestChapter00"
      }, 
      {
        "@id": "12", 
        "@name": "The Alliance's Sky Fortress has set out to guard the world from above. After its abrupt launch, the carrier was tasked with investigating missing merchant airships. The crash site of one of the vessels suggested the work of an ancient menace, the Crimson Balrogs. Why have they come out of hiding after so many years? Why attack the airship? With so many questions unanswered, one thing is certain. A dark storm looms on the horizon. \n★ TO BE CONTINUED... ★\n", 
        "@feature": "FameContents_EP1_01"
      }, 
      {
        "@id": "13", 
        "@name": "Despite the best efforts of the crew of the Sky Fortress, the Crimson Balrogs succeeded in the task of reviving their immortal master $npcName:11003795$ and restoring him to his former power. Unable to slay $npcName:11003795$, the crew of the carrier utilized a special cannon to blast the fiend straight into space. For now, Maple World is safe once more, but other threats lurk along the road ahead.", 
        "@feature": "FameContents_EP1_02"
      }, 
      {
        "@id": "14", 
        "@name": "Former skill point test", 
        "@feature": "JobChange_01"
      }, 
      {
        "@id": "15", 
        "@name": "I met Master Zenia and received training to become a stronger knight. I overcame all trials and received recognition from Master. The power of Lapenshard that we learned in the process, it was a mysterious thing with new power, not a simple symbol. I headed to the Frontier Foundation, a royal organization dedicated to this rappard in accordance with Master's recommendation.", 
        "@feature": "LapentaFrontierQuest"
      }, 
      {
        "@id": "16", 
        "@name": "When I got to Jonathan's contact with me, he said, There was a $npcName:11003272$$pp:와,과$ $npcName:11003273$ that I knew was dead. Jonathan says that there is a story to tell about the joy of reunion for a while. In his photo, his enemy, $npcName:11001927$, was photographed. I could not bear the blazing vengeance ... After listening to Jonathan's words that it is first thing to catch up with the skill of $npcName:11001927$, he receives the power and ability of Lapenshard in his body. After all the preparations are over ... Jonathan, who introduces the Frontier Foundation as saying that it would be a good idea to get more information about Lafenshard. I'm getting a lot of information here to get rid of Lapenshade and $npcName:11001927$!", 
        "@feature": "LapentaFrontierQuest"
      }, 
      {
        "@id": "17", 
        "@name": "This is a priest school that came to me according to the call of Bishop Brandt. There, the life-threatening guards were lying in unidentified wounds. But the wound that was not healed by using all the methods ... By the time I gave up everything, the voices of the life lifted faintly enough to embrace all my strength and create miracles. A thing called La Fenshard that made it possible ... The Grand Priest Luana introduced me to an institution to further investigate this. It was the Royal Institution, Frontier Foundation, dedicated to Lafenshard.", 
        "@feature": "LapentaFrontierQuest"
      }, 
      {
        "@id": "18", 
        "@name": "Energy core using Lapenshard. It had a power output over 100 times that of the Fusion core I studied. If it was a peaceful time, I would have been able to create an energy generator that would be able to play and eat for a lifetime ... But I decided to take advantage of this technology to remove the source of evil in MapleWorld. The beginning is Rappardard, the Frontier Foundation! Where is this opportunity to protect the world and study new technology ?! I am also the best!", 
        "@feature": "LapentaFrontierQuest"
      }, 
      {
        "@id": "19", 
        "@name": "Harstad, who showed up suddenly, gave me training on condition that I did not ask anything. Along with the words of the Song of Song ... Hustler, what the hell happened to you? To find you again ... Do you have to go to the Frontier Foundation that was left on the note? It is full of unknown things, but now I have some confidence. I have my own bow, none of which I have.", 
        "@feature": "LapentaFrontierQuest"
      }, 
      {
        "@id": "20", 
        "@name": "Hallstatt and fight, big resonance, lapenshad ... There is no part to be understood, but the certainty is that I have become the successor of the Bibliotheque, which has all of the power of the Lune Blader's pole, Gibraltar and Pelgia. In order to uncover all of this, you need the power of the new alliance of Terunkarib, Triai Royal and Frontier Foundation.", 
        "@feature": "LapentaFrontierQuest"
      }, 
      {
        "@id": "21", 
        "@name": "A precious enlightenment that I gained by fighting with the barbarian Chen. My fist until now had too much unnecessary thought and burden. The struggle for which all the thoughts disappeared was the best skill in my life. All this enlightenment was due to a rock called lapenshard? I can not believe it, but I decided to take full advantage of the opportunity that Basara made. Now I am reborn as a free wolf, the black congregation is not bound to anything.", 
        "@feature": "LapentaFrontierQuest"
      }, 
      {
        "@id": "22", 
        "@name": "$npcName:11000006$$pp:가,이$ I finally got into memories of the past through the report and experiment reports I passed. But… What stood in front of you was the shocking sight of your father killed by $npcName:11003185$. An unbelievable anger dominates the whole body. The technology of $npcName:11003185$ that I have not seen so far comes to mind. Having succeeded in replicating the technology as a herbivorous herbivore, I asked $npcName:11000006$ to locate him, but his suggestion was to gather more information about Lapenshard. Frontier Foundation ... Could I start new here again?", 
        "@feature": "LapentaFrontierQuest"
      }, 
      {
        "@id": "23", 
        "@name": "An unconventional stone that has been on your feet for a while ... I do not know why $npcName:11003174$ does not leave my head. The voice that was speaking to me was of real $npcName:11003174$. Explain $npcName:11003174$ to me ... Let's talk about the stone. After that, I started training with Lirin and when I thought I was no different from the god of anger. $npcName:11003174$ The guy showed real purpose. Let's go to the Frontier Foundation and find our grandfather with information and funding for Lafenshard.", 
        "@feature": "LapentaFrontierQuest"
      }, 
      {
        "@id": "24", 
        "@name": "I've been telling Kate about what happened ... In fact, my stomach was in an uproar. At that time, I found a glittering, delicious-looking crystal candy ... As soon as I had a bite, Kate screamed. What's up?! It is a huge energy and mana that surrounds my body with a huge explosion! I felt like I was born again, but Kate dragged me to her $npcName:11000032$ teacher 's lab. I can not find any special problems there, so let me introduce the Frontier Foundation with a story about Lapenshard ...", 
        "@feature": "LapentaFrontierQuest"
      }, 
      {
        "@id": "25", 
        "@name": "When I returned to the hostel after $npcName:11003949$,$pp:와,과$, $npcName:11001558$, and$pp:가,이$ of the adventure, I felt some sense of security. I think there's something that the two of you are hiding. Suddenly, consciousness is distanced and faces $npcName:11001560$. The power of Lapenshad confirms my will that $npcName:11001560$ that Munakra Seal is about to quit ... He succeeds in releasing Munakura's seal immediately, and he takes a look inside. He then leaves with the Frontier Foundation.", 
        "@feature": "LapentaFrontierQuest"
      }, 
      {
        "@id": "26", 
        "@name": "Search operation finally started in earnest. I believed that I could save everyone, but what appeared before me was the rune bladers that changed. To make matters worse, my giant lapenshade's energy continues to increase, threatening the peace of MapleWorld. With the help of $npcName:11001231$, we were able to block the giant rappard shudder and save everyone, but the atmosphere of the rune bladers was cold ... $npcName:11001231$ What is the truth?", 
        "@feature": "EyeOfLapentaQuest"
      }, 
      {
        "@id": "27", 
        "@name": "An unknown continent called Creteas appeared over the Maple World. At Ereb's direction, Sky Fortress goes on a quest for creativity. In Creteus, the Black Legion, commander of $npcName:29000247$, landed first. It was a hard journey, but it turned out that $npcName:29000247$ came here to take away the $npcName:11004400$ strength that sealed Createsias. George and the Maple Alliance have teamed up to stop the black corps that would take power of $npcName:11004400$. Who will be the power of $npcName:11004400$?", 
        "@feature": "Kritias_Epic01"
      }
    ]
  }
}