{
  "?xml": {
    "@version": "1.0", 
    "@encoding": "utf-8"
  }, 
  "ms2": {
    "key": [
      {
        "@id": "1010", 
        "@name": "Born as a true knight to protect the precious ones! \\nYou can further maximize the battle of attack and defense.", 
        "@feature": "JobChange_01"
      }, 
      {
        "@id": "1011", 
        "@name": "<font color = '# FFD200'> Longsword Specialization </FONT> \\n We control the enemy with the power of the longsword with sacred power.", 
        "@feature": "JobChange_01"
      }, 
      {
        "@id": "1012", 
        "@name": "<font color = '# FFD200'> Shield Specialization </FONT> \\n Protect your ally with the power of a sacred shield.", 
        "@feature": "JobChange_01"
      }, 
      {
        "@id": "2010", 
        "@name": "The god of wrath that finally began to wake up! \\nThey use huge weapons and dark powers to defeat the enemy.", 
        "@feature": "JobChange_01"
      }, 
      {
        "@id": "2011", 
        "@name": "<font color = '# FFD200'> Weapon Specialization </FONT> \\nA heavy attack using heavy swords.", 
        "@feature": "JobChange_01"
      }, 
      {
        "@id": "2012", 
        "@name": "<font color = '# FFD200'> Specialize in Darkness </FONT> \\nA quick attack with dark powers.", 
        "@feature": "JobChange_01"
      }, 
      {
        "@id": "3010", 
        "@name": "Appetite explosion! Magical explosion! Talent explodes! \\nAvoids the opponent by operating various attribute spells freely.", 
        "@feature": "JobChange_01"
      }, 
      {
        "@id": "3011", 
        "@name": "<font color = '# FFD200'> Specializes in lightning and coldness. </FONT>", 
        "@feature": "JobChange_01"
      }, 
      {
        "@id": "3012", 
        "@name": "<font color = '# FFD200'> Flame Specialization </FONT> \\n Attack with slow but powerful fire magic.", 
        "@feature": "JobChange_01"
      }, 
      {
        "@id": "4010", 
        "@name": "Defender of life reborn through awakening of life! \\n Supports friendly ally with powerful divine attack and recovery spell.", 
        "@feature": "JobChange_01"
      }, 
      {
        "@id": "4011", 
        "@name": "<font color = '# FFD200'> Referee Specialization </FONT> \\nI judge the enemy with the power of God.", 
        "@feature": "JobChange_01"
      }, 
      {
        "@id": "4012", 
        "@name": "<font color = '# FFD200'> Healing Specialization </FONT> \\n Helps colleagues through powerful healing and strengthening abilities.", 
        "@feature": "JobChange_01"
      }, 
      {
        "@id": "5010", 
        "@name": "Get a new power with the encounter with Hustler! \\nA colorful archery using fire and wind.", 
        "@feature": "JobChange_01"
      }, 
      {
        "@id": "5011", 
        "@name": "<font color = '# FFD200'> Specialize in Rapid Fire </FONT> \\n Attack enemies with fast fire and explosive firepower.", 
        "@feature": "JobChange_01"
      }, 
      {
        "@id": "5012", 
        "@name": "<font color = '# FFD200'> Specialization </FONT> </FONT> Attack with a powerful pair using long range and penetrating arrows.", 
        "@feature": "JobChange_01"
      }, 
      {
        "@id": "6010", 
        "@name": "Genius engineer, develop new weapons using lapenshard! \\n Plasma energy and various missiles can be used to show off the mighty firepower.", 
        "@feature": "JobChange_01"
      }, 
      {
        "@id": "6011", 
        "@name": "<font color = '# FFD200'> Plasma Specialization </FONT>", 
        "@feature": "JobChange_01"
      }, 
      {
        "@id": "6012", 
        "@name": "<font color = '# FFD200'> Special missiles </FONT> \\n Plasma energy can be used to exploit mobility.", 
        "@feature": "JobChange_01"
      }, 
      {
        "@id": "7010", 
        "@name": "Vindictive Power! \\nUse explosive strikes and powerful poison.", 
        "@feature": "JobChange_01"
      }, 
      {
        "@id": "7011", 
        "@name": "<font color = '# FFD200'> Specialize combat / dock </FONT> \\n Attack enemies with fast strikes and powerful poison.", 
        "@feature": "JobChange_01"
      }, 
      {
        "@id": "7012", 
        "@name": "<font color = '# FFD200'> Shadow Specialization </FONT> \\nCapture enemies in any situation without missing them.", 
        "@feature": "JobChange_01"
      }, 
      {
        "@id": "8010", 
        "@name": "The most powerful agent in Logs, awakened in lost memory! \\nWith powerful recognition technology and dark spells, you eliminate enemies.", 
        "@feature": "JobChange_01"
      }, 
      {
        "@id": "8011", 
        "@name": "<font color = '# FFD200'> Recognition Specialization </FONT>", 
        "@feature": "JobChange_01"
      }, 
      {
        "@id": "8012", 
        "@name": "<font color = '# FFD200'> Specialization </FONT> </FONT>", 
        "@feature": "JobChange_01"
      }, 
      {
        "@id": "9010", 
        "@name": "Selected magic test that unleashed Terunkolleb's dramatic spell! \\nUnfold a brilliant attack that combines magic and swordsmans in any situation.", 
        "@feature": "JobChange_01"
      }, 
      {
        "@id": "9011", 
        "@name": "<font color = '# FFD200'> Special Swordsmanship </FONT> \\n Strengthen your swordsmanship with runic magic to attack powerful enemies nearby.", 
        "@feature": "JobChange_01"
      }, 
      {
        "@id": "9012", 
        "@name": "<font color = '# FFD200'> Rune magic specialization </FONT> \\n Rune magic that combines swordsmanship can easily control far-reaching targets.", 
        "@feature": "JobChange_01"
      }, 
      {
        "@id": "10010", 
        "@name": "Extreme fighting that has mastered the path of new martial arts! \\n Confused enemies with punches and kicks with flames.", 
        "@feature": "JobChange_01"
      }, 
      {
        "@id": "10011", 
        "@name": "<font color = '# FFD200'> Special punch </FONT> \\n Destroy the enemy by continually attacking indiscriminate punches.", 
        "@feature": "JobChange_01"
      }, 
      {
        "@id": "10012", 
        "@name": "<font color = '# FFD200'> Kick specialization </FONT> \\n Distract the enemy with a mental movement and blow the conversion blow with a counterattack.", 
        "@feature": "JobChange_01"
      }, 
      {
        "@id": "11010", 
        "@name": "Maximize your unity with Vision and learn its power! \\nAttack your enemies with awakening mantra and support your friends.", 
        "@feature": "JobChange_01"
      }, 
      {
        "@id": "11011", 
        "@name": "<font color = '# FFD200'> Emancipation Specialization </FONT> \\n Realize your vision and use powerful range attacks to defeat your opponent.", 
        "@feature": "JobChange_01"
      }, 
      {
        "@id": "11012", 
        "@name": "<font color = '# FFD200'> Specializing in Bonds </FONT> \\n Attack your enemies with souls or heal your friends.", 
        "@feature": "JobChange_01"
      }
    ]
  }
}