{
  "?xml": {
    "@version": "1.0", 
    "@encoding": "utf-8"
  }, 
  "ms2": {
    "key": [
      {
        "@id": "1", 
        "@name": "BEGINNER", 
        "@feature": ""
      }, 
      {
        "@id": "2", 
        "@name": "Take your first steps into adventure! Welcome to Maple World.\\n<FONT color='#FFD200'>Beginners are people too, man.</FONT>", 
        "@feature": ""
      }, 
      {
        "@id": "10", 
        "@name": "KNIGHT", 
        "@feature": ""
      }, 
      {
        "@id": "11", 
        "@name": "Protect your allies with a heart of gold and a body of iron! Through hard work and sheer determination, the Knight has become one of Maple World's most stalwart heroes.\\n<FONT color='#FFD200'>This hero uses a sword and shield to become a bastion of defense.</FONT>", 
        "@feature": ""
      }, 
      {
        "@id": "20", 
        "@name": "BERSERKER", 
        "@feature": ""
      }, 
      {
        "@id": "21", 
        "@name": "Harness your rage and unleash destruction on your enemies! An ancient fury burns within the Berserker's heart, turning them into a force of nature on the battlefield.\\n<FONT color='#FFD200'>This hero cleaves through their enemies with a greatsword.</FONT>", 
        "@feature": ""
      }, 
      {
        "@id": "30", 
        "@name": "WIZARD", 
        "@feature": ""
      }, 
      {
        "@id": "31", 
        "@name": "Bend the power of the elements to your will! The genius Wizard may seem laid back, but there's nothing laid back about their fearsome spells.\\n<FONT color='#FFD200'>This hero commands the arcane with a staff.</FONT>", 
        "@feature": ""
      }, 
      {
        "@id": "40", 
        "@name": "PRIEST", 
        "@feature": ""
      }, 
      {
        "@id": "41", 
        "@name": "Spread the blessings of the light to the lost and hopeless! The Priest selflessly works to hold back the darkness that threatens Maple World.\\n<FONT color='#FFD200'>This hero commands holy power with a scepter and a codex of prayers.</FONT>", 
        "@feature": ""
      }, 
      {
        "@id": "50", 
        "@name": "ARCHER", 
        "@feature": ""
      }, 
      {
        "@id": "51", 
        "@name": "Loose your arrow into the heart of evil! A member of the Green Hoods, the Archer works tirelessly to protect Henesys—and all of Maple World.\\n<FONT color='#FFD200'>This hero rains arrows on their enemies with a bow.</FONT>", 
        "@feature": ""
      }, 
      {
        "@id": "60", 
        "@name": "HEAVY GUNNER", 
        "@feature": ""
      }, 
      {
        "@id": "61", 
        "@name": "Lay waste to the forces of darkness with superior firepower! An eccentric engineer from Edelstein, the Heavy Gunner seeks to better the world with their inventions.\\n<FONT color='#FFD200'>This hero blows enemies away with a cannon.</FONT>", 
        "@feature": ""
      }, 
      {
        "@id": "70", 
        "@name": "THIEF", 
        "@feature": ""
      }, 
      {
        "@id": "71", 
        "@name": "Take what you want and vanish without a trace! The sly Thief uses their wit and wiles to fight for good... as long as proper compensation is involved.\\n<FONT color='#FFD200'>This hero slices and dices enemies with two daggers.</FONT>", 
        "@feature": ""
      }, 
      {
        "@id": "80", 
        "@name": "ASSASSIN", 
        "@feature": ""
      }, 
      {
        "@id": "81", 
        "@name": "Strike from the shadows with lethal precision! The Assassin used to be the best in the business but left the criminal underworld to seek new meaning.\\n<FONT color='#FFD200'>This hero uses two thrown weapons to disable and defeat enemies at range.</FONT>", 
        "@feature": ""
      }, 
      {
        "@id": "90", 
        "@name": "Runeblade", 
        "@feature": "RuneBlader"
      }, 
      {
        "@id": "91", 
        "@name": "A magic swordsman capable of rune magic and swordsmanship.\\nA member of the Terrune Calibre founded by Jibritta and Pelgia, the master of rune magic and the greatest swordsman in history,\\nthis hero strives to master both schools of combat to a fine art.\\n\\n<FONT color='#FFD200'>The combination of swordsmanship and rune magic makes this character unbeatable in combat.</FONT>", 
        "@feature": "RuneBlader"
      }, 
      {
        "@id": "100", 
        "@name": "STRIKER", 
        "@feature": "Striker"
      }, 
      {
        "@id": "101", 
        "@name": "A master of combat who can defeat any enemy with bare-handed martial arts!\\nDue to their strength and combat skills, Strikers are fearless.\\nThey're loyal heroes who humbly help the weak living in Kerning City.\\n\\n<FONT color='#FFD200'>No one can withstand their nonstop attacks.</FONT>", 
        "@feature": "Striker"
      }, 
      {
        "@id": "110", 
        "@name": "SOUL BINDER", 
        "@feature": "SoulBinder"
      }, 
      {
        "@id": "111", 
        "@name": "A mysterious disciple who freely controls the power of nature!\\nAs members of the mysterious organization known as Guidance,\\nSoul Binders train both the mind and body by controlling the power of nature.\\n\\n<FONT color='#FFD200'>They're versatile, as they can inflict powerful attacks and provide support for allies.</FONT>", 
        "@feature": "SoulBinder"
      }
    ]
  }
}