{
  "?xml": {
    "@version": "1.0", 
    "@encoding": "utf-8"
  }, 
  "ms2": {
    "key": [
      {
        "@id": "SN_10000001", 
        "@name": "100-Meret Package", 
        "@locale": "NA"
      }, 
      {
        "@id": "SN_10000002", 
        "@name": "500-Meret Package", 
        "@locale": "NA"
      }, 
      {
        "@id": "SN_10000003", 
        "@name": "2,500-Meret Package", 
        "@locale": "NA"
      }, 
      {
        "@id": "SN_10000004", 
        "@name": "5.000-Meret Package", 
        "@locale": "NA"
      }, 
      {
        "@id": "SN_10000005", 
        "@name": "10,000-Meret Package", 
        "@locale": "NA"
      }, 
      {
        "@id": "SN_20000001", 
        "@name": "Starter Pack", 
        "@locale": "NA"
      }, 
      {
        "@id": "SN_20000002", 
        "@name": "Razer Chroma Mount", 
        "@locale": "NA"
      }, 
      {
        "@id": "SN_20000003", 
        "@name": "Twitch Prime Package", 
        "@locale": "NA"
      }, 
      {
        "@id": "SN_20000004", 
        "@name": "Razer Package", 
        "@locale": "NA"
      }, 
      {
        "@id": "SN_20000005", 
        "@name": "Joddy Squad Welcome Package", 
        "@locale": "NA"
      }, 
      {
        "@id": "SN_20000006", 
        "@name": "Dance-to-the-Beat Box", 
        "@locale": "NA"
      }, 
      {
        "@id": "SN_20000007", 
        "@name": "Mushroom Hat", 
        "@locale": "NA"
      }, 
      {
        "@id": "SN_20000008", 
        "@name": "Mint Body Pillow", 
        "@locale": "NA"
      }, 
      {
        "@id": "SN_20000009", 
        "@name": "Rolling Slime", 
        "@locale": "NA"
      }, 
      {
        "@id": "SN_20000010", 
        "@name": "Floating Ducky Balloon", 
        "@locale": "NA"
      }, 
      {
        "@id": "SN_90000001", 
        "@name": "Explorer Package", 
        "@locale": "NA"
      }, 
      {
        "@id": "SN_90000002", 
        "@name": "Master Package", 
        "@locale": "NA"
      }, 
      {
        "@id": "SN_90000003", 
        "@name": "Legendary Package", 
        "@locale": "NA"
      }, 
      {
        "@id": "SN_90000004", 
        "@name": "Master Package Upgrade", 
        "@locale": "NA"
      }, 
      {
        "@id": "SN_90000005", 
        "@name": "Legendary Package Upgrade", 
        "@locale": "NA"
      }, 
      {
        "@id": "SN_90000006", 
        "@name": "Master/Legendary Package Upgrade", 
        "@locale": "NA"
      }
    ]
  }
}