{
  "?xml": {
    "@version": "1.0", 
    "@encoding": "utf-8"
  }, 
  "ms2": {
    "key": [
      {
        "@id": "Customize_Intro_caption1", 
        "@name": "Right-click to rotate"
      }, 
      {
        "@id": "Customize_Intro_caption2", 
        "@name": "Left-click to move"
      }, 
      {
        "@id": "Customize_Intro_caption3", 
        "@name": "Right-click to rotate"
      }, 
      {
        "@id": "Customize_Intro_caption4", 
        "@name": "Adjust length with scroll wheel"
      }, 
      {
        "@id": "JobIntro_Knight_caption1", 
        "@name": "People say the darkness has been wiped from our world...\\nbut I know what I've seen."
      }, 
      {
        "@id": "JobIntro_Knight_caption2", 
        "@name": "There is darkness in the hearts of our people."
      }, 
      {
        "@id": "JobIntro_Knight_caption3", 
        "@name": "The strong always tread upon the weak.\\nIt happened to me."
      }, 
      {
        "@id": "JobIntro_Knight_caption4", 
        "@name": "However..."
      }, 
      {
        "@id": "JobIntro_Knight_caption5", 
        "@name": "The world still has heroes who can help the weak."
      }, 
      {
        "@id": "JobIntro_Knight_caption6", 
        "@name": "A kind soul helped me on that fateful day,\\nso I know they're out there."
      }, 
      {
        "@id": "JobIntro_Knight_caption7", 
        "@name": "Those who can help and protect others are\\nthe people who make this world great."
      }, 
      {
        "@id": "JobIntro_Knight_caption8", 
        "@name": "I'm going to become one of those heroes..."
      }, 
      {
        "@id": "JobIntro_Knight_caption9", 
        "@name": "No matter what."
      }, 
      {
        "@id": "JobIntro_Berserker_caption1", 
        "@name": "People fear the unknown.\\nMy parents did."
      }, 
      {
        "@id": "JobIntro_Berserker_caption2", 
        "@name": "The darkness in me drove them to abandon me."
      }, 
      {
        "@id": "JobIntro_Berserker_caption3", 
        "@name": "If the old man hadn't found me and taken me in..."
      }, 
      {
        "@id": "JobIntro_Berserker_caption4", 
        "@name": "I probably wouldn't be here."
      }, 
      {
        "@id": "JobIntro_Berserker_caption5", 
        "@name": "The old man didn't care about the power within me\\nand raised me as his own."
      }, 
      {
        "@id": "JobIntro_Berserker_caption6", 
        "@name": "History, science, art...\\nhe taught me so many things I didn't care about."
      }, 
      {
        "@id": "JobIntro_Berserker_caption7", 
        "@name": "I found out later that he was once Maple World's greatest hero."
      }, 
      {
        "@id": "JobIntro_Berserker_caption8", 
        "@name": "I should thank him for raising me,\\nand teaching me to be strong."
      }, 
      {
        "@id": "JobIntro_Berserker_caption9", 
        "@name": "And I'll surpass him, by becoming a stronger warrior!"
      }, 
      {
        "@id": "JobIntro_Berserker_caption10", 
        "@name": "New heroes are meant to eclipse those that came before."
      }, 
      {
        "@id": "JobIntro_Berserker_caption11", 
        "@name": "Isn't that the best way to show respect for their efforts?"
      }, 
      {
        "@id": "JobIntro_Berserker_caption12", 
        "@name": "So get ready, old man!\\nToday's the day I beat you!"
      }, 
      {
        "@id": "JobIntro_Wizard_caption1", 
        "@name": "Class, open your textbooks to…"
      }, 
      {
        "@id": "JobIntro_Wizard_caption2", 
        "@name": "What's this? We're one student short."
      }, 
      {
        "@id": "JobIntro_Wizard_caption3", 
        "@name": "That's fine. We can wait."
      }, 
      {
        "@id": "JobIntro_Wizard_caption4", 
        "@name": "Professor! We have quite a lot of magic to learn today."
      }, 
      {
        "@id": "JobIntro_Wizard_caption5", 
        "@name": "Are you going to waste our time waiting for one tardy student?"
      }, 
      {
        "@id": "JobIntro_Wizard_caption6", 
        "@name": "An astute point, as usual, Miss Class President."
      }, 
      {
        "@id": "JobIntro_Wizard_caption7", 
        "@name": "Let's begin. What can anyone here tell me about monsters?"
      }, 
      {
        "@id": "JobIntro_Wizard_caption8", 
        "@name": "My brightest student..."
      }, 
      {
        "@id": "JobIntro_Wizard_caption9", 
        "@name": "...is skipping class. Again."
      }, 
      {
        "@id": "JobIntro_Wizard_caption10", 
        "@name": "So much wasted genius..."
      }, 
      {
        "@id": "JobIntro_Wizard_caption11", 
        "@name": "Wah, I don't know!"
      }, 
      {
        "@id": "JobIntro_Priest_caption1", 
        "@name": "After the darkness vanished 15 years ago,\\nI thought my duty would be to pray and sing of our past glory."
      }, 
      {
        "@id": "JobIntro_Priest_caption2", 
        "@name": "When I heard our peace was threatened again,\\na great fear grew in my heart."
      }, 
      {
        "@id": "JobIntro_Priest_caption3", 
        "@name": "But along with that fear... was hope.\\nHope that I would find new purpose."
      }, 
      {
        "@id": "JobIntro_Priest_caption4", 
        "@name": "The guardian priests serve the will of the divine light."
      }, 
      {
        "@id": "JobIntro_Priest_caption5", 
        "@name": "And so, it is my duty to bring glory to this land once more!"
      }, 
      {
        "@id": "JobIntro_Ranger_caption1", 
        "@name": "Not everything is as simple as it appears."
      }, 
      {
        "@id": "JobIntro_Ranger_caption2", 
        "@name": "It's an easy truth to forget."
      }, 
      {
        "@id": "JobIntro_Ranger_caption3", 
        "@name": "But no matter how hidden,\\nthe truth is always revealed in the end."
      }, 
      {
        "@id": "JobIntro_Ranger_caption4", 
        "@name": "Sometimes, you get to see the real side of a person for just a moment."
      }, 
      {
        "@id": "JobIntro_Ranger_caption5", 
        "@name": "A person who is stronger than anyone else, but keeps it hidden..."
      }, 
      {
        "@id": "JobIntro_Ranger_caption6", 
        "@name": "A person who never hesitates to help when they are needed..."
      }, 
      {
        "@id": "JobIntro_Ranger_caption7", 
        "@name": "A person whose footsteps I work hard to follow in."
      }, 
      {
        "@id": "JobIntro_HeavyGunner_caption1", 
        "@name": "My whole life, people have told me..."
      }, 
      {
        "@id": "JobIntro_HeavyGunner_caption2", 
        "@name": "\"Science alone cannot bring peace to Maple World.\""
      }, 
      {
        "@id": "JobIntro_HeavyGunner_caption3", 
        "@name": "That is a reasonable hypothesis...\\nif you're an idiot!"
      }, 
      {
        "@id": "JobIntro_HeavyGunner_caption4", 
        "@name": "The right technology? It can accomplish anything.\\nIt can break through any barrier. It can level any playing field!"
      }, 
      {
        "@id": "JobIntro_HeavyGunner_caption5", 
        "@name": "So, my faithful assistant...\\nWho's going to fix the world?"
      }, 
      {
        "@id": "JobIntro_HeavyGunner_caption6", 
        "@name": "You are, Boss!"
      }, 
      {
        "@id": "JobIntro_HeavyGunner_caption7", 
        "@name": "A perfect answer! 10 out of 10!"
      }, 
      {
        "@id": "JobIntro_Thief_caption1", 
        "@name": "I can't remember anything about my parents."
      }, 
      {
        "@id": "JobIntro_Thief_caption2", 
        "@name": "My earliest childhood memories are of cold, dirty alleyways."
      }, 
      {
        "@id": "JobIntro_Thief_caption3", 
        "@name": "But I was never alone."
      }, 
      {
        "@id": "JobIntro_Thief_caption4", 
        "@name": "My friends were my family, the ones who stood by me."
      }, 
      {
        "@id": "JobIntro_Thief_caption5", 
        "@name": "Even now, we live the way we want.\\nOur limits are our own."
      }, 
      {
        "@id": "JobIntro_Thief_caption6", 
        "@name": "No one can hold us back.\\nI didn't choose the life of a rogue..."
      }, 
      {
        "@id": "JobIntro_Thief_caption7", 
        "@name": "But I love it!"
      }, 
      {
        "@id": "JobIntro_Assassin_caption1", 
        "@name": "The Rooks."
      }, 
      {
        "@id": "JobIntro_Assassin_caption2", 
        "@name": "We are the vanguard of darkness led by the Dark Lord,\\none of the Seven Commanders."
      }, 
      {
        "@id": "JobIntro_Assassin_caption3", 
        "@name": "We have one mission:\\nTo eliminate everything that stands in the way of the Black Mage."
      }, 
      {
        "@id": "JobIntro_Assassin_caption4", 
        "@name": "As a Rook, my own thoughts and emotions were purged\\nso that I could focus on my work."
      }, 
      {
        "@id": "JobIntro_Assassin_caption5", 
        "@name": "However..."
      }, 
      {
        "@id": "JobIntro_Assassin_caption6", 
        "@name": "I've begun to... feel again.\\nAnd those feelings confuse me."
      }, 
      {
        "@id": "JobIntro_Assassin_caption7", 
        "@name": "Am I really working toward a better world?"
      }, 
      {
        "@id": "JobIntro_Assassin_caption8", 
        "@name": "Am I becoming a monster?"
      }, 
      {
        "@id": "JobIntro_Assassin_caption9", 
        "@name": "For once... I don't know what to do..."
      }, 
      {
        "@id": "RuneBlader_Intro_caption1", 
        "@name": "Farewell ...", 
        "@locale": "NA"
      }, 
      {
        "@id": "RuneBlader_Intro_caption2", 
        "@name": "Master.", 
        "@locale": "NA"
      }, 
      {
        "@id": "RuneBlader_Intro_caption3", 
        "@name": "Do not throw your life away.", 
        "@locale": "NA"
      }, 
      {
        "@id": "RuneBlader_Intro_caption4", 
        "@name": "Your destiny lies elsewhere.", 
        "@locale": "NA"
      }, 
      {
        "@id": "Common_Opening_caption1", 
        "@name": "This is a story of heroes."
      }, 
      {
        "@id": "Common_Opening_caption2", 
        "@name": "It begins with two goddesses: one light, one dark."
      }, 
      {
        "@id": "Common_Opening_caption3", 
        "@name": "They created many worlds,\\nbut Maple World was their greatest."
      }, 
      {
        "@id": "Common_Opening_caption4", 
        "@name": "Now, in every realm, there must be balance."
      }, 
      {
        "@id": "Common_Opening_caption5", 
        "@name": "But the goddess of light loved Maple World\\nand allowed no darkness to enter."
      }, 
      {
        "@id": "Common_Opening_caption6", 
        "@name": "Fearing this imbalance,\\nthe goddess of darkness lashed out."
      }, 
      {
        "@id": "Common_Opening_caption7", 
        "@name": "So began their terrible war."
      }, 
      {
        "@id": "Common_Opening_caption8", 
        "@name": "The battle was long and brutal, but, with the help of her sages,\\nthe goddess of light defeated her sister."
      }, 
      {
        "@id": "Common_Opening_caption9", 
        "@name": "As the goddess of darkness fell, she unleashed her fury,\\npoisoning Maple World with her power."
      }, 
      {
        "@id": "Common_Opening_caption10", 
        "@name": "Unwilling to see her beloved creation destroyed,\\nthe goddess of light sacrificed herself to save it."
      }, 
      {
        "@id": "Common_Opening_caption11", 
        "@name": "What remained of her power became the great protector,\\nEmpress Ereve."
      }, 
      {
        "@id": "Common_Opening_caption12", 
        "@name": "But Maple World was not yet safe.\\nEreve gathered seven heroes to stand against the darkness."
      }, 
      {
        "@id": "Common_Opening_caption13", 
        "@name": "Try as they might,\\nthey could not stop their world's slow corruption."
      }, 
      {
        "@id": "Common_Opening_caption14", 
        "@name": "Ereve and her sages created three relics with\\npower over life, space, and time: the Lapentas."
      }, 
      {
        "@id": "Common_Opening_caption15", 
        "@name": "These Lapentas could gather up\\nthe darkness and cleanse it all at once, or so they thought."
      }, 
      {
        "@id": "Common_Opening_caption16", 
        "@name": "The day of their bold plan came,\\nand the shadows pooled in one place..."
      }, 
      {
        "@id": "Common_Opening_caption17", 
        "@name": "Even as they cast their purification ritual,\\nthe sages were gripped by the darkness."
      }, 
      {
        "@id": "Common_Opening_caption18", 
        "@name": "In the end, it took all of the Lapentas power\\nto protect Maple World from being utterly destroyed."
      }, 
      {
        "@id": "Common_Opening_caption19", 
        "@name": "The ritual site was corrupted,\\nthe whole region becoming a dreaded no-man's land."
      }, 
      {
        "@id": "Common_Opening_caption20", 
        "@name": "Two of Ereve's heroes,\\nCerian and Balon, stepped forward."
      }, 
      {
        "@id": "Common_Opening_caption21", 
        "@name": "They journeyed into this \"Land of Darkness\" on a mission\\nto save anyone trapped inside."
      }, 
      {
        "@id": "Common_Opening_caption22", 
        "@name": "There, they worked to complete the purification ritual...\\nand, in doing so, they met their end."
      }, 
      {
        "@id": "Common_Opening_caption23", 
        "@name": "The Land of Darkness was sealed away,\\nwhere it could hurt no one else."
      }, 
      {
        "@id": "Common_Opening_caption24", 
        "@name": "With their noble sacrifice,\\nthese two heroes had bought peace."
      }, 
      {
        "@id": "Common_Opening_caption25", 
        "@name": "But now, the shadows stir once more,\\nand this miraculous peace is nearing its end."
      }, 
      {
        "@id": "Common_Opening_caption26", 
        "@name": "The time has come for champions to rise again."
      }, 
      {
        "@id": "Common_Opening_caption27", 
        "@name": "This is a story of heroes."
      }, 
      {
        "@id": "Common_Opening_caption28", 
        "@name": "This... is your story."
      }, 
      {
        "@id": "SkyFortress_Intro_caption1", 
        "@name": "Ugh, isn't the Sky Fortress ready yet?", 
        "@feature": "FameContents"
      }, 
      {
        "@id": "SkyFortress_Intro_caption2", 
        "@name": "If this goes on...", 
        "@feature": "FameContents"
      }, 
      {
        "@id": "SkyFortress_Intro_caption3", 
        "@name": "You all are pretty good.", 
        "@feature": "FameContents"
      }, 
      {
        "@id": "SkyFortress_Intro_caption4", 
        "@name": "I thought you were just small fry...", 
        "@feature": "FameContents"
      }, 
      {
        "@id": "SkyFortress_Intro_caption5", 
        "@name": "All of you must be lucky to have resisted to this point.", 
        "@feature": "FameContents"
      }, 
      {
        "@id": "SkyFortress_Intro_caption6", 
        "@name": "You are...?!", 
        "@feature": "FameContents"
      }, 
      {
        "@id": "SkyFortress_Intro_caption7", 
        "@name": "I'll stop with the appearances....", 
        "@feature": "FameContents"
      }, 
      {
        "@id": "SkyFortress_Intro_caption8", 
        "@name": "And now end this.", 
        "@feature": "FameContents"
      }, 
      {
        "@id": "SkyFortress_Intro_caption9", 
        "@name": "Don't look down on us!", 
        "@feature": "FameContents"
      }, 
      {
        "@id": "SkyFortress_Intro_caption10", 
        "@name": "Move! It's going to take off soon!", 
        "@feature": "FameContents"
      }, 
      {
        "@id": "SkyFortress_Intro_caption11", 
        "@name": "Crewmember boarding 90% complete!\\nBut our combat members haven't boarded yet!", 
        "@feature": "FameContents"
      }, 
      {
        "@id": "SkyFortress_Intro_caption12", 
        "@name": "Looks Iike I need to use that method.", 
        "@feature": "FameContents"
      }, 
      {
        "@id": "SkyFortress_Intro_caption13", 
        "@name": "By that method, you don't mean...", 
        "@feature": "FameContents"
      }, 
      {
        "@id": "SkyFortress_Intro_caption14", 
        "@name": "Yes, on it!", 
        "@feature": "FameContents"
      }, 
      {
        "@id": "SkyFortress_Intro_caption15", 
        "@name": "Operate the ship!\\nLoad the XR-class bomb and be on standby!", 
        "@feature": "FameContents"
      }, 
      {
        "@id": "SkyFortress_Intro_caption16", 
        "@name": "What's going on?!", 
        "@feature": "FameContents"
      }, 
      {
        "@id": "SkyFortress_Intro_caption17", 
        "@name": "Fire!", 
        "@feature": "FameContents"
      }, 
      {
        "@id": "SkyFortress_Intro_caption18", 
        "@name": "Darn, just you wait...!", 
        "@feature": "FameContents"
      }, 
      {
        "@id": "SkyFortress_Intro_caption19", 
        "@name": "Karl, Luanna. Look.\\nThey did it.", 
        "@feature": "FameContents"
      }, 
      {
        "@id": "SkyFortress_Intro_caption20", 
        "@name": "It's finally airborne.", 
        "@feature": "FameContents"
      }, 
      {
        "@id": "SkyFortress_Intro_caption21", 
        "@name": "Please protect Maple World.", 
        "@feature": "FameContents"
      }, 
      {
        "@id": "SkyFortress_Intro_caption22", 
        "@name": "Oh Sky Fortress, shield of the skies.", 
        "@feature": "FameContents"
      }, 
      {
        "@id": "SkyFortress_Intro_caption23", 
        "@name": "That's it!", 
        "@feature": "FameContents"
      }, 
      {
        "@id": "SkyFortress_Intro_caption24", 
        "@name": "Let's do it right!", 
        "@feature": "FameContents"
      }, 
      {
        "@id": "SkyFortress_Intro_caption25", 
        "@name": "Bear Zuma!", 
        "@feature": "FameContents"
      }, 
      {
        "@id": "SkyFortress_Intro_caption26", 
        "@name": "Shit!", 
        "@feature": "FameContents"
      }, 
      {
        "@id": "SkyFortress_Intro_caption27", 
        "@name": "Storm of flames!", 
        "@feature": "FameContents"
      }, 
      {
        "@id": "SkyFortress_Intro_caption28", 
        "@name": "Be ready!", 
        "@feature": "FameContents"
      }, 
      {
        "@id": "SkyFortress_Intro_caption30", 
        "@name": "Take it easy!", 
        "@feature": "FameContents"
      }, 
      {
        "@id": "SkyFortress_Intro_caption31", 
        "@name": "Goes.", 
        "@feature": "FameContents"
      }, 
      {
        "@id": "SkyFortress_Intro_caption32", 
        "@name": "Say goodbye!", 
        "@feature": "FameContents"
      }, 
      {
        "@id": "Lapenta_Frontier_Intro_caption1", 
        "@name": "From the star that shines in the night sky", 
        "@feature": "LapentaFrontierQuest"
      }, 
      {
        "@id": "Lapenta_Frontier_Intro_caption2", 
        "@name": "In my togetherness,", 
        "@feature": "LapentaFrontierQuest"
      }, 
      {
        "@id": "Lapenta_Frontier_Intro_caption3", 
        "@name": "I like that feeling.", 
        "@feature": "LapentaFrontierQuest"
      }, 
      {
        "@id": "Lapenta_Frontier_Intro_caption4", 
        "@name": "You forget the darkness (get up again)", 
        "@feature": "LapentaFrontierQuest"
      }, 
      {
        "@id": "Lapenta_Frontier_Intro_caption5", 
        "@name": "You hold your trembling heart (do not be afraid)", 
        "@feature": "LapentaFrontierQuest"
      }, 
      {
        "@id": "Lapenta_Frontier_Intro_caption6", 
        "@name": "You are the center of a new world (do not forget)", 
        "@feature": "LapentaFrontierQuest"
      }, 
      {
        "@id": "Lapenta_Frontier_Intro_caption7", 
        "@name": "You will prepare for the coming future (I'll join you)", 
        "@feature": "LapentaFrontierQuest"
      }, 
      {
        "@id": "Lapenta_Frontier_Intro_caption8", 
        "@name": "Do not forget", 
        "@feature": "LapentaFrontierQuest"
      }, 
      {
        "@id": "Lapenta_Frontier_Intro_caption9", 
        "@name": "The promise of hope to breathe in your heart, that light", 
        "@feature": "LapentaFrontierQuest"
      }, 
      {
        "@id": "Lapenta_Frontier_Intro_caption10", 
        "@name": "Do not hesitate to rush to the open world", 
        "@feature": "LapentaFrontierQuest"
      }, 
      {
        "@id": "Lapenta_Frontier_Intro_caption11", 
        "@name": "The future I dreamed of will not be shaken.", 
        "@feature": "LapentaFrontierQuest"
      }, 
      {
        "@id": "Lapenta_Frontier_Intro_caption12", 
        "@name": "Do not stop your story", 
        "@feature": "LapentaFrontierQuest"
      }, 
      {
        "@id": "Lapenta_Frontier_Intro_caption13", 
        "@name": "Call your name for your lost name.", 
        "@feature": "LapentaFrontierQuest"
      }, 
      {
        "@id": "Lapenta_Frontier_Intro_caption14", 
        "@name": "Even if you call and call,", 
        "@feature": "LapentaFrontierQuest"
      }, 
      {
        "@id": "Lapenta_Frontier_Intro_caption15", 
        "@name": "Do not cry, I", 
        "@feature": "LapentaFrontierQuest"
      }, 
      {
        "@id": "Lapenta_Frontier_Intro_caption16", 
        "@name": "I'll hold you.", 
        "@feature": "LapentaFrontierQuest"
      }
    ]
  }
}