{
  "?xml": {
    "@version": "1.0",
    "@encoding": "utf-8"
  },
  "ms2": {
    "key": [
      {
        "@id": "1",
        "@name": "개새끼"
      },
      {
        "@id": "2",
        "@name": "개쌔끼"
      },
      {
        "@id": "3",
        "@name": "개세끼"
      },
      {
        "@id": "4",
        "@name": "십새끼"
      },
      {
        "@id": "5",
        "@name": "십쌔끼"
      },
      {
        "@id": "6",
        "@name": "십세끼"
      },
      {
        "@id": "7",
        "@name": "씹새끼"
      },
      {
        "@id": "8",
        "@name": "씹쌔끼"
      },
      {
        "@id": "9",
        "@name": "씹세끼"
      },
      {
        "@id": "10",
        "@name": "씹창"
      },
      {
        "@id": "11",
        "@name": "씨발"
      },
      {
        "@id": "12",
        "@name": "씨벌"
      },
      {
        "@id": "13",
        "@name": "씨팔"
      },
      {
        "@id": "14",
        "@name": "씹할"
      },
      {
        "@id": "15",
        "@name": "니미럴"
      },
      {
        "@id": "16",
        "@name": "니미랄"
      },
      {
        "@id": "17",
        "@name": "닝기미"
      },
      {
        "@id": "18",
        "@name": "쌍년"
      },
      {
        "@id": "19",
        "@name": "썅년"
      },
      {
        "@id": "20",
        "@name": "쌍뇬"
      },
      {
        "@id": "21",
        "@name": "썅뇬"
      },
      {
        "@id": "22",
        "@name": "개년"
      },
      {
        "@id": "23",
        "@name": "개뇬"
      },
      {
        "@id": "24",
        "@name": "쌍놈"
      },
      {
        "@id": "25",
        "@name": "썅놈"
      },
      {
        "@id": "26",
        "@name": "쌍넘"
      },
      {
        "@id": "27",
        "@name": "썅넘"
      },
      {
        "@id": "28",
        "@name": "지랄"
      },
      {
        "@id": "29",
        "@name": "병신"
      },
      {
        "@id": "30",
        "@name": "니애미"
      },
      {
        "@id": "31",
        "@name": "니에미"
      },
      {
        "@id": "32",
        "@name": "미친놈"
      },
      {
        "@id": "33",
        "@name": "미췬놈"
      },
      {
        "@id": "34",
        "@name": "미친년"
      },
      {
        "@id": "35",
        "@name": "미친뇬"
      },
      {
        "@id": "36",
        "@name": "개같은년"
      },
      {
        "@id": "37",
        "@name": "개같은놈"
      },
      {
        "@id": "38",
        "@name": "씹쌔"
      },
      {
        "@id": "39",
        "@name": "씹년"
      },
      {
        "@id": "40",
        "@name": "씹뇬"
      },
      {
        "@id": "41",
        "@name": "챵녀"
      },
      {
        "@id": "42",
        "@name": "챵년"
      },
      {
        "@id": "43",
        "@name": "창뇬"
      },
      {
        "@id": "44",
        "@name": "챵뇬"
      },
      {
        "@id": "45",
        "@name": "개같은뇬"
      },
      {
        "@id": "46",
        "@name": "씹넘"
      },
      {
        "@id": "47",
        "@name": "쓉년"
      },
      {
        "@id": "48",
        "@name": "호로년"
      },
      {
        "@id": "49",
        "@name": "후레년"
      },
      {
        "@id": "50",
        "@name": "개섀끼"
      },
      {
        "@id": "51",
        "@name": "씨부랄"
      },
      {
        "@id": "52",
        "@name": "다방년"
      },
      {
        "@id": "53",
        "@name": "개자지"
      },
      {
        "@id": "54",
        "@name": "개보지"
      },
      {
        "@id": "55",
        "@name": "애비자지"
      },
      {
        "@id": "56",
        "@name": "애미보지"
      },
      {
        "@id": "57",
        "@name": "섹스"
      },
      {
        "@id": "58",
        "@name": "좆"
      },
      {
        "@id": "59",
        "@name": "좇"
      },
      {
        "@id": "60",
        "@name": "좃"
      },
      {
        "@id": "61",
        "@name": "딸딸이"
      },
      {
        "@id": "62",
        "@name": "빠구리"
      },
      {
        "@id": "63",
        "@name": "빠굴이"
      },
      {
        "@id": "64",
        "@name": "빠굴"
      },
      {
        "@id": "65",
        "@name": "사까시"
      },
      {
        "@id": "66",
        "@name": "불알"
      },
      {
        "@id": "67",
        "@name": "떡치기"
      },
      {
        "@id": "68",
        "@name": "후장"
      },
      {
        "@id": "69",
        "@name": "섹스"
      },
      {
        "@id": "70",
        "@name": "쎅스"
      },
      {
        "@id": "71",
        "@name": "쌕스"
      },
      {
        "@id": "72",
        "@name": "섹쓰"
      },
      {
        "@id": "73",
        "@name": "색쓰"
      },
      {
        "@id": "74",
        "@name": "쎅쓰"
      },
      {
        "@id": "75",
        "@name": "쌕쓰"
      },
      {
        "@id": "76",
        "@name": "창녀"
      },
      {
        "@id": "77",
        "@name": "창년"
      },
      {
        "@id": "78",
        "@name": "개싑창"
      },
      {
        "@id": "79",
        "@name": "죷"
      },
      {
        "@id": "80",
        "@name": "죳"
      },
      {
        "@id": "81",
        "@name": "강간"
      },
      {
        "@id": "82",
        "@name": "걸레년"
      },
      {
        "@id": "83",
        "@name": "보'지"
      },
      {
        "@id": "84",
        "@name": "섹'스"
      },
      {
        "@id": "85",
        "@name": "창뇬"
      },
      {
        "@id": "86",
        "@name": "촹년"
      },
      {
        "@id": "87",
        "@name": "촹뇬"
      },
      {
        "@id": "88",
        "@name": "폰섹"
      },
      {
        "@id": "89",
        "@name": "고츄"
      },
      {
        "@id": "90",
        "@name": "붕알"
      },
      {
        "@id": "91",
        "@name": "폰색"
      },
      {
        "@id": "92",
        "@name": "fuck"
      },
      {
        "@id": "93",
        "@name": "fuk"
      },
      {
        "@id": "94",
        "@name": "porno"
      },
      {
        "@id": "95",
        "@name": "dildo"
      },
      {
        "@id": "96",
        "@name": "pussy"
      },
      {
        "@id": "97",
        "@name": "shit"
      },
      {
        "@id": "98",
        "@name": "bitch"
      },
      {
        "@id": "99",
        "@name": "anal"
      },
      {
        "@id": "100",
        "@name": "fetish"
      },
      {
        "@id": "101",
        "@name": "bastard"
      },
      {
        "@id": "102",
        "@name": "cunt"
      },
      {
        "@id": "103",
        "@name": "damn"
      },
      {
        "@id": "104",
        "@name": "asshole"
      },
      {
        "@id": "105",
        "@name": "귀두"
      },
      {
        "@id": "106",
        "@name": "뽕알"
      },
      {
        "@id": "107",
        "@name": "10팔년"
      },
      {
        "@id": "108",
        "@name": "18넘"
      },
      {
        "@id": "109",
        "@name": "18놈"
      },
      {
        "@id": "110",
        "@name": "18뇬"
      },
      {
        "@id": "111",
        "@name": "18색캬"
      },
      {
        "@id": "112",
        "@name": "c발섹끼"
      },
      {
        "@id": "113",
        "@name": "c팔"
      },
      {
        "@id": "114",
        "@name": "gay"
      },
      {
        "@id": "115",
        "@name": "lesbien"
      },
      {
        "@id": "116",
        "@name": "Ll미즐"
      },
      {
        "@id": "117",
        "@name": "ME친놈"
      },
      {
        "@id": "118",
        "@name": "mi발년"
      },
      {
        "@id": "119",
        "@name": "ml발"
      },
      {
        "@id": "120",
        "@name": "nl발놈"
      },
      {
        "@id": "121",
        "@name": "nn1팔"
      },
      {
        "@id": "122",
        "@name": "sex"
      },
      {
        "@id": "123",
        "@name": "se엑스"
      },
      {
        "@id": "124",
        "@name": "갈보"
      },
      {
        "@id": "125",
        "@name": "강1간"
      },
      {
        "@id": "126",
        "@name": "개1새1꺄"
      },
      {
        "@id": "127",
        "@name": "개1새1끼"
      },
      {
        "@id": "128",
        "@name": "개1세1끼"
      },
      {
        "@id": "129",
        "@name": "개1자1식"
      },
      {
        "@id": "130",
        "@name": "개l새l키"
      },
      {
        "@id": "131",
        "@name": "개가튼뇬"
      },
      {
        "@id": "132",
        "@name": "개간년"
      },
      {
        "@id": "133",
        "@name": "개갖은년"
      },
      {
        "@id": "134",
        "@name": "개같은넘아"
      },
      {
        "@id": "135",
        "@name": "개같은색키"
      },
      {
        "@id": "136",
        "@name": "개고자"
      },
      {
        "@id": "137",
        "@name": "개넌"
      },
      {
        "@id": "138",
        "@name": "개넘"
      },
      {
        "@id": "139",
        "@name": "개녕아"
      },
      {
        "@id": "140",
        "@name": "개놈"
      },
      {
        "@id": "141",
        "@name": "개뇨나"
      },
      {
        "@id": "142",
        "@name": "개때꺄"
      },
      {
        "@id": "143",
        "@name": "개때끼"
      },
      {
        "@id": "144",
        "@name": "개뭬친넘"
      },
      {
        "@id": "145",
        "@name": "개뵤쥐"
      },
      {
        "@id": "146",
        "@name": "개뵤지년"
      },
      {
        "@id": "147",
        "@name": "개새"
      },
      {
        "@id": "148",
        "@name": "개새꺄"
      },
      {
        "@id": "149",
        "@name": "개색"
      },
      {
        "@id": "150",
        "@name": "개색꺄"
      },
      {
        "@id": "151",
        "@name": "개색끼"
      },
      {
        "@id": "152",
        "@name": "개색히"
      },
      {
        "@id": "153",
        "@name": "개샛기"
      },
      {
        "@id": "154",
        "@name": "개샛끼"
      },
      {
        "@id": "155",
        "@name": "개샛히"
      },
      {
        "@id": "156",
        "@name": "개샤꺄"
      },
      {
        "@id": "157",
        "@name": "개샥히"
      },
      {
        "@id": "158",
        "@name": "개샹같은년"
      },
      {
        "@id": "159",
        "@name": "개샹뇬"
      },
      {
        "@id": "160",
        "@name": "개샹련"
      },
      {
        "@id": "161",
        "@name": "개섀꺄"
      },
      {
        "@id": "162",
        "@name": "개섀캬"
      },
      {
        "@id": "163",
        "@name": "개섀키"
      },
      {
        "@id": "164",
        "@name": "개세"
      },
      {
        "@id": "165",
        "@name": "개섹"
      },
      {
        "@id": "166",
        "@name": "개셋꺄"
      },
      {
        "@id": "167",
        "@name": "개셰꺄"
      },
      {
        "@id": "168",
        "@name": "개셰끼"
      },
      {
        "@id": "169",
        "@name": "개솩희"
      },
      {
        "@id": "170",
        "@name": "개솽년"
      },
      {
        "@id": "171",
        "@name": "개쇄"
      },
      {
        "@id": "172",
        "@name": "개쇄끼"
      },
      {
        "@id": "173",
        "@name": "개쇄키"
      },
      {
        "@id": "174",
        "@name": "개쉐"
      },
      {
        "@id": "175",
        "@name": "개쉐리"
      },
      {
        "@id": "176",
        "@name": "개쉐이"
      },
      {
        "@id": "177",
        "@name": "개쉑"
      },
      {
        "@id": "178",
        "@name": "개쉑히"
      },
      {
        "@id": "179",
        "@name": "개쉬끼"
      },
      {
        "@id": "180",
        "@name": "개쉭키"
      },
      {
        "@id": "181",
        "@name": "개시끼"
      },
      {
        "@id": "182",
        "@name": "개시팔썅"
      },
      {
        "@id": "183",
        "@name": "개식히"
      },
      {
        "@id": "184",
        "@name": "개싯팔"
      },
      {
        "@id": "185",
        "@name": "개싸발년"
      },
      {
        "@id": "186",
        "@name": "개쌔기"
      },
      {
        "@id": "187",
        "@name": "개쌔꺄"
      },
      {
        "@id": "188",
        "@name": "개쌕끼야"
      },
      {
        "@id": "189",
        "@name": "개쌕히"
      },
      {
        "@id": "190",
        "@name": "개쎄끼"
      },
      {
        "@id": "191",
        "@name": "개쒸꺄"
      },
      {
        "@id": "192",
        "@name": "개쓰렉기"
      },
      {
        "@id": "193",
        "@name": "개쓸기년"
      },
      {
        "@id": "194",
        "@name": "개씌년"
      },
      {
        "@id": "195",
        "@name": "개씹"
      },
      {
        "@id": "196",
        "@name": "개씹샥"
      },
      {
        "@id": "197",
        "@name": "개자슥"
      },
      {
        "@id": "198",
        "@name": "개자식"
      },
      {
        "@id": "199",
        "@name": "개잡껏아"
      },
      {
        "@id": "200",
        "@name": "개쟈쥐"
      },
      {
        "@id": "201",
        "@name": "개쟘쥐"
      },
      {
        "@id": "202",
        "@name": "개조지년"
      },
      {
        "@id": "203",
        "@name": "개좁년"
      },
      {
        "@id": "204",
        "@name": "개좁년아"
      },
      {
        "@id": "205",
        "@name": "개좌식"
      },
      {
        "@id": "206",
        "@name": "개죠지녀나"
      },
      {
        "@id": "207",
        "@name": "개죤만"
      },
      {
        "@id": "208",
        "@name": "개쥘알"
      },
      {
        "@id": "209",
        "@name": "걔섀끼"
      },
      {
        "@id": "210",
        "@name": "걔셰끼"
      },
      {
        "@id": "211",
        "@name": "거1지새1끼"
      },
      {
        "@id": "212",
        "@name": "거지새퀴"
      },
      {
        "@id": "213",
        "@name": "게년색아"
      },
      {
        "@id": "214",
        "@name": "게미췬"
      },
      {
        "@id": "215",
        "@name": "게세갸"
      },
      {
        "@id": "216",
        "@name": "게세기"
      },
      {
        "@id": "217",
        "@name": "게세기시불놈"
      },
      {
        "@id": "218",
        "@name": "게세끼"
      },
      {
        "@id": "219",
        "@name": "게세낄"
      },
      {
        "@id": "220",
        "@name": "게세야"
      },
      {
        "@id": "221",
        "@name": "게세퀴"
      },
      {
        "@id": "222",
        "@name": "게섹갸"
      },
      {
        "@id": "223",
        "@name": "게섹기"
      },
      {
        "@id": "224",
        "@name": "게섹꺄"
      },
      {
        "@id": "225",
        "@name": "게섹끼"
      },
      {
        "@id": "226",
        "@name": "게섹시"
      },
      {
        "@id": "227",
        "@name": "게섹키"
      },
      {
        "@id": "228",
        "@name": "게셰끼"
      },
      {
        "@id": "229",
        "@name": "게쉐"
      },
      {
        "@id": "230",
        "@name": "게쌕기"
      },
      {
        "@id": "231",
        "@name": "게쒸끼"
      },
      {
        "@id": "232",
        "@name": "게씌창"
      },
      {
        "@id": "233",
        "@name": "게씹놈"
      },
      {
        "@id": "234",
        "@name": "게자식"
      },
      {
        "@id": "235",
        "@name": "게좀년"
      },
      {
        "@id": "236",
        "@name": "게허러샹너마"
      },
      {
        "@id": "237",
        "@name": "게후라발년"
      },
      {
        "@id": "238",
        "@name": "계같은뇬"
      },
      {
        "@id": "239",
        "@name": "계섹아"
      },
      {
        "@id": "240",
        "@name": "고자새기"
      },
      {
        "@id": "241",
        "@name": "고자색히"
      },
      {
        "@id": "242",
        "@name": "곧휴"
      },
      {
        "@id": "243",
        "@name": "공알"
      },
      {
        "@id": "244",
        "@name": "궤쉐퀴"
      },
      {
        "@id": "245",
        "@name": "그지년"
      },
      {
        "@id": "246",
        "@name": "그지색퀴야"
      },
      {
        "@id": "247",
        "@name": "긔지뇬"
      },
      {
        "@id": "248",
        "@name": "깔년이"
      },
      {
        "@id": "249",
        "@name": "꼬추"
      },
      {
        "@id": "250",
        "@name": "꼬츄"
      },
      {
        "@id": "251",
        "@name": "꽃츄털"
      },
      {
        "@id": "252",
        "@name": "나쁜셋끼"
      },
      {
        "@id": "253",
        "@name": "낙태아"
      },
      {
        "@id": "254",
        "@name": "뉘귀미"
      },
      {
        "@id": "255",
        "@name": "뉘뮈후레년아"
      },
      {
        "@id": "256",
        "@name": "뉘미"
      },
      {
        "@id": "257",
        "@name": "늬1미"
      },
      {
        "@id": "258",
        "@name": "늬1미랄"
      },
      {
        "@id": "259",
        "@name": "늬1미럴"
      },
      {
        "@id": "260",
        "@name": "늬m보G구녕"
      },
      {
        "@id": "261",
        "@name": "늬귀미"
      },
      {
        "@id": "262",
        "@name": "늬긔미"
      },
      {
        "@id": "263",
        "@name": "늬기미"
      },
      {
        "@id": "264",
        "@name": "늬뮈럴"
      },
      {
        "@id": "265",
        "@name": "늬미"
      },
      {
        "@id": "266",
        "@name": "늬밀럴쌍아"
      },
      {
        "@id": "267",
        "@name": "늬앰1창1년"
      },
      {
        "@id": "268",
        "@name": "늬앰창"
      },
      {
        "@id": "269",
        "@name": "늬엠촹"
      },
      {
        "@id": "270",
        "@name": "니1미"
      },
      {
        "@id": "271",
        "@name": "니m이창"
      },
      {
        "@id": "272",
        "@name": "니M창"
      },
      {
        "@id": "273",
        "@name": "니M창 "
      },
      {
        "@id": "274",
        "@name": "니OH미"
      },
      {
        "@id": "275",
        "@name": "니기미"
      },
      {
        "@id": "276",
        "@name": "니뮈럴"
      },
      {
        "@id": "277",
        "@name": "니믜"
      },
      {
        "@id": "278",
        "@name": "니미"
      },
      {
        "@id": "279",
        "@name": "니미롤"
      },
      {
        "@id": "280",
        "@name": "니미룰"
      },
      {
        "@id": "281",
        "@name": "니미를"
      },
      {
        "@id": "282",
        "@name": "니부모애자"
      },
      {
        "@id": "283",
        "@name": "니애비창x년"
      },
      {
        "@id": "284",
        "@name": "니주가리"
      },
      {
        "@id": "285",
        "@name": "닝1기리"
      },
      {
        "@id": "286",
        "@name": "닝기리"
      },
      {
        "@id": "287",
        "@name": "듕시나"
      },
      {
        "@id": "288",
        "@name": "듕신"
      },
      {
        "@id": "289",
        "@name": "드응신"
      },
      {
        "@id": "290",
        "@name": "등1신아"
      },
      {
        "@id": "291",
        "@name": "딸따리"
      },
      {
        "@id": "292",
        "@name": "딸처먹은년아"
      },
      {
        "@id": "293",
        "@name": "때꺄"
      },
      {
        "@id": "294",
        "@name": "때끼"
      },
      {
        "@id": "295",
        "@name": "떵꾸나핥아"
      },
      {
        "@id": "296",
        "@name": "또1라이년아"
      },
      {
        "@id": "297",
        "@name": "똘아이"
      },
      {
        "@id": "298",
        "@name": "똘추"
      },
      {
        "@id": "299",
        "@name": "똘추년"
      },
      {
        "@id": "300",
        "@name": "똘츄"
      },
      {
        "@id": "301",
        "@name": "똘츄련"
      },
      {
        "@id": "302",
        "@name": "띠발"
      },
      {
        "@id": "303",
        "@name": "띠밸"
      },
      {
        "@id": "304",
        "@name": "띠벌"
      },
      {
        "@id": "305",
        "@name": "띠불"
      },
      {
        "@id": "306",
        "@name": "띠이바"
      },
      {
        "@id": "307",
        "@name": "띠이발"
      },
      {
        "@id": "308",
        "@name": "띠이방"
      },
      {
        "@id": "309",
        "@name": "띠이밸"
      },
      {
        "@id": "310",
        "@name": "띠이벌"
      },
      {
        "@id": "311",
        "@name": "띠이불"
      },
      {
        "@id": "312",
        "@name": "띠이붕"
      },
      {
        "@id": "313",
        "@name": "띠이팔"
      },
      {
        "@id": "314",
        "@name": "띠이펄"
      },
      {
        "@id": "315",
        "@name": "띠이풀"
      },
      {
        "@id": "316",
        "@name": "띠팔"
      },
      {
        "@id": "317",
        "@name": "띠펄"
      },
      {
        "@id": "318",
        "@name": "띠풀"
      },
      {
        "@id": "319",
        "@name": "망할녀어언"
      },
      {
        "@id": "320",
        "@name": "머븅쉰뇨나"
      },
      {
        "@id": "321",
        "@name": "몸파는"
      },
      {
        "@id": "322",
        "@name": "몸팔고"
      },
      {
        "@id": "323",
        "@name": "몸팔아"
      },
      {
        "@id": "324",
        "@name": "뮈취년"
      },
      {
        "@id": "325",
        "@name": "뮈췬"
      },
      {
        "@id": "326",
        "@name": "뮈친"
      },
      {
        "@id": "327",
        "@name": "뮈친년"
      },
      {
        "@id": "328",
        "@name": "믜친"
      },
      {
        "@id": "329",
        "@name": "미1친"
      },
      {
        "@id": "330",
        "@name": "미1친1년1"
      },
      {
        "@id": "331",
        "@name": "미1친1뇬"
      },
      {
        "@id": "332",
        "@name": "미1친넘"
      },
      {
        "@id": "333",
        "@name": "미1친년"
      },
      {
        "@id": "334",
        "@name": "미췐"
      },
      {
        "@id": "335",
        "@name": "미췐년"
      },
      {
        "@id": "336",
        "@name": "미췬넌"
      },
      {
        "@id": "337",
        "@name": "미췬넘"
      },
      {
        "@id": "338",
        "@name": "미췬년"
      },
      {
        "@id": "339",
        "@name": "미췬념"
      },
      {
        "@id": "340",
        "@name": "미췬뇬"
      },
      {
        "@id": "341",
        "@name": "미췬련"
      },
      {
        "@id": "342",
        "@name": "미췬색뀌"
      },
      {
        "@id": "343",
        "@name": "미췬쎄끼쉬"
      },
      {
        "@id": "344",
        "@name": "미췻뇬"
      },
      {
        "@id": "345",
        "@name": "미칀"
      },
      {
        "@id": "346",
        "@name": "미치친년"
      },
      {
        "@id": "347",
        "@name": "미친"
      },
      {
        "@id": "348",
        "@name": "미친넌"
      },
      {
        "@id": "349",
        "@name": "미친넘"
      },
      {
        "@id": "350",
        "@name": "미칫년"
      },
      {
        "@id": "351",
        "@name": "미튄"
      },
      {
        "@id": "352",
        "@name": "미틘년"
      },
      {
        "@id": "353",
        "@name": "믿힌련"
      },
      {
        "@id": "354",
        "@name": "및친"
      },
      {
        "@id": "355",
        "@name": "밑흰놈"
      },
      {
        "@id": "356",
        "@name": "밑힌놈"
      },
      {
        "@id": "357",
        "@name": "바보새끼"
      },
      {
        "@id": "358",
        "@name": "뱅쉰"
      },
      {
        "@id": "359",
        "@name": "뱅싄"
      },
      {
        "@id": "360",
        "@name": "뱅신"
      },
      {
        "@id": "361",
        "@name": "번섹"
      },
      {
        "@id": "362",
        "@name": "번쌕"
      },
      {
        "@id": "363",
        "@name": "번쎅"
      },
      {
        "@id": "364",
        "@name": "벵신"
      },
      {
        "@id": "365",
        "@name": "벼엉신"
      },
      {
        "@id": "366",
        "@name": "병1쉰"
      },
      {
        "@id": "367",
        "@name": "병1신"
      },
      {
        "@id": "368",
        "@name": "병2신"
      },
      {
        "@id": "369",
        "@name": "병sin"
      },
      {
        "@id": "370",
        "@name": "병쉬나"
      },
      {
        "@id": "371",
        "@name": "병쉰"
      },
      {
        "@id": "372",
        "@name": "병쉿아"
      },
      {
        "@id": "373",
        "@name": "병싄"
      },
      {
        "@id": "374",
        "@name": "병시나"
      },
      {
        "@id": "375",
        "@name": "병신새끼"
      },
      {
        "@id": "376",
        "@name": "병쒼이"
      },
      {
        "@id": "377",
        "@name": "병씐"
      },
      {
        "@id": "378",
        "@name": "병씬"
      },
      {
        "@id": "379",
        "@name": "보1쥐"
      },
      {
        "@id": "380",
        "@name": "보1지"
      },
      {
        "@id": "381",
        "@name": "보g"
      },
      {
        "@id": "382",
        "@name": "보zl"
      },
      {
        "@id": "383",
        "@name": "보구녕"
      },
      {
        "@id": "384",
        "@name": "보오지"
      },
      {
        "@id": "385",
        "@name": "보쥐"
      },
      {
        "@id": "386",
        "@name": "보쥣"
      },
      {
        "@id": "387",
        "@name": "보지"
      },
      {
        "@id": "388",
        "@name": "보짓물"
      },
      {
        "@id": "389",
        "@name": "보짖"
      },
      {
        "@id": "390",
        "@name": "뵤옹쉰"
      },
      {
        "@id": "391",
        "@name": "뵤옹신"
      },
      {
        "@id": "392",
        "@name": "뵤쥐"
      },
      {
        "@id": "393",
        "@name": "뵤쥣"
      },
      {
        "@id": "394",
        "@name": "뵤쥣구녕"
      },
      {
        "@id": "395",
        "@name": "뵤지털"
      },
      {
        "@id": "396",
        "@name": "뵹싄"
      },
      {
        "@id": "397",
        "@name": "뵹신"
      },
      {
        "@id": "398",
        "@name": "부랄"
      },
      {
        "@id": "399",
        "@name": "뷩쉰"
      },
      {
        "@id": "400",
        "@name": "뷩시"
      },
      {
        "@id": "401",
        "@name": "뷩신"
      },
      {
        "@id": "402",
        "@name": "뷰웅신"
      },
      {
        "@id": "403",
        "@name": "뷰융신"
      },
      {
        "@id": "404",
        "@name": "븅1시나"
      },
      {
        "@id": "405",
        "@name": "븅1신"
      },
      {
        "@id": "406",
        "@name": "븅년아"
      },
      {
        "@id": "407",
        "@name": "븅쉰"
      },
      {
        "@id": "408",
        "@name": "븅쉰아"
      },
      {
        "@id": "409",
        "@name": "븅싄"
      },
      {
        "@id": "410",
        "@name": "븅시나"
      },
      {
        "@id": "411",
        "@name": "븅시넷끼"
      },
      {
        "@id": "412",
        "@name": "븅신"
      },
      {
        "@id": "413",
        "@name": "븽신"
      },
      {
        "@id": "414",
        "@name": "비융신"
      },
      {
        "@id": "415",
        "@name": "비잉신"
      },
      {
        "@id": "416",
        "@name": "빙1신"
      },
      {
        "@id": "417",
        "@name": "빙쉰"
      },
      {
        "@id": "418",
        "@name": "빠1구1리"
      },
      {
        "@id": "419",
        "@name": "빠9리"
      },
      {
        "@id": "420",
        "@name": "빠수니"
      },
      {
        "@id": "421",
        "@name": "빠순이"
      },
      {
        "@id": "422",
        "@name": "빠돌이"
      },
      {
        "@id": "423",
        "@name": "빠큐"
      },
      {
        "@id": "424",
        "@name": "빨통"
      },
      {
        "@id": "425",
        "@name": "뻐큐"
      },
      {
        "@id": "426",
        "@name": "뻑큐"
      },
      {
        "@id": "427",
        "@name": "삽뇬아"
      },
      {
        "@id": "428",
        "@name": "삽질할년"
      },
      {
        "@id": "429",
        "@name": "상년"
      },
      {
        "@id": "430",
        "@name": "새꺄"
      },
      {
        "@id": "431",
        "@name": "새뀌"
      },
      {
        "@id": "432",
        "@name": "새끠"
      },
      {
        "@id": "433",
        "@name": "새끼"
      },
      {
        "@id": "434",
        "@name": "새뤼"
      },
      {
        "@id": "435",
        "@name": "새캬"
      },
      {
        "@id": "436",
        "@name": "새키"
      },
      {
        "@id": "437",
        "@name": "색갸"
      },
      {
        "@id": "438",
        "@name": "색귀"
      },
      {
        "@id": "439",
        "@name": "색꺄"
      },
      {
        "@id": "440",
        "@name": "색끼"
      },
      {
        "@id": "441",
        "@name": "색스"
      },
      {
        "@id": "442",
        "@name": "색휘"
      },
      {
        "@id": "443",
        "@name": "색히"
      },
      {
        "@id": "444",
        "@name": "샤발놈아"
      },
      {
        "@id": "445",
        "@name": "샵새기"
      },
      {
        "@id": "446",
        "@name": "샹1년아"
      },
      {
        "@id": "447",
        "@name": "샹넘"
      },
      {
        "@id": "448",
        "@name": "샹녀나"
      },
      {
        "@id": "449",
        "@name": "샹년"
      },
      {
        "@id": "450",
        "@name": "샹노메새뀌"
      },
      {
        "@id": "451",
        "@name": "샹놈"
      },
      {
        "@id": "452",
        "@name": "샹뇬"
      },
      {
        "@id": "453",
        "@name": "샹늠"
      },
      {
        "@id": "454",
        "@name": "샹련"
      },
      {
        "@id": "455",
        "@name": "샹알년아"
      },
      {
        "@id": "456",
        "@name": "샹팔년"
      },
      {
        "@id": "457",
        "@name": "섀끼"
      },
      {
        "@id": "458",
        "@name": "섀캬"
      },
      {
        "@id": "459",
        "@name": "석l스"
      },
      {
        "@id": "460",
        "@name": "세꺄"
      },
      {
        "@id": "461",
        "@name": "세끠"
      },
      {
        "@id": "462",
        "@name": "세끼"
      },
      {
        "@id": "463",
        "@name": "세엑수"
      },
      {
        "@id": "464",
        "@name": "세엑스"
      },
      {
        "@id": "465",
        "@name": "세캬"
      },
      {
        "@id": "466",
        "@name": "섹1스"
      },
      {
        "@id": "467",
        "@name": "섹l스"
      },
      {
        "@id": "468",
        "@name": "섹s"
      },
      {
        "@id": "469",
        "@name": "섹수"
      },
      {
        "@id": "470",
        "@name": "섹쑤"
      },
      {
        "@id": "471",
        "@name": "셥새"
      },
      {
        "@id": "472",
        "@name": "쇄끼"
      },
      {
        "@id": "473",
        "@name": "쇄키"
      },
      {
        "@id": "474",
        "@name": "쇅끼"
      },
      {
        "@id": "475",
        "@name": "술집년"
      },
      {
        "@id": "476",
        "@name": "쉐끼"
      },
      {
        "@id": "477",
        "@name": "쉐발넘"
      },
      {
        "@id": "478",
        "@name": "쉑스"
      },
      {
        "@id": "479",
        "@name": "쉑쓰"
      },
      {
        "@id": "480",
        "@name": "쉑히"
      },
      {
        "@id": "481",
        "@name": "쉬1발1년들"
      },
      {
        "@id": "482",
        "@name": "쉬1발년"
      },
      {
        "@id": "483",
        "@name": "쉬1발럼아"
      },
      {
        "@id": "484",
        "@name": "쉬1팔럼"
      },
      {
        "@id": "485",
        "@name": "쉬8놈"
      },
      {
        "@id": "486",
        "@name": "쉬븅새"
      },
      {
        "@id": "487",
        "@name": "쉬빨"
      },
      {
        "@id": "488",
        "@name": "쉬이바"
      },
      {
        "@id": "489",
        "@name": "쉬이발"
      },
      {
        "@id": "490",
        "@name": "쉬이방"
      },
      {
        "@id": "491",
        "@name": "쉬이밸"
      },
      {
        "@id": "492",
        "@name": "쉬이벌"
      },
      {
        "@id": "493",
        "@name": "쉬이부"
      },
      {
        "@id": "494",
        "@name": "쉬이불"
      },
      {
        "@id": "495",
        "@name": "쉬이붕"
      },
      {
        "@id": "496",
        "@name": "쉬이빡"
      },
      {
        "@id": "497",
        "@name": "쉬이팔"
      },
      {
        "@id": "498",
        "@name": "쉬이펄"
      },
      {
        "@id": "499",
        "@name": "쉬이풀"
      },
      {
        "@id": "500",
        "@name": "쉬키"
      },
      {
        "@id": "501",
        "@name": "쉬팍"
      },
      {
        "@id": "502",
        "@name": "쉬팝세기"
      },
      {
        "@id": "503",
        "@name": "쉽녀나"
      },
      {
        "@id": "504",
        "@name": "쉽년"
      },
      {
        "@id": "505",
        "@name": "쉽뇬"
      },
      {
        "@id": "506",
        "@name": "쉽발럼"
      },
      {
        "@id": "507",
        "@name": "쉽발련"
      },
      {
        "@id": "508",
        "@name": "쉽새"
      },
      {
        "@id": "509",
        "@name": "쉽샛키"
      },
      {
        "@id": "510",
        "@name": "쉽쉐꺄"
      },
      {
        "@id": "511",
        "@name": "쉽쎄꺄"
      },
      {
        "@id": "512",
        "@name": "쉽쎄끼"
      },
      {
        "@id": "513",
        "@name": "쉽알놈"
      },
      {
        "@id": "514",
        "@name": "쉽앨년아"
      },
      {
        "@id": "515",
        "@name": "쉽잘년"
      },
      {
        "@id": "516",
        "@name": "쉽창"
      },
      {
        "@id": "517",
        "@name": "쉽촹년아"
      },
      {
        "@id": "518",
        "@name": "쉽팔"
      },
      {
        "@id": "519",
        "@name": "쉽할아"
      },
      {
        "@id": "520",
        "@name": "쉿팔년"
      },
      {
        "@id": "521",
        "@name": "쉿팔련"
      },
      {
        "@id": "522",
        "@name": "슈발놈"
      },
      {
        "@id": "523",
        "@name": "스l벌년"
      },
      {
        "@id": "524",
        "@name": "스l팔"
      },
      {
        "@id": "525",
        "@name": "스벙녀"
      },
      {
        "@id": "526",
        "@name": "싀발"
      },
      {
        "@id": "527",
        "@name": "싀방"
      },
      {
        "@id": "528",
        "@name": "싀봉"
      },
      {
        "@id": "529",
        "@name": "싀팔"
      },
      {
        "@id": "530",
        "@name": "시1바1년1"
      },
      {
        "@id": "531",
        "@name": "시1바년"
      },
      {
        "@id": "532",
        "@name": "시1바련이"
      },
      {
        "@id": "533",
        "@name": "시1발"
      },
      {
        "@id": "534",
        "@name": "시1발냔"
      },
      {
        "@id": "535",
        "@name": "시1발럼"
      },
      {
        "@id": "536",
        "@name": "시1봉새"
      },
      {
        "@id": "537",
        "@name": "시1불년"
      },
      {
        "@id": "538",
        "@name": "시1팔"
      },
      {
        "@id": "539",
        "@name": "시8놈"
      },
      {
        "@id": "540",
        "@name": "시달논아"
      },
      {
        "@id": "541",
        "@name": "시바년"
      },
      {
        "@id": "542",
        "@name": "시바라"
      },
      {
        "@id": "543",
        "@name": "시바려나"
      },
      {
        "@id": "544",
        "@name": "시바새갸"
      },
      {
        "@id": "545",
        "@name": "시발"
      },
      {
        "@id": "546",
        "@name": "시밝"
      },
      {
        "@id": "547",
        "@name": "시밝련"
      },
      {
        "@id": "548",
        "@name": "시밞"
      },
      {
        "@id": "549",
        "@name": "시밟"
      },
      {
        "@id": "550",
        "@name": "시밟년"
      },
      {
        "@id": "551",
        "@name": "시밟련"
      },
      {
        "@id": "552",
        "@name": "시밤바년"
      },
      {
        "@id": "553",
        "@name": "시방쉐"
      },
      {
        "@id": "554",
        "@name": "시버년아"
      },
      {
        "@id": "555",
        "@name": "시벨"
      },
      {
        "@id": "556",
        "@name": "시벵"
      },
      {
        "@id": "557",
        "@name": "시보라지년"
      },
      {
        "@id": "558",
        "@name": "시봐넘아"
      },
      {
        "@id": "559",
        "@name": "시봐뇬"
      },
      {
        "@id": "560",
        "@name": "시불년"
      },
      {
        "@id": "561",
        "@name": "시불련"
      },
      {
        "@id": "562",
        "@name": "시브랄넘"
      },
      {
        "@id": "563",
        "@name": "시블넘"
      },
      {
        "@id": "564",
        "@name": "시빨년"
      },
      {
        "@id": "565",
        "@name": "시빨로마"
      },
      {
        "@id": "566",
        "@name": "시뻘놈아"
      },
      {
        "@id": "567",
        "@name": "시이바"
      },
      {
        "@id": "568",
        "@name": "시이발"
      },
      {
        "@id": "569",
        "@name": "시이방"
      },
      {
        "@id": "570",
        "@name": "시이밸"
      },
      {
        "@id": "571",
        "@name": "시이벌"
      },
      {
        "@id": "572",
        "@name": "시이부"
      },
      {
        "@id": "573",
        "@name": "시이불"
      },
      {
        "@id": "574",
        "@name": "시이붕"
      },
      {
        "@id": "575",
        "@name": "시이빡"
      },
      {
        "@id": "576",
        "@name": "시이팔"
      },
      {
        "@id": "577",
        "@name": "시이펄"
      },
      {
        "@id": "578",
        "@name": "시이풀"
      },
      {
        "@id": "579",
        "@name": "시잘년아"
      },
      {
        "@id": "580",
        "@name": "시팔"
      },
      {
        "@id": "581",
        "@name": "시팖년"
      },
      {
        "@id": "582",
        "@name": "시팡새"
      },
      {
        "@id": "583",
        "@name": "시펄"
      },
      {
        "@id": "584",
        "@name": "시펠년"
      },
      {
        "@id": "585",
        "@name": "시퐈"
      },
      {
        "@id": "586",
        "@name": "식키"
      },
      {
        "@id": "587",
        "@name": "싣팔"
      },
      {
        "@id": "588",
        "@name": "싫발"
      },
      {
        "@id": "589",
        "@name": "싫타십챵려나"
      },
      {
        "@id": "590",
        "@name": "십1새"
      },
      {
        "@id": "591",
        "@name": "십1세"
      },
      {
        "@id": "592",
        "@name": "십년들"
      },
      {
        "@id": "593",
        "@name": "십년아"
      },
      {
        "@id": "594",
        "@name": "십때꺄"
      },
      {
        "@id": "595",
        "@name": "십때끼"
      },
      {
        "@id": "596",
        "@name": "십방뇬"
      },
      {
        "@id": "597",
        "@name": "십새"
      },
      {
        "@id": "598",
        "@name": "십새꺄"
      },
      {
        "@id": "599",
        "@name": "십색꺄"
      },
      {
        "@id": "600",
        "@name": "십색끼"
      },
      {
        "@id": "601",
        "@name": "십색이"
      },
      {
        "@id": "602",
        "@name": "십색히"
      },
      {
        "@id": "603",
        "@name": "십샹"
      },
      {
        "@id": "604",
        "@name": "십샹뇬아"
      },
      {
        "@id": "605",
        "@name": "십세야"
      },
      {
        "@id": "606",
        "@name": "십섹갸"
      },
      {
        "@id": "607",
        "@name": "십셰끼"
      },
      {
        "@id": "608",
        "@name": "십셰캬"
      },
      {
        "@id": "609",
        "@name": "십셰키"
      },
      {
        "@id": "610",
        "@name": "십쇄"
      },
      {
        "@id": "611",
        "@name": "십쉐"
      },
      {
        "@id": "612",
        "@name": "십쉐리"
      },
      {
        "@id": "613",
        "@name": "십쉐이"
      },
      {
        "@id": "614",
        "@name": "십쉑"
      },
      {
        "@id": "615",
        "@name": "십쉑히"
      },
      {
        "@id": "616",
        "@name": "십쌔"
      },
      {
        "@id": "617",
        "@name": "십쌔꺄"
      },
      {
        "@id": "618",
        "@name": "십쎄끼"
      },
      {
        "@id": "619",
        "@name": "십알"
      },
      {
        "@id": "620",
        "@name": "십짱세"
      },
      {
        "@id": "621",
        "@name": "십창"
      },
      {
        "@id": "622",
        "@name": "십창놈아"
      },
      {
        "@id": "623",
        "@name": "십탱"
      },
      {
        "@id": "624",
        "@name": "십팔"
      },
      {
        "@id": "625",
        "@name": "십팔년"
      },
      {
        "@id": "626",
        "@name": "십팔년놈"
      },
      {
        "@id": "627",
        "@name": "십할"
      },
      {
        "@id": "628",
        "@name": "싯발련"
      },
      {
        "@id": "629",
        "@name": "싯파"
      },
      {
        "@id": "630",
        "@name": "싯팔"
      },
      {
        "@id": "631",
        "@name": "싯팽"
      },
      {
        "@id": "632",
        "@name": "싶랄년"
      },
      {
        "@id": "633",
        "@name": "싶알련"
      },
      {
        "@id": "634",
        "@name": "싶창"
      },
      {
        "@id": "635",
        "@name": "싶팍"
      },
      {
        "@id": "636",
        "@name": "싶팔"
      },
      {
        "@id": "637",
        "@name": "싶팔려나"
      },
      {
        "@id": "638",
        "@name": "싶할"
      },
      {
        "@id": "639",
        "@name": "싸가지"
      },
      {
        "@id": "640",
        "@name": "싹아지"
      },
      {
        "@id": "641",
        "@name": "싹쳐씨새"
      },
      {
        "@id": "642",
        "@name": "쌍넌"
      },
      {
        "@id": "643",
        "@name": "쌍념아"
      },
      {
        "@id": "644",
        "@name": "쌍노무시끼"
      },
      {
        "@id": "645",
        "@name": "쌍련"
      },
      {
        "@id": "646",
        "@name": "쌍료나"
      },
      {
        "@id": "647",
        "@name": "쌔꺄"
      },
      {
        "@id": "648",
        "@name": "쌔끼"
      },
      {
        "@id": "649",
        "@name": "쌕쑤"
      },
      {
        "@id": "650",
        "@name": "쌕창"
      },
      {
        "@id": "651",
        "@name": "썅"
      },
      {
        "@id": "652",
        "@name": "썅넌"
      },
      {
        "@id": "653",
        "@name": "썩내년"
      },
      {
        "@id": "654",
        "@name": "썰어벌릴년"
      },
      {
        "@id": "655",
        "@name": "쐽섹갸"
      },
      {
        "@id": "656",
        "@name": "쑤1발넘시끼"
      },
      {
        "@id": "657",
        "@name": "쑤l팔년아"
      },
      {
        "@id": "658",
        "@name": "쑤발년"
      },
      {
        "@id": "659",
        "@name": "쑵년아"
      },
      {
        "@id": "660",
        "@name": "쑵뽈색뀌"
      },
      {
        "@id": "661",
        "@name": "쒜끼"
      },
      {
        "@id": "662",
        "@name": "쒜발년"
      },
      {
        "@id": "663",
        "@name": "쒸1발"
      },
      {
        "@id": "664",
        "@name": "쒸1발놈아"
      },
      {
        "@id": "665",
        "@name": "쒸1팔년"
      },
      {
        "@id": "666",
        "@name": "쒸댕"
      },
      {
        "@id": "667",
        "@name": "쒸바"
      },
      {
        "@id": "668",
        "@name": "쒸박"
      },
      {
        "@id": "669",
        "@name": "쒸발"
      },
      {
        "@id": "670",
        "@name": "쒸밝"
      },
      {
        "@id": "671",
        "@name": "쒸밞"
      },
      {
        "@id": "672",
        "@name": "쒸밟"
      },
      {
        "@id": "673",
        "@name": "쒸방"
      },
      {
        "@id": "674",
        "@name": "쒸밸"
      },
      {
        "@id": "675",
        "@name": "쒸뱅"
      },
      {
        "@id": "676",
        "@name": "쒸벌"
      },
      {
        "@id": "677",
        "@name": "쒸벡"
      },
      {
        "@id": "678",
        "@name": "쒸부"
      },
      {
        "@id": "679",
        "@name": "쒸불"
      },
      {
        "@id": "680",
        "@name": "쒸불탱"
      },
      {
        "@id": "681",
        "@name": "쒸붕"
      },
      {
        "@id": "682",
        "@name": "쒸붤"
      },
      {
        "@id": "683",
        "@name": "쒸빡"
      },
      {
        "@id": "684",
        "@name": "쒸이바"
      },
      {
        "@id": "685",
        "@name": "쒸이발"
      },
      {
        "@id": "686",
        "@name": "쒸이방"
      },
      {
        "@id": "687",
        "@name": "쒸이밸"
      },
      {
        "@id": "688",
        "@name": "쒸이벌"
      },
      {
        "@id": "689",
        "@name": "쒸이부"
      },
      {
        "@id": "690",
        "@name": "쒸이불"
      },
      {
        "@id": "691",
        "@name": "쒸이붕"
      },
      {
        "@id": "692",
        "@name": "쒸이빡"
      },
      {
        "@id": "693",
        "@name": "쒸이팔"
      },
      {
        "@id": "694",
        "@name": "쒸이펄"
      },
      {
        "@id": "695",
        "@name": "쒸이풀"
      },
      {
        "@id": "696",
        "@name": "쒸파"
      },
      {
        "@id": "697",
        "@name": "쒸팍"
      },
      {
        "@id": "698",
        "@name": "쒸팔"
      },
      {
        "@id": "699",
        "@name": "쒸펄"
      },
      {
        "@id": "700",
        "@name": "쒸풀"
      },
      {
        "@id": "701",
        "@name": "쓉창"
      },
      {
        "@id": "702",
        "@name": "쓰1발"
      },
      {
        "@id": "703",
        "@name": "쓰1벨"
      },
      {
        "@id": "704",
        "@name": "쓰밝"
      },
      {
        "@id": "705",
        "@name": "쓰보라색희"
      },
      {
        "@id": "706",
        "@name": "쓰블넘"
      },
      {
        "@id": "707",
        "@name": "쓰비팔년아"
      },
      {
        "@id": "708",
        "@name": "쓰이바"
      },
      {
        "@id": "709",
        "@name": "쓰이발"
      },
      {
        "@id": "710",
        "@name": "쓰이방"
      },
      {
        "@id": "711",
        "@name": "쓰이밸"
      },
      {
        "@id": "712",
        "@name": "쓰이벌"
      },
      {
        "@id": "713",
        "@name": "쓰이부"
      },
      {
        "@id": "714",
        "@name": "쓰이불"
      },
      {
        "@id": "715",
        "@name": "쓰이붕"
      },
      {
        "@id": "716",
        "@name": "쓰이빡"
      },
      {
        "@id": "717",
        "@name": "쓰이팔"
      },
      {
        "@id": "718",
        "@name": "쓰이펄"
      },
      {
        "@id": "719",
        "@name": "쓰이풀"
      },
      {
        "@id": "720",
        "@name": "쓰팍"
      },
      {
        "@id": "721",
        "@name": "씌1발"
      },
      {
        "@id": "722",
        "@name": "씌1팔"
      },
      {
        "@id": "723",
        "@name": "씌8"
      },
      {
        "@id": "724",
        "@name": "씌댕"
      },
      {
        "@id": "725",
        "@name": "씌뎅"
      },
      {
        "@id": "726",
        "@name": "씌바"
      },
      {
        "@id": "727",
        "@name": "씌발"
      },
      {
        "@id": "728",
        "@name": "씌밝"
      },
      {
        "@id": "729",
        "@name": "씌방"
      },
      {
        "@id": "730",
        "@name": "씌밸"
      },
      {
        "@id": "731",
        "@name": "씌밸럼"
      },
      {
        "@id": "732",
        "@name": "씌뱅"
      },
      {
        "@id": "733",
        "@name": "씌뱅아"
      },
      {
        "@id": "734",
        "@name": "씌뱌"
      },
      {
        "@id": "735",
        "@name": "씌벌"
      },
      {
        "@id": "736",
        "@name": "씌벨"
      },
      {
        "@id": "737",
        "@name": "씌벵"
      },
      {
        "@id": "738",
        "@name": "씌보라년"
      },
      {
        "@id": "739",
        "@name": "씌보랄년아"
      },
      {
        "@id": "740",
        "@name": "씌보로지"
      },
      {
        "@id": "741",
        "@name": "씌볼"
      },
      {
        "@id": "742",
        "@name": "씌봉뇬"
      },
      {
        "@id": "743",
        "@name": "씌부롤년"
      },
      {
        "@id": "744",
        "@name": "씌불"
      },
      {
        "@id": "745",
        "@name": "씌불랑"
      },
      {
        "@id": "746",
        "@name": "씌붕"
      },
      {
        "@id": "747",
        "@name": "씌붤럼"
      },
      {
        "@id": "748",
        "@name": "씌블놈"
      },
      {
        "@id": "749",
        "@name": "씌빌넘"
      },
      {
        "@id": "750",
        "@name": "씌빌놈"
      },
      {
        "@id": "751",
        "@name": "씌빨"
      },
      {
        "@id": "752",
        "@name": "씌빵년아"
      },
      {
        "@id": "753",
        "@name": "씌뻘"
      },
      {
        "@id": "754",
        "@name": "씌알뇬"
      },
      {
        "@id": "755",
        "@name": "씌파"
      },
      {
        "@id": "756",
        "@name": "씌팍"
      },
      {
        "@id": "757",
        "@name": "씌팍넘"
      },
      {
        "@id": "758",
        "@name": "씌팔"
      },
      {
        "@id": "759",
        "@name": "씌퍅아"
      },
      {
        "@id": "760",
        "@name": "씌펄"
      },
      {
        "@id": "761",
        "@name": "씌펠놈"
      },
      {
        "@id": "762",
        "@name": "씌폴련"
      },
      {
        "@id": "763",
        "@name": "씝년"
      },
      {
        "@id": "764",
        "@name": "씝탱"
      },
      {
        "@id": "765",
        "@name": "씝할"
      },
      {
        "@id": "766",
        "@name": "씨1바녀"
      },
      {
        "@id": "767",
        "@name": "씨1발"
      },
      {
        "@id": "768",
        "@name": "씨1발련"
      },
      {
        "@id": "769",
        "@name": "씨1발련아"
      },
      {
        "@id": "770",
        "@name": "씨1방새"
      },
      {
        "@id": "771",
        "@name": "씨1뱅아"
      },
      {
        "@id": "772",
        "@name": "씨1벌"
      },
      {
        "@id": "773",
        "@name": "씨1벌년"
      },
      {
        "@id": "774",
        "@name": "씨1벨련"
      },
      {
        "@id": "775",
        "@name": "씨1벵년아"
      },
      {
        "@id": "776",
        "@name": "씨1빨"
      },
      {
        "@id": "777",
        "@name": "씨1팔"
      },
      {
        "@id": "778",
        "@name": "씨21발아"
      },
      {
        "@id": "779",
        "@name": "씨2발"
      },
      {
        "@id": "780",
        "@name": "씨3발"
      },
      {
        "@id": "781",
        "@name": "씨댕"
      },
      {
        "@id": "782",
        "@name": "씨댕뇬"
      },
      {
        "@id": "783",
        "@name": "씨뎅"
      },
      {
        "@id": "784",
        "@name": "씨말놈"
      },
      {
        "@id": "785",
        "@name": "씨바"
      },
      {
        "@id": "786",
        "@name": "씨바새"
      },
      {
        "@id": "787",
        "@name": "씨발새꺄"
      },
      {
        "@id": "788",
        "@name": "씨밝"
      },
      {
        "@id": "789",
        "@name": "씨밞"
      },
      {
        "@id": "790",
        "@name": "씨밟련"
      },
      {
        "@id": "791",
        "@name": "씨밤바"
      },
      {
        "@id": "792",
        "@name": "씨방새"
      },
      {
        "@id": "793",
        "@name": "씨방세"
      },
      {
        "@id": "794",
        "@name": "씨방쉐"
      },
      {
        "@id": "795",
        "@name": "씨밸"
      },
      {
        "@id": "796",
        "@name": "씨뱅"
      },
      {
        "@id": "797",
        "@name": "씨뱅년"
      },
      {
        "@id": "798",
        "@name": "씨벨"
      },
      {
        "@id": "799",
        "@name": "씨벵"
      },
      {
        "@id": "800",
        "@name": "씨부"
      },
      {
        "@id": "801",
        "@name": "씨불"
      },
      {
        "@id": "802",
        "@name": "씨불탱"
      },
      {
        "@id": "803",
        "@name": "씨붕"
      },
      {
        "@id": "804",
        "@name": "씨붤"
      },
      {
        "@id": "805",
        "@name": "씨브랄"
      },
      {
        "@id": "806",
        "@name": "씨빠"
      },
      {
        "@id": "807",
        "@name": "씨빠년"
      },
      {
        "@id": "808",
        "@name": "씨빡"
      },
      {
        "@id": "809",
        "@name": "씨빨"
      },
      {
        "@id": "810",
        "@name": "씨빨년"
      },
      {
        "@id": "811",
        "@name": "씨빨조깥다"
      },
      {
        "@id": "812",
        "@name": "씨뻘년"
      },
      {
        "@id": "813",
        "@name": "씨뿌랄"
      },
      {
        "@id": "814",
        "@name": "씨쁘랄아"
      },
      {
        "@id": "815",
        "@name": "씨앙년"
      },
      {
        "@id": "816",
        "@name": "씨앙뇬"
      },
      {
        "@id": "817",
        "@name": "씨이바"
      },
      {
        "@id": "818",
        "@name": "씨이발"
      },
      {
        "@id": "819",
        "@name": "씨이방"
      },
      {
        "@id": "820",
        "@name": "씨이밸"
      },
      {
        "@id": "821",
        "@name": "씨이벌"
      },
      {
        "@id": "822",
        "@name": "씨이부"
      },
      {
        "@id": "823",
        "@name": "씨이불"
      },
      {
        "@id": "824",
        "@name": "씨이붕"
      },
      {
        "@id": "825",
        "@name": "씨이빡"
      },
      {
        "@id": "826",
        "@name": "씨이이발"
      },
      {
        "@id": "827",
        "@name": "씨이팔"
      },
      {
        "@id": "828",
        "@name": "씨이펄"
      },
      {
        "@id": "829",
        "@name": "씨이풀"
      },
      {
        "@id": "830",
        "@name": "씨입년"
      },
      {
        "@id": "831",
        "@name": "씨입뇬"
      },
      {
        "@id": "832",
        "@name": "씨입새"
      },
      {
        "@id": "833",
        "@name": "씨키"
      },
      {
        "@id": "834",
        "@name": "씨파"
      },
      {
        "@id": "835",
        "@name": "씨팍"
      },
      {
        "@id": "836",
        "@name": "씨팡"
      },
      {
        "@id": "837",
        "@name": "씨펄"
      },
      {
        "@id": "838",
        "@name": "씨퐈"
      },
      {
        "@id": "839",
        "@name": "씨풀"
      },
      {
        "@id": "840",
        "@name": "씨퓔년"
      },
      {
        "@id": "841",
        "@name": "씰발넘"
      },
      {
        "@id": "842",
        "@name": "씸새"
      },
      {
        "@id": "843",
        "@name": "씹1년"
      },
      {
        "@id": "844",
        "@name": "씹1새"
      },
      {
        "@id": "845",
        "@name": "씹1새끼"
      },
      {
        "@id": "846",
        "@name": "씹1세"
      },
      {
        "@id": "847",
        "@name": "씹1창"
      },
      {
        "@id": "848",
        "@name": "씹8"
      },
      {
        "@id": "849",
        "@name": "씹개뿔"
      },
      {
        "@id": "850",
        "@name": "씹녀낭"
      },
      {
        "@id": "851",
        "@name": "씹놈"
      },
      {
        "@id": "852",
        "@name": "씹달구야"
      },
      {
        "@id": "853",
        "@name": "씹때꺄"
      },
      {
        "@id": "854",
        "@name": "씹때끼"
      },
      {
        "@id": "855",
        "@name": "씹땡"
      },
      {
        "@id": "856",
        "@name": "씹라년아"
      },
      {
        "@id": "857",
        "@name": "씹란년"
      },
      {
        "@id": "858",
        "@name": "씹물"
      },
      {
        "@id": "859",
        "@name": "씹발"
      },
      {
        "@id": "860",
        "@name": "씹발놈"
      },
      {
        "@id": "861",
        "@name": "씹벨놈아"
      },
      {
        "@id": "862",
        "@name": "씹빠"
      },
      {
        "@id": "863",
        "@name": "씹빠새꺄"
      },
      {
        "@id": "864",
        "@name": "씹빡"
      },
      {
        "@id": "865",
        "@name": "씹빨"
      },
      {
        "@id": "866",
        "@name": "씹빨놈"
      },
      {
        "@id": "867",
        "@name": "씹살색"
      },
      {
        "@id": "868",
        "@name": "씹새"
      },
      {
        "@id": "869",
        "@name": "씹새꺄"
      },
      {
        "@id": "870",
        "@name": "씹새퀴"
      },
      {
        "@id": "871",
        "@name": "씹색꺄"
      },
      {
        "@id": "872",
        "@name": "씹색끼"
      },
      {
        "@id": "873",
        "@name": "씹색캬"
      },
      {
        "@id": "874",
        "@name": "씹색히"
      },
      {
        "@id": "875",
        "@name": "씹샙기"
      },
      {
        "@id": "876",
        "@name": "씹샹"
      },
      {
        "@id": "877",
        "@name": "씹샹련아"
      },
      {
        "@id": "878",
        "@name": "씹샹아"
      },
      {
        "@id": "879",
        "@name": "씹세"
      },
      {
        "@id": "880",
        "@name": "씹섹갸"
      },
      {
        "@id": "881",
        "@name": "씹섹기"
      },
      {
        "@id": "882",
        "@name": "씹쉐"
      },
      {
        "@id": "883",
        "@name": "씹쉐리"
      },
      {
        "@id": "884",
        "@name": "씹쉐이"
      },
      {
        "@id": "885",
        "@name": "씹쉑"
      },
      {
        "@id": "886",
        "@name": "씹쉑히"
      },
      {
        "@id": "887",
        "@name": "씹쌍"
      },
      {
        "@id": "888",
        "@name": "씹쌔꺄"
      },
      {
        "@id": "889",
        "@name": "씹쌕끼"
      },
      {
        "@id": "890",
        "@name": "씹쎄끼"
      },
      {
        "@id": "891",
        "@name": "씹쎄캬"
      },
      {
        "@id": "892",
        "@name": "씹쒜"
      },
      {
        "@id": "893",
        "@name": "씹짱세"
      },
      {
        "@id": "894",
        "@name": "씹찬년"
      },
      {
        "@id": "895",
        "@name": "씹챵애뮈"
      },
      {
        "@id": "896",
        "@name": "씹탱"
      },
      {
        "@id": "897",
        "@name": "씹팔"
      },
      {
        "@id": "898",
        "@name": "씹팝놈"
      },
      {
        "@id": "899",
        "@name": "씹펄"
      },
      {
        "@id": "900",
        "@name": "씹풀"
      },
      {
        "@id": "901",
        "@name": "씹허렵아"
      },
      {
        "@id": "902",
        "@name": "씹활년아"
      },
      {
        "@id": "903",
        "@name": "씹황새"
      },
      {
        "@id": "904",
        "@name": "씻팔"
      },
      {
        "@id": "905",
        "@name": "씻팔니마"
      },
      {
        "@id": "906",
        "@name": "씻팔련아"
      },
      {
        "@id": "907",
        "@name": "아씨10발려나"
      },
      {
        "@id": "908",
        "@name": "애1미창1녀"
      },
      {
        "@id": "909",
        "@name": "애미"
      },
      {
        "@id": "910",
        "@name": "애쒜꺄"
      },
      {
        "@id": "911",
        "@name": "애자년"
      },
      {
        "@id": "912",
        "@name": "애좌년"
      },
      {
        "@id": "913",
        "@name": "앰병"
      },
      {
        "@id": "914",
        "@name": "앰창"
      },
      {
        "@id": "915",
        "@name": "앰촹색"
      },
      {
        "@id": "916",
        "@name": "에1미1병1신1년"
      },
      {
        "@id": "917",
        "@name": "에이랄색키"
      },
      {
        "@id": "918",
        "@name": "엠병"
      },
      {
        "@id": "919",
        "@name": "엠창"
      },
      {
        "@id": "920",
        "@name": "엠챵섹기"
      },
      {
        "@id": "921",
        "@name": "엠촹아"
      },
      {
        "@id": "922",
        "@name": "염병"
      },
      {
        "@id": "923",
        "@name": "엿까네"
      },
      {
        "@id": "924",
        "@name": "엿먹어"
      },
      {
        "@id": "925",
        "@name": "옘1병"
      },
      {
        "@id": "926",
        "@name": "옘병"
      },
      {
        "@id": "927",
        "@name": "옘븅"
      },
      {
        "@id": "928",
        "@name": "욧나"
      },
      {
        "@id": "929",
        "@name": "유두"
      },
      {
        "@id": "930",
        "@name": "유방"
      },
      {
        "@id": "931",
        "@name": "이싸발년들"
      },
      {
        "@id": "932",
        "@name": "이씨빠라"
      },
      {
        "@id": "933",
        "@name": "자1위"
      },
      {
        "@id": "934",
        "@name": "자1지"
      },
      {
        "@id": "935",
        "@name": "자g"
      },
      {
        "@id": "936",
        "@name": "자x지"
      },
      {
        "@id": "937",
        "@name": "자쥐"
      },
      {
        "@id": "938",
        "@name": "자쥣"
      },
      {
        "@id": "939",
        "@name": "자지"
      },
      {
        "@id": "940",
        "@name": "자짓털"
      },
      {
        "@id": "941",
        "@name": "잠1지"
      },
      {
        "@id": "942",
        "@name": "잠1지년"
      },
      {
        "@id": "943",
        "@name": "잠쥐"
      },
      {
        "@id": "944",
        "@name": "잠지"
      },
      {
        "@id": "945",
        "@name": "잠찌"
      },
      {
        "@id": "946",
        "@name": "잡년"
      },
      {
        "@id": "947",
        "@name": "잡뇬"
      },
      {
        "@id": "948",
        "@name": "쟈1지"
      },
      {
        "@id": "949",
        "@name": "쟈쥐"
      },
      {
        "@id": "950",
        "@name": "쟈지"
      },
      {
        "@id": "951",
        "@name": "쟘쥐"
      },
      {
        "@id": "952",
        "@name": "쟘쥐년"
      },
      {
        "@id": "953",
        "@name": "쟘지"
      },
      {
        "@id": "954",
        "@name": "쟘지털년"
      },
      {
        "@id": "955",
        "@name": "저까"
      },
      {
        "@id": "956",
        "@name": "저까튼"
      },
      {
        "@id": "957",
        "@name": "저빠지게"
      },
      {
        "@id": "958",
        "@name": "저빱"
      },
      {
        "@id": "959",
        "@name": "저시부랠년"
      },
      {
        "@id": "960",
        "@name": "접밥"
      },
      {
        "@id": "961",
        "@name": "젓가튼"
      },
      {
        "@id": "962",
        "@name": "젓같은"
      },
      {
        "@id": "963",
        "@name": "젓까"
      },
      {
        "@id": "964",
        "@name": "젓나"
      },
      {
        "@id": "965",
        "@name": "젓나게"
      },
      {
        "@id": "966",
        "@name": "젓마난"
      },
      {
        "@id": "967",
        "@name": "젓만한"
      },
      {
        "@id": "968",
        "@name": "젓밥"
      },
      {
        "@id": "969",
        "@name": "젓빠지게"
      },
      {
        "@id": "970",
        "@name": "젖가튼"
      },
      {
        "@id": "971",
        "@name": "젖같은"
      },
      {
        "@id": "972",
        "@name": "젖까"
      },
      {
        "@id": "973",
        "@name": "젖나"
      },
      {
        "@id": "974",
        "@name": "젖나게"
      },
      {
        "@id": "975",
        "@name": "젖도"
      },
      {
        "@id": "976",
        "@name": "젖마난"
      },
      {
        "@id": "977",
        "@name": "젖만한"
      },
      {
        "@id": "978",
        "@name": "젖밥"
      },
      {
        "@id": "979",
        "@name": "젖빠지게"
      },
      {
        "@id": "980",
        "@name": "제기랄"
      },
      {
        "@id": "981",
        "@name": "제기럴"
      },
      {
        "@id": "982",
        "@name": "제기롤"
      },
      {
        "@id": "983",
        "@name": "제기룰"
      },
      {
        "@id": "984",
        "@name": "조까"
      },
      {
        "@id": "985",
        "@name": "조까튼"
      },
      {
        "@id": "986",
        "@name": "조낸"
      },
      {
        "@id": "987",
        "@name": "조빠라"
      },
      {
        "@id": "988",
        "@name": "조빠지게"
      },
      {
        "@id": "989",
        "@name": "조빱"
      },
      {
        "@id": "990",
        "@name": "조잡세뀌"
      },
      {
        "@id": "991",
        "@name": "존나"
      },
      {
        "@id": "992",
        "@name": "존니"
      },
      {
        "@id": "993",
        "@name": "존마난"
      },
      {
        "@id": "994",
        "@name": "존만한"
      },
      {
        "@id": "995",
        "@name": "존만한년"
      },
      {
        "@id": "996",
        "@name": "좁밥"
      },
      {
        "@id": "997",
        "@name": "좁빠라"
      },
      {
        "@id": "998",
        "@name": "좃가튼"
      },
      {
        "@id": "999",
        "@name": "좃같은"
      },
      {
        "@id": "1000",
        "@name": "좃까"
      },
      {
        "@id": "1001",
        "@name": "좃나"
      },
      {
        "@id": "1002",
        "@name": "좃나게"
      },
      {
        "@id": "1003",
        "@name": "좃도"
      },
      {
        "@id": "1004",
        "@name": "좃마난"
      },
      {
        "@id": "1005",
        "@name": "좃만한"
      },
      {
        "@id": "1006",
        "@name": "좃밥"
      },
      {
        "@id": "1007",
        "@name": "좃빠지게"
      },
      {
        "@id": "1008",
        "@name": "좆가튼"
      },
      {
        "@id": "1009",
        "@name": "좆같은"
      },
      {
        "@id": "1010",
        "@name": "좆까"
      },
      {
        "@id": "1011",
        "@name": "좆나"
      },
      {
        "@id": "1012",
        "@name": "좆나게"
      },
      {
        "@id": "1013",
        "@name": "좆도"
      },
      {
        "@id": "1014",
        "@name": "좆마난"
      },
      {
        "@id": "1015",
        "@name": "좆만한"
      },
      {
        "@id": "1016",
        "@name": "좆밥"
      },
      {
        "@id": "1017",
        "@name": "좆빠지게"
      },
      {
        "@id": "1018",
        "@name": "좇나"
      },
      {
        "@id": "1019",
        "@name": "좌지"
      },
      {
        "@id": "1020",
        "@name": "죠까"
      },
      {
        "@id": "1021",
        "@name": "죠또"
      },
      {
        "@id": "1022",
        "@name": "죠빠"
      },
      {
        "@id": "1023",
        "@name": "죡구멍"
      },
      {
        "@id": "1024",
        "@name": "죡쳐"
      },
      {
        "@id": "1025",
        "@name": "죤나"
      },
      {
        "@id": "1026",
        "@name": "죤년"
      },
      {
        "@id": "1027",
        "@name": "죤니"
      },
      {
        "@id": "1028",
        "@name": "죤지년아"
      },
      {
        "@id": "1029",
        "@name": "죨라"
      },
      {
        "@id": "1030",
        "@name": "죳나"
      },
      {
        "@id": "1031",
        "@name": "죵나"
      },
      {
        "@id": "1032",
        "@name": "죶가튼"
      },
      {
        "@id": "1033",
        "@name": "죶같은"
      },
      {
        "@id": "1034",
        "@name": "죶나"
      },
      {
        "@id": "1035",
        "@name": "죶니"
      },
      {
        "@id": "1036",
        "@name": "죶마난"
      },
      {
        "@id": "1037",
        "@name": "죶빠지게"
      },
      {
        "@id": "1038",
        "@name": "줴랄"
      },
      {
        "@id": "1039",
        "@name": "쥐겨버릴년"
      },
      {
        "@id": "1040",
        "@name": "쥐랄"
      },
      {
        "@id": "1041",
        "@name": "쥐랠"
      },
      {
        "@id": "1042",
        "@name": "쥐럴"
      },
      {
        "@id": "1043",
        "@name": "쥐롤"
      },
      {
        "@id": "1044",
        "@name": "즈l랄"
      },
      {
        "@id": "1045",
        "@name": "즤랄"
      },
      {
        "@id": "1046",
        "@name": "지1랄"
      },
      {
        "@id": "1047",
        "@name": "지럴"
      },
      {
        "@id": "1048",
        "@name": "지롤"
      },
      {
        "@id": "1049",
        "@name": "질구녕"
      },
      {
        "@id": "1050",
        "@name": "질구멍"
      },
      {
        "@id": "1051",
        "@name": "질찢은년"
      },
      {
        "@id": "1052",
        "@name": "집어쳐"
      },
      {
        "@id": "1053",
        "@name": "짜쥐털"
      },
      {
        "@id": "1054",
        "@name": "짬쥐"
      },
      {
        "@id": "1055",
        "@name": "짬지"
      },
      {
        "@id": "1056",
        "@name": "짬찌"
      },
      {
        "@id": "1057",
        "@name": "쫓까"
      },
      {
        "@id": "1058",
        "@name": "찌랄"
      },
      {
        "@id": "1059",
        "@name": "찐따"
      },
      {
        "@id": "1060",
        "@name": "차앙년"
      },
      {
        "@id": "1061",
        "@name": "창11년"
      },
      {
        "@id": "1062",
        "@name": "창1녀"
      },
      {
        "@id": "1063",
        "@name": "창1년"
      },
      {
        "@id": "1064",
        "@name": "창x년아"
      },
      {
        "@id": "1065",
        "@name": "창뇬아"
      },
      {
        "@id": "1066",
        "@name": "창늬언"
      },
      {
        "@id": "1067",
        "@name": "촹녀"
      },
      {
        "@id": "1068",
        "@name": "촹년아"
      },
      {
        "@id": "1069",
        "@name": "컴섹"
      },
      {
        "@id": "1070",
        "@name": "콘돔"
      },
      {
        "@id": "1071",
        "@name": "호1로새1끼"
      },
      {
        "@id": "1072",
        "@name": "호구년"
      },
      {
        "@id": "1073",
        "@name": "호구녕"
      },
      {
        "@id": "1074",
        "@name": "호구딸래미년"
      },
      {
        "@id": "1075",
        "@name": "호러쇄꺄"
      },
      {
        "@id": "1076",
        "@name": "호려뇬"
      },
      {
        "@id": "1077",
        "@name": "호로자슥"
      },
      {
        "@id": "1078",
        "@name": "호로자식"
      },
      {
        "@id": "1079",
        "@name": "호르빤스"
      },
      {
        "@id": "1080",
        "@name": "후1래1발놈아"
      },
      {
        "@id": "1081",
        "@name": "후1랴질련"
      },
      {
        "@id": "1082",
        "@name": "후래쟈쥐녀나"
      },
      {
        "@id": "1083",
        "@name": "후랴들년아"
      },
      {
        "@id": "1084",
        "@name": "후레발년아"
      },
      {
        "@id": "1085",
        "@name": "후레자슥"
      },
      {
        "@id": "1086",
        "@name": "후레자식"
      },
      {
        "@id": "1087",
        "@name": "후려빠진년아"
      },
      {
        "@id": "1088",
        "@name": "후밸뇬아"
      },
      {
        "@id": "1089",
        "@name": "후쟝년"
      },
      {
        "@id": "1090",
        "@name": "6.9"
      },
      {
        "@id": "1091",
        "@name": "고기방패"
      },
      {
        "@id": "1092",
        "@name": "군무새"
      },
      {
        "@id": "1093",
        "@name": "김치남"
      },
      {
        "@id": "1094",
        "@name": "개저씨"
      },
      {
        "@id": "1095",
        "@name": "꼴마초 "
      },
      {
        "@id": "1096",
        "@name": "발정난짐승"
      },
      {
        "@id": "1097",
        "@name": "상폐남"
      },
      {
        "@id": "1098",
        "@name": "소추소심"
      },
      {
        "@id": "1099",
        "@name": "실잦"
      },
      {
        "@id": "1100",
        "@name": "살짬"
      },
      {
        "@id": "1101",
        "@name": "씹치남"
      },
      {
        "@id": "1102",
        "@name": "애비충"
      },
      {
        "@id": "1103",
        "@name": "허수애비"
      },
      {
        "@id": "1104",
        "@name": "이중잦대"
      },
      {
        "@id": "1105",
        "@name": "자슬아치"
      },
      {
        "@id": "1106",
        "@name": "자트릭스"
      },
      {
        "@id": "1107",
        "@name": "잠재적가해자"
      },
      {
        "@id": "1108",
        "@name": "젓갈남"
      },
      {
        "@id": "1109",
        "@name": "집지키는개"
      },
      {
        "@id": "1110",
        "@name": "평범수"
      },
      {
        "@id": "1111",
        "@name": "한남충"
      },
      {
        "@id": "1112",
        "@name": "한남또"
      },
      {
        "@id": "1113",
        "@name": "허세남"
      },
      {
        "@id": "1114",
        "@name": "김치녀"
      },
      {
        "@id": "1115",
        "@name": "된장녀"
      },
      {
        "@id": "1116",
        "@name": "김여사"
      },
      {
        "@id": "1117",
        "@name": "부왘"
      },
      {
        "@id": "1118",
        "@name": "삼일한"
      },
      {
        "@id": "1119",
        "@name": "보라니"
      },
      {
        "@id": "1120",
        "@name": "보슬아치"
      },
      {
        "@id": "1121",
        "@name": "보전깨"
      },
      {
        "@id": "1122",
        "@name": "맘충"
      },
      {
        "@id": "1123",
        "@name": "상폐녀"
      },
      {
        "@id": "1124",
        "@name": "여적여"
      },
      {
        "@id": "1125",
        "@name": "보적보"
      },
      {
        "@id": "1126",
        "@name": "보확찢"
      },
      {
        "@id": "1127",
        "@name": "보징어"
      },
      {
        "@id": "1128",
        "@name": "챙년"
      },
      {
        "@id": "1129",
        "@name": "자박꼼"
      },
      {
        "@id": "1130",
        "@name": "박꼼"
      },
      {
        "@id": "1131",
        "@name": "로린이"
      },
      {
        "@id": "1132",
        "@name": "좆린이"
      },
      {
        "@id": "1133",
        "@name": "자들자들"
      },
      {
        "@id": "1134",
        "@name": "보들보들"
      }
    ]
  }
}
