{
  "?xml": {
    "@version": "1.0",
    "@encoding": "utf-8"
  },
  "ms2": {
    "key": [
      {
        "@id": "101",
        "@name": "메이플 월드"
      },
      {
        "@id": "102",
        "@name": "메이플 월드"
      },
      {
        "@id": "103",
        "@name": "메이플 월드"
      },
      {
        "@id": "104",
        "@name": "메이플 월드"
      },
      {
        "@id": "105",
        "@name": "메이플 월드"
      },
      {
        "@id": "202",
        "@name": "메이플 월드"
      }
    ]
  }
}
