{
  "?xml": {
    "@version": "1.0",
    "@encoding": "utf-8"
  },
  "ms2": {
    "key": [
      {
        "@id": "66100001",
        "@name": "(1단계) 마노비치 성",
        "@feature": "GuildHouse01"
      },
      {
        "@id": "66100002",
        "@name": "(2단계) 달빛누리 성",
        "@feature": "GuildHouse01"
      },
      {
        "@id": "66100011",
        "@name": "(2단계) 마노비치 성",
        "@feature": "GuildHouse01"
      },
      {
        "@id": "66100006",
        "@name": "(3단계) 나즈카르 성",
        "@feature": "GuildSystem02"
      },
      {
        "@id": "66100003",
        "@name": "(3단계) 달빛누리 성",
        "@feature": "GuildSystem02"
      },
      {
        "@id": "66100013",
        "@name": "(3단계) 마노비치 성",
        "@feature": "GuildSystem02"
      },
      {
        "@id": "66100007",
        "@name": "(4단계) 마드리아 성",
        "@feature": "GuildSystem02"
      },
      {
        "@id": "66100008",
        "@name": "(4단계) 나즈카르 성",
        "@feature": "GuildSystem02"
      },
      {
        "@id": "66100004",
        "@name": "(4단계) 달빛누리 성",
        "@feature": "GuildSystem02"
      },
      {
        "@id": "66100014",
        "@name": "(4단계) 마노비치 성",
        "@feature": "GuildSystem02"
      },
      {
        "@id": "66100012",
        "@name": "(5단계) 수집가 센터",
        "@feature": "GuildSystem02"
      },
      {
        "@id": "66100009",
        "@name": "(5단계) 마드리아 성",
        "@feature": "GuildSystem02"
      },
      {
        "@id": "66100010",
        "@name": "(5단계) 나즈카르 성",
        "@feature": "GuildSystem02"
      },
      {
        "@id": "66100005",
        "@name": "(5단계) 달빛누리 성",
        "@feature": "GuildSystem02"
      },
      {
        "@id": "66100015",
        "@name": "(5단계) 마노비치 성",
        "@feature": "GuildSystem02"
      }
    ]
  }
}
