{
  "?xml": {
    "@version": "1.0",
    "@encoding": "utf-8"
  },
  "ms2": {
    "key": [
      {
        "@id": "11000008",
        "@name": "투르카의 보석함"
      },
      {
        "@id": "11000009",
        "@name": "투르카의 진귀한 보석함"
      },
      {
        "@id": "19000017",
        "@name": "메이플 스토어"
      },
      {
        "@id": "19000028",
        "@name": "주변상품 스토어"
      },
      {
        "@id": "19000029",
        "@name": "폴 프랭크"
      },
      {
        "@id": "31000001",
        "@name": "아이템 분해기"
      },
      {
        "@id": "31000002",
        "@name": "뒤집어라! 오키 더키!"
      },
      {
        "@id": "31000003",
        "@name": "페스티벌 카드 보드"
      },
      {
        "@id": "31000004",
        "@name": "메포그래픽 보기"
      },
      {
        "@id": "31000005",
        "@name": "뒤집어라! 오키 더키!"
      },
      {
        "@id": "31000010",
        "@name": "페스티벌 카드 보드"
      },
      {
        "@id": "31000012",
        "@name": "레이 마블 보드"
      },
      {
        "@id": "60001001",
        "@name": "구리 광맥"
      },
      {
        "@id": "60001011",
        "@name": "구리 광맥"
      },
      {
        "@id": "60001020",
        "@name": "구리 광맥",
        "@feature": "Mastery05"
      },
      {
        "@id": "60002003",
        "@name": "주석 광맥"
      },
      {
        "@id": "60002009",
        "@name": "주석 광맥"
      },
      {
        "@id": "60002024",
        "@name": "주석 광맥",
        "@feature": "Mastery05"
      },
      {
        "@id": "60003003",
        "@name": "아연 광맥"
      },
      {
        "@id": "60003006",
        "@name": "아연 광맥"
      },
      {
        "@id": "60003010",
        "@name": "아연 광맥"
      },
      {
        "@id": "60003019",
        "@name": "아연 광맥",
        "@feature": "Mastery05"
      },
      {
        "@id": "60004004",
        "@name": "은 광맥"
      },
      {
        "@id": "60004009",
        "@name": "은 광맥"
      },
      {
        "@id": "60004021",
        "@name": "은 광맥",
        "@feature": "Mastery05"
      },
      {
        "@id": "60005003",
        "@name": "철 광맥"
      },
      {
        "@id": "60005008",
        "@name": "철 광맥"
      },
      {
        "@id": "60005010",
        "@name": "철 광맥"
      },
      {
        "@id": "60005015",
        "@name": "철 광맥",
        "@feature": "Mastery05"
      },
      {
        "@id": "60006003",
        "@name": "납 광맥"
      },
      {
        "@id": "60006013",
        "@name": "납 광맥"
      },
      {
        "@id": "60006014",
        "@name": "납 광맥"
      },
      {
        "@id": "60006036",
        "@name": "납 광맥",
        "@feature": "Mastery05"
      },
      {
        "@id": "60007005",
        "@name": "니켈 광맥"
      },
      {
        "@id": "60007009",
        "@name": "니켈 광맥"
      },
      {
        "@id": "60007022",
        "@name": "니켈 광맥",
        "@feature": "Mastery05"
      },
      {
        "@id": "60008004",
        "@name": "흑철 광맥"
      },
      {
        "@id": "60008007",
        "@name": "흑철 광맥"
      },
      {
        "@id": "60008021",
        "@name": "흑철 광맥",
        "@feature": "Mastery05"
      },
      {
        "@id": "60009002",
        "@name": "텅스텐 광맥"
      },
      {
        "@id": "60009011",
        "@name": "텅스텐 광맥"
      },
      {
        "@id": "60009020",
        "@name": "텅스텐 광맥",
        "@feature": "Mastery05"
      },
      {
        "@id": "60010003",
        "@name": "금 광맥"
      },
      {
        "@id": "60010010",
        "@name": "금 광맥"
      },
      {
        "@id": "60010020",
        "@name": "금 광맥",
        "@feature": "Mastery05"
      },
      {
        "@id": "60011001",
        "@name": "백금 광맥"
      },
      {
        "@id": "60011007",
        "@name": "백금 광맥"
      },
      {
        "@id": "60011012",
        "@name": "백금 광맥",
        "@feature": "Mastery05"
      },
      {
        "@id": "60012001",
        "@name": "코발트 광맥"
      },
      {
        "@id": "60012010",
        "@name": "코발트 광맥"
      },
      {
        "@id": "60012025",
        "@name": "코발트 광맥",
        "@feature": "Mastery05"
      },
      {
        "@id": "60013003",
        "@name": "팔라듐 광맥"
      },
      {
        "@id": "60013007",
        "@name": "팔라듐 광맥"
      },
      {
        "@id": "60013023",
        "@name": "팔라듐 광맥",
        "@feature": "Mastery05"
      },
      {
        "@id": "60014004",
        "@name": "미스릴 광맥",
        "@feature": "Mastery06"
      },
      {
        "@id": "60014009",
        "@name": "미스릴 광맥",
        "@feature": "Mastery06"
      },
      {
        "@id": "60014026",
        "@name": "미스릴 광맥",
        "@feature": "Mastery06"
      },
      {
        "@id": "60015006",
        "@name": "오리할콘 광맥",
        "@feature": "Mastery06"
      },
      {
        "@id": "60015025",
        "@name": "오리할콘 광맥",
        "@feature": "Mastery06"
      },
      {
        "@id": "60019002",
        "@name": "루마 스톤 광맥"
      },
      {
        "@id": "60020001",
        "@name": "고목 그루터기"
      },
      {
        "@id": "60021001",
        "@name": "갯벌 진주 더미"
      },
      {
        "@id": "60023001",
        "@name": "마조람 허브"
      },
      {
        "@id": "60023008",
        "@name": "마조람 허브"
      },
      {
        "@id": "60023029",
        "@name": "마조람 허브",
        "@feature": "Mastery05"
      },
      {
        "@id": "60024002",
        "@name": "라벤더 허브"
      },
      {
        "@id": "60024006",
        "@name": "라벤더 허브"
      },
      {
        "@id": "60024029",
        "@name": "라벤더 허브",
        "@feature": "Mastery05"
      },
      {
        "@id": "60025003",
        "@name": "오레가노 허브"
      },
      {
        "@id": "60025006",
        "@name": "오레가노 허브"
      },
      {
        "@id": "60025024",
        "@name": "오레가노 허브",
        "@feature": "Mastery05"
      },
      {
        "@id": "60026002",
        "@name": "레몬밤 허브"
      },
      {
        "@id": "60026005",
        "@name": "레몬밤 허브"
      },
      {
        "@id": "60026010",
        "@name": "레몬밤 허브"
      },
      {
        "@id": "60026024",
        "@name": "레몬밤 허브",
        "@feature": "Mastery05"
      },
      {
        "@id": "60027003",
        "@name": "만다린 허브"
      },
      {
        "@id": "60027006",
        "@name": "만다린 허브"
      },
      {
        "@id": "60027024",
        "@name": "만다린 허브",
        "@feature": "Mastery05"
      },
      {
        "@id": "60028001",
        "@name": "자스민 허브"
      },
      {
        "@id": "60028005",
        "@name": "자스민 허브"
      },
      {
        "@id": "60028021",
        "@name": "자스민 허브",
        "@feature": "Mastery05"
      },
      {
        "@id": "60029003",
        "@name": "티트리 허브"
      },
      {
        "@id": "60029005",
        "@name": "티트리 허브"
      },
      {
        "@id": "60029031",
        "@name": "티트리 허브",
        "@feature": "Mastery05"
      },
      {
        "@id": "60030003",
        "@name": "체리 세이지 허브"
      },
      {
        "@id": "60030004",
        "@name": "체리 세이지 허브"
      },
      {
        "@id": "60030020",
        "@name": "체리 세이지 허브",
        "@feature": "Mastery05"
      },
      {
        "@id": "60031002",
        "@name": "페츌리 허브"
      },
      {
        "@id": "60031006",
        "@name": "페츌리 허브"
      },
      {
        "@id": "60031027",
        "@name": "페츌리 허브",
        "@feature": "Mastery05"
      },
      {
        "@id": "60032001",
        "@name": "로즈마리 허브"
      },
      {
        "@id": "60032007",
        "@name": "로즈마리 허브"
      },
      {
        "@id": "60032008",
        "@name": "로즈마리 허브"
      },
      {
        "@id": "60032020",
        "@name": "로즈마리 허브",
        "@feature": "Mastery05"
      },
      {
        "@id": "60033002",
        "@name": "야로우 허브"
      },
      {
        "@id": "60033027",
        "@name": "야로우 허브",
        "@feature": "Mastery05"
      },
      {
        "@id": "60034001",
        "@name": "바질 허브"
      },
      {
        "@id": "60034028",
        "@name": "바질 허브",
        "@feature": "Mastery05"
      },
      {
        "@id": "60035003",
        "@name": "베르가못 허브"
      },
      {
        "@id": "60035007",
        "@name": "베르가못 허브"
      },
      {
        "@id": "60035019",
        "@name": "베르가못 허브",
        "@feature": "Mastery05"
      },
      {
        "@id": "60036001",
        "@name": "코튼 라벤더 허브"
      },
      {
        "@id": "60037001",
        "@name": "파인애플 세이지 허브"
      },
      {
        "@id": "60038001",
        "@name": "로즈 제라늄 허브"
      },
      {
        "@id": "60039005",
        "@name": "스파티움 허브",
        "@feature": "Mastery06"
      },
      {
        "@id": "60039010",
        "@name": "스파티움 허브",
        "@feature": "Mastery06"
      },
      {
        "@id": "60039014",
        "@name": "스파티움 허브",
        "@feature": "Mastery06"
      },
      {
        "@id": "60039027",
        "@name": "스파티움 허브",
        "@feature": "Mastery06"
      },
      {
        "@id": "60040001",
        "@name": "타임 허브",
        "@feature": "Mastery06"
      },
      {
        "@id": "60040007",
        "@name": "타임 허브",
        "@feature": "Mastery06"
      },
      {
        "@id": "60040027",
        "@name": "타임 허브",
        "@feature": "Mastery06"
      }
    ]
  }
}
