{
  "?xml": {
    "@version": "1.0",
    "@encoding": "utf-8"
  },
  "ms2": {
    "key": [
      {
        "@id": "101",
        "@name": "메이플 아일랜드"
      },
      {
        "@id": "102",
        "@name": "빅토리아 아일랜드"
      },
      {
        "@id": "103",
        "@name": "카르카르 아일랜드"
      },
      {
        "@id": "104",
        "@name": "칼리브 아일랜드"
      },
      {
        "@id": "105",
        "@name": "크리티아스"
      },
      {
        "@id": "202",
        "@name": "빅토리아 아일랜드"
      }
    ]
  }
}
