{
  "?xml": {
    "@version": "1.0",
    "@encoding": "utf-8"
  },
  "ms2": {
    "key": [
      {
        "@id": "10000031",
        "@level": "1",
        "@name": "박치기",
        "@tooltipDescription": "머리에 강하게 부딪혀 정신을 잃었습니다!\\n기절하여 행동불가"
      },
      {
        "@id": "10000031",
        "@level": "2",
        "@name": "박치기",
        "@tooltipDescription": "머리에 강하게 부딪혀 정신을 잃었습니다!\\n기절하여 행동불가"
      },
      {
        "@id": "10000031",
        "@level": "3",
        "@name": "박치기",
        "@tooltipDescription": "머리에 강하게 부딪혀 정신을 잃었습니다!\\n기절하여 행동불가"
      },
      {
        "@id": "10000031",
        "@level": "4",
        "@name": "박치기",
        "@tooltipDescription": "머리에 강하게 부딪혀 정신을 잃었습니다!\\n기절하여 행동불가"
      },
      {
        "@id": "10000031",
        "@level": "5",
        "@name": "박치기",
        "@tooltipDescription": "머리에 강하게 부딪혀 정신을 잃었습니다!\\n기절하여 행동불가"
      },
      {
        "@id": "10000031",
        "@level": "6",
        "@name": "박치기",
        "@tooltipDescription": "머리에 강하게 부딪혀 정신을 잃었습니다!\\n기절하여 행동불가"
      },
      {
        "@id": "10000031",
        "@level": "7",
        "@name": "박치기",
        "@tooltipDescription": "머리에 강하게 부딪혀 정신을 잃었습니다!\\n기절하여 행동불가"
      },
      {
        "@id": "10000031",
        "@level": "8",
        "@name": "박치기",
        "@tooltipDescription": "머리에 강하게 부딪혀 정신을 잃었습니다!\\n기절하여 행동불가"
      },
      {
        "@id": "10000031",
        "@level": "9",
        "@name": "박치기",
        "@tooltipDescription": "머리에 강하게 부딪혀 정신을 잃었습니다!\\n기절하여 행동불가"
      },
      {
        "@id": "10000031",
        "@level": "10",
        "@name": "박치기",
        "@tooltipDescription": "머리에 강하게 부딪혀 정신을 잃었습니다!\\n기절하여 행동불가"
      },
      {
        "@id": "10000031",
        "@level": "11",
        "@name": "박치기",
        "@tooltipDescription": "머리에 강하게 부딪혀 정신을 잃었습니다!\\n기절하여 행동불가"
      },
      {
        "@id": "10000031",
        "@level": "12",
        "@name": "박치기",
        "@tooltipDescription": "머리에 강하게 부딪혀 정신을 잃었습니다!\\n기절하여 행동불가"
      },
      {
        "@id": "10000031",
        "@level": "13",
        "@name": "박치기",
        "@tooltipDescription": "머리에 강하게 부딪혀 정신을 잃었습니다!\\n기절하여 행동불가"
      },
      {
        "@id": "10000031",
        "@level": "14",
        "@name": "박치기",
        "@tooltipDescription": "머리에 강하게 부딪혀 정신을 잃었습니다!\\n기절하여 행동불가"
      },
      {
        "@id": "10000031",
        "@level": "15",
        "@name": "박치기",
        "@tooltipDescription": "머리에 강하게 부딪혀 정신을 잃었습니다!\\n기절하여 행동불가"
      },
      {
        "@id": "10000031",
        "@level": "16",
        "@name": "박치기",
        "@tooltipDescription": "머리에 강하게 부딪혀 정신을 잃었습니다!\\n기절하여 행동불가"
      },
      {
        "@id": "10000031",
        "@level": "17",
        "@name": "박치기",
        "@tooltipDescription": "머리에 강하게 부딪혀 정신을 잃었습니다!\\n기절하여 행동불가"
      },
      {
        "@id": "10000031",
        "@level": "18",
        "@name": "박치기",
        "@tooltipDescription": "머리에 강하게 부딪혀 정신을 잃었습니다!\\n기절하여 행동불가"
      },
      {
        "@id": "10000031",
        "@level": "19",
        "@name": "박치기",
        "@tooltipDescription": "머리에 강하게 부딪혀 정신을 잃었습니다!\\n기절하여 행동불가"
      },
      {
        "@id": "10000031",
        "@level": "20",
        "@name": "박치기",
        "@tooltipDescription": "머리에 강하게 부딪혀 정신을 잃었습니다!\\n기절하여 행동불가"
      },
      {
        "@id": "10000031",
        "@level": "21",
        "@name": "박치기",
        "@tooltipDescription": "머리에 강하게 부딪혀 정신을 잃었습니다!\\n기절하여 행동불가"
      },
      {
        "@id": "10000031",
        "@level": "22",
        "@name": "박치기",
        "@tooltipDescription": "머리에 강하게 부딪혀 정신을 잃었습니다!\\n기절하여 행동불가"
      },
      {
        "@id": "10000031",
        "@level": "23",
        "@name": "박치기",
        "@tooltipDescription": "머리에 강하게 부딪혀 정신을 잃었습니다!\\n기절하여 행동불가"
      },
      {
        "@id": "10000031",
        "@level": "24",
        "@name": "박치기",
        "@tooltipDescription": "머리에 강하게 부딪혀 정신을 잃었습니다!\\n기절하여 행동불가"
      },
      {
        "@id": "19900031",
        "@level": "1",
        "@name": "GM의 사랑",
        "@tooltipDescription": "크리티컬 명중 76, 크리티컬 대미지 200\\n물리/마법 공격력 4.6% 증가\\n샤프 아이즈, 집중의 마법진, 룬 스퀘어와 중복 불가"
      },
      {
        "@id": "19900041",
        "@level": "1",
        "@name": "GM의 응원",
        "@tooltipDescription": "몬스터 처치 시 경험치 2배 증가\\n낚시 획득 경험치 2배 증가\\n악기 연주 획득 경험치 2배 증가\\n아케이드 획득 경험치 2배 증가\\n메소 22% 추가 획득\\n발동과 함께 HP 100% 회복"
      },
      {
        "@id": "19900051",
        "@level": "1",
        "@name": "GM의 앙탈",
        "@tooltipDescription": "알 수 없는 저주에 걸렸습니다.\\n몸이 커지고 둔해집니다."
      }
    ]
  }
}
