{
  "?xml": {
    "@version": "1.0",
    "@encoding": "utf-8"
  },
  "ms2": {
    "key": [
      {
        "@skillID": "90200011",
        "@default": "1",
        "@reserved": "ㅎㅇ|안녕|하이|헬로",
        "@locale": "KR"
      },
      {
        "@skillID": "90200022",
        "@default": "1",
        "@reserved": "정중|정중한 인사|허리인사",
        "@locale": "KR"
      },
      {
        "@skillID": "90200001",
        "@default": "1",
        "@reserved": "화나|화|열받아|분노|짜증",
        "@locale": "KR"
      },
      {
        "@skillID": "90200023",
        "@default": "1",
        "@reserved": "놀람|헉|헐",
        "@locale": "KR"
      },
      {
        "@skillID": "90200024",
        "@default": "1",
        "@reserved": "거절|괜찮아|싫어",
        "@locale": "KR"
      },
      {
        "@skillID": "90200003",
        "@default": "1",
        "@reserved": "삐죽|불만",
        "@locale": "KR"
      },
      {
        "@skillID": "90200004",
        "@default": "1",
        "@reserved": "엉큼|음흉|히히",
        "@locale": "KR"
      },
      {
        "@skillID": "90200005",
        "@default": "1",
        "@reserved": "실망|에휴|머리야",
        "@locale": "KR"
      },
      {
        "@skillID": "90200006",
        "@default": "1",
        "@reserved": "좋아|신나|행복",
        "@locale": "KR"
      },
      {
        "@skillID": "90200031",
        "@default": "1",
        "@reserved": "흑|울기|엉엉|흑흑",
        "@locale": "KR"
      },
      {
        "@skillID": "90200041",
        "@default": "1",
        "@reserved": "앉기",
        "@locale": "KR"
      },
      {
        "@skillID": "90200042",
        "@default": "1",
        "@reserved": "의자앉기",
        "@locale": "KR"
      },
      {
        "@skillID": "90200011",
        "@default": "1",
        "@reserved": "ㅎㅇ|안녕|하이|헬로",
        "@locale": "CN"
      },
      {
        "@skillID": "90200022",
        "@default": "1",
        "@reserved": "정중|정중한 인사|허리인사",
        "@locale": "CN"
      },
      {
        "@skillID": "90200001",
        "@default": "1",
        "@reserved": "화나|화|열받아|분노|짜증",
        "@locale": "CN"
      },
      {
        "@skillID": "90200023",
        "@default": "1",
        "@reserved": "놀람|헉|헐",
        "@locale": "CN"
      },
      {
        "@skillID": "90200024",
        "@default": "1",
        "@reserved": "거절|괜찮아|싫어",
        "@locale": "CN"
      },
      {
        "@skillID": "90200003",
        "@default": "1",
        "@reserved": "삐죽|불만",
        "@locale": "CN"
      },
      {
        "@skillID": "90200004",
        "@default": "1",
        "@reserved": "엉큼|음흉|히히",
        "@locale": "CN"
      },
      {
        "@skillID": "90200005",
        "@default": "1",
        "@reserved": "실망|에휴|머리야",
        "@locale": "CN"
      },
      {
        "@skillID": "90200006",
        "@default": "1",
        "@reserved": "좋아|신나|행복",
        "@locale": "CN"
      },
      {
        "@skillID": "90200031",
        "@default": "1",
        "@reserved": "흑|울기|엉엉|흑흑",
        "@locale": "CN"
      },
      {
        "@skillID": "90200041",
        "@default": "1",
        "@reserved": "앉기",
        "@locale": "CN"
      },
      {
        "@skillID": "90200042",
        "@default": "1",
        "@reserved": "의자앉기",
        "@locale": "CN"
      },
      {
        "@skillID": "90200011",
        "@default": "1",
        "@reserved": "ㅎㅇ|안녕|하이|헬로",
        "@locale": "NA"
      },
      {
        "@skillID": "90200004",
        "@default": "1",
        "@reserved": "엉큼|음흉|히히",
        "@locale": "NA"
      },
      {
        "@skillID": "90200024",
        "@default": "1",
        "@reserved": "거절|괜찮아|싫어",
        "@locale": "NA"
      },
      {
        "@skillID": "90200041",
        "@default": "1",
        "@reserved": "앉기",
        "@locale": "NA"
      },
      {
        "@skillID": "90200042",
        "@default": "1",
        "@reserved": "의자앉기",
        "@locale": "NA"
      },
      {
        "@skillID": "90200057",
        "@default": "1",
        "@reserved": "부채|부채춤|신이내린부채춤",
        "@locale": "NA"
      },
      {
        "@skillID": "90200043",
        "@default": "1",
        "@reserved": "아하|깨달음|그렇군",
        "@locale": "NA"
      },
      {
        "@skillID": "90200022",
        "@default": "1",
        "@reserved": "정중|정중한 인사|허리인사",
        "@locale": "NA"
      },
      {
        "@skillID": "90200031",
        "@default": "1",
        "@reserved": "흑|울기|엉엉|흑흑",
        "@locale": "NA"
      },
      {
        "@skillID": "90200005",
        "@default": "1",
        "@reserved": "실망|에휴|머리야",
        "@locale": "NA"
      },
      {
        "@skillID": "90200006",
        "@default": "1",
        "@reserved": "좋아|신나|행복",
        "@locale": "NA"
      },
      {
        "@skillID": "90200003",
        "@default": "1",
        "@reserved": "삐죽|불만",
        "@locale": "NA"
      },
      {
        "@skillID": "90200092",
        "@default": "1",
        "@reserved": "하이파이브",
        "@locale": "NA"
      },
      {
        "@skillID": "90200077",
        "@default": "1",
        "@reserved": "월척|대어|대어낚시",
        "@locale": "NA"
      },
      {
        "@skillID": "90200073",
        "@default": "1",
        "@reserved": "부자|부자의탄생",
        "@locale": "NA"
      },
      {
        "@skillID": "90200023",
        "@default": "1",
        "@reserved": "놀람|헉|헐",
        "@locale": "NA"
      },
      {
        "@skillID": "90200001",
        "@default": "1",
        "@reserved": "화나|화|열받아|분노|짜증",
        "@locale": "NA"
      },
      {
        "@skillID": "90200019",
        "@default": "1",
        "@reserved": "가위",
        "@locale": "NA"
      },
      {
        "@skillID": "90200020",
        "@default": "1",
        "@reserved": "바위",
        "@locale": "NA"
      },
      {
        "@skillID": "90200021",
        "@default": "1",
        "@reserved": "보자기",
        "@locale": "NA"
      },
      {
        "@skillID": "90200011",
        "@default": "1",
        "@reserved": "ㅎㅇ|안녕|하이|헬로",
        "@locale": "JP"
      },
      {
        "@skillID": "90200004",
        "@default": "1",
        "@reserved": "엉큼|음흉|히히",
        "@locale": "JP"
      },
      {
        "@skillID": "90200024",
        "@default": "1",
        "@reserved": "거절|괜찮아|싫어",
        "@locale": "JP"
      },
      {
        "@skillID": "90200041",
        "@default": "1",
        "@reserved": "앉기",
        "@locale": "JP"
      },
      {
        "@skillID": "90200042",
        "@default": "1",
        "@reserved": "의자앉기",
        "@locale": "JP"
      },
      {
        "@skillID": "90200057",
        "@default": "1",
        "@reserved": "부채|부채춤|신이내린부채춤",
        "@locale": "JP"
      },
      {
        "@skillID": "90200043",
        "@default": "1",
        "@reserved": "아하|깨달음|그렇군",
        "@locale": "JP"
      },
      {
        "@skillID": "90200022",
        "@default": "1",
        "@reserved": "정중|정중한 인사|허리인사",
        "@locale": "JP"
      },
      {
        "@skillID": "90200031",
        "@default": "1",
        "@reserved": "흑|울기|엉엉|흑흑",
        "@locale": "JP"
      },
      {
        "@skillID": "90200005",
        "@default": "1",
        "@reserved": "실망|에휴|머리야",
        "@locale": "JP"
      },
      {
        "@skillID": "90200006",
        "@default": "1",
        "@reserved": "좋아|신나|행복",
        "@locale": "JP"
      },
      {
        "@skillID": "90200003",
        "@default": "1",
        "@reserved": "삐죽|불만",
        "@locale": "JP"
      },
      {
        "@skillID": "90200092",
        "@default": "1",
        "@reserved": "하이파이브",
        "@locale": "JP"
      },
      {
        "@skillID": "90200077",
        "@default": "1",
        "@reserved": "월척|대어|대어낚시",
        "@locale": "JP"
      },
      {
        "@skillID": "90200073",
        "@default": "1",
        "@reserved": "부자|부자의탄생",
        "@locale": "JP"
      },
      {
        "@skillID": "90200023",
        "@default": "1",
        "@reserved": "놀람|헉|헐",
        "@locale": "JP"
      },
      {
        "@skillID": "90200001",
        "@default": "1",
        "@reserved": "화나|화|열받아|분노|짜증",
        "@locale": "JP"
      },
      {
        "@skillID": "90200019",
        "@default": "1",
        "@reserved": "가위",
        "@locale": "JP"
      },
      {
        "@skillID": "90200020",
        "@default": "1",
        "@reserved": "바위",
        "@locale": "JP"
      },
      {
        "@skillID": "90200021",
        "@default": "1",
        "@reserved": "보자기",
        "@locale": "JP"
      },
      {
        "@skillID": "90200011",
        "@default": "1",
        "@reserved": "ㅎㅇ|안녕|하이|헬로",
        "@locale": "TH"
      },
      {
        "@skillID": "90200004",
        "@default": "1",
        "@reserved": "엉큼|음흉|히히",
        "@locale": "TH"
      },
      {
        "@skillID": "90200024",
        "@default": "1",
        "@reserved": "거절|괜찮아|싫어",
        "@locale": "TH"
      },
      {
        "@skillID": "90200041",
        "@default": "1",
        "@reserved": "앉기",
        "@locale": "TH"
      },
      {
        "@skillID": "90200042",
        "@default": "1",
        "@reserved": "의자앉기",
        "@locale": "TH"
      },
      {
        "@skillID": "90200057",
        "@default": "1",
        "@reserved": "부채|부채춤|신이내린부채춤",
        "@locale": "TH"
      },
      {
        "@skillID": "90200043",
        "@default": "1",
        "@reserved": "아하|깨달음|그렇군",
        "@locale": "TH"
      },
      {
        "@skillID": "90200022",
        "@default": "1",
        "@reserved": "정중|정중한 인사|허리인사",
        "@locale": "TH"
      },
      {
        "@skillID": "90200031",
        "@default": "1",
        "@reserved": "흑|울기|엉엉|흑흑",
        "@locale": "TH"
      },
      {
        "@skillID": "90200005",
        "@default": "1",
        "@reserved": "실망|에휴|머리야",
        "@locale": "TH"
      },
      {
        "@skillID": "90200006",
        "@default": "1",
        "@reserved": "좋아|신나|행복",
        "@locale": "TH"
      },
      {
        "@skillID": "90200003",
        "@default": "1",
        "@reserved": "삐죽|불만",
        "@locale": "TH"
      },
      {
        "@skillID": "90200092",
        "@default": "1",
        "@reserved": "하이파이브",
        "@locale": "TH"
      },
      {
        "@skillID": "90200077",
        "@default": "1",
        "@reserved": "월척|대어|대어낚시",
        "@locale": "TH"
      },
      {
        "@skillID": "90200073",
        "@default": "1",
        "@reserved": "부자|부자의탄생",
        "@locale": "TH"
      },
      {
        "@skillID": "90200023",
        "@default": "1",
        "@reserved": "놀람|헉|헐",
        "@locale": "TH"
      },
      {
        "@skillID": "90200001",
        "@default": "1",
        "@reserved": "화나|화|열받아|분노|짜증",
        "@locale": "TH"
      },
      {
        "@skillID": "90200019",
        "@default": "1",
        "@reserved": "가위",
        "@locale": "TH"
      },
      {
        "@skillID": "90200020",
        "@default": "1",
        "@reserved": "바위",
        "@locale": "TH"
      },
      {
        "@skillID": "90200021",
        "@default": "1",
        "@reserved": "보자기",
        "@locale": "TH"
      },
      {
        "@skillID": "90200011",
        "@default": "1",
        "@reserved": "ㅎㅇ|안녕|하이|헬로",
        "@locale": "TW"
      },
      {
        "@skillID": "90200004",
        "@default": "1",
        "@reserved": "엉큼|음흉|히히",
        "@locale": "TW"
      },
      {
        "@skillID": "90200024",
        "@default": "1",
        "@reserved": "거절|괜찮아|싫어",
        "@locale": "TW"
      },
      {
        "@skillID": "90200041",
        "@default": "1",
        "@reserved": "앉기",
        "@locale": "TW"
      },
      {
        "@skillID": "90200042",
        "@default": "1",
        "@reserved": "의자앉기",
        "@locale": "TW"
      },
      {
        "@skillID": "90200057",
        "@default": "1",
        "@reserved": "부채|부채춤|신이내린부채춤",
        "@locale": "TW"
      },
      {
        "@skillID": "90200043",
        "@default": "1",
        "@reserved": "아하|깨달음|그렇군",
        "@locale": "TW"
      },
      {
        "@skillID": "90200022",
        "@default": "1",
        "@reserved": "정중|정중한 인사|허리인사",
        "@locale": "TW"
      },
      {
        "@skillID": "90200031",
        "@default": "1",
        "@reserved": "흑|울기|엉엉|흑흑",
        "@locale": "TW"
      },
      {
        "@skillID": "90200005",
        "@default": "1",
        "@reserved": "실망|에휴|머리야",
        "@locale": "TW"
      },
      {
        "@skillID": "90200006",
        "@default": "1",
        "@reserved": "좋아|신나|행복",
        "@locale": "TW"
      },
      {
        "@skillID": "90200003",
        "@default": "1",
        "@reserved": "삐죽|불만",
        "@locale": "TW"
      },
      {
        "@skillID": "90200092",
        "@default": "1",
        "@reserved": "하이파이브",
        "@locale": "TW"
      },
      {
        "@skillID": "90200077",
        "@default": "1",
        "@reserved": "월척|대어|대어낚시",
        "@locale": "TW"
      },
      {
        "@skillID": "90200073",
        "@default": "1",
        "@reserved": "부자|부자의탄생",
        "@locale": "TW"
      },
      {
        "@skillID": "90200023",
        "@default": "1",
        "@reserved": "놀람|헉|헐",
        "@locale": "TW"
      },
      {
        "@skillID": "90200001",
        "@default": "1",
        "@reserved": "화나|화|열받아|분노|짜증",
        "@locale": "TW"
      },
      {
        "@skillID": "90200019",
        "@default": "1",
        "@reserved": "가위",
        "@locale": "TW"
      },
      {
        "@skillID": "90200020",
        "@default": "1",
        "@reserved": "바위",
        "@locale": "TW"
      },
      {
        "@skillID": "90200021",
        "@default": "1",
        "@reserved": "보자기",
        "@locale": "TW"
      },
      {
        "@skillID": "90200027",
        "@default": "0",
        "@reserved": "손키스"
      },
      {
        "@skillID": "90200002",
        "@default": "0",
        "@reserved": "힘|기합|기"
      },
      {
        "@skillID": "90200007",
        "@default": "0",
        "@reserved": "몰라|모르겠어|모름"
      },
      {
        "@skillID": "90200008",
        "@default": "0",
        "@reserved": "자랑|멋진포즈|짠"
      },
      {
        "@skillID": "90200009",
        "@default": "0",
        "@reserved": "좌절|안돼|이럴수가"
      },
      {
        "@skillID": "90200017",
        "@default": "0",
        "@reserved": "파라|파라파라|파라파라댄스"
      },
      {
        "@skillID": "90200030",
        "@default": "0",
        "@reserved": "부비|부비부비|부비부비댄스"
      },
      {
        "@skillID": "90200029",
        "@default": "0",
        "@reserved": "탭|스윙|탭댄스"
      },
      {
        "@skillID": "90200010",
        "@default": "0",
        "@reserved": "꽃|꽃받침|귀여운척"
      },
      {
        "@skillID": "90200012",
        "@default": "0",
        "@reserved": "ㅋ|비웃음|비열|키키"
      },
      {
        "@skillID": "90200014",
        "@default": "0",
        "@reserved": "손들어|무릎꿇어"
      },
      {
        "@skillID": "90200015",
        "@default": "0",
        "@reserved": "엎드려|엎드려뻗쳐|벌서기"
      },
      {
        "@skillID": "90200016",
        "@default": "0",
        "@reserved": "잠|피곤|수면|눕기"
      },
      {
        "@skillID": "90200018",
        "@default": "0",
        "@reserved": "떼쓰기|떼|왜"
      },
      {
        "@skillID": "90200019",
        "@default": "0",
        "@reserved": "가위"
      },
      {
        "@skillID": "90200020",
        "@default": "0",
        "@reserved": "바위"
      },
      {
        "@skillID": "90200021",
        "@default": "0",
        "@reserved": "보자기"
      },
      {
        "@skillID": "90200025",
        "@default": "0",
        "@reserved": "도발|까딱|이리와"
      },
      {
        "@skillID": "90200026",
        "@default": "0",
        "@reserved": "흥|삐짐|시무룩"
      },
      {
        "@skillID": "90200013",
        "@default": "0",
        "@reserved": "춤|막춤|댄스"
      },
      {
        "@skillID": "90200028",
        "@default": "0",
        "@reserved": "쪽|키스|뽀뽀|입맞춤"
      },
      {
        "@skillID": "90200043",
        "@default": "0",
        "@reserved": "아하|깨달음|그렇군"
      },
      {
        "@skillID": "90200044",
        "@default": "0",
        "@reserved": "흠|고민|어쩌지"
      },
      {
        "@skillID": "90200045",
        "@default": "0",
        "@reserved": "미워|짜증나"
      },
      {
        "@skillID": "90200046",
        "@default": "0",
        "@reserved": "흐느적|물결|흐느적댄스"
      },
      {
        "@skillID": "90200047",
        "@default": "0",
        "@reserved": "뱅뱅|뱅|뱅뱅댄스"
      },
      {
        "@skillID": "90200048",
        "@default": "0",
        "@reserved": "바니|바니바니|바니바니댄스"
      },
      {
        "@skillID": "90200049",
        "@default": "0",
        "@reserved": "셔플|셔플댄스"
      },
      {
        "@skillID": "90200050",
        "@default": "0",
        "@reserved": "포인트|꼭지|포인트댄스"
      },
      {
        "@skillID": "90200051",
        "@default": "0",
        "@reserved": "꿈틀|꿈틀꿈틀|꿈틀꿈틀댄스"
      },
      {
        "@skillID": "90200052",
        "@default": "0",
        "@reserved": "노래|노래하기"
      },
      {
        "@skillID": "90200053",
        "@default": "0",
        "@reserved": "절|절하기"
      },
      {
        "@skillID": "90200054",
        "@default": "0",
        "@reserved": "오두방정|오두방정댄스"
      },
      {
        "@skillID": "90200055",
        "@default": "0",
        "@reserved": "으랏차차|으랏차차댄스"
      },
      {
        "@skillID": "90200056",
        "@default": "0",
        "@reserved": "찰랑|찰랑찰랑|찰랑찰랑댄스"
      },
      {
        "@skillID": "90200057",
        "@default": "0",
        "@reserved": "부채|부채춤|신이내린부채춤"
      },
      {
        "@skillID": "90200058",
        "@default": "0",
        "@reserved": "꿀렁|꿀렁꿀렁|꿀렁꿀렁댄스"
      },
      {
        "@skillID": "90200059",
        "@default": "0",
        "@reserved": "GM마네킹"
      },
      {
        "@skillID": "90200060",
        "@default": "0",
        "@reserved": "비보잉|윈드밀|비보잉윈드밀"
      },
      {
        "@skillID": "90200061",
        "@default": "0",
        "@reserved": "그루브"
      },
      {
        "@skillID": "90200062",
        "@default": "0",
        "@reserved": "우짜|우짜우짜|우짜우짜댄스"
      },
      {
        "@skillID": "90200063",
        "@default": "0",
        "@reserved": "골드체어|골드아너체어"
      },
      {
        "@skillID": "90200064",
        "@default": "0",
        "@reserved": "실버체어|실버아너체어"
      },
      {
        "@skillID": "90200065",
        "@default": "0",
        "@reserved": "브론즈체어|브론즈아너체어"
      },
      {
        "@skillID": "90200066",
        "@default": "0",
        "@reserved": "핌|악령|소환된악령핌"
      },
      {
        "@skillID": "90200067",
        "@default": "0",
        "@reserved": "검은그림자"
      },
      {
        "@skillID": "90200068",
        "@default": "0",
        "@reserved": "좀비|좀비댄스"
      },
      {
        "@skillID": "90200069",
        "@default": "0",
        "@reserved": "빠져|최면|최면댄스"
      },
      {
        "@skillID": "90200070",
        "@default": "0",
        "@reserved": "두근두근선물상자"
      },
      {
        "@skillID": "90200071",
        "@default": "0",
        "@reserved": "눈오는날"
      },
      {
        "@skillID": "90200072",
        "@default": "0",
        "@reserved": "황금용상"
      },
      {
        "@skillID": "90200073",
        "@default": "0",
        "@reserved": "부자|부자의탄생"
      },
      {
        "@skillID": "90200074",
        "@default": "0",
        "@reserved": "바비키스|바비랑두근두근"
      },
      {
        "@skillID": "90200075",
        "@default": "0",
        "@reserved": "루비키스|루비랑콩닥콩닥"
      },
      {
        "@skillID": "90200076",
        "@default": "0",
        "@reserved": "고백|수줍은고백"
      },
      {
        "@skillID": "90200077",
        "@default": "0",
        "@reserved": "월척|대어|대어낚시"
      },
      {
        "@skillID": "90200078",
        "@default": "0",
        "@reserved": "골두스|교장선생님"
      },
      {
        "@skillID": "90200079",
        "@default": "0",
        "@reserved": "미엘|교생선생님"
      },
      {
        "@skillID": "90200080",
        "@default": "0",
        "@reserved": "벨마|도덕선생님"
      },
      {
        "@skillID": "90200081",
        "@default": "0",
        "@reserved": "벚꽃|피크닉|벚꽃피크닉"
      },
      {
        "@skillID": "90200082",
        "@default": "0",
        "@reserved": "눈물짜장|눈물젖은짜장면"
      },
      {
        "@skillID": "90200083",
        "@default": "0",
        "@reserved": "맛짜장|맛좋은짜장면"
      },
      {
        "@skillID": "90200084",
        "@default": "0",
        "@reserved": "목마|달려라달려"
      },
      {
        "@skillID": "90200085",
        "@default": "0",
        "@reserved": "프러포즈|로맨틱프러포즈"
      },
      {
        "@skillID": "90200086",
        "@default": "0",
        "@reserved": "프러포즈승낙"
      },
      {
        "@skillID": "90200087",
        "@default": "0",
        "@reserved": "프러포즈거절"
      },
      {
        "@skillID": "90200088",
        "@default": "0",
        "@reserved": "핑크빈|말랑핑크빈"
      },
      {
        "@skillID": "90200089",
        "@default": "0",
        "@reserved": "자쿰의자|자쿰자쿰체어"
      },
      {
        "@skillID": "90200090",
        "@default": "0",
        "@reserved": "생일|생축|생일축하해"
      },
      {
        "@skillID": "90200091",
        "@default": "0",
        "@reserved": "심열용상"
      },
      {
        "@skillID": "90200092",
        "@default": "0",
        "@reserved": "하이파이브"
      },
      {
        "@skillID": "90200093",
        "@default": "0",
        "@reserved": "폴짝댄스|폴짝폴짝댄스"
      },
      {
        "@skillID": "90200094",
        "@default": "0",
        "@reserved": "레이|레이댄스"
      },
      {
        "@skillID": "90200095",
        "@default": "0",
        "@reserved": "절구|절구찧기|쿵덕쿵덕"
      },
      {
        "@skillID": "90200096",
        "@default": "0",
        "@reserved": "생일케이크|축하해|특별한생일"
      },
      {
        "@skillID": "90200097",
        "@default": "0",
        "@reserved": "세인트체어|세인트아너체어"
      },
      {
        "@skillID": "90200098",
        "@default": "0",
        "@reserved": "힘내라힘"
      },
      {
        "@skillID": "90200099",
        "@default": "0",
        "@reserved": "초코케이크|달콤한생일"
      },
      {
        "@skillID": "90200100",
        "@default": "0",
        "@reserved": "주황버섯|퐁퐁주황버섯"
      },
      {
        "@skillID": "90200101",
        "@default": "0",
        "@reserved": "씰룩|씰룩씰룩|씰룩씰룩댄스"
      },
      {
        "@skillID": "90200102",
        "@default": "0",
        "@reserved": "인터넷스타|BJ|방송"
      },
      {
        "@skillID": "90200103",
        "@default": "0",
        "@reserved": "폭죽놀이|폭죽터트리기"
      },
      {
        "@skillID": "90200104",
        "@default": "0",
        "@reserved": "봄꽃연|봄꽃연날리기"
      },
      {
        "@skillID": "90200105",
        "@default": "0",
        "@reserved": "그네를타고"
      },
      {
        "@skillID": "90200106",
        "@default": "0",
        "@reserved": "CBT|CBT축하|CBT축하해"
      },
      {
        "@skillID": "90200107",
        "@default": "0",
        "@reserved": "으쌰으쌰|힘을합쳐으쌰으쌰"
      },
      {
        "@skillID": "90200108",
        "@default": "0",
        "@reserved": "머쉬킹가마|머쉬킹의황금가마"
      },
      {
        "@skillID": "90200109",
        "@default": "0",
        "@reserved": "가마꾼댄스|머쉬킹가마꾼댄스"
      },
      {
        "@skillID": "90200110",
        "@default": "0",
        "@reserved": "캠핑중|지금은캠핑중"
      },
      {
        "@skillID": "90200111",
        "@default": "0",
        "@reserved": "아이스컵|알로하|아이스컵에서알로하"
      },
      {
        "@skillID": "90200112",
        "@default": "0",
        "@reserved": "나태버섯댄스|나태버섯과댄스댄스"
      },
      {
        "@skillID": "90200113",
        "@default": "0",
        "@reserved": "수박화채|수박화채의자|시원한수박화채"
      },
      {
        "@skillID": "90200114",
        "@default": "0",
        "@reserved": "판다축하|판다도1주년축하해",
        "@feature": "WorldChampionMushroom"
      },
      {
        "@skillID": "90200115",
        "@default": "0",
        "@reserved": "슈기슈기|슈기슈기댄스",
        "@feature": "WorldChampionMushroom"
      },
      {
        "@skillID": "90200116",
        "@default": "0",
        "@reserved": "깔보기|넌안돼|훗"
      },
      {
        "@skillID": "90200119",
        "@default": "0",
        "@reserved": "인형극"
      },
      {
        "@skillID": "90200120",
        "@default": "0",
        "@reserved": "단풍|단풍이야기"
      },
      {
        "@skillID": "90200121",
        "@default": "0",
        "@reserved": "상어낚시|상어낚시성공"
      },
      {
        "@skillID": "90200122",
        "@default": "0",
        "@reserved": "돼지꿈|돼지의꿈"
      },
      {
        "@skillID": "90200123",
        "@default": "0",
        "@reserved": "반신욕"
      },
      {
        "@skillID": "90200124",
        "@default": "0",
        "@reserved": "메이슨처럼|메이슨따라쟁이"
      },
      {
        "@skillID": "90200125",
        "@default": "0",
        "@reserved": "스텝댄스|스텝셔플댄스"
      },
      {
        "@skillID": "90200126",
        "@default": "0",
        "@reserved": "포잉포잉댄스|포잉댄스",
        "@feature": "Event"
      },
      {
        "@skillID": "90200127",
        "@default": "0",
        "@reserved": "포잉이랑놀아줘|포잉놀아줘",
        "@feature": "Event"
      },
      {
        "@skillID": "90200128",
        "@default": "0",
        "@reserved": "열공|열공모드"
      },
      {
        "@skillID": "90200129",
        "@default": "0",
        "@reserved": "꿀잠|꿀잠쿨쿨"
      },
      {
        "@skillID": "90200130",
        "@default": "0",
        "@reserved": "인싸|인싸춤|인싸댄스"
      },
      {
        "@skillID": "90200131",
        "@default": "0",
        "@reserved": "셀카|셀카찍기|인생샷"
      },
      {
        "@skillID": "90200132",
        "@default": "0",
        "@reserved": "트레이닝|퍼스널트레이닝|물구나무서기"
      },
      {
        "@skillID": "90200133",
        "@default": "0",
        "@reserved": "히어로등장"
      },
      {
        "@skillID": "90200134",
        "@default": "0",
        "@reserved": "이번엔내차례"
      },
      {
        "@skillID": "90200135",
        "@default": "0",
        "@reserved": "이몸등장"
      },
      {
        "@skillID": "90200137",
        "@default": "0",
        "@reserved": "벚꽃나무|벚꽃나무아래서"
      },
      {
        "@skillID": "90220001",
        "@default": "0",
        "@reserved": ""
      },
      {
        "@skillID": "90220002",
        "@default": "0",
        "@reserved": ""
      },
      {
        "@skillID": "90220003",
        "@default": "0",
        "@reserved": ""
      },
      {
        "@skillID": "90220004",
        "@default": "0",
        "@reserved": ""
      },
      {
        "@skillID": "90220005",
        "@default": "0",
        "@reserved": ""
      },
      {
        "@skillID": "90220006",
        "@default": "0",
        "@reserved": ""
      },
      {
        "@skillID": "90220007",
        "@default": "0",
        "@reserved": ""
      },
      {
        "@skillID": "90220008",
        "@default": "0",
        "@reserved": ""
      },
      {
        "@skillID": "90220009",
        "@default": "0",
        "@reserved": ""
      },
      {
        "@skillID": "90220010",
        "@default": "0",
        "@reserved": "커피|앗뜨거"
      },
      {
        "@skillID": "90220011",
        "@default": "0",
        "@reserved": "더키와함께춤을|더키춤"
      },
      {
        "@skillID": "90220012",
        "@default": "0",
        "@reserved": ""
      },
      {
        "@skillID": "90220013",
        "@default": "0",
        "@reserved": ""
      },
      {
        "@skillID": "90220014",
        "@default": "0",
        "@reserved": ""
      },
      {
        "@skillID": "90220015",
        "@default": "0",
        "@reserved": ""
      },
      {
        "@skillID": "90220016",
        "@default": "0",
        "@reserved": ""
      },
      {
        "@skillID": "90220017",
        "@default": "0",
        "@reserved": ""
      },
      {
        "@skillID": "90220018",
        "@default": "0",
        "@reserved": ""
      },
      {
        "@skillID": "90220019",
        "@default": "0",
        "@reserved": ""
      },
      {
        "@skillID": "90220020",
        "@default": "0",
        "@reserved": ""
      },
      {
        "@skillID": "90220021",
        "@default": "0",
        "@reserved": ""
      }
    ]
  }
}
