{
  "?xml": {
    "@version": "1.0",
    "@encoding": "utf-8"
  },
  "ms2": {
    "Desc": [
      {
        "@MaidID": "11000512",
        "@Specialty": "목걸이 제작",
        "@Title": "상냥한 메이드",
        "@Name": "모모",
        "@BirthDay": "3월 15일",
        "@Constellation": "물고기자리",
        "@Height": "150cm",
        "@Weight": "46kg",
        "@SpecialDetail": "곱슬머리",
        "@Like": "생초콜릿",
        "@Hate": "혼자 있기",
        "@Hobby": "노래 부르기",
        "@OwnerName": "주인님",
        "@BelongTo": "드림네이즈",
        "@SpecialTitle": "콤플렉스",
        "@Background": "메이플 아일랜드 근처 카디미아 섬 출신의 소녀로, 손 끝이 야무져 집안일을 하는 것에는 능숙하지만, 도시의 각종 가전 제품이나 조리 기구 등을 사용하는 것에는 익숙하지 않아 때때로 어이없는 실수를 하기도 한다. 하지만 고운 심성에서 우러나오는 따뜻한 배려에 그녀의 실수는 금방 잊혀지고 만다."
      },
      {
        "@MaidID": "11000766",
        "@Specialty": "미정",
        "@Title": "",
        "@Name": "브로니",
        "@BirthDay": "11월 4일",
        "@Constellation": "전갈자리",
        "@Height": "140cm",
        "@Weight": "33kg",
        "@SpecialDetail": "미정",
        "@Like": "떡볶이",
        "@Hate": "미정",
        "@Hobby": "식물 키우기",
        "@OwnerName": "주인님",
        "@BelongTo": "드림네이즈",
        "@SpecialTitle": "미정",
        "@Background": "그렇다."
      },
      {
        "@MaidID": "11000767",
        "@Specialty": "음료 제조",
        "@Title": "탐험가 지망생",
        "@Name": "테리",
        "@BirthDay": "9월 27일",
        "@Constellation": "천칭자리",
        "@Height": "174cm",
        "@Weight": "57kg",
        "@SpecialDetail": "선장",
        "@Like": "장어 구이",
        "@Hate": "높은 곳",
        "@Hobby": "운동하기",
        "@OwnerName": "친구",
        "@BelongTo": "모험가 협회",
        "@SpecialTitle": "장래희망",
        "@Background": "그의 꿈은 드넓은 바다로 나아가 세계를 탐험하는 것이다. 최근에 모험가협회 일이 한가해지면서 여행에 필요한 자금을 보다 빨리 모으기 위해 남는 시간을 활용해 가정부 일을 시작했다. 별도의 집사 교육을 받진 않았지만 집안일이 적성에 맞는다며 무슨 일이든 마다치 않고 열심히 한다."
      },
      {
        "@MaidID": "11000768",
        "@Specialty": "연금술",
        "@Title": "투덜이 집사",
        "@Name": "어흥이",
        "@BirthDay": "5월 13일",
        "@Constellation": "황소자리",
        "@Height": "188cm",
        "@Weight": "93kg",
        "@SpecialDetail": "여제 에레브",
        "@Like": "간식",
        "@Hate": "간섭",
        "@Hobby": "낮잠 자기",
        "@OwnerName": "친구",
        "@BelongTo": "없음",
        "@SpecialTitle": "이상형",
        "@Background": "그는 예전부터 좋아했던 $npc:11000075$의 알현식을 보기 위해 $map:02000001$$pp2:로,으로$ 여행을 왔다. 하지만 알현식이 취소되고 할 일이 없어지자 간식 사 먹을 돈을 모으기 위해 집사일을 시작했다고. 하지만 천성이 게을러서 잡다한 집안일을 귀찮아한다. 매일 집주인의 침대에 누워있는 것이 다반사. 그럼에도 불구하고 집안을 먼지 하나 없이 항상 청결한 상태로 유지하는 것은 의문이다."
      },
      {
        "@MaidID": "11000769",
        "@Specialty": "반지 제작",
        "@Title": "인자한 할아버지",
        "@Name": "마누",
        "@BirthDay": "1월 12일",
        "@Constellation": "염소자리",
        "@Height": "178cm",
        "@Weight": "48kg",
        "@SpecialDetail": "1월 13일",
        "@Like": "벚꽃",
        "@Hate": "외로움",
        "@Hobby": "산책하기",
        "@OwnerName": "주인",
        "@BelongTo": "없음",
        "@SpecialTitle": "특별한 날",
        "@Background": "아내와 사별한 후 오랜 시간 깊은 슬픔에 빠져 있었지만 그 슬픔을 이겨내고자 일에 몰두하기로 했다. 그렇게 시작한 일이 남의 집안일을 돕는 것. 오랜 시간 동안 아내에게 집안일을 맡겨 왔던 탓에 청소, 요리, 빨래 등 많은 일에 서툴지만, 축적된 삶의 지혜를 바탕으로 새로운 일에 적응 중이다."
      },
      {
        "@MaidID": "11000770",
        "@Specialty": "요리",
        "@Title": "자상한 메이드",
        "@Name": "리나",
        "@BirthDay": "9월 3일",
        "@Constellation": "처녀자리",
        "@Height": "160cm",
        "@Weight": "63kg",
        "@SpecialDetail": "우리 아들",
        "@Like": "잘 먹는 사람",
        "@Hate": "아픈 것",
        "@Hobby": "아이 쇼핑",
        "@OwnerName": "주인",
        "@BelongTo": "없음",
        "@SpecialTitle": "소중한 사람",
        "@Background": "$map:02000001$에 살고 있는 주민으로 요리나 청소 등 집안일에 능숙한 프로이다. 특히 요리 솜씨가 뛰어나서 한 번이라도 그녀의 특제 장어구이를 맛본 사람이라면 그 맛을 잊지 못한다고 한다. $npc:11000119$$pp:는,은$ 그녀의 요리로 어둠의 땅에 있는 악마를 회유하는 작전을 구상중이라는데… 믿거나 말거나~"
      },
      {
        "@MaidID": "11000771",
        "@Specialty": "음료 제조",
        "@Title": "발랄한 메이드",
        "@Name": "모밍",
        "@BirthDay": "11월 29일",
        "@Constellation": "사수자리",
        "@Height": "153cm",
        "@Weight": "48kg",
        "@SpecialDetail": "안 알려줌",
        "@Like": "매운 것",
        "@Hate": "눈치 없는 사람",
        "@Hobby": "낚시하기",
        "@OwnerName": "주인님",
        "@BelongTo": "드림네이즈",
        "@SpecialTitle": "이름에 담긴 의미",
        "@Background": "생활력이 강하고 에너지가 넘치는 아가씨이다. 마음이 약하고 정이 많은 어머니 대신 궂은일이나 불리한 상황을 헤쳐내곤 하는 당차고 야무진 성격이지만, 가끔은 너무 애쓰는 것 같기도 한데… 매사에 관심 없는 척 퉁명스럽게 대하지만 사실은 누구보다 부끄러움 많고 상냥한 천생 여자인 것 같다."
      },
      {
        "@MaidID": "11000772",
        "@Specialty": "요리",
        "@Title": "생활형 로봇",
        "@Name": "네네 0호기",
        "@BirthDay": "3월 28일",
        "@Constellation": "양자리",
        "@Height": "130cm",
        "@Weight": "82kg",
        "@SpecialDetail": "메드로이드 3.8",
        "@Like": "참기름",
        "@Hate": "습기",
        "@Hobby": "일기쓰기",
        "@OwnerName": "주인님",
        "@BelongTo": "MSI 기계 연구소",
        "@SpecialTitle": "운영체제",
        "@Background": "카트로닉 박사가 개발한 최초의 생활형 로봇으로 알려져 있다. 원인 불명의 시스템 오류 때문에 가끔 이상한 행동을 하기도 하지만 최첨단 인공지능을 바탕으로 제법 능숙하게 집안일을 대신 해준다. 그런데 기계가 알 리 없는 인간의 감정을 느끼는 것 같기도 하다. 도대체 이 로봇에 숨겨진 비밀은 무엇일까?"
      },
      {
        "@MaidID": "11000773",
        "@Specialty": "연금술",
        "@Title": "수상한 집사",
        "@Name": "쉐도우 닥터",
        "@BirthDay": "1월 25일",
        "@Constellation": "물병자리",
        "@Height": "175cm",
        "@Weight": "68kg",
        "@SpecialDetail": "소아과",
        "@Like": "감자 튀김",
        "@Hate": "오이",
        "@Hobby": "수술하기",
        "@OwnerName": "주인",
        "@BelongTo": "어둠의 땅",
        "@SpecialTitle": "전문분야",
        "@Background": "피도 눈물도 없는 어둠의 땅에서 다친 사람들을 치료하는 의사이다. 사람을 구하는 일보다는 메소에 더 관심이 많아 섬뜩하고 냉혹한 모습을 보이는 탓에 과거가 수상할 따름인데… 하지만 지금껏 그에 대해 알려진 것이 거의 없어서 심지어 인간이 아닐지도 모른다는 소문까지 돌고 있다고."
      },
      {
        "@MaidID": "11000774",
        "@Specialty": "반지 제작",
        "@Title": "30세기 소년",
        "@Name": "미노",
        "@BirthDay": "4월 6일",
        "@Constellation": "양자리",
        "@Height": "177cm",
        "@Weight": "55kg",
        "@SpecialDetail": "소울 메이트",
        "@Like": "사자",
        "@Hate": "당근",
        "@Hobby": "음악 감상",
        "@OwnerName": "주인",
        "@BelongTo": "로제타 뷰티살롱",
        "@SpecialTitle": "이상형",
        "@Background": "타고난 예술적 재능을 마음껏 즐길 줄 알며 남들의 시선에 아랑곳하지 않는다. 얼핏 보면 무심하지만 사실은 다른 사람들의 생각과 경험에 관심이 많고 굉장히 사교적이다. 자신의 공상 속에서 신나는 하루하루를 보내는 소년. 그는 장난 가득한 일상 속에 어떤 비밀을 숨기고 있을까?"
      },
      {
        "@MaidID": "11000775",
        "@Specialty": "미정",
        "@Title": "",
        "@Name": "제인",
        "@BirthDay": "10월 19일",
        "@Constellation": "천칭자리",
        "@Height": "163cm",
        "@Weight": "45kg",
        "@SpecialDetail": "미정",
        "@Like": "미정",
        "@Hate": "미정",
        "@Hobby": "잡지 읽기",
        "@OwnerName": "주인님",
        "@BelongTo": "드림네이즈",
        "@SpecialTitle": "미정",
        "@Background": "그렇다."
      },
      {
        "@MaidID": "11000776",
        "@Specialty": "미정",
        "@Title": "",
        "@Name": "라딘",
        "@BirthDay": "7월 8일",
        "@Constellation": "게자리",
        "@Height": "179cm",
        "@Weight": "68kg",
        "@SpecialDetail": "미정",
        "@Like": "미정",
        "@Hate": "미정",
        "@Hobby": "약초 채집",
        "@OwnerName": "주인님",
        "@BelongTo": "드림네이즈",
        "@SpecialTitle": "미정",
        "@Background": "그렇다."
      },
      {
        "@MaidID": "11000777",
        "@Specialty": "반지 제작",
        "@Title": "도도한 고양이",
        "@Name": "코델리아",
        "@BirthDay": "2월 27일",
        "@Constellation": "물고기자리",
        "@Height": "53cm",
        "@Weight": "3kg",
        "@SpecialDetail": "핑크색",
        "@Like": "닭가슴살",
        "@Hate": "물",
        "@Hobby": "털 관리",
        "@OwnerName": "집사",
        "@BelongTo": "트라이아 왕궁",
        "@SpecialTitle": "발바닥 색상",
        "@Background": "$map:02000025$에서 어느 왕실 귀족의 귀여움을 받으며 지내고 있던 애완 고양이이다. 도도하지만 거부할 수 없는 매력을 가지고 있는 그녀는 현재 자신을 보살펴 줄 집사를 구하고 있다고. 당연히 고양이가 집안일에 능숙할 리는 없다. 하지만 생각치 못한 방식으로 이런 저런 도움을 받을 수 있을지도…!?"
      },
      {
        "@MaidID": "11000778",
        "@Specialty": "연금술",
        "@Title": "상큼한 바니걸",
        "@Name": "민트",
        "@BirthDay": "8월 7일",
        "@Constellation": "사자자리",
        "@Height": "154cm",
        "@Weight": "47kg",
        "@SpecialDetail": "저주",
        "@Like": "지금 이 순간",
        "@Hate": "과거 이야기",
        "@Hobby": "춤 연습",
        "@OwnerName": "주인",
        "@BelongTo": "바니바니",
        "@SpecialTitle": "무서운 것",
        "@Background": "바니바니 공연단의 인기 바니걸인 $npcName:11000711$. 가끔 덤벙거리지만 언제나 쾌활하고 명랑한 그녀는 많은 사람들의 사랑을 한 몸에 받고 있다. 춤추는 걸 좋아하고, 긍정 에너지가 충만한 그녀지만 숨겨진 과거를 가지고 있다는 듯하다. 친해지면 얘기해줄지도…!? "
      },
      {
        "@MaidID": "11000779",
        "@Specialty": "음료 제조",
        "@Title": "지적인 비서",
        "@Name": "제이시",
        "@BirthDay": "8월 26일",
        "@Constellation": "처녀자리",
        "@Height": "165cm",
        "@Weight": "50kg",
        "@SpecialDetail": "2,147,483,647 메소",
        "@Like": "메소",
        "@Hate": "신상 캐기",
        "@Hobby": "영화 감상",
        "@OwnerName": "사장님",
        "@BelongTo": "블랙마켓",
        "@SpecialTitle": "통장 잔고",
        "@Background": "아름다운 외모는 물론 지적인 매력까지 겸비한 탓에 뭇 남성들의 관심을 한몸에 받고 있는 $map:02000216$의 유능한 트레이더이다. $map:02000216$의 일만으로도 바쁜 그녀가 개인 비서를 자청한 것에는 분명 무슨 꿍꿍이가 있는 것 같지만, 그녀의 깊고 푸른 눈을 바라보고 있노라면 이런 의심은 눈 녹듯 사라져 버린다는데…"
      },
      {
        "@MaidID": "11000780",
        "@Specialty": "요리",
        "@Title": "두근두근 아이돌",
        "@Name": "혁이",
        "@BirthDay": "6월 18일",
        "@Constellation": "쌍둥이자리",
        "@Height": "185cm",
        "@Weight": "67kg",
        "@SpecialDetail": "센스 있는 여자",
        "@Like": "밀크 쉐이크",
        "@Hate": "벌레",
        "@Hobby": "예능 연습",
        "@OwnerName": "주인",
        "@BelongTo": "드림네이즈",
        "@SpecialTitle": "이상형",
        "@Background": "화려한 듯 공허한 연예계 생활에 염증을 느낀 아이돌! 답답한 일상에서 탈출하고자 팬과 언론의 눈을 피해 이중 생활을 시작했다. 자취하며 지내던 무명 시절을 떠올리며 새로운 일에 자신감을 가졌건만, 손 놓은 지 오래된 집안일은 영 귀찮기만 하다. 더구나 자신의 이중 생활을 알아채는 사람이라도 있을까, 항상 조마조마하기만 한데……  "
      },
      {
        "@MaidID": "11000785",
        "@Specialty": "반지 제작",
        "@Title": "엉뚱한 근위대원",
        "@Name": "머뭇",
        "@BirthDay": "6월 30일",
        "@Constellation": "게자리",
        "@Height": "170cm",
        "@Weight": "63kg",
        "@SpecialDetail": "나폴리",
        "@Like": "전투식량",
        "@Hate": "땅 파기",
        "@Hobby": "고민하기",
        "@OwnerName": "주인님",
        "@BelongTo": "왕실 근위대",
        "@SpecialTitle": "좋아하는 사람",
        "@Background": "뜻밖의 일을 계기로 집사 일에 뛰어든 그는 $npcName:11000119$$pp:가,이$ 이끌고 있는 근위대 소속 병사로, 입고 있는 갑옷만 봐도 든든하고 믿음직한 마음이 들 수밖에 없는 훌륭한 집사이다. 유일한 단점이라면… 조금, 아주 조금 우유부단한 성격이랄까? 번쩍이는 갑옷을 입은 그와 함께라면 $npcName:11000075$ 여제가 된 것 같은 기분을 만끽할 수 있다."
      },
      {
        "@MaidID": "11000786",
        "@Specialty": "목걸이 제작",
        "@Title": "그린후드의 메이드",
        "@Name": "에카",
        "@BirthDay": "8월 31일",
        "@Constellation": "처녀자리",
        "@Height": "163cm",
        "@Weight": "49kg",
        "@SpecialDetail": "평생 오스칼님을 모시는 것",
        "@Like": "오스칼님",
        "@Hate": "다치는 것",
        "@Hobby": "오스칼님 생각하기",
        "@OwnerName": "주인",
        "@BelongTo": "그린후드 자경단",
        "@SpecialTitle": "장래희망",
        "@Background": "$map:02000076$ 출신의 그녀는 그린후드 자경단에서 촉망받고 있는 인재로, 체력은 물론 정교한 활솜씨까지 겸비하고 있어 언제든 집을 믿고 맡길 수 있는 든든한 메이드이다. 하지만 메이플 월드 수호라는 중책을 맡고 있는 그린후드가 어째서 이런 일까지 나서야 하는 걸까… 아무래도 그녀는 메이드 일로 돈을 벌어 따로 하고 싶은 것이 있는 모양이다."
      },
      {
        "@MaidID": "11000787",
        "@Specialty": "음료 제조",
        "@Title": "명MC를 꿈꾸는",
        "@Name": "케이",
        "@BirthDay": "1월 8일",
        "@Constellation": "염소자리",
        "@Height": "128cm",
        "@Weight": "34kg",
        "@SpecialDetail": "말발",
        "@Like": "남의 이야기 듣기",
        "@Hate": "꽃가루",
        "@Hobby": "가상 토크쇼",
        "@OwnerName": "주인",
        "@BelongTo": "드림네이즈",
        "@SpecialTitle": "갖고 싶은 것",
        "@Background": "그는 $map:02000100$ 어느 바에서 바텐더로 일한 경력이 있는 트윙코족 집사로, 언젠가 판타스틱하고 스페셜하고 뷰티풀한 쇼의 사회자가 되겠다는 꿈을 키우고 있다. 그 꿈과 드림네이즈는 별로 관련이 없어 보이지만 그의 말을 들어보면 꼭 그렇지만도 않은 것 같은데… 조금 수다스러운 것이 한 가지 흠이랄까…?"
      },
      {
        "@MaidID": "11000788",
        "@Specialty": "요리",
        "@Title": "모험가 지망생",
        "@Name": "해리",
        "@BirthDay": "9월 24일",
        "@Constellation": "천칭자리",
        "@Height": "176cm",
        "@Weight": "54kg",
        "@SpecialDetail": "모험가",
        "@Like": "모험담",
        "@Hate": "지루한 것",
        "@Hobby": "사진 찍기",
        "@OwnerName": "주인",
        "@BelongTo": "드림네이즈",
        "@SpecialTitle": "장래희망",
        "@Background": "세계 최고의 모험가가 되겠다는 큰 꿈을 품고 언젠가 커다란 배의 선장이 되는 그 날을 위해, 열심히 일해서 돈을 모으겠다고 마음먹은 그! 하지만 이제껏 자랑할만한 발견을 한 적은 없는 햇병아리 모험가 지망생이다. 그래도 $map:02000062$에서 살면서 보고 들은 이야기는 많은 모양! 그의 이야기를 듣고 있으면 어디까지 진실이고 어디까지 허풍인지 알쏭달쏭할 때가 많다고."
      },
      {
        "@MaidID": "11000789",
        "@Specialty": "목걸이 제작",
        "@Title": "숲 속의 요정",
        "@Name": "아리타",
        "@BirthDay": "2월 3일",
        "@Constellation": "물병자리",
        "@Height": "158cm",
        "@Weight": "48kg",
        "@SpecialDetail": "식물과 교감하기",
        "@Like": "순록의 우유",
        "@Hate": "추운 것",
        "@Hobby": "거름 주기",
        "@OwnerName": "주인",
        "@BelongTo": "드림네이즈",
        "@SpecialTitle": "능력",
        "@Background": "그녀는 깊은 숲 속에 자리 잡은 요정들의 마을 $map:02000023$ 출신으로 나무나 꽃과 교감할 수 있는 특별한 능력을 지니고 있다. 요정이라면 인간을 꺼리기 마련인데 그런 그녀가 드림네이즈에 지원한 데에는 나름의 이유가 있는 모양이다. 큰 맘 먹고 메이드 일을 시작했지만 아직은 인간을 대하는 것이 낯설고 두렵다고…"
      },
      {
        "@MaidID": "11000790",
        "@Specialty": "연금술",
        "@Title": "괴팍한 집사",
        "@Name": "웅크린 엉덩이",
        "@BirthDay": "7월 17일",
        "@Constellation": "게자리",
        "@Height": "166cm",
        "@Weight": "51kg",
        "@SpecialDetail": "구걸로 1억 메소 모으기",
        "@Like": "음식",
        "@Hate": "배고픔",
        "@Hobby": "빈둥 거리기",
        "@OwnerName": "주인",
        "@BelongTo": "드림네이즈",
        "@SpecialTitle": "장기",
        "@Background": "$map:02000051$에서 오가는 사람들에게 구걸하며 살아가던 떠돌이 노인. 정확한 이름도, 출신도, 아무것도 알려진 바가 없다고 한다. 괴팍한 성격에 횡설수설하기 일쑤지만 자비를 베풀어주는 자에게는 축복과 평화의 기도문을 외워주기도 한다고. 드림네이즈에 집사로 자원한 모양이지만, 집안일을 돕기보다는 다른 이의 집에서 편하게 지내기 위함이 더 큰 것 같다."
      },
      {
        "@MaidID": "11000791",
        "@Specialty": "반지 제작",
        "@Title": "부지런한 집사",
        "@Name": "솔베이",
        "@BirthDay": "10월 23일",
        "@Constellation": "전갈자리",
        "@Height": "181cm",
        "@Weight": "62kg",
        "@SpecialDetail": "재벌 2세",
        "@Like": "보따리 장사",
        "@Hate": "골치 아픈 일",
        "@Hobby": "프로그래밍",
        "@OwnerName": "주인",
        "@BelongTo": "바로타 상단",
        "@SpecialTitle": "장래희망",
        "@Background": "메이플 월드의 보부상 조합인 바로타 상단에 소속된 그는 남들이 꺼리는 험한 곳도 망설임없이 돌아다닐 정도로 부지런하고 용감하다. 거기다 보고 들은 것은 잊지 않는 명석함까지 갖춰 상단 내에서도 꽤 이름이 알려져 있다고. 정착과는 거리가 멀어 보이는 보부상이 어째서 집사 일을 하고 있는지 의문인 가운데, 바로타 상단의 뉴 비즈니스 모델이 아니냐는 추측에 힘이 실리고 있는 중이다."
      },
      {
        "@MaidID": "11000792",
        "@Specialty": "연금술",
        "@Title": "현명한 요정",
        "@Name": "호르헤",
        "@BirthDay": "7월 30일",
        "@Constellation": "사자자리",
        "@Height": "162cm",
        "@Weight": "55kg",
        "@SpecialDetail": "비밀",
        "@Like": "마요네즈",
        "@Hate": "케첩",
        "@Hobby": "책 읽기",
        "@OwnerName": "주인",
        "@BelongTo": "드림네이즈",
        "@SpecialTitle": "나이",
        "@Background": "요정들 중에서도 특히 학구열이 뛰어나고 책을 좋아하는 모범생 사서이다. 다른 요정들이 보기에는 괴짜같은 구석이 있는데, 인간에 대한 편견이 없다는 것이 그 중 하나. 요정들이 훨씬 폐쇄적일 때도 인간들과 거리낌없이 지내며 요정의 지식을 나누었을뿐만 아니라 인간들이 쌓아 온 지식에도 흥미를 가졌다. 친화력이 좋고 싹싹하여 $map:02000023$의 정보통이기도 하다."
      },
      {
        "@MaidID": "11000793",
        "@Specialty": "목걸이 제작",
        "@Title": "깐깐한 메이드",
        "@Name": "김여사",
        "@BirthDay": "12월 16일",
        "@Constellation": "사수자리",
        "@Height": "167cm",
        "@Weight": "54kg",
        "@SpecialDetail": "근검절약",
        "@Like": "뉴스",
        "@Hate": "요리",
        "@Hobby": "TV 보기",
        "@OwnerName": "주인",
        "@BelongTo": "골든홈 부동산",
        "@SpecialTitle": "생활신조",
        "@Background": "그녀는 $map:02000001$에서 $map:02000123$$pp:를,을$ 경영하고 있는 유능한 커리어우먼이다. 부동산 중개업을 하던 중 많은 사람들에게 자신만의 노하우를 전해야겠다는 생각에, 개인 컨설턴트 일에 도전하기로 마음을 먹었다는데… 하지만 그녀가 가진 지식 보다는 그녀의 과거가 궁금해서 찾는 사람들이 훨씬 더 많다는 소문이다."
      },
      {
        "@MaidID": "11000794",
        "@Specialty": "목걸이 제작",
        "@Title": "소심한 요정",
        "@Name": "요요",
        "@BirthDay": "5월 21일",
        "@Constellation": "쌍둥이자리",
        "@Height": "120cm",
        "@Weight": "29kg",
        "@SpecialDetail": "요술",
        "@Like": "거품 목욕",
        "@Hate": "천둥 번개",
        "@Hobby": "수공예",
        "@OwnerName": "주인님",
        "@BelongTo": "드림네이즈",
        "@SpecialTitle": "능력",
        "@Background": "성격은 소심하지만 여러 가지 요술을 부릴 줄 아는 귀여운 요정. 특히 요정들 사이에서도 손재주가 좋은 걸로 유명하다. 다른 요정 친구들의 만류에도 불구하고 인간은 나쁜 녀석들이 아닌 다정하고 착한 녀석들이라는 믿음으로 드림네이즈에 자원했으며, 지금 이 순간에도 자신의 생각이 틀리지 않았기를 바라고 있다고."
      },
      {
        "@MaidID": "11000544",
        "@Specialty": "반지 제작",
        "@Title": "젠틀한 집사",
        "@Name": "팀",
        "@BirthDay": "2월 4일",
        "@Constellation": "물병자리",
        "@Height": "180cm",
        "@Weight": "66kg",
        "@SpecialDetail": "142",
        "@Like": "얼그레이",
        "@Hate": "에스프레소",
        "@Hobby": "피아노 연주",
        "@OwnerName": "주인님",
        "@BelongTo": "드림네이즈",
        "@SpecialTitle": "IQ",
        "@Background": "언제나 따뜻하고 자상하게 주인을 모시는 집사계의 모범. 몸에 밴 예절과 격식이 가끔은 부담스럽기까지 할 정도다. 쓴 맛이 느껴지는 커피 보다는 부드럽고 상쾌한 끝맛이 좋은 얼그레이 티를 좋아한다."
      },
      {
        "@MaidID": "11000764",
        "@Specialty": "목걸이 제작",
        "@Title": "새침한 바니걸",
        "@Name": "바닐라",
        "@BirthDay": "12월 3일",
        "@Constellation": "사수자리",
        "@Height": "156cm",
        "@Weight": "49kg",
        "@SpecialDetail": "35-23-36",
        "@Like": "마카롱",
        "@Hate": "귀찮은 것",
        "@Hobby": "비즈 공예",
        "@OwnerName": "주인님",
        "@BelongTo": "바니바니",
        "@SpecialTitle": "신체 사이즈",
        "@Background": "항상 새침하게 쏘아붙여 다가가기 쉽지 않은 성격의 메이드. 자신의 인기를 잘 알고 있어 사람들이 다가올수록 콧대가 높아진다. 하지만 친해지면 의외의 사랑스러운 면을 볼 수 있다. 참, 그녀의 유머감각은 한없이 제로에 가까우니 주의할 것."
      },
      {
        "@MaidID": "11000758",
        "@Specialty": "요리",
        "@Title": "시크한 메이드",
        "@Name": "레베카",
        "@BirthDay": "10월 11일",
        "@Constellation": "천칭자리",
        "@Height": "164cm",
        "@Weight": "53kg",
        "@SpecialDetail": "설거지",
        "@Like": "잘 모르겠음",
        "@Hate": "단 것",
        "@Hobby": "군것질하기",
        "@OwnerName": "주인님",
        "@BelongTo": "드림네이즈",
        "@SpecialTitle": "하기 싫은 일",
        "@Background": "어떤 일이든 무덤덤하게 받아들이는 쿨한 성격의 소유자. 말수가 적고 표정 변화도 거의 없다. 그녀가 미소 지을 확률은 100만 분의 1. 하지만 감정 표현이 서툴 뿐, 같이 지내다 보면 그녀가 결코 차갑고 냉정한 사람이 아니라는 걸 알 수 있다.  그녀의 미소를 보게 된다면… 얼음을 녹이는 듯한 기분을 느낄 수 있을까…?"
      },
      {
        "@MaidID": "11000759",
        "@Specialty": "연금술",
        "@Title": "미스터리 집사",
        "@Name": "미카엘",
        "@BirthDay": "6월 6일",
        "@Constellation": "쌍둥이자리",
        "@Height": "182cm",
        "@Weight": "68kg",
        "@SpecialDetail": "그런 거 없음",
        "@Like": "음악 감상",
        "@Hate": "간지럼",
        "@Hobby": "비밀",
        "@OwnerName": "주인님",
        "@BelongTo": "드림네이즈",
        "@SpecialTitle": "약점",
        "@Background": "무슨 일이든 척척해내는 만능 집사. 흐트러짐 없는 너무나도 완벽한 모습이 비현실적으로 느껴질 정도다. 속내를 잘 이야기하려 하지 않기에 쉽게 다가가기 힘들어 보이는데… 그에게는 집사 이상의 것을 요구하지 않는 것이 좋을 것이다."
      }
    ]
  }
}
