{
  "?xml": {
    "@version": "1.0",
    "@encoding": "utf-8"
  },
  "ms2": {
    "quest": [
      {
        "@questID": "40001000",
        "@name": "창고 정리는 나중에",
        "@desc": "$npc:11000148$$pp:는,은$ $npc:11000104$$pp:와,과$ 함께 창고 정리를 하기로 했다.\n하지만 허리가 아파, 창고 정리를 나중으로 미루겠다는 $npc:11000148$.\n$npc:11000054$의 행방에 대해 말해 주러 $npc:11000104$에게 가는 김에, 이 소식도 함께 전해 주자.",
        "@manual": "",
        "@complete": "$map:63000001$에 있는 $npc:11000104$ 만나기",
        "@count": "",
        "@locale": "",
        "@locking": "1"
      },
      {
        "@questID": "40001001",
        "@name": "온정의 손길",
        "@desc": "트로피컬 주스를 사려다 모래사장에 쓰러진 사내를 발견한 $npc:11000105$.\n경황이 없어 도울 생각을 못 하고 지나쳤다고 한다.\n$npc:11000105$$pp:를,을$ 대신해, 모래사장에 쓰러진 사내를 도와 주자.",
        "@manual": "",
        "@complete": "$map:02000062$에 있는 $npc:11000444$ 만나기",
        "@count": "",
        "@locale": "",
        "@locking": "1"
      },
      {
        "@questID": "40001002",
        "@name": "풍선 주인은 티보",
        "@desc": "날아가는 풍선을 낚아챈 $npc:11000114$$pp:는,은$ 풍선을 주인에게 돌려주고 싶어한다.\n누나를 만나야 하는 $npc:11000114$$pp:를,을$ 대신해, $item:30000171$$pp:를,을$ $npc:11000389$에게 가져다주자.",
        "@manual": "$map:2000115$에 있는 $npc:11000114$에게서 $item:30000171$ 받기",
        "@complete": "$map:02000115$에 있는 $npc:11000389$ 만나기",
        "@count": "1",
        "@locale": "",
        "@locking": "1"
      },
      {
        "@questID": "40001010",
        "@name": "음료 배달",
        "@desc": "$item:30000195$$pp:를,을$ 주문하고 사라진 $npc:11000080$!\n$npc:11000704$$pp:가,이$ 주스를 만드는 동안 어디론가 간 모양이다. \n주스 안의 얼음이 녹기 전에 $npc:11000080$에게 $item:30000195$$pp:를,을$ 가져다주자.",
        "@manual": "$map:2000062$에 있는 $npc:11000704$에게서 $item:30000195$ 받기",
        "@complete": "$map:02000062$에 있는 $npc:11000080$ 만나기",
        "@count": "1",
        "@locale": "",
        "@locking": "1"
      },
      {
        "@questID": "40001020",
        "@name": "수레 일으키기",
        "@desc": "지진의 충격 탓에 쓰러진 수레.\n$npc:11000618$$pp:가,이$ 일으켜 세우려 하지만 만만치 않은 모양이다.\n$npc:11000618$$pp:를,을$ 도와, 수레를 일으켜 세우자.",
        "@manual": "$map:2000114$의 $npc:11000618$ 앞에 있는 수레 일으키기",
        "@complete": "$map:02000114$에 있는 $npc:11000618$ 만나기",
        "@count": "0",
        "@locale": "",
        "@locking": "1"
      },
      {
        "@questID": "40001021",
        "@name": "여보 어디 가?",
        "@desc": "수레를 같이 일으켜 세워줄 사람을 찾으러 간 $npc:11000618$의 부인 $npc:11000619$. \n그만 찾고 돌아오면 좋으련만, 계속해서 헤매고 있는 부인이 답답하기만 한 $npc:11000618$.\n$npc:11000619$$pp:를,을$ 만나 남편에게 돌아가라고 말해 주자.",
        "@manual": "",
        "@complete": "$map:02000114$에 있는 $npc:11000619$ 만나기",
        "@count": "",
        "@locale": "",
        "@locking": "1"
      },
      {
        "@questID": "40001030",
        "@name": "긴급 복구 조치",
        "@desc": "지진으로 도로가 끊기고 시설물도 망가졌다.\n주민들의 불평이 쏟아지기 전에 피해 복구에 나선 $npc:11000622$.\n우선 사다리부터 고치려 하는데, 수리에 필요한 $item:30000196$$pp:를,을$ $npc:21000007$들에게 빼앗겼다고 한다.\n발만 동동 구르고 있는 $npc:11000622$$pp:를,을$ 도와주자.",
        "@manual": "$map:2000115$에 있는 $npc:21000007$에게서 $item:30000196$ 되찾기",
        "@complete": "$map:02000115$에 있는 $npc:11000622$ 만나기",
        "@count": "1",
        "@locale": "",
        "@locking": "1"
      },
      {
        "@questID": "40001040",
        "@name": "폴의 메시지",
        "@desc": "지진이 일어난 원인을 밝히기 위해 조사 장비가 도착했으나, 근위대의 인력이 부족해 장비 사용이 언제 이뤄질 지는 모르겠다.\n조사 현장에 먼저 가 있는 $npc:11000617$$pp:가,이$ 하염없이 조사 장비를 기다리고 있을 지 모르니, 우선은 육안으로 조사해 달라고 얘기해 주자.",
        "@manual": "",
        "@complete": "$map:02000118$에 있는 $npc:11000617$ 만나기",
        "@count": "",
        "@locale": "",
        "@locking": "1"
      },
      {
        "@questID": "40001041",
        "@name": "긴장과 떨림",
        "@desc": "지진은 끝난 줄 알았건만, 아직도 땅이 흔들리고 있다.\n상부의 명령으로 여진을 조사하러 온 $npc:11000617$$pp:는,은$ 두려운 마음에 흔들리는 땅을 앞에 두고 차마 발이 떼지 못 하고 있다.\n$npcName:11000617$$pp:를,을$ 대신해 흔들리는 땅을 조사해 보자.",
        "@manual": "$map:2000118$에 있는 흔들리는 땅 살펴보기",
        "@complete": "$map:02000118$에 있는 $npc:11000617$ 만나기",
        "@count": "0",
        "@locale": "",
        "@locking": "1"
      },
      {
        "@questID": "40001050",
        "@name": "연회를 위한 식재료",
        "@desc": "연회에 맞춰 음식 준비를 하려면 서둘러 음식 재료를 $map:2000001$$pp2:로,으로$ 보내야 한다.\n$map:2000001$$pp2:로,으로$ 나를 짐을 꾸리고 있는 $npc:11000157$에게 $item:30000070$$pp:를,을$ 가져다주자.",
        "@manual": "$map:2000118$에 있는 $npc:11000159$에게서 $item:30000070$ 받기",
        "@complete": "$map:02000118$에 있는 $npc:11000157$ 만나기",
        "@count": "1",
        "@locale": "",
        "@locking": "1"
      },
      {
        "@questID": "10001000",
        "@name": "산티아고의 고민",
        "@desc": "$npc:11000021$의 막내 손자 $npc:11000054$$pp:는,은$ 알현식에 보내 달라고 떼를 쓰다가 갑자기 사라져버렸다.\n$npc:11000054$$pp:는,은$ 어디에 있을까? \n$map:63000001$에 있는 $npc:11000148$$pp:를,을$ 만나, $npc:11000054$의 행방에 관해 물어보자.",
        "@manual": "",
        "@complete": "$map:63000001$에서 $npc:11000148$ 만나기",
        "@count": "",
        "@locale": "",
        "@locking": "1"
      },
      {
        "@questID": "10001001",
        "@name": "여정의 시작",
        "@desc": "$npc:11000062$에게서 이번 여제의 알현식에는 특별히 일반 주민들도 참석이 가능하다는 소식을 들었다. 평생에 한번 있을까 말까 하는 아주 특별한 기회라니 놓치고 싶지 않다. 나도 한번 떠나볼까?",
        "@manual": "$map:63000002$에 있는 $npc:11000016$$pp:와,과$ 대화해 리스항구 행 배 타기",
        "@complete": "$map:02000062$에서 $npc:11000096$ 만나기",
        "@count": "0",
        "@locale": "",
        "@locking": "1"
      },
      {
        "@questID": "10001002",
        "@name": "여제의 알현식",
        "@desc": "섬마을 꼬마 $npc:11000080$$pp:를,을$ $map:02000062$에서 다시 보니 더 반가운 것 같다. $map:02000001$$pp2:로,으로$ 가면 또 다른 반가운 얼굴들을 만날 수 있을 것 같다.\n$map:02000062$에서 $map:02000001$까지 연결된 로얄로드를 이용하면 금방 갈 수 있겠지?\n일단, $map:02000062$에서 $map:02000114$$pp2:로,으로$ 연결되는 길을 찾아보자.",
        "@manual": "알현식이 열리는 $map:02000001$$pp2:로,으로$ 가기",
        "@complete": "$map:02000001$에서 $npc:11000160$ 만나기",
        "@count": "0",
        "@locale": "",
        "@locking": "1"
      },
      {
        "@questID": "10001010",
        "@name": "위기의 상인들",
        "@desc": "알현식 준비에 필요한 물품을 운반하는 짐꾼들도 위험을 무릅쓰고 $map:02000116$$pp2:로,으로$ 들어왔다가 길을 잃고 가시덤불 속에 갇히고 말았다고 한다. 가는 길에 가시덤불 속에 갇힌 짐꾼을 발견하면 도와줘야겠다.",
        "@manual": "$map:02000116$의 가시덤불 속 짐꾼 구하기",
        "@complete": "$map:02000116$에서 $npc:11000129$ 만나기",
        "@count": "1",
        "@locale": "",
        "@locking": "1"
      },
      {
        "@questID": "10001011",
        "@name": "소식 전하기",
        "@desc": "$npc:11000129$$pp:는,은$ $map:02000117$$pp2:로,으로$ 앞서 간 일행이 있다며, 그를 만나 숲에서 위기에 처한 상인들 이야기를 전하고 모두가 도착할 때까지 기다리라는 말을 전해달라고 부탁했다.\n$map:02000117$$pp2:로,으로$ 가서 또 다른 왕실 짐꾼을 찾아보자.",
        "@manual": "",
        "@complete": "$map:02000117$에서 왕실 짐꾼 찾기",
        "@count": "",
        "@locale": "",
        "@locking": "1"
      },
      {
        "@questID": "10001050",
        "@name": "호기심 소년",
        "@desc": "투덜거리기는 해도 $npc:11000107$$pp:는,은$ 동생 $npc:11000114$ 챙기기에 바쁜 좋은 누나인 것 같다. 근데 $npc:11000114$$pp:는,은$ 어디로 사라진 걸까? 정말 로얄 로드에 간 것일까?",
        "@manual": "",
        "@complete": "$map:02000115$에서 $npc:11000114$ 찾아보기",
        "@count": "",
        "@locale": "",
        "@locking": "1"
      },
      {
        "@questID": "10001070",
        "@name": "꿀벌의 반란",
        "@desc": "$npc:22000022$에게 열심히 모은 꿀을 몽땅 빼앗긴 꿀벌들이 단단히 화가 난 것 같다. \n먹을 것을 잃은 꿀벌들을 위해 $npc:22000022$의 꿀단지를 통째로 가져다줘야겠다.\n$map:02000117$에서 $npc:22000022$$pp:가,이$ 출몰하는 바위 지붕 아래에서 꿀단지를 찾아보자.",
        "@manual": "$map:02000117$에서 꿀단지 되찾기",
        "@complete": "$map:02000117$의 $npc:11000183$ 만나기",
        "@count": "1",
        "@locale": "",
        "@locking": "1"
      },
      {
        "@questID": "10001110",
        "@name": "나와라, 집게발",
        "@desc": "$npc:11000098$$pp:는,은$ $npc:11000151$$pp:가,이$ 정말 좋은 모양이다.\n$npc:21000059$$pp:를,을$ 잡으면 $item:30000011$$pp:를,을$ 구할 수 있다고 말했지…? 그럼 몸 좀 풀어볼까?\n$map:63000002$에서 $npc:21000059$$pp:를,을$ 잡아서 $item:30000011$$pp:를,을$ 모으자.",
        "@manual": "$map:63000002$에서 $npc:21000059$의 $item:30000011$ 모으기",
        "@complete": "$map:63000002$에서 $npc:11000098$ 만나기",
        "@count": "1",
        "@locale": "",
        "@locking": "1"
      },
      {
        "@questID": "10001111",
        "@name": "그녀를 위해서라면!",
        "@desc": "$npc:11000151$$pp:는,은$ 말을 잘 못 하는 걸까? 아니면 원래 성격이 퉁명스러운 걸까?\n혹시 $npc:11000151$의 남자친구도 퉁명스러운 그녀가 싫어서 일부러 $map:63000002$에서 돌아오지 않는 것은 아닐까?",
        "@manual": "",
        "@complete": "M키를 눌러 $map:63000002$ 위치를 확인하고 찾아가기",
        "@count": "",
        "@locale": "",
        "@locking": "1"
      },
      {
        "@questID": "10001121",
        "@name": "그녀의 사정",
        "@desc": "불쌍한… $npc:11000118$…\n손을 다쳤다니 그녀를 도와주는 것이 좋겠다.  $map:63000002$ 곳곳에 있는 진주를 품은 조개를 찾아서 캐보자!\n$item:30000008$$pp:를,을$ 찾아서 출발~!",
        "@manual": "$map:63000002$에서 $item:30000008$ 모으기",
        "@complete": "$map:63000002$에서 $npc:11000118$ 만나기",
        "@count": "1",
        "@locale": "",
        "@locking": "1"
      },
      {
        "@questID": "10001130",
        "@name": "거북아, 거북아",
        "@desc": "$npc:22300149$$pp:가,이$ 나오는 거북이 언덕에서 $item:20000013$$pp:를,을$ 가져다 달라는 $npc:11000053$의 부탁을 받았다.\n쉽지는 않겠지만 그래도 한번 도전해볼까?",
        "@manual": "$map:63000002$에서 $item:20000013$ 구하기",
        "@complete": "$map:63000002$에서 $npc:11000053$ 만나기",
        "@count": "1",
        "@locale": "",
        "@locking": "1"
      },
      {
        "@questID": "10001140",
        "@name": "리스항구로 떠나는 배",
        "@desc": "$map:02000062$행 배가 모자랄 정도로 떠나는 사람이 많은 건가…?\n일단, $map:63000002$ 선착장으로 가서 $npc:11000016$에게 배가 준비되었는지 알아보자.",
        "@manual": "",
        "@complete": "$map:63000002$에서 뱃사공 $npc:11000016$ 만나기",
        "@count": "",
        "@locale": "",
        "@locking": "1"
      },
      {
        "@questID": "10001330",
        "@name": "이것도 인연인데…",
        "@desc": "빅토리아 아일랜드에서 다시 $npc:11000110$$pp:를,을$ 만났는데 또 내게 부탁할 것이 있다고 한다. 처음 만난 사람 부탁도 들어주는데 하물며 메이플 아일랜드에서 같이 뛰어 다니던 친구의 부탁을 들어주지 못할 이유가 없다.\n$map:02000114$ 다리 아래 풀밭에서 날뛰는 몬스터들을 처치하고, $npc:11000110$$pp:가,이$ 잃어버린 $item:30000054$들을 찾아주자.",
        "@manual": "$map:02000114$의 몬스터들을 처치하고 $item:30000054$ 되찾기",
        "@complete": "$map:02000114$에서 $npc:11000110$ 만나기",
        "@count": "1",
        "@locale": "",
        "@locking": "1"
      },
      {
        "@questID": "10001340",
        "@name": "맨 땅에 날벼락",
        "@desc": "갑자기 일어난 지진에 근위대도 당황하기는 마찬가지다.\n부랴부랴 지진의 원인을 파악하고자 조사에 나선 것 같은데… 일손을 보태볼까?\n$npc:11000157$ 근처에 놓인 장비 상자를 들어서 계단 아래쪽으로 옮기도록 하자.",
        "@manual": "$npc:11000157$ 근처에 놓인 장비 상자를 아래로 옮기기",
        "@complete": "$map:02000118$에서 $npc:11000157$ 만나기",
        "@count": "1",
        "@locale": "",
        "@locking": "1"
      },
      {
        "@questID": "10001350",
        "@name": "먹는 것이 힘이다",
        "@desc": "고된 전투에 배까지 곯는다면 $map:02000001$의 안전이 위협을 받을 수 있다.\n$map:02000118$ 몬스터들을 처치하고 녀석들이 털어 간 근위대의 $item:20000014$$pp:를,을$ 되찾자.",
        "@manual": "$map:02000118$ 몬스터에게서 $item:20000014$ 되찾기",
        "@complete": "$map:02000118$에서 $npc:11000158$ 만나기",
        "@count": "1",
        "@locale": "",
        "@locking": "1"
      },
      {
        "@questID": "10001690",
        "@name": "늑대 가죽의 품격",
        "@desc": "$map:02000117$에서 만난 $npc:11000374$$pp:는,은$ 짭짤한 용돈벌이가 있다며, $item:30000112$$pp:를,을$ 구해 $npc:11000546$에게 가져다 줄 것을 권유한다.\n$npc:21000062$$pp:를,을$ 사냥해 $item:30000112$$pp:를,을$ 구한 후, $npc:11000546$에게 가져다 주자.",
        "@manual": "$map:02000117$에서 $npc:21000062$를 사냥하고 $item:30000112$ 모으기",
        "@complete": "$map:02000117$에서 $npc:11000546$ 만나기",
        "@count": "1",
        "@locale": "",
        "@locking": "1"
      },
      {
        "@questID": "10001700",
        "@name": "골팽이 버섯의 비밀",
        "@desc": "$map:02000117$에서 만난 $npc:11000375$$pp:는,은$ 청정지역에서만 볼 수 있다는 희귀한 약초, $item:20000058$$pp:를,을$ 구해오면 좋은 값을 쳐주겠다고 제안했다.\n길도 좁고 몬스터도 많은 위험한 곳이지만… 한번 해 볼까?\n$npc:11000375$$pp:가,이$ 정말 좋은 가격을 쳐 줄 수도 있으니까… \n$map:02000117$에서 $item:20000058$$pp:를,을$ 따서 모으자.",
        "@manual": "$map:02000117$에서 $item:20000058$ 모으기",
        "@complete": "$map:02000117$에서 $npc:11000375$ 만나기",
        "@count": "1",
        "@locale": "",
        "@locking": "1"
      },
      {
        "@questID": "10001780",
        "@name": "제자리 찾기",
        "@desc": "$map:63000001$의 마을 창고를 관리하고 있는 $npc:11000148$$pp:는,은$ $map:63000001$에서 생산된 $item:30000130$들을 배에 싣고 대륙으로 보내려고 했지만, 갑자기 출항에 문제가 생겨 꼼짝없이 $item:30000130$들을 다시 $map:63000004$ 앞으로 옮겨야 하는 상황이라고 한다.\n$npc:11000148$의 허리가 괜찮아질 때까지만이라도 $item:30000130$들을 $map:63000004$ 앞으로 옮기는 일을 도와주자!",
        "@manual": "$npc:11000148$ 주변 $item:30000130$들을 $map:63000001$ 마을 창고 앞으로 옮기기",
        "@complete": "$map:63000001$에서 $npc:11000148$ 만나기",
        "@count": "1",
        "@locale": "",
        "@locking": "1"
      },
      {
        "@questID": "60001150",
        "@name": "퀸크빈 럼블에 오신 것을 환영합니다!",
        "@desc": "메이플 월드에 강림한 핑크빈들의 여왕 $npcName:11004285$!\n오자마자 퀸크빈 럼블이라는 빅 이벤트를 개최하였다고 한다.\n\n어마어마한 상금과 굉장한 실력을 갖춘 선수들이 대기하고 있다고 하는데…\n그녀는 대체 누구일까?\n\n자세한 이야기를 듣기 위해, $map:83000001$에 있는 $npc:11004287$$pp:와,과$ 대화해보자.\n\n$map:83000001$$pp:는,은$ '던전 찾기'를 통해 입장할 수 있다.",
        "@manual": "",
        "@complete": "",
        "@count": "",
        "@locale": "",
        "@locking": "0"
      },
      {
        "@questID": "60001160",
        "@name": "여왕님의 즐거움을 위해서라면!",
        "@desc": "$npcName:11004285$에 대해 궁금해하자, 동굴에서라도 살다 나왔냐며 의아해하는 $npcName:11004287$.\n\n그녀는 갖은 유희를 즐기는 핑크빈들의 여왕이라고 하는데…\n\n$npcName:11004285$의 미소를 본 자는 거액의 상금을 쟁취할 수 있다고 말하는 $npcName:11004287$.\n\n퀸크빈 럼블에 대해 조금 더 설명을 들어보는 게 좋겠다.",
        "@manual": "",
        "@complete": "",
        "@count": "",
        "@locale": "",
        "@locking": "0"
      }
    ]
  }
}
