{
  "?xml": {
    "@version": "1.0",
    "@encoding": "utf-8"
  },
  "ms2": {
    "key": [
      {
        "@id": "unknown",
        "@name": "미확인"
      },
      {
        "@id": "plant",
        "@name": "식물형"
      },
      {
        "@id": "animal",
        "@name": "야수형"
      },
      {
        "@id": "bug",
        "@name": "벌레형"
      },
      {
        "@id": "mystic",
        "@name": "신수형"
      },
      {
        "@id": "spirit",
        "@name": "정령형"
      },
      {
        "@id": "fairy",
        "@name": "요정형"
      },
      {
        "@id": "combine",
        "@name": "인간형"
      },
      {
        "@id": "undead",
        "@name": "언데드형"
      },
      {
        "@id": "devil",
        "@name": "악마형"
      },
      {
        "@id": "machine",
        "@name": "기계형"
      },
      {
        "@id": "creature",
        "@name": "사물형"
      }
    ]
  }
}
