{
  "?xml": {
    "@version": "1.0",
    "@encoding": "utf-8"
  },
  "ms2": {
    "key": [
      {
        "@id": "1"
      },
      {
        "@id": "2"
      },
      {
        "@id": "3"
      },
      {
        "@id": "4"
      },
      {
        "@id": "5"
      },
      {
        "@id": "6",
        "@feature": "Fishing"
      },
      {
        "@id": "7"
      },
      {
        "@id": "8",
        "@feature": "MeratMarket"
      },
      {
        "@id": "9",
        "@name": "금고"
      },
      {
        "@id": "10"
      },
      {
        "@id": "11",
        "@name": "알퐁달퐁 목장"
      },
      {
        "@id": "12",
        "@feature": "GuildSystem01"
      },
      {
        "@id": "13",
        "@feature": "ArcadeSystem"
      },
      {
        "@id": "14",
        "@name": "둔둔"
      },
      {
        "@id": "15"
      },
      {
        "@id": "16"
      },
      {
        "@id": "17"
      },
      {
        "@id": "18",
        "@name": "자이언트 터틀"
      },
      {
        "@id": "19",
        "@name": "뮤직",
        "@feature": "MusicInstrument"
      },
      {
        "@id": "20",
        "@name": "인챈트"
      },
      {
        "@id": "21",
        "@name": "골마아파트"
      },
      {
        "@id": "22"
      },
      {
        "@id": "23"
      },
      {
        "@id": "24"
      },
      {
        "@id": "25"
      },
      {
        "@id": "26",
        "@name": "데블린 워리어"
      },
      {
        "@id": "27"
      },
      {
        "@id": "28"
      },
      {
        "@id": "29",
        "@name": "그리폰"
      },
      {
        "@id": "30"
      },
      {
        "@id": "31",
        "@name": "데블린 치프"
      },
      {
        "@id": "32",
        "@feature": "ShadowCataclysm"
      },
      {
        "@id": "33"
      },
      {
        "@id": "34",
        "@name": "마크52 알파"
      },
      {
        "@id": "35"
      },
      {
        "@id": "36"
      },
      {
        "@id": "37"
      },
      {
        "@id": "38"
      },
      {
        "@id": "39",
        "@name": "그리피나"
      },
      {
        "@id": "40"
      },
      {
        "@id": "41"
      },
      {
        "@id": "42"
      },
      {
        "@id": "43"
      },
      {
        "@id": "44",
        "@name": "로로와 무무스"
      },
      {
        "@id": "45",
        "@name": "바야르 수문장"
      },
      {
        "@id": "46"
      },
      {
        "@id": "47"
      },
      {
        "@id": "48"
      },
      {
        "@id": "49",
        "@name": "알파 터틀"
      },
      {
        "@id": "50"
      },
      {
        "@id": "51",
        "@name": "분노의 바포메트"
      },
      {
        "@id": "52",
        "@name": "레르노스"
      },
      {
        "@id": "53"
      },
      {
        "@id": "54"
      },
      {
        "@id": "55"
      },
      {
        "@id": "56"
      },
      {
        "@id": "57"
      },
      {
        "@id": "58",
        "@name": "토토와 구구스"
      },
      {
        "@id": "59",
        "@name": "비공정 루미윈드",
        "@feature": "KarkarIsland"
      },
      {
        "@id": "60"
      },
      {
        "@id": "61",
        "@name": "페카노스"
      },
      {
        "@id": "62",
        "@name": "아마돈",
        "@feature": "KarkarIsland"
      },
      {
        "@id": "63"
      },
      {
        "@id": "64"
      },
      {
        "@id": "65",
        "@feature": "AricariDailyQ"
      },
      {
        "@id": "67",
        "@name": "푸른 별",
        "@feature": "Season3"
      },
      {
        "@id": "68",
        "@name": "붉은 별",
        "@feature": "Season3"
      },
      {
        "@id": "69",
        "@name": "비틀린 공간의 틈",
        "@feature": "ShadowCrack"
      },
      {
        "@id": "70",
        "@name": "특성",
        "@feature": "CharacterAbility"
      },
      {
        "@id": "71",
        "@name": "젬스톤",
        "@feature": "ItemSocketSystem"
      },
      {
        "@id": "73"
      },
      {
        "@id": "201",
        "@name": "우레우스",
        "@feature": "KarkarIsland"
      },
      {
        "@id": "202",
        "@name": "이카르 마드",
        "@feature": "BattleField51to55"
      },
      {
        "@id": "203",
        "@name": "냉혈한 바포메트",
        "@feature": "BattleField51to55"
      },
      {
        "@id": "204",
        "@name": "아크레온",
        "@feature": "KarkarIsland"
      },
      {
        "@id": "205"
      },
      {
        "@id": "206"
      },
      {
        "@id": "207"
      },
      {
        "@id": "208",
        "@feature": "TimeAttackDungeon"
      },
      {
        "@id": "209"
      },
      {
        "@id": "210"
      },
      {
        "@id": "211"
      },
      {
        "@id": "212"
      },
      {
        "@id": "213"
      },
      {
        "@id": "214"
      },
      {
        "@id": "215"
      },
      {
        "@id": "216"
      },
      {
        "@id": "217"
      },
      {
        "@id": "219"
      },
      {
        "@id": "220"
      },
      {
        "@id": "221"
      },
      {
        "@id": "223"
      },
      {
        "@id": "224"
      },
      {
        "@id": "226"
      },
      {
        "@id": "227"
      },
      {
        "@id": "228"
      },
      {
        "@id": "229"
      },
      {
        "@id": "230"
      },
      {
        "@id": "231"
      },
      {
        "@id": "232"
      },
      {
        "@id": "233"
      },
      {
        "@id": "234"
      },
      {
        "@id": "235"
      },
      {
        "@id": "236"
      },
      {
        "@id": "237"
      },
      {
        "@id": "238"
      },
      {
        "@id": "239"
      },
      {
        "@id": "240"
      },
      {
        "@id": "241"
      },
      {
        "@id": "242",
        "@name": "전직",
        "@feature": "JobChange_01"
      },
      {
        "@id": "243",
        "@name": "라펜샤드",
        "@feature": "Lapenshard01"
      },
      {
        "@id": "244",
        "@feature": "LapentaDungeon"
      },
      {
        "@id": "245",
        "@feature": "LapentaDungeon"
      },
      {
        "@id": "246",
        "@feature": "LapentaDungeon"
      },
      {
        "@id": "247",
        "@feature": "LapentaDungeon"
      },
      {
        "@id": "248",
        "@name": "전직",
        "@feature": "JobChange_01"
      },
      {
        "@id": "249",
        "@name": "라펜샤드",
        "@feature": "Lapenshard01"
      },
      {
        "@id": "250",
        "@feature": "LapentaDungeon"
      },
      {
        "@id": "251",
        "@feature": "LapentaDungeon"
      },
      {
        "@id": "252",
        "@feature": "LapentaDungeon"
      },
      {
        "@id": "253",
        "@feature": "LapentaDungeon"
      },
      {
        "@id": "257"
      },
      {
        "@id": "258"
      },
      {
        "@id": "259"
      },
      {
        "@id": "260",
        "@feature": "ItemPartyDungeon"
      },
      {
        "@id": "261",
        "@feature": "GuildMinigame01"
      },
      {
        "@id": "262",
        "@feature": "GuildQuest01"
      },
      {
        "@id": "263",
        "@feature": "GuildHouse01"
      },
      {
        "@id": "264",
        "@feature": "Club"
      },
      {
        "@id": "265",
        "@feature": "Mastery"
      },
      {
        "@id": "266",
        "@feature": "Mastery"
      },
      {
        "@id": "267",
        "@feature": "UGCMapRenewal2"
      },
      {
        "@id": "268",
        "@feature": "MagicScroll01"
      },
      {
        "@id": "269",
        "@feature": "GuildRaid01"
      },
      {
        "@id": "271",
        "@feature": "JobChange_02"
      },
      {
        "@id": "272",
        "@feature": "Kritias_2018_12"
      },
      {
        "@id": "273",
        "@feature": "Fieldwar01"
      },
      {
        "@id": "274",
        "@feature": "Gigantica01"
      },
      {
        "@id": "275",
        "@feature": "Kritias_Paika01"
      },
      {
        "@id": "276",
        "@feature": "Kritias_Balrog01"
      },
      {
        "@id": "277",
        "@feature": "Kritias_Zakum01"
      },
      {
        "@id": "278",
        "@feature": "Kritias_Zakum01"
      },
      {
        "@id": "279",
        "@feature": "Kritias_Inferno01"
      },
      {
        "@id": "280",
        "@feature": "Kritias_Inferno01"
      },
      {
        "@id": "281",
        "@feature": "Colosseum01"
      },
      {
        "@id": "297",
        "@name": "일일 퀘스트"
      },
      {
        "@id": "298",
        "@name": "푸른 별",
        "@feature": "Season3"
      },
      {
        "@id": "299",
        "@name": "붉은 별",
        "@feature": "Season3"
      },
      {
        "@id": "1001"
      },
      {
        "@id": "1002"
      },
      {
        "@id": "1003",
        "@name": "푸른 별"
      },
      {
        "@id": "1004",
        "@name": "붉은 별"
      },
      {
        "@id": "1005",
        "@name": "우레우스"
      },
      {
        "@id": "1006",
        "@name": "이카르 마드"
      },
      {
        "@id": "1007",
        "@name": "냉혈한 바포메트"
      },
      {
        "@id": "1008",
        "@name": "아크레온"
      },
      {
        "@id": "1009"
      },
      {
        "@id": "1010"
      },
      {
        "@id": "1011"
      },
      {
        "@id": "1012"
      },
      {
        "@id": "1013"
      },
      {
        "@id": "1014"
      },
      {
        "@id": "1015"
      },
      {
        "@id": "1016"
      },
      {
        "@id": "1017"
      },
      {
        "@id": "1018"
      },
      {
        "@id": "1019"
      },
      {
        "@id": "1020"
      },
      {
        "@id": "1021"
      },
      {
        "@id": "1022"
      },
      {
        "@id": "1023"
      },
      {
        "@id": "1024"
      },
      {
        "@id": "1025"
      },
      {
        "@id": "1026"
      }
    ]
  }
}
