{
  "?xml": {
    "@version": "1.0",
    "@encoding": "utf-8"
  },
  "ms2": {
    "key": [
      {
        "@id": "1",
        "@name": "관리"
      },
      {
        "@id": "2",
        "@name": "운영"
      },
      {
        "@id": "3",
        "@name": "도우미"
      },
      {
        "@id": "4",
        "@name": "공지"
      },
      {
        "@id": "5",
        "@name": "개발"
      },
      {
        "@id": "6",
        "@name": "admin"
      },
      {
        "@id": "7",
        "@name": "메이플"
      },
      {
        "@id": "8",
        "@name": "넥슨"
      },
      {
        "@id": "9",
        "@name": "maple"
      },
      {
        "@id": "10",
        "@name": "nexon"
      },
      {
        "@id": "11",
        "@name": "mapIe"
      },
      {
        "@id": "12",
        "@name": "이벤트"
      },
      {
        "@id": "13",
        "@name": "event"
      },
      {
        "@id": "14",
        "@name": "gm"
      },
      {
        "@id": "15",
        "@name": "테스트"
      },
      {
        "@id": "16",
        "@name": "test"
      },
      {
        "@id": "17",
        "@name": "시스템"
      },
      {
        "@id": "18",
        "@name": "system"
      },
      {
        "@id": "19",
        "@name": "password"
      },
      {
        "@id": "20",
        "@name": "비밀번호"
      },
      {
        "@id": "21",
        "@name": "패스워드"
      },
      {
        "@id": "22",
        "@name": "지앰"
      },
      {
        "@id": "23",
        "@name": "쥐앰"
      },
      {
        "@id": "24",
        "@name": "지엠"
      },
      {
        "@id": "25",
        "@name": "쥐엠"
      },
      {
        "@id": "26",
        "@name": "QA"
      },
      {
        "@id": "27",
        "@name": "MS2"
      },
      {
        "@id": "28",
        "@name": "메소"
      },
      {
        "@id": "29",
        "@name": "meso"
      },
      {
        "@id": "30",
        "@name": "메럿"
      },
      {
        "@id": "31",
        "@name": "merat"
      }
    ]
  }
}
