{
  "?xml": {
    "@version": "1.0",
    "@encoding": "utf-8"
  },
  "ms2": {
    "key": [
      {
        "@id": "10000001",
        "@name": "해머링"
      },
      {
        "@id": "10000011",
        "@name": "파워 스트라이크"
      },
      {
        "@id": "10000021",
        "@name": "달팽이 던지기"
      },
      {
        "@id": "10000031",
        "@name": "박치기"
      },
      {
        "@id": "10000041",
        "@name": "앞구르기"
      },
      {
        "@id": "10000051",
        "@name": "원기 회복"
      },
      {
        "@id": "10000061",
        "@name": "무직의 저력"
      },
      {
        "@id": "19900001",
        "@name": "GM의 심판"
      },
      {
        "@id": "19900011",
        "@name": "고속 비행"
      },
      {
        "@id": "19900021",
        "@name": "숟가락 올리기"
      },
      {
        "@id": "19900031",
        "@name": "GM의 사랑"
      },
      {
        "@id": "19900032",
        "@name": "GM의 사랑 스플래쉬"
      },
      {
        "@id": "19900041",
        "@name": "GM의 응원"
      },
      {
        "@id": "19900042",
        "@name": "GM의 응원 스플래쉬"
      },
      {
        "@id": "19900051",
        "@name": "GM의 앙탈"
      },
      {
        "@id": "19900052",
        "@name": "GM의 앙탈 스플래쉬"
      },
      {
        "@id": "19900061",
        "@name": "GM의 일격"
      },
      {
        "@id": "19999991",
        "@name": "카메라 촬영"
      }
    ]
  }
}
