{
  "?xml": {
    "@version": "1.0",
    "@encoding": "utf-8"
  },
  "ms2": {
    "key": [
      {
        "@id": "11000001",
        "@name": "마하 펀치",
        "@feature": "Striker"
      },
      {
        "@id": "11000011",
        "@name": "펀치 콤비네이션",
        "@feature": "Striker"
      },
      {
        "@id": "11000012",
        "@name": "펀치 콤비네이션 EX",
        "@feature": "Striker"
      },
      {
        "@id": "11000021",
        "@name": "비트 다운",
        "@feature": "Striker"
      },
      {
        "@id": "11000026",
        "@name": "비트 다운 EX",
        "@feature": "Striker"
      },
      {
        "@id": "11000031",
        "@name": "라이징 킥",
        "@feature": "Striker"
      },
      {
        "@id": "11000032",
        "@name": "라이징 킥 EX",
        "@feature": "Striker"
      },
      {
        "@id": "11000041",
        "@name": "길로틴",
        "@feature": "Striker"
      },
      {
        "@id": "11000042",
        "@name": "길로틴 EX",
        "@feature": "Striker"
      },
      {
        "@id": "11000051",
        "@name": "가드 대쉬",
        "@feature": "Striker"
      },
      {
        "@id": "11000053",
        "@name": "가드 대쉬 EX",
        "@feature": "JobChange_01"
      },
      {
        "@id": "11000055",
        "@name": "가드 대쉬 EX",
        "@feature": "JobChange_01"
      },
      {
        "@id": "11000061",
        "@name": "허리케인 커터",
        "@feature": "Striker"
      },
      {
        "@id": "11000071",
        "@name": "하드 펀처",
        "@feature": "Striker"
      },
      {
        "@id": "11000081",
        "@name": "미사일 너클",
        "@feature": "Striker"
      },
      {
        "@id": "11000082",
        "@name": "연계 기능",
        "@feature": "Striker"
      },
      {
        "@id": "11000091",
        "@name": "기간틱 버스트",
        "@feature": "Striker"
      },
      {
        "@id": "11000101",
        "@name": "한계돌파",
        "@feature": "Striker"
      },
      {
        "@id": "11000111",
        "@name": "킥 테크니션",
        "@feature": "Striker"
      },
      {
        "@id": "11000121",
        "@name": "투혼",
        "@feature": "Striker"
      },
      {
        "@id": "11000131",
        "@name": "드래곤 킥",
        "@feature": "Striker"
      },
      {
        "@id": "11000132",
        "@name": "화룡 폭열각",
        "@feature": "JobChange_01"
      },
      {
        "@id": "11000141",
        "@name": "매그넘 블로우",
        "@feature": "Striker"
      },
      {
        "@id": "11000144",
        "@name": "기간틱 블로우",
        "@feature": "JobChange_01"
      },
      {
        "@id": "11000151",
        "@name": "페이스 컨트롤",
        "@feature": "Striker"
      },
      {
        "@id": "11000161",
        "@name": "패턴 브레이크",
        "@feature": "Striker"
      },
      {
        "@id": "11000171",
        "@name": "펀치 프레셔",
        "@feature": "JobChange_01"
      },
      {
        "@id": "11000181",
        "@name": "폴 다운 스매쉬",
        "@feature": "JobChange_01"
      },
      {
        "@id": "11000182",
        "@name": "폴 다운 스매쉬 EX",
        "@feature": "JobChange_01"
      },
      {
        "@id": "11000183",
        "@name": "화룡 승천격",
        "@feature": "JobChange_01"
      },
      {
        "@id": "11000191",
        "@name": "발칸 펀치",
        "@feature": "JobChange_01"
      },
      {
        "@id": "11000192",
        "@name": "발칸 펀치 EX",
        "@feature": "JobChange_01"
      },
      {
        "@id": "11000211",
        "@name": "혈도 개방 1단계",
        "@feature": "JobChange_01"
      },
      {
        "@id": "11000212",
        "@name": "혈도 개방 2단계",
        "@feature": "JobChange_01"
      },
      {
        "@id": "11000213",
        "@name": "혈도 개방 3단계",
        "@feature": "JobChange_01"
      },
      {
        "@id": "11000214",
        "@name": "원 인치 펀치",
        "@feature": "JobChange_01"
      },
      {
        "@id": "11000241",
        "@name": "셋업 킥",
        "@feature": "JobChange_01"
      },
      {
        "@id": "11000261",
        "@name": "스파이럴 캐논",
        "@feature": "JobChange_01"
      },
      {
        "@id": "11000262",
        "@name": "스파이럴 캐논 EX",
        "@feature": "JobChange_01"
      },
      {
        "@id": "11000263",
        "@name": "스파이럴 캐논 EX 2타",
        "@feature": "JobChange_01"
      },
      {
        "@id": "11000264",
        "@name": "스파이럴 캐논 EX 3타",
        "@feature": "JobChange_01"
      },
      {
        "@id": "11000265",
        "@name": "토네이도 커터",
        "@feature": "JobChange_02"
      },
      {
        "@id": "11000266",
        "@name": "토네이도 커터EX",
        "@feature": "JobChange_02"
      },
      {
        "@id": "11000271",
        "@name": "스핀 킥",
        "@feature": "JobChange_01"
      },
      {
        "@id": "11000272",
        "@name": "스핀 킥 EX",
        "@feature": "JobChange_01"
      },
      {
        "@id": "11000281",
        "@name": "축퇴",
        "@feature": "JobChange_01"
      },
      {
        "@id": "11000286",
        "@name": "축 퇴 자신감 버프",
        "@feature": "JobChange_01"
      },
      {
        "@id": "11000291",
        "@name": "히트 사이클링",
        "@feature": "JobChange_01"
      },
      {
        "@id": "11000311",
        "@name": "넘치는 투지",
        "@feature": "JobChange_02"
      },
      {
        "@id": "11000312",
        "@name": "혈도 개방EX 1단계",
        "@feature": "JobChange_02"
      },
      {
        "@id": "11000313",
        "@name": "혈도 개방EX 2단계",
        "@feature": "JobChange_02"
      },
      {
        "@id": "11000315",
        "@name": "혈도 개방EX 1단계 디버프",
        "@feature": "JobChange_02"
      },
      {
        "@id": "11000316",
        "@name": "원 인치 펀치EX",
        "@feature": "JobChange_02"
      },
      {
        "@id": "11000319",
        "@name": "혈도 개방EX 2단계 디버프",
        "@feature": "JobChange_02"
      },
      {
        "@id": "11000321",
        "@name": "얼티밋 러쉬",
        "@feature": "JobChange_02"
      },
      {
        "@id": "11000331",
        "@name": "휘몰아치는 화염",
        "@feature": "JobChange_02"
      },
      {
        "@id": "11000341",
        "@name": "얼티밋 디스트로이 킥",
        "@feature": "JobChange_02"
      }
    ]
  }
}
