{
  "?xml": {
    "@version": "1.0",
    "@encoding": "utf-8"
  },
  "ms2": {
    "key": [
      {
        "@id": "10200001",
        "@name": "레이지 슬래쉬"
      },
      {
        "@id": "10200011",
        "@name": "휩쓸기"
      },
      {
        "@id": "10200021",
        "@name": "전사의 일격"
      },
      {
        "@id": "10200031",
        "@name": "어둠의 기운"
      },
      {
        "@id": "10200041",
        "@name": "보이드 슬래쉬"
      },
      {
        "@id": "10200051",
        "@name": "피의 갈망"
      },
      {
        "@id": "10200061",
        "@name": "위협"
      },
      {
        "@id": "10200062",
        "@name": "위협 강화형"
      },
      {
        "@id": "10200063",
        "@name": "위협 스턴 효과"
      },
      {
        "@id": "10200071",
        "@name": "어둠의 섬멸"
      },
      {
        "@id": "10200081",
        "@name": "아드레날린"
      },
      {
        "@id": "10200082",
        "@name": "아드레날린 2단계"
      },
      {
        "@id": "10200083",
        "@name": "아드레날린 3단계"
      },
      {
        "@id": "10200091",
        "@name": "엑스 슬래쉬"
      },
      {
        "@id": "10200101",
        "@name": "인듀어"
      },
      {
        "@id": "10200111",
        "@name": "출혈"
      },
      {
        "@id": "10200121",
        "@name": "라지 소드 마스터리"
      },
      {
        "@id": "10200131",
        "@name": "어둠의 지배자"
      },
      {
        "@id": "10200141",
        "@name": "피의 제물"
      },
      {
        "@id": "10200151",
        "@name": "투쟁심"
      },
      {
        "@id": "10200161",
        "@name": "지진"
      },
      {
        "@id": "10200171",
        "@name": "에어리얼 스매쉬",
        "@feature": "JobChange_01"
      },
      {
        "@id": "10200181",
        "@name": "달 쳐내기",
        "@feature": "JobChange_01"
      },
      {
        "@id": "10200191",
        "@name": "무한한 어둠",
        "@feature": "JobChange_01"
      },
      {
        "@id": "10200201",
        "@name": "두골 쪼개기",
        "@feature": "JobChange_01"
      },
      {
        "@id": "10200207",
        "@name": "전사의 일격",
        "@feature": "JobChange_01"
      },
      {
        "@id": "10200211",
        "@name": "피의 광란",
        "@feature": "JobChange_01"
      },
      {
        "@id": "10200221",
        "@name": "광전사의 혼",
        "@feature": "JobChange_01"
      },
      {
        "@id": "10200231",
        "@name": "돌풍",
        "@feature": "JobChange_01"
      },
      {
        "@id": "10200233",
        "@name": "돌개 바람",
        "@feature": "JobChange_01"
      },
      {
        "@id": "10200234",
        "@name": "돌개 바람",
        "@feature": "JobChange_01"
      },
      {
        "@id": "10200241",
        "@name": "상처 찢기",
        "@feature": "JobChange_01"
      },
      {
        "@id": "10200251",
        "@name": "블러드 슬래쉬",
        "@feature": "JobChange_01"
      },
      {
        "@id": "10200255",
        "@name": "어둠 블러드 슬래쉬",
        "@feature": "JobChange_01"
      },
      {
        "@id": "10200257",
        "@name": "블러드 슬래쉬 회전 공격",
        "@feature": "JobChange_01"
      },
      {
        "@id": "10200261",
        "@name": "고군분투",
        "@feature": "JobChange_02"
      },
      {
        "@id": "10200271",
        "@name": "절단",
        "@feature": "JobChange_02"
      },
      {
        "@id": "10200281",
        "@name": "크리플",
        "@feature": "JobChange_02"
      },
      {
        "@id": "10200291",
        "@name": "더스크 폴",
        "@feature": "JobChange_02"
      }
    ]
  }
}
