{
  "?xml": {
    "@version": "1.0",
    "@encoding": "utf-8"
  },
  "ms2": {
    "key": [
      {
        "@id": "11100001",
        "@name": "버블 패시브",
        "@feature": "SoulBinder"
      },
      {
        "@id": "11100011",
        "@name": "체인 스피어",
        "@feature": "SoulBinder"
      },
      {
        "@id": "11100012",
        "@name": "체인 스피어 2타",
        "@feature": "SoulBinder"
      },
      {
        "@id": "11100013",
        "@name": "체인 스피어 3타",
        "@feature": "SoulBinder"
      },
      {
        "@id": "11100021",
        "@name": "슈팅 스타",
        "@feature": "SoulBinder"
      },
      {
        "@id": "11100022",
        "@name": "슈팅 스타 2단계",
        "@feature": "SoulBinder"
      },
      {
        "@id": "11100023",
        "@name": "슈팅 스타 3단계",
        "@feature": "SoulBinder"
      },
      {
        "@id": "11100024",
        "@name": "슈팅 스타 4단계",
        "@feature": "SoulBinder"
      },
      {
        "@id": "11100025",
        "@name": "슈팅 스타 5단계",
        "@feature": "SoulBinder"
      },
      {
        "@id": "11100031",
        "@name": "포커싱 애니마르",
        "@feature": "SoulBinder"
      },
      {
        "@id": "11100041",
        "@name": "레이 스톰",
        "@feature": "SoulBinder"
      },
      {
        "@id": "11100051",
        "@name": "일루전",
        "@feature": "SoulBinder"
      },
      {
        "@id": "11100061",
        "@name": "만트라 개방",
        "@feature": "SoulBinder"
      },
      {
        "@id": "11100062",
        "@name": "각성 만트라 개방",
        "@feature": "JobChange_01"
      },
      {
        "@id": "11100071",
        "@name": "스플릿 배리어",
        "@feature": "SoulBinder"
      },
      {
        "@id": "11100072",
        "@name": "스플릿 배리어 2단계",
        "@feature": "SoulBinder"
      },
      {
        "@id": "11100073",
        "@name": "스플릿 배리어 3단계",
        "@feature": "SoulBinder"
      },
      {
        "@id": "11100074",
        "@name": "스플릿 배리어 4단계",
        "@feature": "SoulBinder"
      },
      {
        "@id": "11100075",
        "@name": "스플릿 배리어 5단계",
        "@feature": "SoulBinder"
      },
      {
        "@id": "11100081",
        "@name": "익스팬션 볼",
        "@feature": "SoulBinder"
      },
      {
        "@id": "11100082",
        "@name": "익스팬션 볼 2단계",
        "@feature": "SoulBinder"
      },
      {
        "@id": "11100083",
        "@name": "익스팬션 볼 3단계",
        "@feature": "SoulBinder"
      },
      {
        "@id": "11100084",
        "@name": "익스팬션 볼 4단계",
        "@feature": "SoulBinder"
      },
      {
        "@id": "11100085",
        "@name": "익스팬션 볼 5단계",
        "@feature": "SoulBinder"
      },
      {
        "@id": "11100089",
        "@name": "스피릿 익스팬션 볼",
        "@feature": "JobChange_01"
      },
      {
        "@id": "11100091",
        "@name": "나르바샨 해방",
        "@feature": "SoulBinder"
      },
      {
        "@id": "11100101",
        "@name": "라이프 스트링",
        "@feature": "SoulBinder"
      },
      {
        "@id": "11100102",
        "@name": "라이프 스트링 2단계",
        "@feature": "SoulBinder"
      },
      {
        "@id": "11100103",
        "@name": "라이프 스트링 3단계",
        "@feature": "SoulBinder"
      },
      {
        "@id": "11100104",
        "@name": "라이프 스트링 4단계",
        "@feature": "SoulBinder"
      },
      {
        "@id": "11100105",
        "@name": "라이프 스트링 5단계",
        "@feature": "SoulBinder"
      },
      {
        "@id": "11100111",
        "@name": "플래쉬 스트라이크",
        "@feature": "SoulBinder"
      },
      {
        "@id": "11100112",
        "@name": "비전 파동",
        "@feature": "JobChange_01"
      },
      {
        "@id": "11100121",
        "@name": "체인 익스플로전",
        "@feature": "SoulBinder"
      },
      {
        "@id": "11100131",
        "@name": "원기방전",
        "@feature": "SoulBinder"
      },
      {
        "@id": "11100132",
        "@name": "원기방전 2단계",
        "@feature": "SoulBinder"
      },
      {
        "@id": "11100133",
        "@name": "원기방전 3단계",
        "@feature": "SoulBinder"
      },
      {
        "@id": "11100134",
        "@name": "원기방전 4단계",
        "@feature": "SoulBinder"
      },
      {
        "@id": "11100135",
        "@name": "원기방전 5단계",
        "@feature": "SoulBinder"
      },
      {
        "@id": "11100141",
        "@name": "사이클론 봄버",
        "@feature": "SoulBinder"
      },
      {
        "@id": "11100151",
        "@name": "에너지 스트림",
        "@feature": "SoulBinder"
      },
      {
        "@id": "11100153",
        "@name": "에너지 스트림 2단계",
        "@feature": "SoulBinder"
      },
      {
        "@id": "11100154",
        "@name": "에너지 스트림 3단계",
        "@feature": "SoulBinder"
      },
      {
        "@id": "11100155",
        "@name": "에너지 스트림 4단계",
        "@feature": "SoulBinder"
      },
      {
        "@id": "11100156",
        "@name": "에너지 스트림 5단계",
        "@feature": "SoulBinder"
      },
      {
        "@id": "11100161",
        "@name": "오브 마스터리",
        "@feature": "SoulBinder"
      },
      {
        "@id": "11100171",
        "@name": "소생의 공간",
        "@feature": "SoulBinder"
      },
      {
        "@id": "11100181",
        "@name": "스피릿 바운드",
        "@feature": "JobChange_01"
      },
      {
        "@id": "11100184",
        "@name": "강화 스피릿 바운드",
        "@feature": "JobChange_01"
      },
      {
        "@id": "11100191",
        "@name": "스피릿 크러쉬",
        "@feature": "JobChange_01"
      },
      {
        "@id": "11100192",
        "@name": "강화 스피릿 크러쉬",
        "@feature": "JobChange_01"
      },
      {
        "@id": "11100193",
        "@name": "비전 크러쉬",
        "@feature": "JobChange_01"
      },
      {
        "@id": "11100201",
        "@name": "비전 격류",
        "@feature": "JobChange_01"
      },
      {
        "@id": "11100202",
        "@name": "비전 격류",
        "@feature": "JobChange_02"
      },
      {
        "@id": "11100204",
        "@name": "힘의 해방",
        "@feature": "JobChange_02"
      },
      {
        "@id": "11100211",
        "@name": "각성한 정신체",
        "@feature": "JobChange_01"
      },
      {
        "@id": "11100221",
        "@name": "소울 버드",
        "@feature": "JobChange_01"
      },
      {
        "@id": "11100231",
        "@name": "소울 스퀘어",
        "@feature": "JobChange_01"
      },
      {
        "@id": "11100232",
        "@name": "강화 소울 스퀘어",
        "@feature": "JobChange_01"
      },
      {
        "@id": "11100241",
        "@name": "하모니 오브 소울",
        "@feature": "JobChange_01"
      },
      {
        "@id": "11100242",
        "@name": "디서넌스 오브 소울",
        "@feature": "JobChange_01"
      },
      {
        "@id": "11100244",
        "@name": "하모니 오브 소울",
        "@feature": "JobChange_02"
      },
      {
        "@id": "11100251",
        "@name": "트라이포스 링크",
        "@feature": "JobChange_01"
      },
      {
        "@id": "11100261",
        "@name": "스피릿 번",
        "@feature": "JobChange_02"
      },
      {
        "@id": "11100271",
        "@name": "스피릿 번",
        "@feature": "JobChange_02"
      },
      {
        "@id": "11100281",
        "@name": "스피릿 번",
        "@feature": "JobChange_02"
      },
      {
        "@id": "11100292",
        "@name": "비전 스피릿 번",
        "@feature": "JobChange_02"
      },
      {
        "@id": "11100301",
        "@name": "힘의 해방",
        "@feature": "JobChange_02"
      },
      {
        "@id": "11100311",
        "@name": "소울 크리스탈",
        "@feature": "JobChange_02"
      },
      {
        "@id": "11100315",
        "@name": "소울 크리스탈",
        "@feature": "JobChange_02"
      },
      {
        "@id": "11100321",
        "@name": "완벽한 선율",
        "@feature": "JobChange_02"
      }
    ]
  }
}
