{
  "?xml": {
    "@version": "1.0",
    "@encoding": "utf-8"
  },
  "ms2": {
    "key": [
      {
        "@id": "10400001",
        "@name": "천상의 빛"
      },
      {
        "@id": "10400002",
        "@name": "심판의 빛",
        "@feature": "JobChange_01"
      },
      {
        "@id": "10400003",
        "@name": "정화의 빛",
        "@feature": "JobChange_01"
      },
      {
        "@id": "10400011",
        "@name": "홀리 익스플로전"
      },
      {
        "@id": "10400013",
        "@name": "홀리 익스플로전 EX"
      },
      {
        "@id": "10400021",
        "@name": "홀 마스터리"
      },
      {
        "@id": "10400022",
        "@name": "엔젤 레이 EX"
      },
      {
        "@id": "10400031",
        "@name": "홀리 크로스"
      },
      {
        "@id": "10400041",
        "@name": "실드 오브 아콘"
      },
      {
        "@id": "10400051",
        "@name": "홀리 심볼"
      },
      {
        "@id": "10400061",
        "@name": "성역"
      },
      {
        "@id": "10400071",
        "@name": "힐"
      },
      {
        "@id": "10400072",
        "@name": "힐",
        "@feature": "JobChange_01"
      },
      {
        "@id": "10400081",
        "@name": "천상의 수호자"
      },
      {
        "@id": "10400091",
        "@name": "천상의 축복"
      },
      {
        "@id": "10400101",
        "@name": "정화의 물결"
      },
      {
        "@id": "10400102",
        "@name": "정화의 물결 EX"
      },
      {
        "@id": "10400111",
        "@name": "굳은 믿음"
      },
      {
        "@id": "10400121",
        "@name": "성령의 기운"
      },
      {
        "@id": "10400131",
        "@name": "디사이플"
      },
      {
        "@id": "10400141",
        "@name": "치유 마스터리"
      },
      {
        "@id": "10400151",
        "@name": "천상의 날개"
      },
      {
        "@id": "10400161",
        "@name": "엔젤 레이"
      },
      {
        "@id": "10400171",
        "@name": "심판의 빛",
        "@feature": "JobChange_01"
      },
      {
        "@id": "10400181",
        "@name": "헤븐즈 익스플로전",
        "@feature": "JobChange_01"
      },
      {
        "@id": "10400186",
        "@name": "헤븐즈 익스플로전",
        "@feature": "JobChange_02"
      },
      {
        "@id": "10400191",
        "@name": "빛의 창",
        "@feature": "JobChange_01"
      },
      {
        "@id": "10400193",
        "@name": "빛의 검",
        "@feature": "JobChange_01"
      },
      {
        "@id": "10400211",
        "@name": "디바인 웨이브",
        "@feature": "JobChange_01"
      },
      {
        "@id": "10400221",
        "@name": "정화의 빛",
        "@feature": "JobChange_01"
      },
      {
        "@id": "10400231",
        "@name": "그레이터 힐",
        "@feature": "JobChange_01"
      },
      {
        "@id": "10400241",
        "@name": "생명의 수호자",
        "@feature": "JobChange_01"
      },
      {
        "@id": "10400251",
        "@name": "홀리 포커스",
        "@feature": "JobChange_01"
      },
      {
        "@id": "10400261",
        "@name": "활력",
        "@feature": "JobChange_01"
      },
      {
        "@id": "10400271",
        "@name": "신의 십자가",
        "@feature": "JobChange_02"
      },
      {
        "@id": "10400281",
        "@name": "홀리 익스텐션",
        "@feature": "JobChange_02"
      },
      {
        "@id": "10400291",
        "@name": "홀리 플레이스",
        "@feature": "JobChange_02"
      },
      {
        "@id": "10400301",
        "@name": "신성한 힘",
        "@feature": "JobChange_02"
      }
    ]
  }
}
