{
  "?xml": {
    "@version": "1.0",
    "@encoding": "utf-8"
  },
  "ms2": {
    "key": [
      {
        "@id": "100001",
        "@name": "",
        "@command": "Slime1",
        "@feature": "ChatEmoticon"
      },
      {
        "@id": "100002",
        "@name": "",
        "@command": "Slime2",
        "@feature": "ChatEmoticon"
      },
      {
        "@id": "100003",
        "@name": "",
        "@command": "Slime3",
        "@feature": "ChatEmoticon"
      },
      {
        "@id": "100004",
        "@name": "",
        "@command": "Slime4",
        "@feature": "ChatEmoticon"
      },
      {
        "@id": "100005",
        "@name": "",
        "@command": "Slime5",
        "@feature": "ChatEmoticon"
      },
      {
        "@id": "100006",
        "@name": "",
        "@command": "Slime6",
        "@feature": "ChatEmoticon"
      },
      {
        "@id": "100007",
        "@name": "",
        "@command": "Slime7",
        "@feature": "ChatEmoticon"
      },
      {
        "@id": "100008",
        "@name": "",
        "@command": "Slime8",
        "@feature": "ChatEmoticon"
      },
      {
        "@id": "200001",
        "@name": "",
        "@command": "Ducky1",
        "@feature": "ChatEmoticon"
      },
      {
        "@id": "200002",
        "@name": "",
        "@command": "Ducky2",
        "@feature": "ChatEmoticon"
      },
      {
        "@id": "200003",
        "@name": "",
        "@command": "Ducky3",
        "@feature": "ChatEmoticon"
      },
      {
        "@id": "200004",
        "@name": "",
        "@command": "Ducky4",
        "@feature": "ChatEmoticon"
      },
      {
        "@id": "200005",
        "@name": "",
        "@command": "Ducky5",
        "@feature": "ChatEmoticon"
      },
      {
        "@id": "200006",
        "@name": "",
        "@command": "Ducky6",
        "@feature": "ChatEmoticon"
      },
      {
        "@id": "200007",
        "@name": "",
        "@command": "Ducky7",
        "@feature": "ChatEmoticon"
      },
      {
        "@id": "200008",
        "@name": "",
        "@command": "Ducky8",
        "@feature": "ChatEmoticon"
      },
      {
        "@id": "300001",
        "@name": "",
        "@command": "OrangeMushroom1",
        "@feature": "ChatEmoticon"
      },
      {
        "@id": "300002",
        "@name": "",
        "@command": "OrangeMushroom2",
        "@feature": "ChatEmoticon"
      },
      {
        "@id": "300003",
        "@name": "",
        "@command": "OrangeMushroom3",
        "@feature": "ChatEmoticon"
      },
      {
        "@id": "300004",
        "@name": "",
        "@command": "OrangeMushroom4",
        "@feature": "ChatEmoticon"
      },
      {
        "@id": "300005",
        "@name": "",
        "@command": "OrangeMushroom5",
        "@feature": "ChatEmoticon"
      },
      {
        "@id": "300006",
        "@name": "",
        "@command": "OrangeMushroom6",
        "@feature": "ChatEmoticon"
      },
      {
        "@id": "300007",
        "@name": "",
        "@command": "OrangeMushroom7",
        "@feature": "ChatEmoticon"
      },
      {
        "@id": "300008",
        "@name": "",
        "@command": "OrangeMushroom8",
        "@feature": "ChatEmoticon"
      },
      {
        "@id": "400001",
        "@name": "",
        "@command": "Urza1",
        "@feature": "ChatEmoticon"
      },
      {
        "@id": "400002",
        "@name": "",
        "@command": "Urza2",
        "@feature": "ChatEmoticon"
      },
      {
        "@id": "400003",
        "@name": "",
        "@command": "Urza3",
        "@feature": "ChatEmoticon"
      },
      {
        "@id": "400004",
        "@name": "",
        "@command": "Urza4",
        "@feature": "ChatEmoticon"
      },
      {
        "@id": "400005",
        "@name": "",
        "@command": "Urza5",
        "@feature": "ChatEmoticon"
      },
      {
        "@id": "400006",
        "@name": "",
        "@command": "Urza6",
        "@feature": "ChatEmoticon"
      },
      {
        "@id": "400007",
        "@name": "",
        "@command": "Urza7",
        "@feature": "ChatEmoticon"
      },
      {
        "@id": "400008",
        "@name": "",
        "@command": "Urza8",
        "@feature": "ChatEmoticon"
      },
      {
        "@id": "400009",
        "@name": "",
        "@command": "Urza9",
        "@feature": "ChatEmoticon"
      },
      {
        "@id": "400010",
        "@name": "",
        "@command": "Urza10",
        "@feature": "ChatEmoticon"
      },
      {
        "@id": "400011",
        "@name": "",
        "@command": "Urza11",
        "@feature": "ChatEmoticon"
      },
      {
        "@id": "400012",
        "@name": "",
        "@command": "Urza12",
        "@feature": "ChatEmoticon"
      },
      {
        "@id": "200009",
        "@name": "",
        "@command": "Ducky9",
        "@feature": "ChatEmoticon"
      },
      {
        "@id": "200010",
        "@name": "",
        "@command": "Ducky10",
        "@feature": "ChatEmoticon"
      },
      {
        "@id": "200011",
        "@name": "",
        "@command": "Ducky11",
        "@feature": "ChatEmoticon"
      },
      {
        "@id": "200012",
        "@name": "",
        "@command": "Ducky12",
        "@feature": "ChatEmoticon"
      }
    ]
  }
}
