{
  "?xml": {
    "@version": "1.0",
    "@encoding": "utf-8"
  },
  "ms2": {
    "key": [
      {
        "@id": "80000",
        "@name": "\n스카이 포트리스 퀘스트를 시작할 수 있습니다.\n( ! ) 말풍선을 확인 해보세요.",
        "@feature": "FameContents",
        "@npc": "안내원 나탈리"
      },
      {
        "@id": "80010",
        "@name": "대원 평가 절차를 시작 하겠습니다!",
        "@feature": "FameContents",
        "@npc": "네이린"
      },
      {
        "@id": "80020",
        "@name": "함재기 가동, 올 그린! 홀로그로브에서 출격 지역을 선택해주세요!",
        "@feature": "FameContents",
        "@npc": "네이린"
      },
      {
        "@id": "80022",
        "@name": "나뭇잎 하나, 작전 지역 도착 확인. 작전 목표를 수행해주세요.",
        "@feature": "FameContents",
        "@npc": "네이린"
      },
      {
        "@id": "80023",
        "@name": "나뭇잎 하나? 하하핫! 그린후드는 그런 콜싸인을 쓰는구나?",
        "@feature": "FameContents",
        "@npc": "샤텐"
      },
      {
        "@id": "80024",
        "@name": "알파-브라보-찰리 같은거 보다 직관적이고 편하다구요…!",
        "@feature": "FameContents",
        "@npc": "네이린"
      },
      {
        "@id": "80025",
        "@name": "롸져댓~리마-찰리~",
        "@feature": "FameContents",
        "@npc": "샤텐"
      },
      {
        "@id": "80030",
        "@name": "\n임무 완료!\n그럼 지금부터 함선으로 \n복귀 방법을 알려드릴게요!",
        "@feature": "FameContents",
        "@npc": "네이린"
      },
      {
        "@id": "80040",
        "@name": "세력별 평판 현황을 확인하시려면, 화살표를 따라 클릭해주세요.",
        "@feature": "FameContents",
        "@npc": "네이린"
      },
      {
        "@id": "80050",
        "@name": "월드맵을 열어서 현장 임무 지역을 확인해봐.",
        "@feature": "FameContents",
        "@npc": "샤텐"
      },
      {
        "@id": "80051",
        "@name": "자, 이제 다크윈드가 나설 차례인가?",
        "@feature": "FameContents",
        "@npc": "샤텐"
      },
      {
        "@id": "80060",
        "@name": "잘했어! 이제 함선으로 복귀 하도록해.",
        "@feature": "FameContents",
        "@npc": "샤텐"
      },
      {
        "@id": "80080",
        "@name": "화살표 지시를 따라 클릭 해보게!",
        "@feature": "FameContents",
        "@npc": "콘대르"
      },
      {
        "@id": "80081",
        "@name": "이봐 신입! 잠시 알려줄게 있으니 와보도록해!",
        "@feature": "FameContents",
        "@npc": "콘대르"
      },
      {
        "@id": "80090",
        "@name": "\n대원 평가에 대한 최종 보고를 받았다.\n잠시 이야기 하지.",
        "@feature": "FameContents",
        "@npc": "블리체"
      },
      {
        "@id": "93000123",
        "@name": "<font color=\"#ffd200\">인벤토리</font>를 열어 지급된\n<font color=\"#ffd200\">폭죽 아이템을 사용</font>하도록.\n앞으로 그것이 지원 요청 신호다.",
        "@feature": "FameContents",
        "@npc": "블리체"
      },
      {
        "@id": "93000124",
        "@name": "<font color=\"#ffd200\">인벤토리</font>를 열어 지급된\n<font color=\"#ffd200\">폭죽 아이템을 사용</font>하도록.\n앞으로 그것이 지원 요청 신호다.",
        "@feature": "FameContents",
        "@npc": "블리체"
      },
      {
        "@id": "93000125",
        "@name": "<font color=\"#ffd200\">인벤토리</font>를 열어 지급된\n<font color=\"#ffd200\">폭죽 아이템을 사용</font>하도록.\n앞으로 그것이 지원 요청 신호다.",
        "@feature": "FameContents",
        "@npc": "블리체"
      },
      {
        "@id": "93000126",
        "@name": "<font color=\"#ffd200\">인벤토리</font>를 열어 지급된\n<font color=\"#ffd200\">폭죽 아이템을 사용</font>하도록.\n앞으로 그것이 지원 요청 신호다.",
        "@feature": "FameContents",
        "@npc": "블리체"
      },
      {
        "@id": "93000127",
        "@name": "<font color=\"#ffd200\">인벤토리</font>를 열어 지급된\n<font color=\"#ffd200\">폭죽 아이템을 사용</font>하도록.\n앞으로 그것이 지원 요청 신호다.",
        "@feature": "FameContents",
        "@npc": "블리체"
      },
      {
        "@id": "93000158",
        "@name": "스카이 포트리스로 \n<font color=\"#ffd200\">아머드 체키</font> 고속 접근중!! 함선 갑판에 착륙을 시도하고 있습니다!!",
        "@feature": "FameContents",
        "@npc": "네이린"
      },
      {
        "@id": "91000020",
        "@name": "이렇게 임무 장소로도 막 보내주고 말이야! \n요즘 대원들은 \n임무할 맛나겠어!",
        "@feature": "FameContents",
        "@npc": "콘대르"
      },
      {
        "@id": "91000022",
        "@name": "어이, 이왕 거기 간 김에 프레이 녀석 일 잘하고 있나 감시좀 하고 와! 여제님을 맡겼는데 영 햇병아리여서 불안해!",
        "@feature": "FameContents",
        "@npc": "콘대르"
      },
      {
        "@id": "91000023",
        "@name": "자기, 잘 도착했어? 거기에 보면 큰 안테나와 그 옆에 제너레이터가 있을거야. 거기에 USB를 연결해주면, 나머진 이쪽에서 진행할게.",
        "@feature": "FameContents",
        "@npc": "샤텐"
      },
      {
        "@id": "91000024",
        "@name": "블랙 루빅스 자식들…\n안그래도 바쁜와중에\n귀찮게 하는구만.\n전부 박살내버리자.",
        "@feature": "FameContents",
        "@npc": "샤텐"
      },
      {
        "@id": "91000026",
        "@name": "조심해! 폭주한 로봇들이 주변을 초토화 시키고 있어. 여력이 된다면, 지역을 안전하게 확보해줘.",
        "@feature": "FameContents",
        "@npc": "샤텐"
      },
      {
        "@id": "91000027",
        "@name": "장보를 확보하셨군요? 우선 함선으로 복귀 부탁드릴게요!\n$MyPCName$님!",
        "@feature": "FameContents",
        "@npc": "네이린"
      },
      {
        "@id": "91000033",
        "@name": "정말 고생 많으셨어요!\n함선에서 기다리고 있겠습니다!",
        "@feature": "FameContents",
        "@npc": "네이린"
      },
      {
        "@id": "91000034",
        "@name": "몬스터가 꽤 남아 있군요.\n제가 집중하려면, 몬스터들이 정리되어야 합니다.",
        "@feature": "FameContents",
        "@npc": "메이슨"
      },
      {
        "@id": "91000035",
        "@name": "앗, 그곳에서 강한 <font color=\"#ffd200\">$npcName:11003781$</font>의 반응이 관찰되었습니다.\n조심하세요!",
        "@feature": "FameContents_EP1_02",
        "@npc": "네이린"
      },
      {
        "@id": "91000036",
        "@name": "열기에 익숙해지는 훈련이지만, 너무 무리하면 안 돼!\n어지럽다 싶으면 바로 함선으로 복귀해.",
        "@feature": "FameContents_EP1_02",
        "@npc": "샤텐"
      },
      {
        "@id": "91000037",
        "@name": "포기하는 것이냐, 한심한 놈! 죽이지 못한다면 계속 때려서 정신 못 차리게 하면 될 거 아니야! 뭐가 무모한 방식…이거 놔… 치지직",
        "@feature": "FameContents_EP1_02",
        "@npc": "콘대르"
      },
      {
        "@id": "91000038",
        "@name": "흠, <font color=\"#ffd200\">그 무기</font>를 사용해야겠군. \n$MyPCName$, 일단 <font color=\"#ffd200\">$npcName:11000144$</font>님과 함께 함선으로 복귀하도록. 나와 대원들은 작전실에서 기다리고 있지.",
        "@feature": "FameContents_EP1_02",
        "@npc": "블리체"
      },
      {
        "@id": "20002326",
        "@name": "<font color=\"#ffd200\">세인츠 나이트</font>로 전직을 시작할 수 있습니다.",
        "@feature": "LapentaFrontierQuest",
        "@npc": "안내원 나탈리"
      },
      {
        "@id": "20002336",
        "@name": "<font color=\"#ffd200\">하이 프리스트</font>로 전직을 시작할 수 있습니다.",
        "@feature": "LapentaFrontierQuest",
        "@npc": "안내원 나탈리"
      },
      {
        "@id": "20002347",
        "@name": "<font color=\"#ffd200\">하이퍼 헤비거너</font>로 전직을 시작할 수 있습니다.",
        "@feature": "LapentaFrontierQuest",
        "@npc": "안내원 나탈리"
      },
      {
        "@id": "20002359",
        "@name": "<font color=\"#ffd200\">샤프 레인저</font>로 전직을 시작할 수 있습니다.",
        "@feature": "LapentaFrontierQuest",
        "@npc": "안내원 나탈리"
      },
      {
        "@id": "20002369",
        "@name": "<font color=\"#ffd200\">아케인 룬 블레이더</font>로 전직을 시작할 수 있습니다.",
        "@feature": "LapentaFrontierQuest",
        "@npc": "안내원 나탈리"
      },
      {
        "@id": "20002378",
        "@name": "<font color=\"#ffd200\">얼티밋 스트라이커</font>로 전직을 시작할 수 있습니다.",
        "@feature": "LapentaFrontierQuest",
        "@npc": "안내원 나탈리"
      },
      {
        "@id": "40002722",
        "@name": "<font color=\"#ffd200\">팬텀 시프</font>로 전직을 시작할 수 있습니다.",
        "@feature": "LapentaFrontierQuest",
        "@npc": "안내원 나탈리"
      },
      {
        "@id": "40002732",
        "@name": "<font color=\"#ffd200\">쉐도우 어쌔신</font>으로 전직을 시작할 수 있습니다.",
        "@feature": "LapentaFrontierQuest",
        "@npc": "안내원 나탈리"
      },
      {
        "@id": "40002744",
        "@name": "<font color=\"#ffd200\">블러디 버서커</font>로 전직을 시작할 수 있습니다.",
        "@feature": "LapentaFrontierQuest",
        "@npc": "안내원 나탈리"
      },
      {
        "@id": "40002754",
        "@name": "<font color=\"#ffd200\">매지컬 위자드</font>로 전직을 시작할 수 있습니다.",
        "@feature": "LapentaFrontierQuest",
        "@npc": "안내원 나탈리"
      },
      {
        "@id": "40002766",
        "@name": "<font color=\"#ffd200\">미스틱 소울 바인더</font>로 전직을 시작할 수 있습니다.",
        "@feature": "LapentaFrontierQuest",
        "@npc": "안내원 나탈리"
      },
      {
        "@id": "40002788",
        "@name": "\n마스터 스킬 퀘스트를 시작할 수 있습니다.\n( ! ) 말풍선을 확인 해보세요.",
        "@feature": "JobChange_02",
        "@npc": "안내원 나탈리"
      },
      {
        "@id": "50101050",
        "@name": "크리티아스에 도착했으니, 탐사를 위한 특수 임무 수행을 요청한다. 자세한 내용은 각 담당관에게 듣도록.",
        "@feature": "Kritias_2018_12",
        "@npc": "블리체"
      },
      {
        "@id": "50100820",
        "@name": "긴급 상황이다. $MyPCName$.\n( ! ) 말풍선을 클릭하여 여제님의 호출 메시지를 확인하도록.",
        "@feature": "Kritias_Epic01",
        "@npc": "프레이"
      },
      {
        "@id": "60001150",
        "@name": "안녕하세요?\n$npcName:11004288$입니다.\n( ! ) 말풍선을 확인해주세요.\n드릴 말씀이 있어요!",
        "@feature": "Colosseum01",
        "@npc": "MC나기"
      }
    ]
  }
}
