{
  "?xml": {
    "@version": "1.0",
    "@encoding": "utf-8"
  },
  "ms2": {
    "key": [
      {
        "@id": "30000001",
        "@name": "에반스빌에서만 생성되는 광맥으로, 채광하면 구리 광석을 얻을 수 있다. \\n\\n채광 성공 확률은 날짜가 바뀌면 초기화 된다.",
        "@feature": "Mastery"
      },
      {
        "@id": "30000002",
        "@name": "퀸즈 타운에서만 생성되는 광맥으로, 채광하면 주석 광석과 채광된 오팔을 얻을 수 있다. \\n\\n채광 성공 확률은 날짜가 바뀌면 초기화 된다.",
        "@feature": "Mastery"
      },
      {
        "@id": "30000003",
        "@name": "미들턴에서만 생성되는 광맥으로, 채광하면 아연 광석을 얻을 수 있다. \\n\\n채광 성공 확률은 날짜가 바뀌면 초기화 된다.",
        "@feature": "Mastery"
      },
      {
        "@id": "30000004",
        "@name": "실버스톤 브릿지에서만 생성되는 광맥으로, 채광하면 은 광석과 채광된 사파이어를 얻을 수 있다. \\n\\n채광 성공 확률은 날짜가 바뀌면 초기화 된다.",
        "@feature": "Mastery"
      },
      {
        "@id": "30000005",
        "@name": "리조트빌에서만 생성되는 광맥으로, 채광하면 철 광석을 얻을 수 있다.  \\n\\n채광 성공 확률은 날짜가 바뀌면 초기화 된다.",
        "@feature": "Mastery"
      },
      {
        "@id": "30000006",
        "@name": "골두스 뉴타운에서만 생성되는 광맥으로, 채광하면 납 광석과 채광된 다이아몬드를 얻을 수 있다.  \\n\\n채광 성공 확률은 날짜가 바뀌면 초기화 된다.",
        "@feature": "Mastery"
      },
      {
        "@id": "30000007",
        "@name": "오아시스 타운에서만 생성되는 광맥으로, 채광하면 니켈 광석을 얻을 수 있다.  \\n\\n채광 성공 확률은 날짜가 바뀌면 초기화 된다.",
        "@feature": "Mastery"
      },
      {
        "@id": "30000008",
        "@name": "수정 광산 마을에서만 생성되는 광맥으로, 채광하면 흑철 광석과 채광된 자수정을 얻을 수 있다.  \\n\\n채광 성공 확률은 날짜가 바뀌면 초기화 된다.",
        "@feature": "Mastery"
      },
      {
        "@id": "30000009",
        "@name": "아네르 공원에서만 생성되는 광맥으로, 채광하면 텅스텐 광석을 얻을 수 있다.  \\n\\n채광 성공 확률은 날짜가 바뀌면 초기화 된다.",
        "@feature": "Mastery"
      },
      {
        "@id": "30000010",
        "@name": "블루밍 목장에서만 생성되는 광맥으로, 채광하면 금 광석과 채광된 호박을 얻을 수 있다.  \\n\\n채광 성공 확률은 날짜가 바뀌면 초기화 된다.",
        "@feature": "Mastery"
      },
      {
        "@id": "30000011",
        "@name": "엘린 타운에서만 생성되는 광맥으로, 채광하면 백금 광석을 얻을 수 있다.  \\n\\n채광 성공 확률은 날짜가 바뀌면 초기화 된다.",
        "@feature": "Mastery"
      },
      {
        "@id": "30000012",
        "@name": "오르네 타운에서만 생성되는 광맥으로, 채광하면 코발트 광석과 채광된 진주를 얻을 수 있다.  \\n\\n채광 성공 확률은 날짜가 바뀌면 초기화 된다.",
        "@feature": "Mastery"
      },
      {
        "@id": "30000013",
        "@name": "아일린 타운에서만 생성되는 광맥으로, 채광하면 팔라듐 광석을 얻을 수 있다.  \\n\\n채광 성공 확률은 날짜가 바뀌면 초기화 된다.",
        "@feature": "Mastery"
      },
      {
        "@id": "30000014",
        "@name": "가막새 마을에서만 생성되는 광맥으로, 채광하면 미스릴 광석을 얻을 수 있다.  \\n\\n채광 성공 확률은 날짜가 바뀌면 초기화 된다.",
        "@feature": "Mastery06"
      },
      {
        "@id": "30000015",
        "@name": "스네이크 타운에서만 생성되는 광맥으로, 채광하면 오리할콘 광석을 얻을 수 있다.  \\n\\n채광 성공 확률은 날짜가 바뀌면 초기화 된다.",
        "@feature": "Mastery06"
      },
      {
        "@id": "30000019",
        "@name": "네르만 광산에서만 생성되는 광맥으로, 채광하면 루마 스톤을 얻을 수 있다.  \\n\\n채광 성공 확률은 날짜가 바뀌면 초기화 된다.",
        "@feature": "Mastery"
      },
      {
        "@id": "30000020",
        "@name": "네르만 광산에만 존재하며, 채광하면 고목 뿌리를 얻을 수 있다.  \\n\\n채광 성공 확률은 날짜가 바뀌면 초기화 된다.",
        "@feature": "Mastery"
      },
      {
        "@id": "30000021",
        "@name": "네르만 광산에서만 생성되는 광맥으로, 채광하면 갯벌 진주를 얻을 수 있다.  \\n\\n채광 성공 확률은 날짜가 바뀌면 초기화 된다.",
        "@feature": "Mastery"
      },
      {
        "@id": "30000022",
        "@name": "네르만 광산에 있는 젖소에게 소 꼬리털을 얻을 수 있다.  \\n\\n축산 성공 확률은 날짜가 바뀌면 초기화 된다.",
        "@feature": "Mastery"
      },
      {
        "@id": "50000001",
        "@name": "내 집에 닭 축사를 설치하면 닭 깃털을 얻을 수 있다. \\n\\n축산 성공 확률은 날짜가 바뀌면 초기화 된다.",
        "@feature": "Mastery"
      },
      {
        "@id": "50000002",
        "@name": "내 집에 달팽이 축사를 설치하면 달팽이 등껍질을 얻을 수 있다. \\n\\n축산 성공 확률은 날짜가 바뀌면 초기화 된다.",
        "@feature": "Mastery"
      },
      {
        "@id": "50000003",
        "@name": "내 집에 돼지 축사를 설치하면 돼지 꼬리를 얻을 수 있다. \\n\\n축산 성공 확률은 날짜가 바뀌면 초기화 된다.",
        "@feature": "Mastery"
      },
      {
        "@id": "50000004",
        "@name": "내 집에 젖소 축사를 설치하면 갓 짜낸 우유를 얻을 수 있다. \\n\\n축산 성공 확률은 날짜가 바뀌면 초기화 된다.",
        "@feature": "Mastery"
      },
      {
        "@id": "50000005",
        "@name": "내 집에 양 축사를 설치하면 양털을 얻을 수 있다. \\n\\n축산 성공 확률은 날짜가 바뀌면 초기화 된다.",
        "@feature": "Mastery"
      },
      {
        "@id": "50000006",
        "@name": "내 집에 거북이 축사를 설치하면 거북이 등껍질을 얻을 수 있다.  \\n\\n축산 성공 확률은 날짜가 바뀌면 초기화 된다.",
        "@feature": "Mastery"
      },
      {
        "@id": "50000007",
        "@name": "내 집에 사슴 축사를 설치하면 사슴 털을 얻을 수 있다. \\n\\n축산 성공 확률은 날짜가 바뀌면 초기화 된다.",
        "@feature": "Mastery"
      },
      {
        "@id": "50000008",
        "@name": "내 집에 소 축사를 설치하면 소 뿔을 얻을 수 있다. \\n\\n축산 성공 확률은 날짜가 바뀌면 초기화 된다.",
        "@feature": "Mastery"
      },
      {
        "@id": "50000009",
        "@name": "내 집에 독수리 축사를 설치하면 독수리 깃털을 얻을 수 있다. \\n\\n축산 성공 확률은 날짜가 바뀌면 초기화 된다.",
        "@feature": "Mastery"
      },
      {
        "@id": "50000010",
        "@name": "내 집에 말 축사를 설치하면 말 발굽을 얻을 수 있다. \\n\\n축산 성공 확률은 날짜가 바뀌면 초기화 된다.",
        "@feature": "Mastery"
      },
      {
        "@id": "50000011",
        "@name": "내 집에 여우 축사를 설치하면 여우 꼬리를 얻을 수 있다. \\n\\n축산 성공 확률은 날짜가 바뀌면 초기화 된다.",
        "@feature": "Mastery"
      },
      {
        "@id": "50000012",
        "@name": "내 집에 그리폰 축사를 설치하면 그리폰 깃털을 얻을 수 있다. \\n\\n축산 성공 확률은 날짜가 바뀌면 초기화 된다.",
        "@feature": "Mastery"
      },
      {
        "@id": "50000013",
        "@name": "내 집에 드래곤 축사를 설치하면 드래곤 뿔을 얻을 수 있다. \\n\\n축산 성공 확률은 날짜가 바뀌면 초기화 된다.",
        "@feature": "Mastery"
      },
      {
        "@id": "50000014",
        "@name": "내 집에 유니콘 축사를 설치하면 무지개 말총을 얻을 수 있다. \\n\\n축산 성공 확률은 날짜가 바뀌면 초기화 된다.",
        "@feature": "Mastery06"
      },
      {
        "@id": "50000015",
        "@name": "내 집에 우파루파 축사를 설치하면 우파루파 알을 얻을 수 있다. \\n\\n축산 성공 확률은 날짜가 바뀌면 초기화 된다.",
        "@feature": "Mastery06"
      },
      {
        "@id": "40000001",
        "@name": "바람초 화원에서만 서식하는 허브로, 채집하면 코튼 라벤더를 얻을 수 있다. \\n\\n채집 성공 확률은 날짜가 바뀌면 초기화 된다.",
        "@feature": "ContentsGuide02"
      },
      {
        "@id": "40000002",
        "@name": "바람초 화원에서만 서식하는 허브로, 채집하면 파인애플 세이지를 얻을 수 있다. \\n\\n채집 성공 확률은 날짜가 바뀌면 초기화 된다.",
        "@feature": "ContentsGuide02"
      },
      {
        "@id": "40000003",
        "@name": "바람초 화원에서만 서식하는 허브로, 채집하면 로즈 제라늄을 얻을 수 있다. \\n\\n채집 성공 확률은 날짜가 바뀌면 초기화 된다.",
        "@feature": "ContentsGuide02"
      },
      {
        "@id": "40000011",
        "@name": "에반스빌에서만 서식하는 허브로, 채집하면 마조람을 얻을 수 있다. \\n\\n채집 성공 확률은 날짜가 바뀌면 초기화 된다."
      },
      {
        "@id": "40000012",
        "@name": "퀸즈 타운에서만 서식하는 허브로, 채집하면 라벤더와 퍼플 플로랄 입자를 얻을 수 있다. \\n\\n채집 성공 확률은 날짜가 바뀌면 초기화 된다."
      },
      {
        "@id": "40000013",
        "@name": "블루밍 목장에서만 서식하는 허브로, 채집하면 오레가노와 블루 플로랄 입자를 얻을 수 있다.  \\n\\n채집 성공 확률은 날짜가 바뀌면 초기화 된다."
      },
      {
        "@id": "40000014",
        "@name": "실버스톤 브릿지에서만 서식하는 허브로, 채집하면 레몬밤과 화이트 플로랄 입자를 얻을 수 있다. \\n\\n채집 성공 확률은 날짜가 바뀌면 초기화 된다."
      },
      {
        "@id": "40000015",
        "@name": "리조트빌에서만 서식하는 허브로, 채집하면 만다린을 얻을 수 있다.  \\n\\n채집 성공 확률은 날짜가 바뀌면 초기화 된다."
      },
      {
        "@id": "40000016",
        "@name": "골두스 뉴타운에서만 서식하는 허브로, 채집하면 자스민과 플럼 플로랄 입자를 얻을 수 있다.  \\n\\n채집 성공 확률은 날짜가 바뀌면 초기화 된다."
      },
      {
        "@id": "40000017",
        "@name": "오아시스 타운에서만 서식하는 허브로, 채집하면 티트리를 얻을 수 있다.  \\n\\n채집 성공 확률은 날짜가 바뀌면 초기화 된다."
      },
      {
        "@id": "40000018",
        "@name": "수정 광산 마을에서만 서식하는 허브로, 채집하면 체리 세이지와 레드 플로랄 입자를 얻을 수 있다.  \\n\\n채집 성공 확률은 날짜가 바뀌면 초기화 된다."
      },
      {
        "@id": "40000019",
        "@name": "아네르 공원에서만 서식하는 허브로, 채집하면 페츌리를 얻을 수 있다.  \\n\\n채집 성공 확률은 날짜가 바뀌면 초기화 된다."
      },
      {
        "@id": "40000020",
        "@name": "미들턴에서만 서식하는 허브로, 채집하면 로즈마리를 얻을 수 있다. \\n\\n채집 성공 확률은 날짜가 바뀌면 초기화 된다."
      },
      {
        "@id": "40000021",
        "@name": "엘린 타운에서만 서식하는 허브로, 채집하면 야로우를 얻을 수 있다.  \\n\\n채집 성공 확률은 날짜가 바뀌면 초기화 된다."
      },
      {
        "@id": "40000022",
        "@name": "오르네 타운에서만 서식하는 허브로, 채집하면 바질과 그린 플로랄 입자를 얻을 수 있다.  \\n\\n채집 성공 확률은 날짜가 바뀌면 초기화 된다."
      },
      {
        "@id": "40000023",
        "@name": "아일린 타운에서만 서식하는 허브로, 채집하면 베르가못을 얻을 수 있다.  \\n\\n채집 성공 확률은 날짜가 바뀌면 초기화 된다."
      },
      {
        "@id": "40000024",
        "@name": "가막새 마을에서만 서식하는 허브로, 채집하면 스파티움과 옐로우 플로랄 입자를 얻을 수 있다.  \\n\\n채집 성공 확률은 날짜가 바뀌면 초기화 된다.",
        "@feature": "Mastery06"
      },
      {
        "@id": "40000025",
        "@name": "스네이크 타운에서만 서식하는 허브로, 채집하면 타임을 얻을 수 있다.  \\n\\n채집 성공 확률은 날짜가 바뀌면 초기화 된다.",
        "@feature": "Mastery06"
      },
      {
        "@id": "60000011",
        "@name": "내 집에 논을 설치하면 쌀을 얻을 수 있다. \\n\\n재배 성공 확률은 날짜가 바뀌면 초기화 된다."
      },
      {
        "@id": "60000012",
        "@name": "내 집에 호박 밭을 설치하면 호박을 얻을 수 있다. \\n\\n재배 성공 확률은 날짜가 바뀌면 초기화 된다."
      },
      {
        "@id": "60000013",
        "@name": "내 집에 사과나무를 설치하면 사과를 얻을 수 있다. \\n\\n재배 성공 확률은 날짜가 바뀌면 초기화 된다."
      },
      {
        "@id": "60000014",
        "@name": "내 집에 송이버섯 더미를 설치하면 송이버섯을 얻을 수 있다. \\n\\n재배 성공 확률은 날짜가 바뀌면 초기화 된다."
      },
      {
        "@id": "60000015",
        "@name": "내 집에 오렌지 나무를 설치하면 오렌지를 얻을 수 있다.  \\n\\n재배 성공 확률은 날짜가 바뀌면 초기화 된다."
      },
      {
        "@id": "60000016",
        "@name": "내 집에 파 밭을 설치하면 파를 얻을 수 있다. \\n\\n재배 성공 확률은 날짜가 바뀌면 초기화 된다."
      },
      {
        "@id": "60000017",
        "@name": "내 집에 바나나 나무를 설치하면 바나나를 얻을 수 있다. \\n\\n재배 성공 확률은 날짜가 바뀌면 초기화 된다."
      },
      {
        "@id": "60000018",
        "@name": "내 집에 상황버섯 그루터기를 설치하면 상황버섯을 얻을 수 있다. \\n\\n재배 성공 확률은 날짜가 바뀌면 초기화 된다."
      },
      {
        "@id": "60000019",
        "@name": "내 집에 토마토 밭을 설치하면 토마토를 얻을 수 있다. \\n\\n재배 성공 확률은 날짜가 바뀌면 초기화 된다."
      },
      {
        "@id": "60000020",
        "@name": "내 집에 오이 밭을 설치하면 오이를 얻을 수 있다. \\n\\n재배 성공 확률은 날짜가 바뀌면 초기화 된다."
      },
      {
        "@id": "60000021",
        "@name": "내 집에 밀 밭을 설치하면 밀을 얻을 수 있다. \\n\\n재배 성공 확률은 날짜가 바뀌면 초기화 된다."
      },
      {
        "@id": "60000022",
        "@name": "내 집에 광대버섯 더미를 설치하면 광대버섯을 얻을 수 있다. \\n\\n재배 성공 확률은 날짜가 바뀌면 초기화 된다."
      },
      {
        "@id": "60000023",
        "@name": "내 집에 배나무를 설치하면 배를 얻을 수 있다. \\n\\n재배 성공 확률은 날짜가 바뀌면 초기화 된다."
      },
      {
        "@id": "60000024",
        "@name": "내 집에 신비한 운석 나무를 설치하면 대지의 조각을 얻을 수 있다. \\n\\n재배 성공 확률은 날짜가 바뀌면 초기화 된다."
      },
      {
        "@id": "60000025",
        "@name": "내 집에 파인애플 밭을 설치하면 파인애플을 얻을 수 있다. \\n\\n재배 성공 확률은 날짜가 바뀌면 초기화 된다.",
        "@feature": "Mastery06"
      },
      {
        "@id": "60000026",
        "@name": "내 집에 두리안 나무를 설치하면 두리안을 얻을 수 있다. \\n\\n재배 성공 확률은 날짜가 바뀌면 초기화 된다.",
        "@feature": "Mastery06"
      }
    ]
  }
}
