{
  "?xml": {
    "@version": "1.0",
    "@encoding": "utf-8"
  },
  "ms2": {
    "key": [
      {
        "@id": "245",
        "@name": "별 상점"
      },
      {
        "@id": "249",
        "@name": "스타일 코인샵"
      }
    ]
  }
}
