{
  "?xml": {
    "@version": "1.0",
    "@encoding": "utf-8"
  },
  "ms2": {
    "key": [
      {
        "@id": "20994101",
        "@name": "+10 엑설런트 인챈트 룬 (한손)",
        "@feature": "EnchantScroll5099A"
      },
      {
        "@id": "20994102",
        "@name": "+10 엑설런트 인챈트 룬 (쌍수)",
        "@feature": "EnchantScroll5099A"
      },
      {
        "@id": "20994103",
        "@name": "+10 엑설런트 인챈트 룬 (양손)",
        "@feature": "EnchantScroll5099A"
      },
      {
        "@id": "20994104",
        "@name": "+10 엑설런트 인챈트 룬 (모자)",
        "@feature": "EnchantScroll5099A"
      },
      {
        "@id": "20994105",
        "@name": "+10 엑설런트 인챈트 룬 (상의)",
        "@feature": "EnchantScroll5099A"
      },
      {
        "@id": "20994106",
        "@name": "+10 엑설런트 인챈트 룬 (하의)",
        "@feature": "EnchantScroll5099A"
      },
      {
        "@id": "20994107",
        "@name": "+10 엑설런트 인챈트 룬 (장갑)",
        "@feature": "EnchantScroll5099A"
      },
      {
        "@id": "20994108",
        "@name": "+10 엑설런트 인챈트 룬 (신발)",
        "@feature": "EnchantScroll5099A"
      },
      {
        "@id": "20994109",
        "@name": "+10 엑설런트 인챈트 룬 (한벌)",
        "@feature": "EnchantScroll5099A"
      },
      {
        "@id": "20995101",
        "@name": "+10 레전더리 인챈트 룬 (한손)",
        "@feature": "EnchantScroll5099A"
      },
      {
        "@id": "20995102",
        "@name": "+10 레전더리 인챈트 룬 (쌍수)",
        "@feature": "EnchantScroll5099A"
      },
      {
        "@id": "20995103",
        "@name": "+10 레전더리 인챈트 룬 (양손)",
        "@feature": "EnchantScroll5099A"
      },
      {
        "@id": "20995104",
        "@name": "+10 레전더리 인챈트 룬 (모자)",
        "@feature": "EnchantScroll5099A"
      },
      {
        "@id": "20995105",
        "@name": "+10 레전더리 인챈트 룬 (상의)",
        "@feature": "EnchantScroll5099A"
      },
      {
        "@id": "20995106",
        "@name": "+10 레전더리 인챈트 룬 (하의)",
        "@feature": "EnchantScroll5099A"
      },
      {
        "@id": "20995107",
        "@name": "+10 레전더리 인챈트 룬 (장갑)",
        "@feature": "EnchantScroll5099A"
      },
      {
        "@id": "20995108",
        "@name": "+10 레전더리 인챈트 룬 (신발)",
        "@feature": "EnchantScroll5099A"
      },
      {
        "@id": "20995109",
        "@name": "+10 레전더리 인챈트 룬 (한벌)",
        "@feature": "EnchantScroll5099A"
      },
      {
        "@id": "20996101",
        "@name": "+10 에픽 인챈트 룬 (한손)",
        "@feature": "EpicEnchantScroll5099A"
      },
      {
        "@id": "20996102",
        "@name": "+10 에픽 인챈트 룬 (쌍수)",
        "@feature": "EpicEnchantScroll5099A"
      },
      {
        "@id": "20996103",
        "@name": "+10 에픽 인챈트 룬 (양손)",
        "@feature": "EpicEnchantScroll5099A"
      },
      {
        "@id": "20996104",
        "@name": "+10 에픽 인챈트 룬 (모자)",
        "@feature": "EpicEnchantScroll5099A"
      },
      {
        "@id": "20996105",
        "@name": "+10 에픽 인챈트 룬 (상의)",
        "@feature": "EpicEnchantScroll5099A"
      },
      {
        "@id": "20996106",
        "@name": "+10 에픽 인챈트 룬 (하의)",
        "@feature": "EpicEnchantScroll5099A"
      },
      {
        "@id": "20996107",
        "@name": "+10 에픽 인챈트 룬 (장갑)",
        "@feature": "EpicEnchantScroll5099A"
      },
      {
        "@id": "20996108",
        "@name": "+10 에픽 인챈트 룬 (신발)",
        "@feature": "EpicEnchantScroll5099A"
      }
    ]
  }
}
