{
  "?xml": {
    "@version": "1.0",
    "@encoding": "utf-8"
  },
  "ms2": {
    "key": [
      {
        "@id": "10000001",
        "@name": "붕어"
      },
      {
        "@id": "10000002",
        "@name": "떡붕어"
      },
      {
        "@id": "10000003",
        "@name": "피라니아"
      },
      {
        "@id": "10000004",
        "@name": "달납줄개"
      },
      {
        "@id": "10000005",
        "@name": "중고기"
      },
      {
        "@id": "10000006",
        "@name": "얼룩 동사리"
      },
      {
        "@id": "10000007",
        "@name": "산천어"
      },
      {
        "@id": "10000008",
        "@name": "송사리"
      },
      {
        "@id": "10000009",
        "@name": "피라미"
      },
      {
        "@id": "10000010",
        "@name": "메기"
      },
      {
        "@id": "10000011",
        "@name": "블루길"
      },
      {
        "@id": "10000012",
        "@name": "연어"
      },
      {
        "@id": "10000013",
        "@name": "하천 연어"
      },
      {
        "@id": "10000014",
        "@name": "우파루파"
      },
      {
        "@id": "10000015",
        "@name": "얼룩 우파루파"
      },
      {
        "@id": "10000016",
        "@name": "갯가재"
      },
      {
        "@id": "10000017",
        "@name": "줄무늬 갯가재"
      },
      {
        "@id": "10000018",
        "@name": "큰입배스"
      },
      {
        "@id": "10000019",
        "@name": "가물치"
      },
      {
        "@id": "10000020",
        "@name": "쏘가리"
      },
      {
        "@id": "10000021",
        "@name": "미꾸라지"
      },
      {
        "@id": "10000022",
        "@name": "얼룩새꼬미꾸리"
      },
      {
        "@id": "10000023",
        "@name": "어름치"
      },
      {
        "@id": "10000024",
        "@name": "버들치"
      },
      {
        "@id": "10000025",
        "@name": "리프피쉬"
      },
      {
        "@id": "10000026",
        "@name": "참붕어"
      },
      {
        "@id": "10000027",
        "@name": "비단잉어"
      },
      {
        "@id": "10000028",
        "@name": "백삼색 비단잉어"
      },
      {
        "@id": "10000029",
        "@name": "백별광 비단잉어"
      },
      {
        "@id": "10000030",
        "@name": "금빛 비단잉어"
      },
      {
        "@id": "10000031",
        "@name": "모토로담수가오리"
      },
      {
        "@id": "10000032",
        "@name": "철갑상어"
      },
      {
        "@id": "10000033",
        "@name": "뱀장어"
      },
      {
        "@id": "10000034",
        "@name": "능글돔"
      },
      {
        "@id": "10000035",
        "@name": "스타 새침이"
      },
      {
        "@id": "10000036",
        "@name": "플라이아이돔"
      },
      {
        "@id": "10000037",
        "@name": "근위어"
      },
      {
        "@id": "10000038",
        "@name": "브로콜터틀"
      },
      {
        "@id": "10000039",
        "@name": "앤트실러캔스"
      },
      {
        "@id": "10000040",
        "@name": "기계 상어"
      },
      {
        "@id": "10000041",
        "@name": "블루 젤리 새우",
        "@feature": "Fishing02"
      },
      {
        "@id": "10000042",
        "@name": "울어",
        "@feature": "Fishing02"
      },
      {
        "@id": "10000043",
        "@name": "개구리밥",
        "@feature": "Fishing02"
      },
      {
        "@id": "10000044",
        "@name": "황쏘가리",
        "@feature": "Fishing02"
      },
      {
        "@id": "10000045",
        "@name": "부레옥잠",
        "@feature": "Fishing02"
      },
      {
        "@id": "10000046",
        "@name": "프레쉬 리프 밍",
        "@feature": "Fishing02"
      },
      {
        "@id": "10000047",
        "@name": "블루밍 플라워 망",
        "@feature": "Fishing02"
      },
      {
        "@id": "10000048",
        "@name": "블루밍 플라워 몽",
        "@feature": "Fishing02"
      },
      {
        "@id": "10000049",
        "@name": "블루 리프 젤리피쉬",
        "@feature": "Fishing02"
      },
      {
        "@id": "10000050",
        "@name": "핑크 리프 젤리피쉬",
        "@feature": "Fishing02"
      },
      {
        "@id": "10000051",
        "@name": "활어",
        "@feature": "Fishing02"
      },
      {
        "@id": "10000052",
        "@name": "블루 엔젤 피쉬",
        "@feature": "Fishing02"
      },
      {
        "@id": "10000053",
        "@name": "분홍 점박이 해파리",
        "@feature": "Fishing02"
      },
      {
        "@id": "10000054",
        "@name": "은행잎 가오리",
        "@feature": "Fishing02"
      },
      {
        "@id": "10000055",
        "@name": "슬라임 피쉬",
        "@feature": "Fishing02"
      },
      {
        "@id": "10000056",
        "@name": "보석 물고기",
        "@feature": "Fishing02"
      },
      {
        "@id": "10000057",
        "@name": "보보스마스"
      },
      {
        "@id": "11000001",
        "@name": "블랙 나비고기"
      },
      {
        "@id": "11000002",
        "@name": "새들버터플라이피쉬"
      },
      {
        "@id": "11000003",
        "@name": "나비돔"
      },
      {
        "@id": "11000004",
        "@name": "돌돔"
      },
      {
        "@id": "11000005",
        "@name": "감성돔"
      },
      {
        "@id": "11000006",
        "@name": "황돔"
      },
      {
        "@id": "11000007",
        "@name": "둥글돔"
      },
      {
        "@id": "11000008",
        "@name": "가시복"
      },
      {
        "@id": "11000009",
        "@name": "까치복"
      },
      {
        "@id": "11000010",
        "@name": "복어"
      },
      {
        "@id": "11000011",
        "@name": "돌고래"
      },
      {
        "@id": "11000012",
        "@name": "범고래"
      },
      {
        "@id": "11000013",
        "@name": "혹등고래"
      },
      {
        "@id": "11000014",
        "@name": "가오리"
      },
      {
        "@id": "11000017",
        "@name": "백상아리"
      },
      {
        "@id": "11000018",
        "@name": "청상아리"
      },
      {
        "@id": "11000019",
        "@name": "고래상어"
      },
      {
        "@id": "11000020",
        "@name": "귀상어"
      },
      {
        "@id": "11000021",
        "@name": "고등어"
      },
      {
        "@id": "11000022",
        "@name": "날치"
      },
      {
        "@id": "11000023",
        "@name": "갈치"
      },
      {
        "@id": "11000025",
        "@name": "가다랑어"
      },
      {
        "@id": "11000026",
        "@name": "동갈민어"
      },
      {
        "@id": "11000027",
        "@name": "숭어"
      },
      {
        "@id": "11000028",
        "@name": "청새치"
      },
      {
        "@id": "11000029",
        "@name": "멸치"
      },
      {
        "@id": "11000030",
        "@name": "도루묵"
      },
      {
        "@id": "11000031",
        "@name": "갑오징어"
      },
      {
        "@id": "11000032",
        "@name": "오징어"
      },
      {
        "@id": "11000033",
        "@name": "문어"
      },
      {
        "@id": "11000034",
        "@name": "전갱이"
      },
      {
        "@id": "11000035",
        "@name": "정어리"
      },
      {
        "@id": "11000036",
        "@name": "방어"
      },
      {
        "@id": "11000037",
        "@name": "눈퉁바리"
      },
      {
        "@id": "11000038",
        "@name": "다금바리"
      },
      {
        "@id": "11000039",
        "@name": "가자미"
      },
      {
        "@id": "11000040",
        "@name": "쥐치"
      },
      {
        "@id": "11000041",
        "@name": "소라게"
      },
      {
        "@id": "11000042",
        "@name": "바닷가재"
      },
      {
        "@id": "11000043",
        "@name": "보리새우"
      },
      {
        "@id": "11000044",
        "@name": "꽃게"
      },
      {
        "@id": "11000045",
        "@name": "해마"
      },
      {
        "@id": "11000046",
        "@name": "바다거북"
      },
      {
        "@id": "11000047",
        "@name": "팬더그루퍼"
      },
      {
        "@id": "11000048",
        "@name": "짱뚱어"
      },
      {
        "@id": "11000049",
        "@name": "노래미"
      },
      {
        "@id": "11000050",
        "@name": "우럭"
      },
      {
        "@id": "11000051",
        "@name": "해삼"
      },
      {
        "@id": "11000052",
        "@name": "성게"
      },
      {
        "@id": "11000053",
        "@name": "푸른 불가사리"
      },
      {
        "@id": "11000054",
        "@name": "불가사리"
      },
      {
        "@id": "11000055",
        "@name": "해파리"
      },
      {
        "@id": "11000056",
        "@name": "개불"
      },
      {
        "@id": "11000057",
        "@name": "나팔고둥"
      },
      {
        "@id": "11000058",
        "@name": "미역"
      },
      {
        "@id": "11000059",
        "@name": "볼락"
      },
      {
        "@id": "11000060",
        "@name": "전복"
      },
      {
        "@id": "11000061",
        "@name": "멍게"
      },
      {
        "@id": "11000062",
        "@name": "가리비"
      },
      {
        "@id": "11000063",
        "@name": "바지락"
      },
      {
        "@id": "11000064",
        "@name": "홍합"
      },
      {
        "@id": "11000065",
        "@name": "진주조개"
      },
      {
        "@id": "11000066",
        "@name": "뱅코다일"
      },
      {
        "@id": "11000067",
        "@name": "마스카스"
      },
      {
        "@id": "11000068",
        "@name": "핑크 옥토퍼스"
      },
      {
        "@id": "11000069",
        "@name": "프리즈너스"
      },
      {
        "@id": "11000070",
        "@name": "초롱 아귀"
      },
      {
        "@id": "11000071",
        "@name": "초랑어"
      },
      {
        "@id": "11000072",
        "@name": "별사탕 꽃게"
      },
      {
        "@id": "11000073",
        "@name": "찌리릿 하트가오리"
      },
      {
        "@id": "11000074",
        "@name": "꽃길 우파루파"
      },
      {
        "@id": "12000001",
        "@name": "성난 피라니아"
      },
      {
        "@id": "12000002",
        "@name": "핫뜨가오리"
      },
      {
        "@id": "12000003",
        "@name": "불고래상어"
      },
      {
        "@id": "12000004",
        "@name": "용암배스"
      },
      {
        "@id": "12000005",
        "@name": "타오르는 진주"
      },
      {
        "@id": "12000006",
        "@name": "홍미역"
      },
      {
        "@id": "12000007",
        "@name": "핫복어"
      },
      {
        "@id": "12000008",
        "@name": "쥐치미"
      },
      {
        "@id": "12000009",
        "@name": "플레임그루퍼"
      },
      {
        "@id": "12000010",
        "@name": "홍도루묵"
      },
      {
        "@id": "12000011",
        "@name": "따끈하게"
      },
      {
        "@id": "12000012",
        "@name": "홍납줄개"
      },
      {
        "@id": "12000013",
        "@name": "파이어리"
      },
      {
        "@id": "12000014",
        "@name": "톱상아리"
      },
      {
        "@id": "12000015",
        "@name": "홍새치"
      },
      {
        "@id": "12000016",
        "@name": "데빌 해마"
      },
      {
        "@id": "12000017",
        "@name": "발리아"
      },
      {
        "@id": "12000018",
        "@name": "피라트"
      },
      {
        "@id": "12000019",
        "@name": "파라오 해마"
      },
      {
        "@id": "12000020",
        "@name": "마그마 하태어"
      },
      {
        "@id": "12000021",
        "@name": "이그리밥",
        "@feature": "Fishing02"
      },
      {
        "@id": "12000022",
        "@name": "마그마 해파리",
        "@feature": "Fishing02"
      },
      {
        "@id": "12000023",
        "@name": "라바 돔",
        "@feature": "Fishing02"
      },
      {
        "@id": "12000024",
        "@name": "블러디 핀붐",
        "@feature": "Fishing02"
      },
      {
        "@id": "12000025",
        "@name": "핫 아이",
        "@feature": "Fishing02"
      },
      {
        "@id": "13000003",
        "@name": "퍼플 크랩"
      },
      {
        "@id": "13000005",
        "@name": "데빌 우파루파"
      },
      {
        "@id": "13000007",
        "@name": "푸른등고래"
      },
      {
        "@id": "13000009",
        "@name": "엔젤 해마"
      },
      {
        "@id": "13000010",
        "@name": "서전 아이",
        "@feature": "Fishing02"
      },
      {
        "@id": "13000011",
        "@name": "데빌 슬라임 피쉬",
        "@feature": "Fishing02"
      },
      {
        "@id": "13000012",
        "@name": "고스트 피쉬",
        "@feature": "Fishing02"
      },
      {
        "@id": "13000013",
        "@name": "블랙 블로브 피쉬",
        "@feature": "Fishing02"
      },
      {
        "@id": "13000014",
        "@name": "블랙 타이거 새우",
        "@feature": "Fishing02"
      },
      {
        "@id": "13000015",
        "@name": "침식된 에네르 쉘",
        "@feature": "Fishing02"
      },
      {
        "@id": "13000016",
        "@name": "침식된 에네르 콘치",
        "@feature": "Fishing02"
      },
      {
        "@id": "13000017",
        "@name": "침식된 에네르 스팅레이",
        "@feature": "Fishing02"
      },
      {
        "@id": "14000001",
        "@name": "둥글독"
      },
      {
        "@id": "14000002",
        "@name": "가물가물치"
      },
      {
        "@id": "14000003",
        "@name": "늪지 가재"
      },
      {
        "@id": "14000004",
        "@name": "갯바지락"
      },
      {
        "@id": "14000005",
        "@name": "독가사리"
      },
      {
        "@id": "14000006",
        "@name": "녹민어"
      },
      {
        "@id": "14000007",
        "@name": "퉁퉁바리"
      },
      {
        "@id": "14000008",
        "@name": "어리바리"
      },
      {
        "@id": "14000009",
        "@name": "독나비돔"
      },
      {
        "@id": "14000010",
        "@name": "초록 오징어"
      },
      {
        "@id": "14000011",
        "@name": "톡자미"
      },
      {
        "@id": "14000012",
        "@name": "뭉게멍게"
      },
      {
        "@id": "14000013",
        "@name": "황고둥"
      },
      {
        "@id": "14000014",
        "@name": "녹합"
      },
      {
        "@id": "14000015",
        "@name": "포이즌 리프"
      },
      {
        "@id": "14000016",
        "@name": "새드리틀피쉬"
      },
      {
        "@id": "14000017",
        "@name": "맹독 문어"
      },
      {
        "@id": "14000018",
        "@name": "싱숭생숭어"
      },
      {
        "@id": "14000019",
        "@name": "오묘한 짱뚱어"
      },
      {
        "@id": "14000020",
        "@name": "울그락 볼락"
      },
      {
        "@id": "14000021",
        "@name": "플로리 퐁퐁"
      },
      {
        "@id": "14000022",
        "@name": "독 청새치",
        "@feature": "Fishing02"
      },
      {
        "@id": "14000023",
        "@name": "독 전복",
        "@feature": "Fishing02"
      },
      {
        "@id": "14000024",
        "@name": "독 메기",
        "@feature": "Fishing02"
      },
      {
        "@id": "14000025",
        "@name": "포이즌 아이",
        "@feature": "Fishing02"
      },
      {
        "@id": "14000026",
        "@name": "독 거북손",
        "@feature": "Fishing02"
      },
      {
        "@id": "14000027",
        "@name": "핀붐",
        "@feature": "Fishing02"
      },
      {
        "@id": "14000028",
        "@name": "쏘우 헤드",
        "@feature": "Fishing02"
      },
      {
        "@id": "14000029",
        "@name": "테일 헤드",
        "@feature": "Fishing02"
      },
      {
        "@id": "15000001",
        "@name": "나프타 소라게"
      },
      {
        "@id": "15000002",
        "@name": "피크리치"
      },
      {
        "@id": "15000003",
        "@name": "기름 가리비"
      },
      {
        "@id": "15000004",
        "@name": "오일 쉬림프"
      },
      {
        "@id": "15000005",
        "@name": "오일젤리피쉬"
      },
      {
        "@id": "16000001",
        "@name": "에네르 쉘",
        "@feature": "Fishing02"
      },
      {
        "@id": "16000002",
        "@name": "에네르 콘치",
        "@feature": "Fishing02"
      },
      {
        "@id": "16000003",
        "@name": "에네르 스팅레이",
        "@feature": "Fishing02"
      },
      {
        "@id": "16000004",
        "@name": "프릴리아",
        "@feature": "Fishing02"
      },
      {
        "@id": "16000005",
        "@name": "피콕 프릴리아",
        "@feature": "Fishing02"
      },
      {
        "@id": "16000006",
        "@name": "그리니",
        "@feature": "Fishing02"
      },
      {
        "@id": "16000007",
        "@name": "부끄러어",
        "@feature": "Fishing02"
      },
      {
        "@id": "16000008",
        "@name": "우아해어",
        "@feature": "Fishing02"
      },
      {
        "@id": "16000009",
        "@name": "무지개 해마",
        "@feature": "Fishing02"
      },
      {
        "@id": "16000010",
        "@name": "캐슬 피쉬",
        "@feature": "Fishing02"
      },
      {
        "@id": "99000001",
        "@name": "황금 송사리"
      },
      {
        "@id": "99000002",
        "@name": "황금 미역"
      },
      {
        "@id": "99000003",
        "@name": "황금 문어"
      },
      {
        "@id": "99000004",
        "@name": "황금 돔"
      },
      {
        "@id": "99000005",
        "@name": "황금 소라"
      },
      {
        "@id": "99000006",
        "@name": "황금 불가사리"
      },
      {
        "@id": "99000007",
        "@name": "황금 가재"
      },
      {
        "@id": "99000008",
        "@name": "황금 전복"
      },
      {
        "@id": "99000009",
        "@name": "황금 거북이"
      },
      {
        "@id": "99000010",
        "@name": "황금 해마"
      },
      {
        "@id": "99000011",
        "@name": "황금 조개"
      },
      {
        "@id": "99000012",
        "@name": "황금 고래"
      },
      {
        "@id": "99000013",
        "@name": "빛나는 황금 송사리"
      },
      {
        "@id": "99000014",
        "@name": "빛나는 황금 미역"
      },
      {
        "@id": "99000015",
        "@name": "빛나는 황금 문어"
      },
      {
        "@id": "99000016",
        "@name": "빛나는 황금 돔"
      },
      {
        "@id": "99000017",
        "@name": "빛나는 황금 소라"
      },
      {
        "@id": "99000018",
        "@name": "빛나는 황금 불가사리"
      },
      {
        "@id": "99000019",
        "@name": "빛나는 황금 가재"
      },
      {
        "@id": "99000020",
        "@name": "빛나는 황금 전복"
      },
      {
        "@id": "99000021",
        "@name": "빛나는 황금 거북이"
      },
      {
        "@id": "99000022",
        "@name": "빛나는 황금 해마"
      },
      {
        "@id": "99000023",
        "@name": "빛나는 황금 조개"
      },
      {
        "@id": "99000024",
        "@name": "빛나는 황금 고래"
      }
    ]
  }
}
