{
  "?xml": {
    "@version": "1.0",
    "@encoding": "utf-8"
  },
  "ms2": {
    "key": [
      {
        "@id": "s_DestinyofMika_01",
        "@name": "마왕에게 세뇌당한 몇몇의 루미에라곤 장로들은 \\n빛의 힘을 어둠의 힘으로 바꿔 어둠의 수하가 되었습니다. \\n이렇게 새롭게 생긴 어둠의 세력을 &quot;카르곤&quot;이라 합니다. ",
        "@npc": "NotUse"
      },
      {
        "@id": "s_DestinyofMika_02",
        "@name": "종족 간의 분열은 빛과 어둠의 기나긴 싸움으로 이어졌고, \\n지금 드라켄하임은 최대의 위기를 맞고 있습니다. ",
        "@npc": "NotUse"
      },
      {
        "@id": "s_DestinyofMika_03",
        "@name": "레일라는 미카를 지키기 위해 금지된 마법을 이용하여 분산된 힘을 실어 보내고 \\n지금은 빛의 계승자로서의 모든 힘을 잃었다고 합니다. ",
        "@npc": "NotUse"
      },
      {
        "@id": "s_DestinyofMika_04",
        "@name": "미카, 당신은 지금부터 혼란의 빛을 머금고 있는 라메스톤을 정화하고 \\n레일라가 보내준 힘의 원천을 찾아내야만 합니다. ",
        "@npc": "NotUse"
      },
      {
        "@id": "s_lumieragonhistory_01",
        "@name": "오래전 7영웅님들과 함께 어둠의 세력에 맞서 싸우던 때\\n저희에게 힘이 되어준 동료들이 있었습니다.\\n그중에는 드래곤 마스터 비셋님과 그를 따르는 용족 루미에라곤도 있었지요.",
        "@npc": "에레브"
      },
      {
        "@id": "s_lumieragonhistory_02",
        "@name": "하지만 안타깝게도 격렬한 전투 중에 비셋님은 유명을 달리하시게 되었습니다.\\n루미에라곤 역시 연이은 전투로 인해 그 수가 멸종을 우려할 만큼 감소하였고\\n지도자까지 잃게 된 그들은 혼란에 빠지고 말았습니다.",
        "@npc": "에레브"
      },
      {
        "@id": "s_lumieragonhistory_03",
        "@name": "결국 루미에라곤은 종의 존속을 위해 그 누구도 찾을 수 없는\\n그들의 성지에서 깊은 잠에 빠져들기로 하였고",
        "@npc": "에레브"
      },
      {
        "@id": "s_lumieragonhistory_04",
        "@name": "훗날 자신들을 이끌어 줄 지도자,\\n새로운 드래곤 마스터가 나타나면\\n다시 그 모습을 나타내겠다 하고 자취를 감추었습니다.",
        "@npc": "에레브"
      },
      {
        "@id": "s_lumieragonhistory_05",
        "@name": "그렇게 시간은 흘렀고 루미에라곤은 사람들에게서,\\n그리고 저에게서도 잊혀 가고 있었습니다.\\n마드리아에게 트라이아가 침공당하기 전까지는요.",
        "@npc": "에레브"
      },
      {
        "@id": "s_lumieragonhistory_06",
        "@name": "칠신장 마드리아가 타고 있던 괴수,\\n루미에라곤과 똑같다고 할 수는 없지만 분명 흡사한 모습이었습니다.\\n만일 어둠의 세력에게 루미에라곤이 넘어가기라도 했다면…",
        "@npc": "에레브"
      },
      {
        "@id": "s_lumieragonhistory_07",
        "@name": "우리는 이 세계를 그들의 위협으로부터 지켜내지 못할지도 모릅니다…",
        "@npc": "에레브"
      },
      {
        "@id": "s_MemoryofDragon_01",
        "@name": "탄생…. 빛….",
        "@npc": "NotUse"
      },
      {
        "@id": "s_MemoryofDragon_02",
        "@name": "어둠… 죽음…",
        "@npc": "NotUse"
      },
      {
        "@id": "s_MemoryofDragon_03",
        "@name": "운명…",
        "@npc": "NotUse"
      },
      {
        "@id": "s_Cut_Blackstar_Crash_01",
        "@name": "놈은 혼자다! 인정사정 봐주지 마라!",
        "@npc": "흑성회원"
      },
      {
        "@id": "s_Cut_Blackstar_Crash_02",
        "@name": "크크큭… 사람 몇 명 찾겠다고 이 난장판을 만들다니…\\n잿빛의 이리, 네 녀석… 단단히 미쳤군… 쿨럭! 쿨럭!",
        "@npc": "흑성회원"
      },
      {
        "@id": "s_Cut_Blackstar_Crash_03",
        "@name": "우릴 상대로… 감당할 수 있겠나?",
        "@npc": "흑성회원"
      },
      {
        "@id": "s_Cut_Blackstar_Crash_04",
        "@name": "거기 멈춰! 여기가 어디라고 들어온 거냐?",
        "@npc": "흑성회원"
      },
      {
        "@id": "s_Cut_Blackstar_Crash_05",
        "@name": "무슨 소란인가 했더니…\\n흥, 잿빛의 이리… 네 녀석이었군.",
        "@npc": "웨이 홍"
      },
      {
        "@id": "s_Cut_Blackstar_Crash_06",
        "@name": "크크크…\\n잘~왔다 흑성회에…",
        "@npc": "웨이 홍"
      },
      {
        "@id": "s_KarKarIntro_01",
        "@name": "용을 부리는 힘이라…\\n카이저가 될 수만 있다면 이 세계를 파멸시켜서라도 손에 넣고 말겠다.",
        "@npc": "바르칸트"
      },
      {
        "@id": "s_ProphecyofFall_01",
        "@name": "빛으로부터의 파멸...",
        "@npc": "홀슈타트"
      },
      {
        "@id": "s_2ndjobStory_01",
        "@name": "모험이 시작되었던 그날 이후로, 메이플 월드의 위기는 멈추지 않았다.",
        "@feature": "JobChange_01",
        "@npc": "system"
      },
      {
        "@id": "s_2ndjobStory_02",
        "@name": "정체를 드러내기 시작한 어둠의 세력,",
        "@feature": "JobChange_01",
        "@npc": "system"
      },
      {
        "@id": "s_2ndjobStory_03",
        "@name": "스카이 포트리스의 긴급이륙,",
        "@feature": "JobChange_01",
        "@npc": "system"
      },
      {
        "@id": "s_2ndjobStory_04",
        "@name": "그리고…인페르녹의 부활.",
        "@feature": "JobChange_01",
        "@npc": "system"
      },
      {
        "@id": "s_2ndjobStory_05",
        "@name": "하지만 이런 위기 속에서도, 용사들은 희망을 잃지 않았다.",
        "@feature": "JobChange_01",
        "@npc": "system"
      },
      {
        "@id": "s_2ndjobStory_06",
        "@name": "용사들은 더욱 강해졌고, 더 큰 힘을 꿈꾸고 있었다.",
        "@feature": "JobChange_01",
        "@npc": "system"
      },
      {
        "@id": "s_2ndjobStory_07",
        "@name": "그 어느 때보다 강해진 빛의 힘.",
        "@feature": "JobChange_01",
        "@npc": "system"
      },
      {
        "@id": "s_2ndjobStory_08",
        "@name": "세계는 변화하고 있었다.",
        "@feature": "JobChange_01",
        "@npc": "system"
      },
      {
        "@id": "s_2ndjobStory_09",
        "@name": "그리고 그 변화는… 곧 세상에 모습을 드러내기 시작했다.",
        "@feature": "JobChange_01",
        "@npc": "system"
      },
      {
        "@id": "s_Cut_Vivid_Dream_01",
        "@name": "코드 E 적용완료. 임계점까지 이상 반응 전무.\\n싱크로율 98% 도달! 두 개체 모두 페이즈 3으로 전환합니다!",
        "@locale": "NA",
        "@npc": "칸두라 부하"
      },
      {
        "@id": "s_Cut_Vivid_Dream_02",
        "@name": "훌륭하군.",
        "@locale": "NA",
        "@npc": "칸두라"
      },
      {
        "@id": "s_Cut_Vivid_Dream_03",
        "@name": "걱정마, 우린 함께야. \\n절대 떨어지지 않아. 절대.",
        "@locale": "NA",
        "@npc": "비전"
      },
      {
        "@id": "s_Cut_Vivid_Dream_04",
        "@name": "다, 전부 다 퍼부어! 무조건 막아!",
        "@locale": "NA",
        "@npc": "칸두라 부하"
      },
      {
        "@id": "s_Cut_Vivid_Dream_05",
        "@name": "기억은 파편에 불과하다.\\n어떤 것들은 아주 생생하지만 중요한 것은\\n언제나 안개에 싸인듯 가려져있어 알아볼 수가 없다.",
        "@locale": "NA",
        "@npc": "PC 독백"
      },
      {
        "@id": "s_Cut_Vivid_Dream_06",
        "@name": "…아직 늦지 않았구나.",
        "@locale": "NA",
        "@npc": "라오즈"
      },
      {
        "@id": "s_Cut_Vivid_Dream_07",
        "@name": "마스터! 어째서 정체도 모르는…\\n그것도 인간에게 그 힘을…!",
        "@locale": "NA",
        "@npc": "준타"
      },
      {
        "@id": "s_Cut_Vivid_Dream_08",
        "@name": "그저 순리를 따를 뿐이다.",
        "@locale": "NA",
        "@npc": "라오즈"
      },
      {
        "@id": "s_Cut_Vivid_Dream_09",
        "@name": "새로운 삶은 잊혀진 기억 위에…",
        "@locale": "NA",
        "@npc": "PC 독백"
      },
      {
        "@id": "s_Cut_Vivid_Dream_10",
        "@name": "…새겨지고 채워진다.",
        "@locale": "NA",
        "@npc": "PC 독백"
      },
      {
        "@id": "s_Cut_Vivid_Dream_11",
        "@name": "균형을 잡지 않으면 쓰러진다.",
        "@locale": "NA",
        "@npc": "준타"
      },
      {
        "@id": "s_Cut_Vivid_Dream_12",
        "@name": "내 말 듣고 있는 거냐? ",
        "@locale": "NA",
        "@npc": "준타"
      },
      {
        "@id": "s_Cut_Vivid_Dream_13",
        "@name": "저 녀석이… 또!",
        "@locale": "NA",
        "@npc": "준타"
      },
      {
        "@id": "s_Nutaman_intro_01",
        "@name": "루닉타의 주인…기다리고 있었다.",
        "@locale": "NA",
        "@feature": "NutaNuta",
        "@npc": "누타만"
      },
      {
        "@id": "s_Nutaman_intro_02",
        "@name": "누가 감히…루닉타의 주인을 방해하는가!",
        "@locale": "NA",
        "@feature": "NutaNuta",
        "@npc": "누타만"
      },
      {
        "@id": "s_KatvanIntroMovie_01",
        "@name": "어둠의 씨앗이",
        "@locale": "NA",
        "@feature": "KatvanDungeon",
        "@npc": "마왕"
      },
      {
        "@id": "s_KatvanIntroMovie_02",
        "@name": "네 안에 뿌리를 내리면",
        "@locale": "NA",
        "@feature": "KatvanDungeon",
        "@npc": "마왕"
      },
      {
        "@id": "s_KatvanIntroMovie_03",
        "@name": "거대한 고통이 몰려올 것이다.",
        "@locale": "NA",
        "@feature": "KatvanDungeon",
        "@npc": "마왕"
      },
      {
        "@id": "s_KatvanIntroMovie_04",
        "@name": "그리고 그 끝에서",
        "@locale": "NA",
        "@feature": "KatvanDungeon",
        "@npc": "마왕"
      },
      {
        "@id": "s_KatvanIntroMovie_05",
        "@name": "마왕의 새로운 아들이 탄생할 것이다.",
        "@locale": "NA",
        "@feature": "KatvanDungeon",
        "@npc": "마왕"
      }
    ]
  }
}
