{
  "?xml": {
    "@version": "1.0",
    "@encoding": "utf-8"
  },
  "ms2": {
    "key": [
      {
        "@id": "10000001",
        "@name": "맑은 강물에서 서식한다."
      },
      {
        "@id": "10000002",
        "@name": "맑은 강물에서 서식한다."
      },
      {
        "@id": "10000003",
        "@name": "맑은 강물에서 서식한다."
      },
      {
        "@id": "10000004",
        "@name": "맑은 강물에서 서식한다."
      },
      {
        "@id": "10000005",
        "@name": "맑은 강물에서 서식한다."
      },
      {
        "@id": "10000006",
        "@name": "맑은 강물에서 서식한다."
      },
      {
        "@id": "10000007",
        "@name": "맑은 강물에서 서식한다."
      },
      {
        "@id": "10000008",
        "@name": "맑은 강물에서 서식한다."
      },
      {
        "@id": "10000009",
        "@name": "맑은 강물에서 서식한다."
      },
      {
        "@id": "10000010",
        "@name": "맑은 강물에서 서식한다."
      },
      {
        "@id": "10000011",
        "@name": "맑은 강물에서 서식한다."
      },
      {
        "@id": "10000012",
        "@name": "맑은 강물에서 서식한다."
      },
      {
        "@id": "10000013",
        "@name": "맑은 강물에서 서식한다."
      },
      {
        "@id": "10000014",
        "@name": "맑은 강물에서 서식한다."
      },
      {
        "@id": "10000015",
        "@name": "맑은 강물에서 서식한다."
      },
      {
        "@id": "10000016",
        "@name": "맑은 강물에서 서식한다."
      },
      {
        "@id": "10000017",
        "@name": "맑은 강물에서 서식한다."
      },
      {
        "@id": "10000018",
        "@name": "맑은 강물에서 서식한다."
      },
      {
        "@id": "10000019",
        "@name": "맑은 강물에서 서식한다."
      },
      {
        "@id": "10000020",
        "@name": "맑은 강물에서 서식한다."
      },
      {
        "@id": "10000021",
        "@name": "맑은 강물에서 서식한다."
      },
      {
        "@id": "10000022",
        "@name": "맑은 강물에서 서식한다."
      },
      {
        "@id": "10000023",
        "@name": "맑은 강물에서 서식한다."
      },
      {
        "@id": "10000024",
        "@name": "맑은 강물에서 서식한다."
      },
      {
        "@id": "10000025",
        "@name": "맑은 강물에서 서식한다."
      },
      {
        "@id": "10000026",
        "@name": "맑은 강물에서 서식한다."
      },
      {
        "@id": "10000027",
        "@name": "맑은 강물에서 서식한다."
      },
      {
        "@id": "10000028",
        "@name": "맑은 강물에서 서식한다."
      },
      {
        "@id": "10000029",
        "@name": "맑은 강물에서 서식한다."
      },
      {
        "@id": "10000030",
        "@name": "맑은 강물에서 서식한다."
      },
      {
        "@id": "10000031",
        "@name": "맑은 강물에서 서식한다."
      },
      {
        "@id": "10000032",
        "@name": "맑은 강물에서 서식한다."
      },
      {
        "@id": "10000033",
        "@name": "맑은 강물에서 서식한다."
      },
      {
        "@id": "10000034",
        "@name": "맑은 강물에서 서식한다."
      },
      {
        "@id": "10000035",
        "@name": "맑은 강물에서 서식한다."
      },
      {
        "@id": "10000036",
        "@name": "맑은 강물에서 서식한다."
      },
      {
        "@id": "10000037",
        "@name": "맑은 강물에서 서식한다."
      },
      {
        "@id": "10000038",
        "@name": "맑은 강물에서 서식한다."
      },
      {
        "@id": "10000039",
        "@name": "맑은 강물에서 서식한다."
      },
      {
        "@id": "10000040",
        "@name": "맑은 강물에서 서식한다."
      },
      {
        "@id": "10000041",
        "@name": "맑은 강물에서 서식한다.",
        "@feature": "Fishing02"
      },
      {
        "@id": "10000042",
        "@name": "맑은 강물에서 서식한다.",
        "@feature": "Fishing02"
      },
      {
        "@id": "10000043",
        "@name": "맑은 강물에서 서식한다.",
        "@feature": "Fishing02"
      },
      {
        "@id": "10000044",
        "@name": "맑은 강물에서 서식한다.",
        "@feature": "Fishing02"
      },
      {
        "@id": "10000045",
        "@name": "맑은 강물에서 서식한다.",
        "@feature": "Fishing02"
      },
      {
        "@id": "10000046",
        "@name": "맑은 강물에서 서식한다.",
        "@feature": "Fishing02"
      },
      {
        "@id": "10000047",
        "@name": "맑은 강물에서 서식한다.",
        "@feature": "Fishing02"
      },
      {
        "@id": "10000048",
        "@name": "맑은 강물에서 서식한다.",
        "@feature": "Fishing02"
      },
      {
        "@id": "10000049",
        "@name": "맑은 강물에서 서식한다.",
        "@feature": "Fishing02"
      },
      {
        "@id": "10000050",
        "@name": "맑은 강물에서 서식한다.",
        "@feature": "Fishing02"
      },
      {
        "@id": "10000051",
        "@name": "맑은 강물에서 서식한다.",
        "@feature": "Fishing02"
      },
      {
        "@id": "10000052",
        "@name": "맑은 강물에서 서식한다.",
        "@feature": "Fishing02"
      },
      {
        "@id": "10000053",
        "@name": "맑은 강물에서 서식한다.",
        "@feature": "Fishing02"
      },
      {
        "@id": "10000054",
        "@name": "맑은 강물에서 서식한다.",
        "@feature": "Fishing02"
      },
      {
        "@id": "10000055",
        "@name": "맑은 강물에서 서식한다.",
        "@feature": "Fishing02"
      },
      {
        "@id": "10000056",
        "@name": "맑은 강물에서 서식한다.",
        "@feature": "Fishing02"
      },
      {
        "@id": "10000057",
        "@name": "맑고 차가운 강물에서 서식한다."
      },
      {
        "@id": "11000001",
        "@name": "바닷물에서 서식한다."
      },
      {
        "@id": "11000002",
        "@name": "바닷물에서 서식한다."
      },
      {
        "@id": "11000003",
        "@name": "바닷물에서 서식한다."
      },
      {
        "@id": "11000004",
        "@name": "바닷물에서 서식한다."
      },
      {
        "@id": "11000005",
        "@name": "바닷물에서 서식한다."
      },
      {
        "@id": "11000006",
        "@name": "바닷물에서 서식한다."
      },
      {
        "@id": "11000007",
        "@name": "바닷물에서 서식한다."
      },
      {
        "@id": "11000008",
        "@name": "바닷물에서 서식한다."
      },
      {
        "@id": "11000009",
        "@name": "바닷물에서 서식한다."
      },
      {
        "@id": "11000010",
        "@name": "바닷물에서 서식한다."
      },
      {
        "@id": "11000011",
        "@name": "바닷물에서 서식한다."
      },
      {
        "@id": "11000012",
        "@name": "바닷물에서 서식한다."
      },
      {
        "@id": "11000013",
        "@name": "바닷물에서 서식한다."
      },
      {
        "@id": "11000014",
        "@name": "바닷물에서 서식한다."
      },
      {
        "@id": "11000017",
        "@name": "바닷물에서 서식한다."
      },
      {
        "@id": "11000018",
        "@name": "바닷물에서 서식한다."
      },
      {
        "@id": "11000019",
        "@name": "바닷물에서 서식한다."
      },
      {
        "@id": "11000020",
        "@name": "바닷물에서 서식한다."
      },
      {
        "@id": "11000021",
        "@name": "바닷물에서 서식한다."
      },
      {
        "@id": "11000022",
        "@name": "바닷물에서 서식한다."
      },
      {
        "@id": "11000023",
        "@name": "바닷물에서 서식한다."
      },
      {
        "@id": "11000025",
        "@name": "바닷물에서 서식한다."
      },
      {
        "@id": "11000026",
        "@name": "바닷물에서 서식한다."
      },
      {
        "@id": "11000027",
        "@name": "바닷물에서 서식한다."
      },
      {
        "@id": "11000028",
        "@name": "바닷물에서 서식한다."
      },
      {
        "@id": "11000029",
        "@name": "바닷물에서 서식한다."
      },
      {
        "@id": "11000030",
        "@name": "바닷물에서 서식한다."
      },
      {
        "@id": "11000031",
        "@name": "바닷물에서 서식한다."
      },
      {
        "@id": "11000032",
        "@name": "바닷물에서 서식한다."
      },
      {
        "@id": "11000033",
        "@name": "바닷물에서 서식한다."
      },
      {
        "@id": "11000034",
        "@name": "바닷물에서 서식한다."
      },
      {
        "@id": "11000035",
        "@name": "바닷물에서 서식한다."
      },
      {
        "@id": "11000036",
        "@name": "바닷물에서 서식한다."
      },
      {
        "@id": "11000037",
        "@name": "바닷물에서 서식한다."
      },
      {
        "@id": "11000038",
        "@name": "바닷물에서 서식한다."
      },
      {
        "@id": "11000039",
        "@name": "바닷물에서 서식한다."
      },
      {
        "@id": "11000040",
        "@name": "바닷물에서 서식한다."
      },
      {
        "@id": "11000041",
        "@name": "바닷물에서 서식한다."
      },
      {
        "@id": "11000042",
        "@name": "바닷물에서 서식한다."
      },
      {
        "@id": "11000043",
        "@name": "바닷물에서 서식한다."
      },
      {
        "@id": "11000044",
        "@name": "바닷물에서 서식한다."
      },
      {
        "@id": "11000045",
        "@name": "바닷물에서 서식한다."
      },
      {
        "@id": "11000046",
        "@name": "바닷물에서 서식한다."
      },
      {
        "@id": "11000047",
        "@name": "바닷물에서 서식한다."
      },
      {
        "@id": "11000048",
        "@name": "바닷물에서 서식한다."
      },
      {
        "@id": "11000049",
        "@name": "바닷물에서 서식한다."
      },
      {
        "@id": "11000050",
        "@name": "바닷물에서 서식한다."
      },
      {
        "@id": "11000051",
        "@name": "바닷물에서 서식한다."
      },
      {
        "@id": "11000052",
        "@name": "바닷물에서 서식한다."
      },
      {
        "@id": "11000053",
        "@name": "바닷물에서 서식한다."
      },
      {
        "@id": "11000054",
        "@name": "바닷물에서 서식한다."
      },
      {
        "@id": "11000055",
        "@name": "바닷물에서 서식한다."
      },
      {
        "@id": "11000056",
        "@name": "바닷물에서 서식한다."
      },
      {
        "@id": "11000057",
        "@name": "바닷물에서 서식한다."
      },
      {
        "@id": "11000058",
        "@name": "바닷물에서 서식한다."
      },
      {
        "@id": "11000059",
        "@name": "바닷물에서 서식한다."
      },
      {
        "@id": "11000060",
        "@name": "바닷물에서 서식한다."
      },
      {
        "@id": "11000061",
        "@name": "바닷물에서 서식한다."
      },
      {
        "@id": "11000062",
        "@name": "바닷물에서 서식한다."
      },
      {
        "@id": "11000063",
        "@name": "바닷물에서 서식한다."
      },
      {
        "@id": "11000064",
        "@name": "바닷물에서 서식한다."
      },
      {
        "@id": "11000065",
        "@name": "바닷물에서 서식한다."
      },
      {
        "@id": "11000066",
        "@name": "바닷물에서 서식한다."
      },
      {
        "@id": "11000067",
        "@name": "바닷물에서 서식한다."
      },
      {
        "@id": "11000068",
        "@name": "바닷물에서 서식한다."
      },
      {
        "@id": "11000069",
        "@name": "바닷물에서 서식한다."
      },
      {
        "@id": "11000070",
        "@name": "바닷물에서 서식한다."
      },
      {
        "@id": "11000071",
        "@name": "하랑호수섬의 바닷물에서 서식한다. \\n하랑호수섬으로 가는 방법은 에반스빌의 하랑호수지기 요하랑이 알려준다고 한다."
      },
      {
        "@id": "11000072",
        "@name": "하랑호수섬의 바닷물에서 서식한다. \\n하랑호수섬으로 가는 방법은 에반스빌의 하랑호수지기 요하랑이 알려준다고 한다."
      },
      {
        "@id": "11000073",
        "@name": "바닷물에서 서식한다."
      },
      {
        "@id": "11000074",
        "@name": "바닷물에서 서식한다."
      },
      {
        "@id": "12000001",
        "@name": "뜨거운 용암에서 서식한다."
      },
      {
        "@id": "12000002",
        "@name": "뜨거운 용암에서 서식한다."
      },
      {
        "@id": "12000003",
        "@name": "뜨거운 용암에서 서식한다."
      },
      {
        "@id": "12000004",
        "@name": "뜨거운 용암에서 서식한다."
      },
      {
        "@id": "12000005",
        "@name": "뜨거운 용암에서 서식한다."
      },
      {
        "@id": "12000006",
        "@name": "뜨거운 용암에서 서식한다."
      },
      {
        "@id": "12000007",
        "@name": "뜨거운 용암에서 서식한다."
      },
      {
        "@id": "12000008",
        "@name": "뜨거운 용암에서 서식한다."
      },
      {
        "@id": "12000009",
        "@name": "뜨거운 용암에서 서식한다."
      },
      {
        "@id": "12000010",
        "@name": "뜨거운 용암에서 서식한다."
      },
      {
        "@id": "12000011",
        "@name": "뜨거운 용암에서 서식한다."
      },
      {
        "@id": "12000012",
        "@name": "뜨거운 용암에서 서식한다."
      },
      {
        "@id": "12000013",
        "@name": "뜨거운 용암에서 서식한다."
      },
      {
        "@id": "12000014",
        "@name": "뜨거운 용암에서 서식한다."
      },
      {
        "@id": "12000015",
        "@name": "뜨거운 용암에서 서식한다."
      },
      {
        "@id": "12000016",
        "@name": "뜨거운 용암에서 서식한다."
      },
      {
        "@id": "12000017",
        "@name": "뜨거운 용암에서 서식한다."
      },
      {
        "@id": "12000018",
        "@name": "뜨거운 용암에서 서식한다."
      },
      {
        "@id": "12000019",
        "@name": "뜨거운 용암에서 서식한다."
      },
      {
        "@id": "12000020",
        "@name": "하랑호수섬의 뜨거운 용암에서 서식한다. \\n하랑호수섬으로 가는 방법은 에반스빌의 하랑호수지기 요하랑이 알려준다고 한다."
      },
      {
        "@id": "12000021",
        "@name": "뜨거운 용암에서 서식한다.",
        "@feature": "Fishing02"
      },
      {
        "@id": "12000022",
        "@name": "뜨거운 용암에서 서식한다.",
        "@feature": "Fishing02"
      },
      {
        "@id": "12000023",
        "@name": "뜨거운 용암에서 서식한다.",
        "@feature": "Fishing02"
      },
      {
        "@id": "12000024",
        "@name": "뜨거운 용암에서 서식한다.",
        "@feature": "Fishing02"
      },
      {
        "@id": "12000025",
        "@name": "뜨거운 용암에서 서식한다.",
        "@feature": "Fishing02"
      },
      {
        "@id": "13000003",
        "@name": "사악한 기운에 오염된 물에서 서식한다."
      },
      {
        "@id": "13000005",
        "@name": "사악한 기운에 오염된 물에서 서식한다."
      },
      {
        "@id": "13000007",
        "@name": "사악한 기운에 오염된 물에서 서식한다."
      },
      {
        "@id": "13000009",
        "@name": "사악한 기운에 오염된 물에서 서식한다."
      },
      {
        "@id": "13000010",
        "@name": "사악한 기운에 오염된 물에서 서식한다.",
        "@feature": "Fishing02"
      },
      {
        "@id": "13000011",
        "@name": "사악한 기운에 오염된 물에서 서식한다.",
        "@feature": "Fishing02"
      },
      {
        "@id": "13000012",
        "@name": "사악한 기운에 오염된 물에서 서식한다.",
        "@feature": "Fishing02"
      },
      {
        "@id": "13000013",
        "@name": "사악한 기운에 오염된 물에서 서식한다.",
        "@feature": "Fishing02"
      },
      {
        "@id": "13000014",
        "@name": "사악한 기운에 오염된 물에서 서식한다.",
        "@feature": "Fishing02"
      },
      {
        "@id": "13000015",
        "@name": "사악한 기운에 오염된 물에서 서식한다.",
        "@feature": "Fishing02"
      },
      {
        "@id": "13000016",
        "@name": "사악한 기운에 오염된 물에서 서식한다.",
        "@feature": "Fishing02"
      },
      {
        "@id": "13000017",
        "@name": "사악한 기운에 오염된 물에서 서식한다.",
        "@feature": "Fishing02"
      },
      {
        "@id": "14000001",
        "@name": "지독한 냄새를 풍기는 독액에서 서식한다."
      },
      {
        "@id": "14000002",
        "@name": "지독한 냄새를 풍기는 독액에서 서식한다."
      },
      {
        "@id": "14000003",
        "@name": "지독한 냄새를 풍기는 독액에서 서식한다."
      },
      {
        "@id": "14000004",
        "@name": "지독한 냄새를 풍기는 독액에서 서식한다."
      },
      {
        "@id": "14000005",
        "@name": "지독한 냄새를 풍기는 독액에서 서식한다."
      },
      {
        "@id": "14000006",
        "@name": "지독한 냄새를 풍기는 독액에서 서식한다."
      },
      {
        "@id": "14000007",
        "@name": "지독한 냄새를 풍기는 독액에서 서식한다."
      },
      {
        "@id": "14000008",
        "@name": "지독한 냄새를 풍기는 독액에서 서식한다."
      },
      {
        "@id": "14000009",
        "@name": "지독한 냄새를 풍기는 독액에서 서식한다."
      },
      {
        "@id": "14000010",
        "@name": "지독한 냄새를 풍기는 독액에서 서식한다."
      },
      {
        "@id": "14000011",
        "@name": "지독한 냄새를 풍기는 독액에서 서식한다."
      },
      {
        "@id": "14000012",
        "@name": "지독한 냄새를 풍기는 독액에서 서식한다."
      },
      {
        "@id": "14000013",
        "@name": "지독한 냄새를 풍기는 독액에서 서식한다."
      },
      {
        "@id": "14000014",
        "@name": "지독한 냄새를 풍기는 독액에서 서식한다."
      },
      {
        "@id": "14000015",
        "@name": "지독한 냄새를 풍기는 독액에서 서식한다."
      },
      {
        "@id": "14000016",
        "@name": "지독한 냄새를 풍기는 독액에서 서식한다."
      },
      {
        "@id": "14000017",
        "@name": "지독한 냄새를 풍기는 독액에서 서식한다."
      },
      {
        "@id": "14000018",
        "@name": "지독한 냄새를 풍기는 독액에서 서식한다."
      },
      {
        "@id": "14000019",
        "@name": "지독한 냄새를 풍기는 독액에서 서식한다."
      },
      {
        "@id": "14000020",
        "@name": "지독한 냄새를 풍기는 독액에서 서식한다."
      },
      {
        "@id": "14000021",
        "@name": "하랑호수섬의 지독한 냄새를 풍기는 독액에서 서식한다. \\n하랑호수섬으로 가는 방법은 에반스빌의 하랑호수지기 요하랑이 알려준다고 한다."
      },
      {
        "@id": "14000022",
        "@name": "지독한 냄새를 풍기는 독액에서 서식한다.",
        "@feature": "Fishing02"
      },
      {
        "@id": "14000023",
        "@name": "지독한 냄새를 풍기는 독액에서 서식한다.",
        "@feature": "Fishing02"
      },
      {
        "@id": "14000024",
        "@name": "지독한 냄새를 풍기는 독액에서 서식한다.",
        "@feature": "Fishing02"
      },
      {
        "@id": "14000025",
        "@name": "지독한 냄새를 풍기는 독액에서 서식한다.",
        "@feature": "Fishing02"
      },
      {
        "@id": "14000026",
        "@name": "지독한 냄새를 풍기는 독액에서 서식한다.",
        "@feature": "Fishing02"
      },
      {
        "@id": "14000027",
        "@name": "지독한 냄새를 풍기는 독액에서 서식한다.",
        "@feature": "Fishing02"
      },
      {
        "@id": "14000028",
        "@name": "지독한 냄새를 풍기는 독액에서 서식한다.",
        "@feature": "Fishing02"
      },
      {
        "@id": "14000029",
        "@name": "지독한 냄새를 풍기는 독액에서 서식한다.",
        "@feature": "Fishing02"
      },
      {
        "@id": "15000001",
        "@name": "진득한 기름에서 서식한다."
      },
      {
        "@id": "15000002",
        "@name": "진득한 기름에서 서식한다."
      },
      {
        "@id": "15000003",
        "@name": "진득한 기름에서 서식한다."
      },
      {
        "@id": "15000004",
        "@name": "진득한 기름에서 서식한다."
      },
      {
        "@id": "15000005",
        "@name": "진득한 기름에서 서식한다."
      },
      {
        "@id": "16000001",
        "@name": "신비한 푸른 광석의 영향을 받은 물에서만 서식한다.",
        "@feature": "Fishing02"
      },
      {
        "@id": "16000002",
        "@name": "신비한 푸른 광석의 영향을 받은 물에서만 서식한다.",
        "@feature": "Fishing02"
      },
      {
        "@id": "16000003",
        "@name": "신비한 푸른 광석의 영향을 받은 물에서만 서식한다.",
        "@feature": "Fishing02"
      },
      {
        "@id": "16000004",
        "@name": "신비한 푸른 광석의 영향을 받은 물에서만 서식한다.",
        "@feature": "Fishing02"
      },
      {
        "@id": "16000005",
        "@name": "신비한 푸른 광석의 영향을 받은 물에서만 서식한다.",
        "@feature": "Fishing02"
      },
      {
        "@id": "16000006",
        "@name": "신비한 푸른 광석의 영향을 받은 물에서만 서식한다.",
        "@feature": "Fishing02"
      },
      {
        "@id": "16000007",
        "@name": "신비한 푸른 광석의 영향을 받은 물에서만 서식한다.",
        "@feature": "Fishing02"
      },
      {
        "@id": "16000008",
        "@name": "신비한 푸른 광석의 영향을 받은 물에서만 서식한다.",
        "@feature": "Fishing02"
      },
      {
        "@id": "16000009",
        "@name": "신비한 푸른 광석의 영향을 받은 물에서만 서식한다.",
        "@feature": "Fishing02"
      },
      {
        "@id": "16000010",
        "@name": "신비한 푸른 광석의 영향을 받은 물에서만 서식한다.",
        "@feature": "Fishing02"
      },
      {
        "@id": "99000001",
        "@name": "생명력이 강해 모든 액체에서 서식한다. 초보자용 황금 미끼를 사용해야 보다 쉽게 유인할 수 있다고 한다."
      },
      {
        "@id": "99000002",
        "@name": "생명력이 강해 모든 액체에서 서식한다. 초보자용 황금 미끼를 사용해야 보다 쉽게 유인할 수 있다고 한다."
      },
      {
        "@id": "99000003",
        "@name": "생명력이 강해 모든 액체에서 서식한다. 초보자용 황금 미끼를 사용해야 보다 쉽게 유인할 수 있다고 한다."
      },
      {
        "@id": "99000004",
        "@name": "생명력이 강해 모든 액체에서 서식한다. 중급자용 황금 미끼를 사용해야 보다 쉽게 유인할 수 있다고 한다."
      },
      {
        "@id": "99000005",
        "@name": "생명력이 강해 모든 액체에서 서식한다. 중급자용 황금 미끼를 사용해야 보다 쉽게 유인할 수 있다고 한다."
      },
      {
        "@id": "99000006",
        "@name": "생명력이 강해 모든 액체에서 서식한다. 중급자용 황금 미끼를 사용해야 보다 쉽게 유인할 수 있다고 한다."
      },
      {
        "@id": "99000007",
        "@name": "생명력이 강해 모든 액체에서 서식한다. 상급자용 황금 미끼를 사용해야 보다 쉽게 유인할 수 있다고 한다."
      },
      {
        "@id": "99000008",
        "@name": "생명력이 강해 모든 액체에서 서식한다. 상급자용 황금 미끼를 사용해야 보다 쉽게 유인할 수 있다고 한다."
      },
      {
        "@id": "99000009",
        "@name": "생명력이 강해 모든 액체에서 서식한다. 상급자용 황금 미끼를 사용해야 보다 쉽게 유인할 수 있다고 한다."
      },
      {
        "@id": "99000010",
        "@name": "생명력이 강해 모든 액체에서 서식한다. 전문가용 황금 미끼를 사용해야만 유인할 수 있다고 한다."
      },
      {
        "@id": "99000011",
        "@name": "생명력이 강해 모든 액체에서 서식한다. 전문가용 황금 미끼를 사용해야만 유인할 수 있다고 한다."
      },
      {
        "@id": "99000012",
        "@name": "생명력이 강해 모든 액체에서 서식한다. 전문가용 황금 미끼를 사용해야만 유인할 수 있다고 한다."
      },
      {
        "@id": "99000025",
        "@name": "생명력이 강해 모든 액체에서 서식한다. 프로용 황금 미끼를 사용해야만 유인할 수 있다고 한다."
      },
      {
        "@id": "99000026",
        "@name": "생명력이 강해 모든 액체에서 서식한다. 챔피언용 황금 미끼를 사용해야만 유인할 수 있다고 한다."
      }
    ]
  }
}
