{
  "?xml": {
    "@version": "1.0",
    "@encoding": "utf-8"
  },
  "ms2": {
    "key": [
      {
        "@id": "1",
        "@name": "브론즈"
      },
      {
        "@id": "2",
        "@name": "실버"
      },
      {
        "@id": "3",
        "@name": "골드"
      },
      {
        "@id": "4",
        "@name": "플래티넘"
      },
      {
        "@id": "5",
        "@name": "다이아"
      },
      {
        "@id": "6",
        "@name": "챔피언"
      },
      {
        "@id": "7",
        "@name": "그랜드 챔피언"
      }
    ]
  }
}
