{
  "?xml": {
    "@version": "1.0",
    "@encoding": "utf-8"
  },
  "ms2": {
    "key": [
      {
        "@id": "1",
        "@name": "기본 배경"
      },
      {
        "@id": "2",
        "@name": "푸른 초원"
      },
      {
        "@id": "3",
        "@name": "달빛 숲속"
      },
      {
        "@id": "4",
        "@name": "무지개 설원"
      },
      {
        "@id": "5",
        "@name": "고층 빌딩"
      },
      {
        "@id": "6",
        "@name": "푸른 바다"
      },
      {
        "@id": "7",
        "@name": "메마른 산맥"
      },
      {
        "@id": "8",
        "@name": "우주"
      },
      {
        "@id": "101",
        "@name": "기본 조명"
      },
      {
        "@id": "102",
        "@name": "자연 조명"
      },
      {
        "@id": "103",
        "@name": "아늑한 조명"
      },
      {
        "@id": "104",
        "@name": "차가운 조명"
      },
      {
        "@id": "105",
        "@name": "어두운 조명"
      },
      {
        "@id": "201",
        "@name": "쿼터뷰 (기본)"
      },
      {
        "@id": "202",
        "@name": "사이드뷰"
      },
      {
        "@id": "203",
        "@name": "탑뷰"
      }
    ]
  }
}
