{
  "?xml": {
    "@version": "1.0",
    "@encoding": "utf-8"
  },
  "ms2": {
    "key": [
      {
        "@id": "1",
        "@name": "분노의 자쿰 세트"
      },
      {
        "@id": "2",
        "@name": "미엘레 티타임 세트"
      }
    ]
  }
}
