{
  "?xml": {
    "@version": "1.0",
    "@encoding": "utf-8"
  },
  "ms2": {
    "key": [
      {
        "@id": "Customize_Intro_caption1",
        "@name": "우클릭으로 회전"
      },
      {
        "@id": "Customize_Intro_caption2",
        "@name": "좌클릭 후 이동"
      },
      {
        "@id": "Customize_Intro_caption3",
        "@name": "우클릭으로 회전"
      },
      {
        "@id": "Customize_Intro_caption4",
        "@name": "휠로 길이 조절"
      },
      {
        "@id": "JobIntro_Knight_caption1",
        "@name": "사람들은 이 세상 모든 어둠을 봉인했다고들 이야기 했지만 나는 분명 보았다."
      },
      {
        "@id": "JobIntro_Knight_caption2",
        "@name": "마음 속에 자리잡은 짙은 어둠을."
      },
      {
        "@id": "JobIntro_Knight_caption3",
        "@name": "약자들은 여전히 강자의 발에 짙밟혔고 나 역시 그 중 하나였다."
      },
      {
        "@id": "JobIntro_Knight_caption4",
        "@name": "하지만…"
      },
      {
        "@id": "JobIntro_Knight_caption5",
        "@name": "세상에는 약자를 도와주는 영웅들도 남아있었다."
      },
      {
        "@id": "JobIntro_Knight_caption6",
        "@name": "그 날 나를 구해주었던 그 사람처럼."
      },
      {
        "@id": "JobIntro_Knight_caption7",
        "@name": "도움이 필요한 누군가를, 소중한 누군가를 지킬 수 있는 사람."
      },
      {
        "@id": "JobIntro_Knight_caption8",
        "@name": "난 그런 사람이 될 것이다."
      },
      {
        "@id": "JobIntro_Knight_caption9",
        "@name": "반드시."
      },
      {
        "@id": "JobIntro_Berserker_caption1",
        "@name": "사람들은 미지의 존재에 대해 공포를 느낀다."
      },
      {
        "@id": "JobIntro_Berserker_caption2",
        "@name": "내 안의 어두운 힘이 두려워 날 버린 내 부모님처럼."
      },
      {
        "@id": "JobIntro_Berserker_caption3",
        "@name": "만일 할아버지가 날 발견해 데려오지 않았다면…"
      },
      {
        "@id": "JobIntro_Berserker_caption4",
        "@name": "지금의 난 존재할 수 없었겠지."
      },
      {
        "@id": "JobIntro_Berserker_caption5",
        "@name": "할아버지는 내 안의 힘 따위는 상관하지 않고 날 친자식처럼 키워주셨다."
      },
      {
        "@id": "JobIntro_Berserker_caption6",
        "@name": "공부도, 수련도, 원하지도 않는 걸 정말 많~이 알려 주셨지."
      },
      {
        "@id": "JobIntro_Berserker_caption7",
        "@name": "나중에 안 사실이지만 그런 할아버지가 메이플 월드 최고의 영웅이었다더군."
      },
      {
        "@id": "JobIntro_Berserker_caption8",
        "@name": "키워준 보답? 당연히 해야지!"
      },
      {
        "@id": "JobIntro_Berserker_caption9",
        "@name": "할아버지를 꺾고 최강의 전사가 되는 것!"
      },
      {
        "@id": "JobIntro_Berserker_caption10",
        "@name": "옛 영웅을 이기고 새로운 영웅으로 거듭나는 것!"
      },
      {
        "@id": "JobIntro_Berserker_caption11",
        "@name": "그것이 바로 진정한 효도 아니겠어?"
      },
      {
        "@id": "JobIntro_Berserker_caption12",
        "@name": "영감! 오늘은 반드시 이겨주겠어!!!"
      },
      {
        "@id": "JobIntro_Wizard_caption1",
        "@name": "자, 오늘 수업을 시작해볼…"
      },
      {
        "@id": "JobIntro_Wizard_caption2",
        "@name": "하… 아무래도 결석한 학생이 보이는 것 같군요."
      },
      {
        "@id": "JobIntro_Wizard_caption3",
        "@name": "우리 조금만 기다려볼…"
      },
      {
        "@id": "JobIntro_Wizard_caption4",
        "@name": "선생님! 오늘 배울 마법을 생각하면 수업 시간이 부족할 것 같아요."
      },
      {
        "@id": "JobIntro_Wizard_caption5",
        "@name": "설마 게으른 지각생 따위를 기다리는 시간 낭비 따윈, 하시진 않겠죠?"
      },
      {
        "@id": "JobIntro_Wizard_caption6",
        "@name": "흠흠! 케이틀린 말이 맞아요."
      },
      {
        "@id": "JobIntro_Wizard_caption7",
        "@name": "오늘은 다소 복잡한 구조의 마법 주문을 배워야 할 테니 서둘러 수업을 진행해야겠군요…"
      },
      {
        "@id": "JobIntro_Wizard_caption8",
        "@name": "오늘은 또 어딜간거지…"
      },
      {
        "@id": "JobIntro_Wizard_caption9",
        "@name": "분명 노력만한다면 훌륭한 마법사, 아니 상상을 뛰어넘는 대마법사가 될 수도 있을지도 모르는 인재인데…"
      },
      {
        "@id": "JobIntro_Wizard_caption10",
        "@name": "제발 사고만이라도 치지 않았으면…"
      },
      {
        "@id": "JobIntro_Wizard_caption11",
        "@name": "으아~ 난 몰라!"
      },
      {
        "@id": "JobIntro_Priest_caption1",
        "@name": "15년전 이 땅에서 어둠이 사라진 후 수호사제로서 할 수 있는 것이라고는 그저 기도를 하며 옛 영광을 노래하는 것뿐."
      },
      {
        "@id": "JobIntro_Priest_caption2",
        "@name": "숭고한 희생으로 얻은 소중한 평화가 위협받고 있다는 소식을 듣게 된 순간,"
      },
      {
        "@id": "JobIntro_Priest_caption3",
        "@name": "걱정과 동시에 기대가 되었던 것은 잃어가던 존재의 의미를 되찾을 수 있다는 생각 때문이었을지도 모르겠습니다."
      },
      {
        "@id": "JobIntro_Priest_caption4",
        "@name": "수호 사제, 빛의 신의 의지를 이어가는 자."
      },
      {
        "@id": "JobIntro_Priest_caption5",
        "@name": "신이시여 다시 한번 이 땅에 당신의 영광을 가져오겠나이다."
      },
      {
        "@id": "JobIntro_Ranger_caption1",
        "@name": "눈에 보이는 것이 전부가 아니라는 것."
      },
      {
        "@id": "JobIntro_Ranger_caption2",
        "@name": "사람들은 종종 이 사실을 잊어버리곤 한다."
      },
      {
        "@id": "JobIntro_Ranger_caption3",
        "@name": "하지만 진실은 언젠가 그 모습을 드러나기 마련이고…"
      },
      {
        "@id": "JobIntro_Ranger_caption4",
        "@name": "때로는 누군가의 진정한 모습을 볼 수 있게 되기도 한다."
      },
      {
        "@id": "JobIntro_Ranger_caption5",
        "@name": "누구보다 강하면서도 겉으로 드러내지 않는 사람."
      },
      {
        "@id": "JobIntro_Ranger_caption6",
        "@name": "그러나 누군가 도움이 필요할 때는 주저없이 나서는 사람."
      },
      {
        "@id": "JobIntro_Ranger_caption7",
        "@name": "나도 그와 같은 길을 걷고 싶다."
      },
      {
        "@id": "JobIntro_HeavyGunner_caption1",
        "@name": "친구들은 내게 말했지."
      },
      {
        "@id": "JobIntro_HeavyGunner_caption2",
        "@name": "과학만으로는 메이플월드에 평화를 가져올 수 없다고."
      },
      {
        "@id": "JobIntro_HeavyGunner_caption3",
        "@name": "틀렸어."
      },
      {
        "@id": "JobIntro_HeavyGunner_caption4",
        "@name": "몸이 약한 사람도, 마법이 없는 사람도 내 기술만 있으면 누구든 최고가 될 수 있다구!"
      },
      {
        "@id": "JobIntro_HeavyGunner_caption5",
        "@name": "아이샤, 하지만 그 중 누가 제일 최고지?"
      },
      {
        "@id": "JobIntro_HeavyGunner_caption6",
        "@name": "당연히 마스터죠!"
      },
      {
        "@id": "JobIntro_HeavyGunner_caption7",
        "@name": "10점 만점에 100점이야!!!"
      },
      {
        "@id": "JobIntro_Thief_caption1",
        "@name": "부모에 대한 기억은 없다."
      },
      {
        "@id": "JobIntro_Thief_caption2",
        "@name": "떠올릴 수 있는 것은 그저 더럽고 차가운 뒷골목을 돌아다니던 기억 뿐."
      },
      {
        "@id": "JobIntro_Thief_caption3",
        "@name": "그래도 결코 혼자인 적은 없었다."
      },
      {
        "@id": "JobIntro_Thief_caption4",
        "@name": "친구라는 이름의 가족들이 내 곁을 지켜줬으니깐."
      },
      {
        "@id": "JobIntro_Thief_caption5",
        "@name": "오늘도 우리는 우리만의 방식으로 이 세상을 살아간다."
      },
      {
        "@id": "JobIntro_Thief_caption6",
        "@name": "그 누구에게도 간섭받지 않고, 그 무엇에도 구속당하지 않는."
      },
      {
        "@id": "JobIntro_Thief_caption7",
        "@name": "도적의 삶을."
      },
      {
        "@id": "JobIntro_Assassin_caption1",
        "@name": "로그스."
      },
      {
        "@id": "JobIntro_Assassin_caption2",
        "@name": "칠신장 다크로드의 직속부대이자 세상을 바꿔나갈 어둠의 선봉대."
      },
      {
        "@id": "JobIntro_Assassin_caption3",
        "@name": "우리의 임무는 단 하나, 검은 마법사님을 가로막는 모든 요소를 제거하는 것."
      },
      {
        "@id": "JobIntro_Assassin_caption4",
        "@name": "로그스의 대원으로서 완벽한 임무 수행을 위해 내게 생각이나 감정이라는 것은 허락되지 않았다."
      },
      {
        "@id": "JobIntro_Assassin_caption5",
        "@name": "하지만…"
      },
      {
        "@id": "JobIntro_Assassin_caption6",
        "@name": "언제부터인가 내 안에서 자라나는 이 감정들은 무엇일까?"
      },
      {
        "@id": "JobIntro_Assassin_caption7",
        "@name": "난 정말 세상을 위한 일을 하고 있는 것일까?"
      },
      {
        "@id": "JobIntro_Assassin_caption8",
        "@name": "난 괴물이 되어가고 있는 것은 아닐까?"
      },
      {
        "@id": "JobIntro_Assassin_caption9",
        "@name": "난… 어떻게 해야…"
      },
      {
        "@id": "RuneBlader_Intro_caption1",
        "@name": "Farewell...",
        "@locale": "NA"
      },
      {
        "@id": "RuneBlader_Intro_caption2",
        "@name": "Master.",
        "@locale": "NA"
      },
      {
        "@id": "RuneBlader_Intro_caption3",
        "@name": "Don't throw your life away.",
        "@locale": "NA"
      },
      {
        "@id": "RuneBlader_Intro_caption4",
        "@name": "Your destiny lies elsewhere.",
        "@locale": "NA"
      },
      {
        "@id": "Common_Opening_caption1",
        "@name": "이것은 영웅들의 이야기."
      },
      {
        "@id": "Common_Opening_caption2",
        "@name": "창조주인 빛과 어둠의 신은 함께 수많은 세계를 만들어내었고"
      },
      {
        "@id": "Common_Opening_caption3",
        "@name": "그중 가장 마지막에 탄생한 것이 메이플 월드이다."
      },
      {
        "@id": "Common_Opening_caption4",
        "@name": "빛과 어둠은 함께 공존하며 균형을 이루어야 했지만"
      },
      {
        "@id": "Common_Opening_caption5",
        "@name": "빛의 신의 애정으로 인해 메이플 월드는 점차 빛으로 물들었고,"
      },
      {
        "@id": "Common_Opening_caption6",
        "@name": "이에 어둠의 신은 균형이 무너져버린 세계를 파괴하려 했다."
      },
      {
        "@id": "Common_Opening_caption7",
        "@name": "그렇게 시작된 신들의 전쟁."
      },
      {
        "@id": "Common_Opening_caption8",
        "@name": "기나긴 전투 끝, 조율자 세이지들과 메이플 월드의 생명체들의 도움을 받은\\n빛의 신의 승리로 전쟁은 끝났지만"
      },
      {
        "@id": "Common_Opening_caption9",
        "@name": "어둠의 신이 소멸하며 그의 분노가 대지에 스며들어\\n메이플 월드는 점차 어둠에 물들기 시작했다."
      },
      {
        "@id": "Common_Opening_caption10",
        "@name": "메이플 월드에 깊은 애정을 가졌던 빛의 신은 자신을 희생하여\\n세상이 어둠에 뒤덮이는 것을 막아내었고"
      },
      {
        "@id": "Common_Opening_caption11",
        "@name": "남겨진 빛의 힘으로부터 신성한 존재인 에레브가 탄생하여"
      },
      {
        "@id": "Common_Opening_caption12",
        "@name": "메이플 월드를 지키기 위해 나선 7명의 용사와 함께\\n어둠에 맞서 싸워나가게 된다."
      },
      {
        "@id": "Common_Opening_caption13",
        "@name": "그러나 그들의 노력에도 불구하고\\n어둠은 서서히 메이플 월드를 잠식해나갔고"
      },
      {
        "@id": "Common_Opening_caption14",
        "@name": "이에 에레브와 세이지들은 생명, 공간, 시간의 힘을 지닌\\n라펜타라는 성물을 만들어"
      },
      {
        "@id": "Common_Opening_caption15",
        "@name": "어둠을 봉인하고 정화를 할 공간을 생성하게 된다."
      },
      {
        "@id": "Common_Opening_caption16",
        "@name": "이곳에 그들은 어둠에 물든 대지와 생명체를 모아 정화를 하려 했으나"
      },
      {
        "@id": "Common_Opening_caption17",
        "@name": "한 곳에 응축된 어둠의 힘은 너무도 강력해\\n정화의식을 치르던 세이지들마저 집어삼키게 되고…"
      },
      {
        "@id": "Common_Opening_caption18",
        "@name": "결국, 사람들은 어둠이 메이플 월드를 집어삼키기 전에 라펜타의 힘을 이용,"
      },
      {
        "@id": "Common_Opening_caption19",
        "@name": "정화를 위해 한곳에 모았던 대지와 생명체들을\\n어둠과 함께 봉인하기로 결단을 내리게 된다."
      },
      {
        "@id": "Common_Opening_caption20",
        "@name": "정화의식을 고안했던 7 영웅의 리더 빛의 마법사 킬리안은"
      },
      {
        "@id": "Common_Opening_caption21",
        "@name": "마지막까지 모두를 구할 방법을 찾기 위해 영웅 바론과 함께\\n폭주하는 어둠에 휩쓸려버린 정화의식 장소로 향했고"
      },
      {
        "@id": "Common_Opening_caption22",
        "@name": "최후의 힘까지 끌어내어 정화의식을 성공시키려 해보았지만\\n안타깝게도 그곳에서 최후를 맞이하게 되며"
      },
      {
        "@id": "Common_Opening_caption23",
        "@name": "메이플 월드를 위협하던 어둠은 그렇게 봉인되어 사라지게 되었다."
      },
      {
        "@id": "Common_Opening_caption24",
        "@name": "영웅들과 많은 이들의 숭고한 희생으로 찾아온 평화."
      },
      {
        "@id": "Common_Opening_caption25",
        "@name": "하지만 다가오는 어둠의 그림자와 함께\\n그 평화의 시간도 이제 끝을 맞이하려 하고 있다."
      },
      {
        "@id": "Common_Opening_caption26",
        "@name": "메이플 월드에 다시 한번 영웅이 필요한 시대를 부르며…"
      },
      {
        "@id": "Common_Opening_caption27",
        "@name": "이것은 영웅들의…"
      },
      {
        "@id": "Common_Opening_caption28",
        "@name": "바로, 당신의 이야기."
      },
      {
        "@id": "SkyFortress_Intro_caption1",
        "@name": "쳇, 스카이 포트리스는 아직인가?",
        "@feature": "FameContents"
      },
      {
        "@id": "SkyFortress_Intro_caption2",
        "@name": "이대로는…",
        "@feature": "FameContents"
      },
      {
        "@id": "SkyFortress_Intro_caption3",
        "@name": "꽤 하는데?",
        "@feature": "FameContents"
      },
      {
        "@id": "SkyFortress_Intro_caption4",
        "@name": "피라미들인 줄 알았는데…",
        "@feature": "FameContents"
      },
      {
        "@id": "SkyFortress_Intro_caption5",
        "@name": "용케 여기까지 저항하는군.",
        "@feature": "FameContents"
      },
      {
        "@id": "SkyFortress_Intro_caption6",
        "@name": "네 녀석은…?!",
        "@feature": "FameContents"
      },
      {
        "@id": "SkyFortress_Intro_caption7",
        "@name": "겉치레는 이쯤하고…",
        "@feature": "FameContents"
      },
      {
        "@id": "SkyFortress_Intro_caption8",
        "@name": "이제 마무리해주지.",
        "@feature": "FameContents"
      },
      {
        "@id": "SkyFortress_Intro_caption9",
        "@name": "얕보지 마라!",
        "@feature": "FameContents"
      },
      {
        "@id": "SkyFortress_Intro_caption10",
        "@name": "서둘러! 곧 이륙한다!",
        "@feature": "FameContents"
      },
      {
        "@id": "SkyFortress_Intro_caption11",
        "@name": "승무원, 90% 탑승 완료!\\n하지만 전투 대원들은 아직입니다!",
        "@feature": "FameContents"
      },
      {
        "@id": "SkyFortress_Intro_caption12",
        "@name": "그 방법을 쓸 수밖에 없겠군.",
        "@feature": "FameContents"
      },
      {
        "@id": "SkyFortress_Intro_caption13",
        "@name": "그 방법이라면…",
        "@feature": "FameContents"
      },
      {
        "@id": "SkyFortress_Intro_caption14",
        "@name": "네, 알겠습니다!",
        "@feature": "FameContents"
      },
      {
        "@id": "SkyFortress_Intro_caption15",
        "@name": "함선 기동!\\nXR급 포탄 장전 후, 대기!",
        "@feature": "FameContents"
      },
      {
        "@id": "SkyFortress_Intro_caption16",
        "@name": "뭐지?!",
        "@feature": "FameContents"
      },
      {
        "@id": "SkyFortress_Intro_caption17",
        "@name": "발사!",
        "@feature": "FameContents"
      },
      {
        "@id": "SkyFortress_Intro_caption18",
        "@name": "쳇, 두고 보자…!",
        "@feature": "FameContents"
      },
      {
        "@id": "SkyFortress_Intro_caption19",
        "@name": "칼, 루아나 보세요.\\n그들이 해냈어요.",
        "@feature": "FameContents"
      },
      {
        "@id": "SkyFortress_Intro_caption20",
        "@name": "드디어 떠올랐군요.",
        "@feature": "FameContents"
      },
      {
        "@id": "SkyFortress_Intro_caption21",
        "@name": "부디 메이플 월드를 지켜주세요.",
        "@feature": "FameContents"
      },
      {
        "@id": "SkyFortress_Intro_caption22",
        "@name": "하늘의 방패, 스카이 포트리스.",
        "@feature": "FameContents"
      },
      {
        "@id": "SkyFortress_Intro_caption23",
        "@name": "거기까지다!",
        "@feature": "FameContents"
      },
      {
        "@id": "SkyFortress_Intro_caption24",
        "@name": "제대로 좀 해볼까!",
        "@feature": "FameContents"
      },
      {
        "@id": "SkyFortress_Intro_caption25",
        "@name": "베어주마!",
        "@feature": "FameContents"
      },
      {
        "@id": "SkyFortress_Intro_caption26",
        "@name": "쳇!",
        "@feature": "FameContents"
      },
      {
        "@id": "SkyFortress_Intro_caption27",
        "@name": "화염의 폭풍이여!",
        "@feature": "FameContents"
      },
      {
        "@id": "SkyFortress_Intro_caption28",
        "@name": "각오하라고!",
        "@feature": "FameContents"
      },
      {
        "@id": "SkyFortress_Intro_caption30",
        "@name": "기운 내세요!",
        "@feature": "FameContents"
      },
      {
        "@id": "SkyFortress_Intro_caption31",
        "@name": "간다.",
        "@feature": "FameContents"
      },
      {
        "@id": "SkyFortress_Intro_caption32",
        "@name": "작별 인사나 하라고!",
        "@feature": "FameContents"
      },
      {
        "@id": "Lapenta_Frontier_Intro_caption1",
        "@name": "밤하늘에 빛나는 저 별 보다",
        "@feature": "LapentaFrontierQuest"
      },
      {
        "@id": "Lapenta_Frontier_Intro_caption2",
        "@name": "함께 있는 내 안에 그",
        "@feature": "LapentaFrontierQuest"
      },
      {
        "@id": "Lapenta_Frontier_Intro_caption3",
        "@name": "그 맘이 좋아",
        "@feature": "LapentaFrontierQuest"
      },
      {
        "@id": "Lapenta_Frontier_Intro_caption4",
        "@name": "넌 지나간 어둠을 잊고 (다시 일어나)",
        "@feature": "LapentaFrontierQuest"
      },
      {
        "@id": "Lapenta_Frontier_Intro_caption5",
        "@name": "넌 떨리는 가슴을 안고 (두려워하지 마)",
        "@feature": "LapentaFrontierQuest"
      },
      {
        "@id": "Lapenta_Frontier_Intro_caption6",
        "@name": "넌 새로운 세상의 중심 (잊지 말아 줘요)",
        "@feature": "LapentaFrontierQuest"
      },
      {
        "@id": "Lapenta_Frontier_Intro_caption7",
        "@name": "넌 다가올 미래의 준비 (함께 할게요)",
        "@feature": "LapentaFrontierQuest"
      },
      {
        "@id": "Lapenta_Frontier_Intro_caption8",
        "@name": "잊지 말아요",
        "@feature": "LapentaFrontierQuest"
      },
      {
        "@id": "Lapenta_Frontier_Intro_caption9",
        "@name": "네 마음에 숨 쉬는 희망의 약속, 그 빛을",
        "@feature": "LapentaFrontierQuest"
      },
      {
        "@id": "Lapenta_Frontier_Intro_caption10",
        "@name": "망설이지 말고 저기 열린 세상으로 달려가",
        "@feature": "LapentaFrontierQuest"
      },
      {
        "@id": "Lapenta_Frontier_Intro_caption11",
        "@name": "흔들리지 말고 꿈꿔 왔던 미래가 열릴 테니",
        "@feature": "LapentaFrontierQuest"
      },
      {
        "@id": "Lapenta_Frontier_Intro_caption12",
        "@name": "멈추지 말아 줘 네 이야기",
        "@feature": "LapentaFrontierQuest"
      },
      {
        "@id": "Lapenta_Frontier_Intro_caption13",
        "@name": "잃어버린 너의 이름을 그 이름을 불러봐",
        "@feature": "LapentaFrontierQuest"
      },
      {
        "@id": "Lapenta_Frontier_Intro_caption14",
        "@name": "부르고 불러봐도, 들리지 않는 대도",
        "@feature": "LapentaFrontierQuest"
      },
      {
        "@id": "Lapenta_Frontier_Intro_caption15",
        "@name": "울지 마, 내가",
        "@feature": "LapentaFrontierQuest"
      },
      {
        "@id": "Lapenta_Frontier_Intro_caption16",
        "@name": "안아 줄게",
        "@feature": "LapentaFrontierQuest"
      }
    ]
  }
}
