{
  "?xml": {
    "@version": "1.0", 
    "@encoding": "utf-8"
  }, 
  "ms2": {
    "achieve": [
      {
        "@id": "21300011", 
        "@grade": "4", 
        "@specialDesc": "$npc:11000626$의 판매 아이템 일부에 대한 구매 권한", 
        "@specialNotifyIcon": "./Data/Resource/Image/ETC/rideshop_unlock.png", 
        "@specialNotifyString": "$npc:11000626$ 판매 아이템 일부에 대한 구매 권한 획득", 
        "@feature": "Season1"
      }, 
      {
        "@id": "21300011", 
        "@grade": "6", 
        "@specialDesc": "$npc:11000626$의 판매 아이템 일부에 대한 구매 권한", 
        "@specialNotifyIcon": "./Data/Resource/Image/ETC/rideshop_unlock.png", 
        "@specialNotifyString": "$npc:11000626$ 판매 아이템 일부에 대한 구매 권한 획득", 
        "@feature": "Season1"
      }, 
      {
        "@id": "21300012", 
        "@grade": "5", 
        "@specialDesc": "$npc:11000626$의 판매 아이템 일부에 대한 구매 권한", 
        "@specialNotifyIcon": "./Data/Resource/Image/ETC/rideshop_unlock.png", 
        "@specialNotifyString": "$npc:11000626$ 판매 아이템 일부에 대한 구매 권한 획득", 
        "@feature": "Season1"
      }, 
      {
        "@id": "22200194", 
        "@grade": "1", 
        "@specialDesc": "양 테마 건설 큐브 구매 권한", 
        "@specialNotifyIcon": "./Data/Resource/Image/ETC/buildshop_unlock.png", 
        "@specialNotifyString": "양 테마 건설 큐브 구매 권한 획득", 
        "@feature": "Season1"
      }, 
      {
        "@id": "22200194", 
        "@grade": "2", 
        "@specialDesc": "양 테마 가구 구매 권한", 
        "@specialNotifyIcon": "./Data/Resource/Image/ETC/buildshop_unlock.png", 
        "@specialNotifyString": "양 테마 가구 구매 권한 획득", 
        "@feature": "Season1"
      }, 
      {
        "@id": "22210030", 
        "@grade": "1", 
        "@specialDesc": "쇼핑몰 테마 건설 아이템 구매 권한", 
        "@specialNotifyIcon": "./Data/Resource/Image/ETC/buildshop_unlock.png", 
        "@specialNotifyString": "쇼핑몰 테마 건설 아이템 구매 권한 획득", 
        "@feature": "KarkarIsland", 
        "@locale": "NA"
      }, 
      {
        "@id": "22210030", 
        "@grade": "1", 
        "@specialDesc": "쇼핑몰 테마 건설 아이템 구매 권한", 
        "@specialNotifyIcon": "./Data/Resource/Image/ETC/buildshop_unlock.png", 
        "@specialNotifyString": "쇼핑몰 테마 건설 아이템 구매 권한 획득", 
        "@feature": "KarkarIsland", 
        "@locale": "JP"
      }, 
      {
        "@id": "22210030", 
        "@grade": "1", 
        "@specialDesc": "쇼핑몰 테마 건설 아이템 구매 권한", 
        "@specialNotifyIcon": "./Data/Resource/Image/ETC/buildshop_unlock.png", 
        "@specialNotifyString": "쇼핑몰 테마 건설 아이템 구매 권한 획득", 
        "@feature": "KarkarIsland", 
        "@locale": "TH"
      }, 
      {
        "@id": "22210030", 
        "@grade": "1", 
        "@specialDesc": "쇼핑몰 테마 건설 아이템 구매 권한", 
        "@specialNotifyIcon": "./Data/Resource/Image/ETC/buildshop_unlock.png", 
        "@specialNotifyString": "쇼핑몰 테마 건설 아이템 구매 권한 획득", 
        "@feature": "KarkarIsland", 
        "@locale": "TW"
      }, 
      {
        "@id": "22210031", 
        "@grade": "1", 
        "@specialDesc": "카르카르 황금칼날고기 어항 건설 아이템 구매 권한", 
        "@specialNotifyIcon": "./Data/Resource/Image/ETC/buildshop_unlock.png", 
        "@specialNotifyString": "카르카르 황금칼날고기 어항 건설 아이템 구매 권한 획득", 
        "@feature": "KarkarIsland", 
        "@locale": "NA"
      }, 
      {
        "@id": "22210031", 
        "@grade": "1", 
        "@specialDesc": "카르카르 황금칼날고기 어항 건설 아이템 구매 권한", 
        "@specialNotifyIcon": "./Data/Resource/Image/ETC/buildshop_unlock.png", 
        "@specialNotifyString": "카르카르 황금칼날고기 어항 건설 아이템 구매 권한 획득", 
        "@feature": "KarkarIsland", 
        "@locale": "JP"
      }, 
      {
        "@id": "22210031", 
        "@grade": "1", 
        "@specialDesc": "카르카르 황금칼날고기 어항 건설 아이템 구매 권한", 
        "@specialNotifyIcon": "./Data/Resource/Image/ETC/buildshop_unlock.png", 
        "@specialNotifyString": "카르카르 황금칼날고기 어항 건설 아이템 구매 권한 획득", 
        "@feature": "KarkarIsland", 
        "@locale": "TH"
      }, 
      {
        "@id": "22210031", 
        "@grade": "1", 
        "@specialDesc": "카르카르 황금칼날고기 어항 건설 아이템 구매 권한", 
        "@specialNotifyIcon": "./Data/Resource/Image/ETC/buildshop_unlock.png", 
        "@specialNotifyString": "카르카르 황금칼날고기 어항 건설 아이템 구매 권한 획득", 
        "@feature": "KarkarIsland", 
        "@locale": "TW"
      }, 
      {
        "@id": "22210032", 
        "@grade": "1", 
        "@specialDesc": "라벤더 휴양지 테마 건설 아이템 구매 권한", 
        "@specialNotifyIcon": "./Data/Resource/Image/ETC/buildshop_unlock.png", 
        "@specialNotifyString": "라벤더 휴양지 테마 건설 아이템 구매 권한 획득", 
        "@feature": "KarkarIsland", 
        "@locale": "NA"
      }, 
      {
        "@id": "22210032", 
        "@grade": "1", 
        "@specialDesc": "라벤더 휴양지 테마 건설 아이템 구매 권한", 
        "@specialNotifyIcon": "./Data/Resource/Image/ETC/buildshop_unlock.png", 
        "@specialNotifyString": "라벤더 휴양지 테마 건설 아이템 구매 권한 획득", 
        "@feature": "KarkarIsland", 
        "@locale": "JP"
      }, 
      {
        "@id": "22210032", 
        "@grade": "1", 
        "@specialDesc": "라벤더 휴양지 테마 건설 아이템 구매 권한", 
        "@specialNotifyIcon": "./Data/Resource/Image/ETC/buildshop_unlock.png", 
        "@specialNotifyString": "라벤더 휴양지 테마 건설 아이템 구매 권한 획득", 
        "@feature": "KarkarIsland", 
        "@locale": "TH"
      }, 
      {
        "@id": "22210032", 
        "@grade": "1", 
        "@specialDesc": "라벤더 휴양지 테마 건설 아이템 구매 권한", 
        "@specialNotifyIcon": "./Data/Resource/Image/ETC/buildshop_unlock.png", 
        "@specialNotifyString": "라벤더 휴양지 테마 건설 아이템 구매 권한 획득", 
        "@feature": "KarkarIsland", 
        "@locale": "TW"
      }, 
      {
        "@id": "22210033", 
        "@grade": "1", 
        "@specialDesc": "천체 관측 테마 건설 아이템 구매 권한", 
        "@specialNotifyIcon": "./Data/Resource/Image/ETC/buildshop_unlock.png", 
        "@specialNotifyString": "천체 관측 테마 건설 아이템 구매 권한 획득", 
        "@feature": "KarkarIsland", 
        "@locale": "NA"
      }, 
      {
        "@id": "22210033", 
        "@grade": "1", 
        "@specialDesc": "천체 관측 테마 건설 아이템 구매 권한", 
        "@specialNotifyIcon": "./Data/Resource/Image/ETC/buildshop_unlock.png", 
        "@specialNotifyString": "천체 관측 테마 건설 아이템 구매 권한 획득", 
        "@feature": "KarkarIsland", 
        "@locale": "JP"
      }, 
      {
        "@id": "22210033", 
        "@grade": "1", 
        "@specialDesc": "천체 관측 테마 건설 아이템 구매 권한", 
        "@specialNotifyIcon": "./Data/Resource/Image/ETC/buildshop_unlock.png", 
        "@specialNotifyString": "천체 관측 테마 건설 아이템 구매 권한 획득", 
        "@feature": "KarkarIsland", 
        "@locale": "TH"
      }, 
      {
        "@id": "22210033", 
        "@grade": "1", 
        "@specialDesc": "천체 관측 테마 건설 아이템 구매 권한", 
        "@specialNotifyIcon": "./Data/Resource/Image/ETC/buildshop_unlock.png", 
        "@specialNotifyString": "천체 관측 테마 건설 아이템 구매 권한 획득", 
        "@feature": "KarkarIsland", 
        "@locale": "TW"
      }, 
      {
        "@id": "22210034", 
        "@grade": "1", 
        "@specialDesc": "나즈카르 테마 건설 아이템 구매 권한", 
        "@specialNotifyIcon": "./Data/Resource/Image/ETC/buildshop_unlock.png", 
        "@specialNotifyString": "나즈카르 테마 건설 아이템 구매 권한 획득", 
        "@feature": "KarkarIsland", 
        "@locale": "NA"
      }, 
      {
        "@id": "22210034", 
        "@grade": "1", 
        "@specialDesc": "나즈카르 테마 건설 아이템 구매 권한", 
        "@specialNotifyIcon": "./Data/Resource/Image/ETC/buildshop_unlock.png", 
        "@specialNotifyString": "나즈카르 테마 건설 아이템 구매 권한 획득", 
        "@feature": "KarkarIsland", 
        "@locale": "JP"
      }, 
      {
        "@id": "22210034", 
        "@grade": "1", 
        "@specialDesc": "나즈카르 테마 건설 아이템 구매 권한", 
        "@specialNotifyIcon": "./Data/Resource/Image/ETC/buildshop_unlock.png", 
        "@specialNotifyString": "나즈카르 테마 건설 아이템 구매 권한 획득", 
        "@feature": "KarkarIsland", 
        "@locale": "TH"
      }, 
      {
        "@id": "22210034", 
        "@grade": "1", 
        "@specialDesc": "나즈카르 테마 건설 아이템 구매 권한", 
        "@specialNotifyIcon": "./Data/Resource/Image/ETC/buildshop_unlock.png", 
        "@specialNotifyString": "나즈카르 테마 건설 아이템 구매 권한 획득", 
        "@feature": "KarkarIsland", 
        "@locale": "TW"
      }, 
      {
        "@id": "22210035", 
        "@grade": "1", 
        "@specialDesc": "카르카르 사막 테마 건설 아이템 구매 권한", 
        "@specialNotifyIcon": "./Data/Resource/Image/ETC/buildshop_unlock.png", 
        "@specialNotifyString": "카르카르 사막 테마 건설 아이템 구매 권한 획득", 
        "@feature": "KarkarIsland", 
        "@locale": "NA"
      }, 
      {
        "@id": "22210035", 
        "@grade": "1", 
        "@specialDesc": "카르카르 사막 테마 건설 아이템 구매 권한", 
        "@specialNotifyIcon": "./Data/Resource/Image/ETC/buildshop_unlock.png", 
        "@specialNotifyString": "카르카르 사막 테마 건설 아이템 구매 권한 획득", 
        "@feature": "KarkarIsland", 
        "@locale": "JP"
      }, 
      {
        "@id": "22210035", 
        "@grade": "1", 
        "@specialDesc": "카르카르 사막 테마 건설 아이템 구매 권한", 
        "@specialNotifyIcon": "./Data/Resource/Image/ETC/buildshop_unlock.png", 
        "@specialNotifyString": "카르카르 사막 테마 건설 아이템 구매 권한 획득", 
        "@feature": "KarkarIsland", 
        "@locale": "TH"
      }, 
      {
        "@id": "22210035", 
        "@grade": "1", 
        "@specialDesc": "카르카르 사막 테마 건설 아이템 구매 권한", 
        "@specialNotifyIcon": "./Data/Resource/Image/ETC/buildshop_unlock.png", 
        "@specialNotifyString": "카르카르 사막 테마 건설 아이템 구매 권한 획득", 
        "@feature": "KarkarIsland", 
        "@locale": "TW"
      }, 
      {
        "@id": "22300031", 
        "@grade": "1", 
        "@specialDesc": "장비 상인 $npcName:11001062$의 판매 아이템 일부에 대한 구매 권한", 
        "@specialNotifyIcon": "./Data/Resource/Image/ETC/weaponshop_unlock.png", 
        "@specialNotifyString": "장비 상인 $npcName:11001062$의 판매 아이템 일부에 대한 구매 권한 획득", 
        "@feature": "Season3"
      }, 
      {
        "@id": "22300032", 
        "@grade": "1", 
        "@specialDesc": "장비 상인 $npcName:11001062$의 판매 아이템 일부에 대한 구매 권한", 
        "@specialNotifyIcon": "./Data/Resource/Image/ETC/weaponshop_unlock.png", 
        "@specialNotifyString": "장비 상인 $npcName:11001062$의 판매 아이템 일부에 대한 구매 권한 획득", 
        "@feature": "Season3"
      }, 
      {
        "@id": "22300038", 
        "@grade": "1", 
        "@specialDesc": "\"발록의 혈액\" 퀘스트 수락 권한", 
        "@specialNotifyIcon": "./Data/Resource/Image/ETC/quest_accept.png", 
        "@specialNotifyString": "\"발록의 혈액\" 퀘스트 수락", 
        "@feature": "Season3"
      }, 
      {
        "@id": "23100154", 
        "@grade": "3", 
        "@specialDesc": "낚시꾼 의상 구매 권한", 
        "@specialNotifyIcon": "./Data/Resource/Image/ETC/weaponshop_unlock.png", 
        "@specialNotifyString": "낚시꾼 의상 구매 권한 획득", 
        "@feature": "Season1"
      }
    ]
  }
}