{
  "?xml": {
    "@version": "1.0", 
    "@encoding": "utf-8"
  }, 
  "ms2": {
    "key": [
      {
        "@id": "1001", 
        "@name": "Featured"
      }, 
      {
        "@id": "1002", 
        "@name": "All"
      }, 
      {
        "@id": "1003", 
        "@name": "All"
      }, 
      {
        "@id": "1004", 
        "@name": "Gear"
      }, 
      {
        "@id": "1005", 
        "@name": "All"
      }, 
      {
        "@id": "1006", 
        "@name": "Furnishings"
      }, 
      {
        "@id": "1007", 
        "@name": "All"
      }, 
      {
        "@id": "1008", 
        "@name": "Catalysts"
      }, 
      {
        "@id": "1009", 
        "@name": "Mounts"
      }, 
      {
        "@id": "1010", 
        "@name": "Misc"
      }, 
      {
        "@id": "1011", 
        "@name": "Badges"
      }, 
      {
        "@id": "1012", 
        "@name": "Keys"
      }, 
      {
        "@id": "1013", 
        "@name": "Vouchers"
      }, 
      {
        "@id": "1014", 
        "@name": "Pets"
      }, 
      {
        "@id": "1015", 
        "@name": "New"
      }, 
      {
        "@id": "1016", 
        "@name": "Lapenshard", 
        "@feature": "Lapenshard01"
      }, 
      {
        "@id": "1017", 
        "@name": "emoticon"
      }, 
      {
        "@id": "2000", 
        "@name": "Suits"
      }, 
      {
        "@id": "2001", 
        "@name": "Tops"
      }, 
      {
        "@id": "2002", 
        "@name": "Bottoms"
      }, 
      {
        "@id": "2003", 
        "@name": "Headgear"
      }, 
      {
        "@id": "2004", 
        "@name": "Capes"
      }, 
      {
        "@id": "2005", 
        "@name": "Shoes"
      }, 
      {
        "@id": "2006", 
        "@name": "Gloves"
      }, 
      {
        "@id": "2007", 
        "@name": "Face Accessories"
      }, 
      {
        "@id": "2008", 
        "@name": "Eyewear"
      }, 
      {
        "@id": "2009", 
        "@name": "Earrings"
      }, 
      {
        "@id": "2010", 
        "@name": "Necklaces"
      }, 
      {
        "@id": "2011", 
        "@name": "Rings"
      }, 
      {
        "@id": "2012", 
        "@name": "Main Hand Weapons"
      }, 
      {
        "@id": "2013", 
        "@name": "Two-handed Weapons"
      }, 
      {
        "@id": "2014", 
        "@name": "Off-hand"
      }, 
      {
        "@id": "2015", 
        "@name": "Tonics"
      }, 
      {
        "@id": "2016", 
        "@name": "Designer Clothes"
      }, 
      {
        "@id": "2017", 
        "@name": "Weapons"
      }, 
      {
        "@id": "2018", 
        "@name": "Armor"
      }, 
      {
        "@id": "2019", 
        "@name": "Household Goods"
      }, 
      {
        "@id": "2020", 
        "@name": "Juice"
      }, 
      {
        "@id": "2021", 
        "@name": "Ricky's Looks"
      }, 
      {
        "@id": "2022", 
        "@name": "Chic Furniture"
      }, 
      {
        "@id": "2023", 
        "@name": "Belts"
      }, 
      {
        "@id": "2024", 
        "@name": "Weapons"
      }, 
      {
        "@id": "2025", 
        "@name": "Accessories"
      }, 
      {
        "@id": "2026", 
        "@name": "Skill Books"
      }, 
      {
        "@id": "2027", 
        "@name": "Snacks"
      }, 
      {
        "@id": "2028", 
        "@name": "Toys"
      }, 
      {
        "@id": "2029", 
        "@name": "Cheery Goods"
      }, 
      {
        "@id": "2030", 
        "@name": "Special Outfit"
      }, 
      {
        "@id": "2031", 
        "@name": "Outfits"
      }, 
      {
        "@id": "2032", 
        "@name": "Snacks"
      }, 
      {
        "@id": "2033", 
        "@name": "Barbecue"
      }, 
      {
        "@id": "2034", 
        "@name": "Beverages"
      }, 
      {
        "@id": "2035", 
        "@name": "Delicacies"
      }, 
      {
        "@id": "2036", 
        "@name": "Sweet Fruit"
      }, 
      {
        "@id": "2037", 
        "@name": "Swimwear"
      }, 
      {
        "@id": "2038", 
        "@name": "Special Clothes"
      }, 
      {
        "@id": "2039", 
        "@name": "Chests"
      }, 
      {
        "@id": "2040", 
        "@name": "Cars"
      }, 
      {
        "@id": "2041", 
        "@name": "Monsters"
      }, 
      {
        "@id": "2042", 
        "@name": "Crafting Materials"
      }, 
      {
        "@id": "2043", 
        "@name": "Ingredients"
      }, 
      {
        "@id": "2044", 
        "@name": "Alchemy Reagents"
      }, 
      {
        "@id": "2045", 
        "@name": "Other Materials"
      }, 
      {
        "@id": "2046", 
        "@name": "Transcendence Catalysts"
      }, 
      {
        "@id": "2047", 
        "@name": "Transcendence Scrolls"
      }, 
      {
        "@id": "2048", 
        "@name": "Gemstones"
      }, 
      {
        "@id": "2049", 
        "@name": "Lumistones"
      }, 
      {
        "@id": "2050", 
        "@name": "Picture Books"
      }, 
      {
        "@id": "2051", 
        "@name": "Maple Comics"
      }, 
      {
        "@id": "2052", 
        "@name": "Ellinium"
      }, 
      {
        "@id": "2053", 
        "@name": "Scrolls"
      }, 
      {
        "@id": "2054", 
        "@name": "package"
      }, 
      {
        "@id": "2060", 
        "@name": "Glorious Weapons"
      }, 
      {
        "@id": "2061", 
        "@name": "Glorious Armor"
      }, 
      {
        "@id": "2062", 
        "@name": "Glorious Mounts"
      }, 
      {
        "@id": "2070", 
        "@name": "Treva Outfits"
      }, 
      {
        "@id": "2071", 
        "@name": "Treva Weapons"
      }, 
      {
        "@id": "2072", 
        "@name": "Treva Armor"
      }, 
      {
        "@id": "2073", 
        "@name": "Treva Mounts"
      }, 
      {
        "@id": "2074", 
        "@name": "Design Templates"
      }, 
      {
        "@id": "2075", 
        "@name": "Mannequins"
      }, 
      {
        "@id": "2076", 
        "@name": "Special Weapons"
      }, 
      {
        "@id": "2077", 
        "@name": "Event Items"
      }, 
      {
        "@id": "2078", 
        "@name": "Minerals"
      }, 
      {
        "@id": "2079", 
        "@name": "Instruments"
      }, 
      {
        "@id": "2080", 
        "@name": "Music Scores"
      }, 
      {
        "@id": "2081", 
        "@name": "Fishing Tackles"
      }, 
      {
        "@id": "2082", 
        "@name": "Scrolls"
      }, 
      {
        "@id": "2083", 
        "@name": "Dungeon Pouches"
      }, 
      {
        "@id": "2084", 
        "@name": "Tools"
      }, 
      {
        "@id": "2085", 
        "@name": "Food"
      }, 
      {
        "@id": "2090", 
        "@name": "Arena Weapons"
      }, 
      {
        "@id": "2091", 
        "@name": "Arena Armor"
      }, 
      {
        "@id": "2092", 
        "@name": "Arena Accessories"
      }, 
      {
        "@id": "2093", 
        "@name": "Arena Outfits"
      }, 
      {
        "@id": "2094", 
        "@name": "Arena Mounts"
      }, 
      {
        "@id": "2095", 
        "@name": "Arena Rewards"
      }, 
      {
        "@id": "2096", 
        "@name": "Air Mounts"
      }, 
      {
        "@id": "2100", 
        "@name": "Blue print", 
        "@feature": "BlueprintMarket"
      }, 
      {
        "@id": "3000", 
        "@name": "Decorative Buildings"
      }, 
      {
        "@id": "3001", 
        "@name": "Terrain"
      }, 
      {
        "@id": "3002", 
        "@name": "Interior Props"
      }, 
      {
        "@id": "3003", 
        "@name": "Fitting Mannequins"
      }, 
      {
        "@id": "3004", 
        "@name": "Mounts"
      }, 
      {
        "@id": "3005", 
        "@name": "Souvenir"
      }, 
      {
        "@id": "3006", 
        "@name": "Safes"
      }, 
      {
        "@id": "3007", 
        "@name": "Monster Boxes"
      }, 
      {
        "@id": "3008", 
        "@name": "Local Specialties"
      }, 
      {
        "@id": "3009", 
        "@name": "Lifestyle, Home"
      }, 
      {
        "@id": "3010", 
        "@name": "Trees"
      }, 
      {
        "@id": "3011", 
        "@name": "Grass/Flowers/Mushrooms"
      }, 
      {
        "@id": "3012", 
        "@name": "Stairs"
      }, 
      {
        "@id": "3013", 
        "@name": "Unusual Goods"
      }, 
      {
        "@id": "3014", 
        "@name": "Souvenirs"
      }, 
      {
        "@id": "3015", 
        "@name": "Emotes"
      }, 
      {
        "@id": "3016", 
        "@name": "Luxury Pillars"
      }, 
      {
        "@id": "3017", 
        "@name": "Beauty Vouchers"
      }, 
      {
        "@id": "3018", 
        "@name": "Mannequins"
      }, 
      {
        "@id": "3019", 
        "@name": "Monster Mounts"
      }, 
      {
        "@id": "3020", 
        "@name": "Universal Storage"
      }, 
      {
        "@id": "3021", 
        "@name": "Storage Containers"
      }, 
      {
        "@id": "3022", 
        "@name": "Accessible Buildings"
      }, 
      {
        "@id": "3023", 
        "@name": "Outdoor Packages"
      }, 
      {
        "@id": "3024", 
        "@name": "Indoor Packages"
      }, 
      {
        "@id": "3025", 
        "@name": "Turbo SUVs"
      }, 
      {
        "@id": "3026", 
        "@name": "Rad Choppers"
      }, 
      {
        "@id": "3027", 
        "@name": "Buildings"
      }, 
      {
        "@id": "3028", 
        "@name": "Blocks"
      }, 
      {
        "@id": "3029", 
        "@name": "Decorations"
      }, 
      {
        "@id": "3030", 
        "@name": "Craft Tools"
      }, 
      {
        "@id": "3031", 
        "@name": "Crafting Tools"
      }, 
      {
        "@id": "3032", 
        "@name": "Alchemy Apparatuses"
      }, 
      {
        "@id": "3033", 
        "@name": "Cooking Utensils"
      }, 
      {
        "@id": "3034", 
        "@name": "Weapons"
      }, 
      {
        "@id": "3035", 
        "@name": "Armor"
      }, 
      {
        "@id": "3036", 
        "@name": "Weapon Scrolls"
      }, 
      {
        "@id": "3037", 
        "@name": "Armor Scrolls"
      }, 
      {
        "@id": "3038", 
        "@name": "Misc"
      }, 
      {
        "@id": "3039", 
        "@name": "Vouchers/Scrolls"
      }, 
      {
        "@id": "3040", 
        "@name": "Outfit Sets"
      }, 
      {
        "@id": "3041", 
        "@name": "Individual Outfits"
      }, 
      {
        "@id": "3042", 
        "@name": "Gold Marsh Coin"
      }, 
      {
        "@id": "3043", 
        "@name": "Silver Marsh Coin"
      }, 
      {
        "@id": "3044", 
        "@name": "Bronze marsh coin"
      }, 
      {
        "@id": "3045", 
        "@name": "jewelry"
      }, 
      {
        "@id": "3046", 
        "@name": "Special Offer"
      }, 
      {
        "@id": "3049", 
        "@name": "piece"
      }, 
      {
        "@id": "4000", 
        "@name": "Devices"
      }, 
      {
        "@id": "9001", 
        "@name": "DIY Buildings"
      }, 
      {
        "@id": "9002", 
        "@name": "Single Story Buildings"
      }, 
      {
        "@id": "9003", 
        "@name": "Garden Props"
      }, 
      {
        "@id": "9004", 
        "@name": "Terrain"
      }, 
      {
        "@id": "9005", 
        "@name": "Structures"
      }, 
      {
        "@id": "9006", 
        "@name": "Wall Decorations"
      }, 
      {
        "@id": "9007", 
        "@name": "Furniture"
      }, 
      {
        "@id": "9008", 
        "@name": "Bathroom"
      }, 
      {
        "@id": "9009", 
        "@name": "Interior Design"
      }, 
      {
        "@id": "9010", 
        "@name": "Electronics"
      }, 
      {
        "@id": "9011", 
        "@name": "Industry"
      }, 
      {
        "@id": "9012", 
        "@name": "DIY"
      }, 
      {
        "@id": "9100", 
        "@name": "First Floor"
      }, 
      {
        "@id": "9101", 
        "@name": "Middle Floor"
      }, 
      {
        "@id": "9102", 
        "@name": "Roofs"
      }, 
      {
        "@id": "9103", 
        "@name": "Accessible Single Story Buildings"
      }, 
      {
        "@id": "9104", 
        "@name": "Decorative Single Story Buildings"
      }, 
      {
        "@id": "9105", 
        "@name": "Trees"
      }, 
      {
        "@id": "9106", 
        "@name": "Grass/Flowers"
      }, 
      {
        "@id": "9107", 
        "@name": "Flower Garden/Flowerpots"
      }, 
      {
        "@id": "9108", 
        "@name": "Garden Decorations"
      }, 
      {
        "@id": "9109", 
        "@name": "Walls"
      }, 
      {
        "@id": "9110", 
        "@name": "Floors"
      }, 
      {
        "@id": "9111", 
        "@name": "Slopes"
      }, 
      {
        "@id": "9112", 
        "@name": "Windows"
      }, 
      {
        "@id": "9113", 
        "@name": "Doors"
      }, 
      {
        "@id": "9114", 
        "@name": "Fences"
      }, 
      {
        "@id": "9115", 
        "@name": "Stairs/Windows/Walls"
      }, 
      {
        "@id": "9116", 
        "@name": "Ladders"
      }, 
      {
        "@id": "9117", 
        "@name": "Door Blocks"
      }, 
      {
        "@id": "9118", 
        "@name": "Frames"
      }, 
      {
        "@id": "9119", 
        "@name": "Ornaments"
      }, 
      {
        "@id": "9120", 
        "@name": "Shelves"
      }, 
      {
        "@id": "9121", 
        "@name": "Picture Frames"
      }, 
      {
        "@id": "9122", 
        "@name": "Wall Mirrors"
      }, 
      {
        "@id": "9123", 
        "@name": "Curtains"
      }, 
      {
        "@id": "9124", 
        "@name": "Lighting"
      }, 
      {
        "@id": "9125", 
        "@name": "Frames"
      }, 
      {
        "@id": "9126", 
        "@name": "Beds"
      }, 
      {
        "@id": "9127", 
        "@name": "Storage"
      }, 
      {
        "@id": "9128", 
        "@name": "Tables"
      }, 
      {
        "@id": "9129", 
        "@name": "Chairs"
      }, 
      {
        "@id": "9130", 
        "@name": "Sofas"
      }, 
      {
        "@id": "9131", 
        "@name": "Living Room Goods"
      }, 
      {
        "@id": "9132", 
        "@name": "Lighting/Heating"
      }, 
      {
        "@id": "9133", 
        "@name": "Household Goods"
      }, 
      {
        "@id": "9134", 
        "@name": "Kitchen Goods"
      }, 
      {
        "@id": "9135", 
        "@name": "Ornaments"
      }, 
      {
        "@id": "9136", 
        "@name": "Control Devices"
      }, 
      {
        "@id": "9137", 
        "@name": "Household Appliances"
      }, 
      {
        "@id": "9138", 
        "@name": "Mannequin/Storage"
      }, 
      {
        "@id": "9139", 
        "@name": "Combined Storage"
      }, 
      {
        "@id": "9140", 
        "@name": "Private Storage"
      }, 
      {
        "@id": "9141", 
        "@name": "Basic Materials"
      }, 
      {
        "@id": "9142", 
        "@name": "Fences"
      }, 
      {
        "@id": "9143", 
        "@name": "Interior Design"
      }, 
      {
        "@id": "9144", 
        "@name": "Bedroom/Closet"
      }, 
      {
        "@id": "9145", 
        "@name": "Library"
      }, 
      {
        "@id": "9146", 
        "@name": "Dining"
      }, 
      {
        "@id": "9147", 
        "@name": "Bathroom"
      }, 
      {
        "@id": "9148", 
        "@name": "Utility Room"
      }, 
      {
        "@id": "9149", 
        "@name": "Indoor  Décor"
      }, 
      {
        "@id": "9150", 
        "@name": "Garden Theme"
      }, 
      {
        "@id": "9151", 
        "@name": "Street"
      }, 
      {
        "@id": "9152", 
        "@name": "Outdoor Decor"
      }, 
      {
        "@id": "9153", 
        "@name": "Single Story"
      }, 
      {
        "@id": "9154", 
        "@name": "Prefabricated"
      }, 
      {
        "@id": "9155", 
        "@name": "Prefabricated Upper Floor"
      }, 
      {
        "@id": "9156", 
        "@name": "Single Story"
      }, 
      {
        "@id": "9157", 
        "@name": "Indoor"
      }, 
      {
        "@id": "9158", 
        "@name": "Outdoor"
      }, 
      {
        "@id": "9159", 
        "@name": "Assistants"
      }, 
      {
        "@id": "9160", 
        "@name": "Building"
      }, 
      {
        "@id": "9161", 
        "@name": "Hire Assistant"
      }, 
      {
        "@id": "9162", 
        "@name": "Use Coupons"
      }, 
      {
        "@id": "9163", 
        "@name": "Main Hand Weapons"
      }, 
      {
        "@id": "9164", 
        "@name": "Off-hand Weapons"
      }, 
      {
        "@id": "9165", 
        "@name": "Two-handed Weapons"
      }, 
      {
        "@id": "9166", 
        "@name": "Interior Furnishing Vouchers"
      }, 
      {
        "@id": "9167", 
        "@name": "Outdoor Packages"
      }, 
      {
        "@id": "9168", 
        "@name": "Indoor Packages"
      }, 
      {
        "@id": "9169", 
        "@name": "9x9"
      }, 
      {
        "@id": "9170", 
        "@name": "12x12"
      }, 
      {
        "@id": "9171", 
        "@name": "Interior Props"
      }, 
      {
        "@id": "9900", 
        "@name": "Men's Clothing"
      }, 
      {
        "@id": "9901", 
        "@name": "Women's Clothing"
      }, 
      {
        "@id": "9902", 
        "@name": "Unisex Clothing"
      }, 
      {
        "@id": "9903", 
        "@name": "Block Templates"
      }, 
      {
        "@id": "9904", 
        "@name": "Event Hats"
      }, 
      {
        "@id": "9905", 
        "@name": "Holiday Props"
      }, 
      {
        "@id": "9907", 
        "@name": "Event Mounts"
      }, 
      {
        "@id": "9906", 
        "@name": "Holiday Gifts"
      }, 
      {
        "@id": "9908", 
        "@name": "Holiday Snacks"
      }, 
      {
        "@id": "9909", 
        "@name": "Mystery Boxes"
      }, 
      {
        "@id": "9910", 
        "@name": "Pouches"
      }, 
      {
        "@id": "9911", 
        "@name": "Sales"
      }, 
      {
        "@id": "9912", 
        "@name": "Resolvable"
      }, 
      {
        "@id": "9999", 
        "@name": "Hot"
      }, 
      {
        "@id": "10000", 
        "@name": "Packages"
      }, 
      {
        "@id": "30000", 
        "@name": "<All>"
      }, 
      {
        "@id": "31000", 
        "@name": "Weapons"
      }, 
      {
        "@id": "31100", 
        "@name": "<All>"
      }, 
      {
        "@id": "31130", 
        "@name": "Bludgeons"
      }, 
      {
        "@id": "31131", 
        "@name": "Daggers"
      }, 
      {
        "@id": "31132", 
        "@name": "Longswords"
      }, 
      {
        "@id": "31133", 
        "@name": "Scepters"
      }, 
      {
        "@id": "31134", 
        "@name": "Thrown Weapons"
      }, 
      {
        "@id": "31150", 
        "@name": "Greatswords"
      }, 
      {
        "@id": "31151", 
        "@name": "Bows"
      }, 
      {
        "@id": "31152", 
        "@name": "Staves"
      }, 
      {
        "@id": "31153", 
        "@name": "Cannons"
      }, 
      {
        "@id": "31154", 
        "@name": "Blades"
      }, 
      {
        "@id": "31155", 
        "@name": "Knuckles", 
        "@feature": "Striker"
      }, 
      {
        "@id": "31156", 
        "@name": "Orbs", 
        "@feature": "SoulBinder"
      }, 
      {
        "@id": "31140", 
        "@name": "Codices"
      }, 
      {
        "@id": "31141", 
        "@name": "Shields"
      }, 
      {
        "@id": "32000", 
        "@name": "Armor"
      }, 
      {
        "@id": "32100", 
        "@name": "<All>"
      }, 
      {
        "@id": "32122", 
        "@name": "Suits"
      }, 
      {
        "@id": "32114", 
        "@name": "Tops"
      }, 
      {
        "@id": "32115", 
        "@name": "Bottoms"
      }, 
      {
        "@id": "32113", 
        "@name": "Headgear"
      }, 
      {
        "@id": "32118", 
        "@name": "Capes"
      }, 
      {
        "@id": "32117", 
        "@name": "Shoes"
      }, 
      {
        "@id": "32116", 
        "@name": "Gloves"
      }, 
      {
        "@id": "32121", 
        "@name": "Belts"
      }, 
      {
        "@id": "32112", 
        "@name": "Earrings"
      }, 
      {
        "@id": "32119", 
        "@name": "Necklaces"
      }, 
      {
        "@id": "32120", 
        "@name": "Rings"
      }, 
      {
        "@id": "33000", 
        "@name": "Weapon Skins"
      }, 
      {
        "@id": "33100", 
        "@name": "<All>"
      }, 
      {
        "@id": "33130", 
        "@name": "Bludgeons"
      }, 
      {
        "@id": "33131", 
        "@name": "Daggers"
      }, 
      {
        "@id": "33132", 
        "@name": "Longswords"
      }, 
      {
        "@id": "33133", 
        "@name": "Scepters"
      }, 
      {
        "@id": "33134", 
        "@name": "Thrown Weapons"
      }, 
      {
        "@id": "33150", 
        "@name": "Greatswords"
      }, 
      {
        "@id": "33151", 
        "@name": "Bows"
      }, 
      {
        "@id": "33152", 
        "@name": "Staves"
      }, 
      {
        "@id": "33153", 
        "@name": "Cannons"
      }, 
      {
        "@id": "33154", 
        "@name": "Blades"
      }, 
      {
        "@id": "33155", 
        "@name": "Knuckles", 
        "@feature": "Striker"
      }, 
      {
        "@id": "33156", 
        "@name": "Orbs", 
        "@feature": "SoulBinder"
      }, 
      {
        "@id": "33140", 
        "@name": "Codices"
      }, 
      {
        "@id": "33141", 
        "@name": "Shields"
      }, 
      {
        "@id": "34000", 
        "@name": "Armor Skins"
      }, 
      {
        "@id": "34100", 
        "@name": "<All>"
      }, 
      {
        "@id": "34122", 
        "@name": "Suits"
      }, 
      {
        "@id": "34114", 
        "@name": "Tops"
      }, 
      {
        "@id": "34115", 
        "@name": "Bottoms"
      }, 
      {
        "@id": "34113", 
        "@name": "Headgear"
      }, 
      {
        "@id": "34118", 
        "@name": "Capes"
      }, 
      {
        "@id": "34117", 
        "@name": "Shoes"
      }, 
      {
        "@id": "34116", 
        "@name": "Gloves"
      }, 
      {
        "@id": "34110", 
        "@name": "Face Accessories"
      }, 
      {
        "@id": "34111", 
        "@name": "Eyewear"
      }, 
      {
        "@id": "34112", 
        "@name": "Earrings"
      }, 
      {
        "@id": "35100", 
        "@name": "Outfit Packages"
      }, 
      {
        "@id": "35200", 
        "@name": "Pets - All"
      }, 
      {
        "@id": "35201", 
        "@name": "Pets"
      }, 
      {
        "@id": "35202", 
        "@name": "Capture Tools"
      }, 
      {
        "@id": "35300", 
        "@name": "Mounts - All"
      }, 
      {
        "@id": "35301", 
        "@name": "Mounts"
      }, 
      {
        "@id": "35303", 
        "@name": "· Flight mount"
      }, 
      {
        "@id": "35302", 
        "@name": "Mount Packages"
      }, 
      {
        "@id": "36000", 
        "@name": "Furnishing - All"
      }, 
      {
        "@id": "36001", 
        "@name": "Terrain"
      }, 
      {
        "@id": "36002", 
        "@name": "Buildings"
      }, 
      {
        "@id": "36003", 
        "@name": "Decorations"
      }, 
      {
        "@id": "36004", 
        "@name": "Furnishing Packages"
      }, 
      {
        "@id": "38100", 
        "@name": "Fishing"
      }, 
      {
        "@id": "38200", 
        "@name": "Performances"
      }, 
      {
        "@id": "39100", 
        "@name": "Storybooks"
      }, 
      {
        "@id": "37000", 
        "@name": "Potions"
      }, 
      {
        "@id": "37100", 
        "@name": "Boost Potions"
      }, 
      {
        "@id": "37200", 
        "@name": "Scrolls"
      }, 
      {
        "@id": "37300", 
        "@name": "Crystals"
      }, 
      {
        "@id": "37400", 
        "@name": "Gemstones"
      }, 
      {
        "@id": "37500", 
        "@name": "Badges"
      }, 
      {
        "@id": "37600", 
        "@name": "Emotes"
      }, 
      {
        "@id": "39000", 
        "@name": "Other"
      }, 
      {
        "@id": "40000", 
        "@name": "Packages"
      }, 
      {
        "@id": "40100", 
        "@name": "Outfits"
      }, 
      {
        "@id": "40101", 
        "@name": "Weapons"
      }, 
      {
        "@id": "40102", 
        "@name": "Headgears"
      }, 
      {
        "@id": "40103", 
        "@name": "Suits"
      }, 
      {
        "@id": "40104", 
        "@name": "Tops"
      }, 
      {
        "@id": "40105", 
        "@name": "Bottom"
      }, 
      {
        "@id": "40106", 
        "@name": "Gloves"
      }, 
      {
        "@id": "40107", 
        "@name": "Shoes"
      }, 
      {
        "@id": "40108", 
        "@name": "Capes"
      }, 
      {
        "@id": "40109", 
        "@name": "Accessories"
      }, 
      {
        "@id": "40110", 
        "@name": "Style box skin"
      }, 
      {
        "@id": "40200", 
        "@name": "Summons"
      }, 
      {
        "@id": "40201", 
        "@name": "Ground Mounts"
      }, 
      {
        "@id": "40202", 
        "@name": "Air Mounts"
      }, 
      {
        "@id": "40203", 
        "@name": "Pets"
      }, 
      {
        "@id": "40204", 
        "@name": "Food"
      }, 
      {
        "@id": "40300", 
        "@name": "Functional"
      }, 
      {
        "@id": "40400", 
        "@name": "Emotes"
      }, 
      {
        "@id": "40500", 
        "@name": "Badges"
      }, 
      {
        "@id": "40600", 
        "@name": "Lifestyle"
      }, 
      {
        "@id": "60000", 
        "@name": "<All>"
      }, 
      {
        "@id": "60001", 
        "@name": "Weapons"
      }, 
      {
        "@id": "60002", 
        "@name": "Headgears"
      }, 
      {
        "@id": "60003", 
        "@name": "Suits"
      }, 
      {
        "@id": "60004", 
        "@name": "Tops"
      }, 
      {
        "@id": "60005", 
        "@name": "Bottoms"
      }, 
      {
        "@id": "60006", 
        "@name": "Gloves"
      }, 
      {
        "@id": "60007", 
        "@name": "Shoes"
      }, 
      {
        "@id": "60008", 
        "@name": "Capes"
      }, 
      {
        "@id": "60009", 
        "@name": "Accessories"
      }, 
      {
        "@id": "60010", 
        "@name": "Furnishings"
      }, 
      {
        "@id": "60011", 
        "@name": "Mounts"
      }, 
      {
        "@id": "60012", 
        "@name": "3rd anniversary box"
      }
    ]
  }
}