{
  "?xml": {
    "@version": "1.0", 
    "@encoding": "utf-8"
  }, 
  "ms2": {
    "key": [
      {
        "@id": "1", 
        "@name": "- 21,000+ Points: <font color='#00a2ed'>Weekly Diamond Rank Box</font> <font color='#909090'>(8,000,000 Mesos+50 Special White Potions)</font>\\n- 18,000+ Points: <font color='#00a2ed'>Weekly Platinum Rank Box</font> <font color='#909090'>(5,000,000 Mesos+50 Special White Potions)</font>\\n- 7,000+ Points: <font color='#00a2ed'>Weekly Gold Rank Box</font> <font color='#909090'>(3,000,000 Mesos+50 Special White Potions)</font>\\n- 5,000+ Points: <font color='#00a2ed'>Weekly Silver Rank Box</font> <font color='#909090'>(1,000,000 Mesos+50 Special White Potions)</font>\\n- 2,000+ Points: <font color='#00a2ed'>Weekly Bronze Rank Box</font> <font color='#909090'>(500,000 Mesos+50 Special White Potions)</font>\\n"
      }, 
      {
        "@id": "2", 
        "@name": "- 21,000+ Points: <font color='#00a2ed'>Weekly Diamond Rank Box</font> <font color='#909090'>(300 Mu Gong Emblems)</font>\\n- 18,000+ Points: <font color='#00a2ed'>Weekly Platinum Rank Box</font> <font color='#909090'>(250 Mu Gong Emblems)</font>\\n- 7,000+ Points: <font color='#00a2ed'>Weekly Gold Rank Box</font> <font color='#909090'>(150 Mu Gong Emblems)</font>\\n- 5,000+ Points: <font color='#00a2ed'>Weekly Silver Rank Box</font> <font color='#909090'>(100 Mu Gong Emblems)</font>\\n- 2,000+ Points: <font color='#00a2ed'>Weekly Bronze Rank Box</font> <font color='#909090'>(50 Mu Gong Emblems)</font>\\n"
      }, 
      {
        "@id": "1001", 
        "@name": "-> 17600 points or more: <font color = '# 00a2ed'> Weekly Rank Achievement Diamond Compensation Box </font> <font color = '# 909090'> (300 Martial Arts) </font> \\n- over 13200 points: <font color = '# 00a2ed'> Weekly Rank Achieved Platinum Compensation Box </font> <font color = '# 909090'> (250 Martial Codes) </font> \\n- 7000 points or more: <font color = # 00a2ed '> Weekly Achievement Gold Compensation Box </font> <font color =' # 909090 '> (Martial Certificate 150) </font> \\n- 4000 or more: <font color =' # 00a 2ed \"> Weekly Rank fulfillment silver compensation box </font> <font color = '# 909090'> (Martial Certificate 100 pieces) </font> \\n- 2000 points or more: <font color = '# 00a2ed>> Weekly Rank Achieved Bronze Reward Box </font> <font color = '# 909090'> (50 martial evidences) </font> \\n"
      }, 
      {
        "@id": "1002", 
        "@name": "- More than 5700 points: <font color = '# 00a2ed'> Weekly rank achievement degree diamond compensation box </font> <font color = '# 909090' <font color = '# 00a2ed'> Weekly Rank Achievement Platinum Compensation Box </font> <font color = '# 909090'> # 00a2ed '> Weekly rank achievement degree gold compensation box </font> <font color =' # 909090 '> (150 proofs) </font> \\n- 1400 points or more: <font color =' # 00a2ed ' </Font> \\n- 1200 points or more: <font color = '# 00a2ed'> Weekly Rank Achievement Bronze Compensation Box </font> </font> <font color = '# 909090'> (50 Papers) </font> \\n"
      }, 
      {
        "@id": "3", 
        "@name": "- 7,600+ Points: <font color='#00a2ed'>Weekly Gold Box</font><font color='#909090'>(150 Distinguished Service Tokens)</font>\\n- 4,300+ Points: <font color='#00a2ed'>Weekly Silver Box</font><font color='#909090'>(100 Distinguished Service Tokens)</font>\\n- 1,600+ Points: <font color='#00a2ed'>Weekly Bronze Box</font><font color='#909090'>(50 Distinguished Service Tokens)</font>\\n"
      }, 
      {
        "@id": "4", 
        "@name": "- 10,500+ Points: <font color='#00a2ed'>Weekly Platinum Box</font><font color='#909090'>(250 Distinguished Service Tokens)</font>\\n- 7,600+ Points: <font color='#00a2ed'>Weekly Gold Box</font><font color='#909090'>(150 Distinguished Service Tokens)</font>\\n- 4,300+ Points: <font color='#00a2ed'>Weekly Silver Box</font><font color='#909090'>(100 Distinguished Service Tokens)</font>\\n- 1,600+ Points: <font color='#00a2ed'>Weekly Bronze Box</font><font color='#909090'>(50 Distinguished Service Tokens)</font>\\n"
      }, 
      {
        "@id": "2001", 
        "@name": "-> 8600 points or more: <font color = '# 00a2ed'> Weekly Rank Achieved Platinum Compensation Box </font> <font color = '# 909090'> (Mauwent Certificate 250) </font> \\n- over 5700 points: <font color = '# 00a2ed'> Weekly Rank Achieved Gold Compensation Box </font> <font color = '# 909090'> (Martial Certificate 150) </font> \\n- 2800 points or more: <font color = # 00a2ed '> Weekly Achievement Silver Compensation Box </font> <font color =' # 909090 '> (100 Martial Arts) </font> \\n- over 1600 points: <font color =' # 00a 2ed '> Weekly Rank Achieved Bronze Compensation Box </font> <font color = '# 909090'> (Martial Arrangement 50 pieces) </font> \\n"
      }, 
      {
        "@id": "2002", 
        "@name": "- More than 5700 points: <font color = '# 00a2ed'> Weekly rank achievement degree diamond compensation box </font> <font color = '# 909090' <font color = '# 00a2ed'> Weekly Rank Achievement Platinum Compensation Box </font> <font color = '# 909090'> # 00a2ed '> Weekly rank achievement degree gold compensation box </font> <font color =' # 909090 '> (150 proofs) </font> \\n- 1400 points or more: <font color =' # 00a2ed ' </Font> \\n- 1200 points or more: <font color = '# 00a2ed'> Weekly Rank Achievement Bronze Compensation Box </font> </font> <font color = '# 909090'> (50 Papers) </font> \\n"
      }, 
      {
        "@id": "5", 
        "@name": "- 7,600+ Points: <font color='#00a2ed'>Weekly Gold Box</font><font color='#909090'>(150 Distinguished Service Tokens)</font>\\n- 4,300+ Points: <font color='#00a2ed'>Weekly Silver Box</font><font color='#909090'>(100 Distinguished Service Tokens)</font>\\n- 1,600+ Points: <font color='#00a2ed'>Weekly Bronze Box</font><font color='#909090'>(50 Distinguished Service Tokens)</font>\\n"
      }, 
      {
        "@id": "6", 
        "@name": "- 11,500+ Points: <font color='#00a2ed'>Weekly Platinum Box</font><font color='#909090'>(250 Distinguished Service Tokens)</font>\\n- 7,600+ Points: <font color='#00a2ed'>Weekly Gold Box</font><font color='#909090'>(150 Distinguished Service Tokens)</font>\\n- 4,300+ Points: <font color='#00a2ed'>Weekly Silver Box</font><font color='#909090'>(100 Distinguished Service Tokens)</font>\\n- 1,600+ Points: <font color='#00a2ed'>Weekly Bronze Box</font><font color='#909090'>(50 Distinguished Service Tokens)</font>\\n"
      }, 
      {
        "@id": "3001", 
        "@name": "- 5700 points or more: <font color='#00a2ed'>weekly rank achievement rewards diamond box</font> <font color='#909090'>(Gong token 300)</font> \\n- 4300 points or more: <font color='#00a2ed'>Weekly ranked Platinum Achievement Reward Box</font> <font color='#909090'>(Gong token 250)</font> \\n- 2800 points or more: <font color='#00a2ed'>weekly rank Achievement Reward Gold Box</font> <font color='#909090'>( Gong mark 150)</font> \\n- 1400 or higher: <font color='#00a2ed'>weekly rank achievement silver compensation box</font> <font color='#909090'>(imperforate mark 100)</font> \\n- 1200 or higher: <font color='#00a2ed'>weekly rank achievement bronze compensation box</font> <font color='#909090'>(imperforate mark 50)</font> \\n"
      }
    ]
  }
}