{
  "?xml": {
    "@version": "1.0", 
    "@encoding": "utf-8"
  }, 
  "ms2": {
    "key": [
      {
        "@id": "200001", 
        "@name": "Up"
      }, 
      {
        "@id": "200002", 
        "@name": "Down"
      }, 
      {
        "@id": "200003", 
        "@name": "Left"
      }, 
      {
        "@id": "200004", 
        "@name": "Right"
      }, 
      {
        "@id": "300001", 
        "@name": "Jump"
      }, 
      {
        "@id": "300002", 
        "@name": "Action"
      }, 
      {
        "@id": "300003", 
        "@name": "Pick Up"
      }, 
      {
        "@id": "300004", 
        "@name": "Sit"
      }, 
      {
        "@id": "300005", 
        "@name": "Crawl"
      }, 
      {
        "@id": "300006", 
        "@name": "Run"
      }, 
      {
        "@id": "300007", 
        "@name": "Chat"
      }, 
      {
        "@id": "300008", 
        "@name": "Zoom In"
      }, 
      {
        "@id": "300009", 
        "@name": "Zoom Out"
      }, 
      {
        "@id": "300010", 
        "@name": "Walk"
      }, 
      {
        "@id": "300013", 
        "@name": "Furnishing Mode"
      }, 
      {
        "@id": "300014", 
        "@name": "Next Trigger"
      }, 
      {
        "@id": "300015", 
        "@name": "Screenshot"
      }, 
      {
        "@id": "300016", 
        "@name": "Mount"
      }, 
      {
        "@id": "300017", 
        "@name": "Fitting Mannequin 1"
      }, 
      {
        "@id": "300018", 
        "@name": "Fitting Mannequin 2"
      }, 
      {
        "@id": "300019", 
        "@name": "Fitting Mannequin 3"
      }, 
      {
        "@id": "300020", 
        "@name": "Fitting Mannequin 4"
      }, 
      {
        "@id": "300021", 
        "@name": "Fitting Mannequin 5"
      }, 
      {
        "@id": "300022", 
        "@name": "Camera Angle"
      }, 
      {
        "@id": "300033", 
        "@name": "Basic Attack"
      }, 
      {
        "@id": "300034", 
        "@name": "Grab"
      }, 
      {
        "@id": "300035", 
        "@name": "My Home"
      }, 
      {
        "@id": "300036", 
        "@name": "Hide UI"
      }, 
      {
        "@id": "300037", 
        "@name": "Whisper"
      }, 
      {
        "@id": "300038", 
        "@name": "Item Preview"
      }, 
      {
        "@id": "300039", 
        "@name": "Expand Minimap"
      }, 
      {
        "@id": "300041", 
        "@name": "Cancel"
      }, 
      {
        "@id": "300042", 
        "@name": "Beauty Salon"
      }, 
      {
        "@id": "300043", 
        "@name": "Dye Workshop"
      }, 
      {
        "@id": "300044", 
        "@name": "Plastic Surgery Office"
      }, 
      {
        "@id": "300045", 
        "@name": "Style Equip"
      }, 
      {
        "@id": "300046", 
        "@name": "Quick Slot Page 1"
      }, 
      {
        "@id": "300047", 
        "@name": "Quick Slot Page 2"
      }, 
      {
        "@id": "300048", 
        "@name": "Quick Slot Page 3"
      }, 
      {
        "@id": "300049", 
        "@name": "Quick Slot Page Move"
      }, 
      {
        "@id": "400001", 
        "@name": "Inventory"
      }, 
      {
        "@id": "400002", 
        "@name": "Character"
      }, 
      {
        "@id": "400005", 
        "@name": "Skills"
      }, 
      {
        "@id": "400006", 
        "@name": "World Map"
      }, 
      {
        "@id": "400007", 
        "@name": "Quest Journal"
      }, 
      {
        "@id": "400008", 
        "@name": "Portrait Camera"
      }, 
      {
        "@id": "400009", 
        "@name": "Trophies"
      }, 
      {
        "@id": "400010", 
        "@name": "Beauty Shop"
      }, 
      {
        "@id": "400011", 
        "@name": "Edit Item"
      }, 
      {
        "@id": "400012", 
        "@name": "Friends"
      }, 
      {
        "@id": "400013", 
        "@name": "Mailbox"
      }, 
      {
        "@id": "400014", 
        "@name": "Guild"
      }, 
      {
        "@id": "400015", 
        "@name": "Maview", 
        "@feature": "Maview"
      }, 
      {
        "@id": "400016", 
        "@name": "Meret Market", 
        "@feature": "MeratMarket"
      }, 
      {
        "@id": "400017", 
        "@name": "Cash Shop", 
        "@feature": "CashShop"
      }, 
      {
        "@id": "400018", 
        "@name": "Challenge Map"
      }, 
      {
        "@id": "400019", 
        "@name": "Assistant Tasks"
      }, 
      {
        "@id": "400020", 
        "@name": "Maple Arena", 
        "@feature": "PvPRankingDuelMode"
      }, 
      {
        "@id": "400021", 
        "@name": "Black Market"
      }, 
      {
        "@id": "400022", 
        "@name": "Maple Navigator"
      }, 
      {
        "@id": "400023", 
        "@name": "Maple Arcade"
      }, 
      {
        "@id": "400024", 
        "@name": "Beauty Shortcuts"
      }, 
      {
        "@id": "400025", 
        "@name": "Traits"
      }, 
      {
        "@id": "400026", 
        "@name": "Premium Service"
      }, 
      {
        "@id": "400027", 
        "@name": "Party Finder"
      }, 
      {
        "@id": "400028", 
        "@name": "Maple Workshop"
      }, 
      {
        "@id": "400029", 
        "@name": "Life Skills", 
        "@feature": "Mastery"
      }, 
      {
        "@id": "400030", 
        "@name": "Maple Guide"
      }, 
      {
        "@id": "400031", 
        "@name": "Macro Settings"
      }, 
      {
        "@id": "400032", 
        "@name": "Encyclopedia", 
        "@feature": "GameDictionary"
      }, 
      {
        "@id": "400033", 
        "@name": "Ranking", 
        "@feature": "InGameRank"
      }, 
      {
        "@id": "400034", 
        "@name": "Clubs", 
        "@feature": "Club"
      }, 
      {
        "@id": "400035", 
        "@name": "Pets", 
        "@feature": "PetBase"
      }, 
      {
        "@id": "400036", 
        "@name": "Daily Missions", 
        "@feature": "DailyMission"
      }, 
      {
        "@id": "400037", 
        "@name": "Dungeon Info"
      }, 
      {
        "@id": "400038", 
        "@name": "Lafenshard", 
        "@feature": "Lapenshard01"
      }, 
      {
        "@id": "500001", 
        "@name": "Quickslot 1"
      }, 
      {
        "@id": "500002", 
        "@name": "Quickslot 2"
      }, 
      {
        "@id": "500003", 
        "@name": "Quickslot 3"
      }, 
      {
        "@id": "500004", 
        "@name": "Quickslot 4"
      }, 
      {
        "@id": "500005", 
        "@name": "Quickslot 5"
      }, 
      {
        "@id": "500006", 
        "@name": "Quickslot 6"
      }, 
      {
        "@id": "500007", 
        "@name": "Quickslot 7"
      }, 
      {
        "@id": "500008", 
        "@name": "Quickslot 8"
      }, 
      {
        "@id": "500009", 
        "@name": "Quickslot 9"
      }, 
      {
        "@id": "500010", 
        "@name": "Quickslot 10"
      }, 
      {
        "@id": "500011", 
        "@name": "Quickslot 11"
      }, 
      {
        "@id": "500012", 
        "@name": "Quickslot 12"
      }, 
      {
        "@id": "500013", 
        "@name": "Quickslot 13"
      }, 
      {
        "@id": "500014", 
        "@name": "Quickslot 14"
      }, 
      {
        "@id": "500015", 
        "@name": "Quickslot 15"
      }, 
      {
        "@id": "500016", 
        "@name": "Quickslot 16"
      }, 
      {
        "@id": "500017", 
        "@name": "Quickslot 17"
      }, 
      {
        "@id": "500018", 
        "@name": "Quickslot 18"
      }, 
      {
        "@id": "500019", 
        "@name": "Quickslot 19"
      }, 
      {
        "@id": "500020", 
        "@name": "Quickslot 20"
      }, 
      {
        "@id": "500021", 
        "@name": "Quickslot 21"
      }, 
      {
        "@id": "500022", 
        "@name": "Quickslot 22"
      }, 
      {
        "@id": "600001", 
        "@name": "Mode"
      }, 
      {
        "@id": "700001", 
        "@name": "Macro Key {0}"
      }, 
      {
        "@id": "700002", 
        "@name": "Macro Key {0}"
      }, 
      {
        "@id": "700003", 
        "@name": "Macro Key {0}"
      }, 
      {
        "@id": "800001", 
        "@name": "Quickslot Bar 1"
      }, 
      {
        "@id": "800002", 
        "@name": "Quickslot Bar 2"
      }, 
      {
        "@id": "800003", 
        "@name": "Quickslot Bar 3"
      }, 
      {
        "@id": "800004", 
        "@name": "Main Menu"
      }, 
      {
        "@id": "800005", 
        "@name": "Mouse Right-Click"
      }, 
      {
        "@id": "800006", 
        "@name": "Mouse Left-Click"
      }, 
      {
        "@id": "800007", 
        "@name": "Mouse Mode"
      }, 
      {
        "@id": "900001", 
        "@name": "Equipment set replacement hotkey {0}", 
        "@feature": "Closet"
      }, 
      {
        "@id": "900002", 
        "@name": "Equipment set replacement hotkey {0}", 
        "@feature": "Closet"
      }, 
      {
        "@id": "900003", 
        "@name": "Equipment set replacement hotkey {0}", 
        "@feature": "Closet"
      }, 
      {
        "@id": "900004", 
        "@name": "Equipment set replacement hotkey {0}", 
        "@feature": "Closet"
      }, 
      {
        "@id": "900005", 
        "@name": "Equipment set replacement hotkey {0}", 
        "@feature": "Closet"
      }, 
      {
        "@id": "900006", 
        "@name": "Equipment set replacement hotkey {0}", 
        "@feature": "Closet"
      }, 
      {
        "@id": "900007", 
        "@name": "Equipment set replacement hotkey {0}", 
        "@feature": "Closet"
      }, 
      {
        "@id": "900008", 
        "@name": "Equipment set replacement hotkey {0}", 
        "@feature": "Closet"
      }, 
      {
        "@id": "900009", 
        "@name": "Equipment set replacement hotkey {0}", 
        "@feature": "Closet"
      }, 
      {
        "@id": "900010", 
        "@name": "Equipment set replacement hotkey {0}", 
        "@feature": "Closet"
      }, 
      {
        "@id": "1", 
        "@name": "ESC"
      }, 
      {
        "@id": "2", 
        "@name": "1"
      }, 
      {
        "@id": "3", 
        "@name": "2"
      }, 
      {
        "@id": "4", 
        "@name": "3"
      }, 
      {
        "@id": "5", 
        "@name": "4"
      }, 
      {
        "@id": "6", 
        "@name": "5"
      }, 
      {
        "@id": "7", 
        "@name": "6"
      }, 
      {
        "@id": "8", 
        "@name": "7"
      }, 
      {
        "@id": "9", 
        "@name": "8"
      }, 
      {
        "@id": "10", 
        "@name": "9"
      }, 
      {
        "@id": "11", 
        "@name": "0"
      }, 
      {
        "@id": "12", 
        "@name": "-"
      }, 
      {
        "@id": "13", 
        "@name": "="
      }, 
      {
        "@id": "14", 
        "@name": "Backspace"
      }, 
      {
        "@id": "15", 
        "@name": "Tab"
      }, 
      {
        "@id": "16", 
        "@name": "Q"
      }, 
      {
        "@id": "17", 
        "@name": "W"
      }, 
      {
        "@id": "18", 
        "@name": "E"
      }, 
      {
        "@id": "19", 
        "@name": "R"
      }, 
      {
        "@id": "20", 
        "@name": "T"
      }, 
      {
        "@id": "21", 
        "@name": "Y"
      }, 
      {
        "@id": "22", 
        "@name": "U"
      }, 
      {
        "@id": "23", 
        "@name": "I"
      }, 
      {
        "@id": "24", 
        "@name": "O"
      }, 
      {
        "@id": "25", 
        "@name": "P"
      }, 
      {
        "@id": "26", 
        "@name": "["
      }, 
      {
        "@id": "27", 
        "@name": "]"
      }, 
      {
        "@id": "28", 
        "@name": "Enter"
      }, 
      {
        "@id": "29", 
        "@name": "Ctrl"
      }, 
      {
        "@id": "30", 
        "@name": "A"
      }, 
      {
        "@id": "31", 
        "@name": "S"
      }, 
      {
        "@id": "32", 
        "@name": "D"
      }, 
      {
        "@id": "33", 
        "@name": "F"
      }, 
      {
        "@id": "34", 
        "@name": "G"
      }, 
      {
        "@id": "35", 
        "@name": "H"
      }, 
      {
        "@id": "36", 
        "@name": "J"
      }, 
      {
        "@id": "37", 
        "@name": "K"
      }, 
      {
        "@id": "38", 
        "@name": "L"
      }, 
      {
        "@id": "39", 
        "@name": ";"
      }, 
      {
        "@id": "40", 
        "@name": "'"
      }, 
      {
        "@id": "41", 
        "@name": "`"
      }, 
      {
        "@id": "42", 
        "@name": "Shift"
      }, 
      {
        "@id": "43", 
        "@name": "\\"
      }, 
      {
        "@id": "44", 
        "@name": "Z"
      }, 
      {
        "@id": "45", 
        "@name": "X"
      }, 
      {
        "@id": "46", 
        "@name": "C"
      }, 
      {
        "@id": "47", 
        "@name": "V"
      }, 
      {
        "@id": "48", 
        "@name": "B"
      }, 
      {
        "@id": "49", 
        "@name": "N"
      }, 
      {
        "@id": "50", 
        "@name": "M"
      }, 
      {
        "@id": "51", 
        "@name": ","
      }, 
      {
        "@id": "52", 
        "@name": "."
      }, 
      {
        "@id": "53", 
        "@name": "/"
      }, 
      {
        "@id": "54", 
        "@name": "Shift"
      }, 
      {
        "@id": "55", 
        "@name": "Num*"
      }, 
      {
        "@id": "56", 
        "@name": "Alt"
      }, 
      {
        "@id": "57", 
        "@name": "Space"
      }, 
      {
        "@id": "58", 
        "@name": "CapsLock"
      }, 
      {
        "@id": "59", 
        "@name": "F1"
      }, 
      {
        "@id": "60", 
        "@name": "F2"
      }, 
      {
        "@id": "61", 
        "@name": "F3"
      }, 
      {
        "@id": "62", 
        "@name": "F4"
      }, 
      {
        "@id": "63", 
        "@name": "F5"
      }, 
      {
        "@id": "64", 
        "@name": "F6"
      }, 
      {
        "@id": "65", 
        "@name": "F7"
      }, 
      {
        "@id": "66", 
        "@name": "F8"
      }, 
      {
        "@id": "67", 
        "@name": "F9"
      }, 
      {
        "@id": "68", 
        "@name": "F10"
      }, 
      {
        "@id": "70", 
        "@name": "ScrollLock"
      }, 
      {
        "@id": "71", 
        "@name": "Num7"
      }, 
      {
        "@id": "72", 
        "@name": "Num8"
      }, 
      {
        "@id": "73", 
        "@name": "Num9"
      }, 
      {
        "@id": "74", 
        "@name": "Num-"
      }, 
      {
        "@id": "75", 
        "@name": "Num4"
      }, 
      {
        "@id": "76", 
        "@name": "Num5"
      }, 
      {
        "@id": "77", 
        "@name": "Num6"
      }, 
      {
        "@id": "78", 
        "@name": "Num+"
      }, 
      {
        "@id": "79", 
        "@name": "Num1"
      }, 
      {
        "@id": "80", 
        "@name": "Num2"
      }, 
      {
        "@id": "81", 
        "@name": "Num3"
      }, 
      {
        "@id": "82", 
        "@name": "Num0"
      }, 
      {
        "@id": "83", 
        "@name": "Num."
      }, 
      {
        "@id": "85", 
        "@name": "F11"
      }, 
      {
        "@id": "86", 
        "@name": "F12"
      }, 
      {
        "@id": "106", 
        "@name": "NumEnter"
      }, 
      {
        "@id": "107", 
        "@name": "Ctrl"
      }, 
      {
        "@id": "116", 
        "@name": "Num/"
      }, 
      {
        "@id": "117", 
        "@name": "PrintScrn"
      }, 
      {
        "@id": "118", 
        "@name": "Alt"
      }, 
      {
        "@id": "119", 
        "@name": "Pause"
      }, 
      {
        "@id": "120", 
        "@name": "Home"
      }, 
      {
        "@id": "121", 
        "@name": "Up"
      }, 
      {
        "@id": "122", 
        "@name": "PageUp"
      }, 
      {
        "@id": "123", 
        "@name": "Left"
      }, 
      {
        "@id": "124", 
        "@name": "Right"
      }, 
      {
        "@id": "125", 
        "@name": "End"
      }, 
      {
        "@id": "126", 
        "@name": "Down"
      }, 
      {
        "@id": "127", 
        "@name": "PageDn"
      }, 
      {
        "@id": "128", 
        "@name": "Insert"
      }, 
      {
        "@id": "129", 
        "@name": "Delete"
      }, 
      {
        "@id": "130", 
        "@name": "Window"
      }, 
      {
        "@id": "131", 
        "@name": "Window"
      }, 
      {
        "@id": "146", 
        "@name": "DUp"
      }, 
      {
        "@id": "147", 
        "@name": "DDown"
      }, 
      {
        "@id": "148", 
        "@name": "DLeft"
      }, 
      {
        "@id": "149", 
        "@name": "DRight"
      }, 
      {
        "@id": "150", 
        "@name": "LB"
      }, 
      {
        "@id": "151", 
        "@name": "LT"
      }, 
      {
        "@id": "152", 
        "@name": "RB"
      }, 
      {
        "@id": "153", 
        "@name": "RT"
      }, 
      {
        "@id": "154", 
        "@name": "Y"
      }, 
      {
        "@id": "155", 
        "@name": "A"
      }, 
      {
        "@id": "156", 
        "@name": "X"
      }, 
      {
        "@id": "157", 
        "@name": "B"
      }, 
      {
        "@id": "158", 
        "@name": "FA"
      }, 
      {
        "@id": "159", 
        "@name": "FB"
      }, 
      {
        "@id": "160", 
        "@name": "Start"
      }, 
      {
        "@id": "161", 
        "@name": "Back"
      }, 
      {
        "@id": "163", 
        "@name": "LSLeft"
      }, 
      {
        "@id": "164", 
        "@name": "LSRight"
      }, 
      {
        "@id": "165", 
        "@name": "LSUp"
      }, 
      {
        "@id": "166", 
        "@name": "LSDown"
      }, 
      {
        "@id": "167", 
        "@name": "RSLeft"
      }, 
      {
        "@id": "168", 
        "@name": "RSRight"
      }, 
      {
        "@id": "169", 
        "@name": "RSUp"
      }, 
      {
        "@id": "170", 
        "@name": "RSDown"
      }, 
      {
        "@id": "171", 
        "@name": "X1H0"
      }, 
      {
        "@id": "172", 
        "@name": "X1H1"
      }, 
      {
        "@id": "173", 
        "@name": "X1V0"
      }, 
      {
        "@id": "174", 
        "@name": "X1V1"
      }, 
      {
        "@id": "175", 
        "@name": "X2H0"
      }, 
      {
        "@id": "176", 
        "@name": "X2H1"
      }, 
      {
        "@id": "177", 
        "@name": "X2V0"
      }, 
      {
        "@id": "178", 
        "@name": "X2V1"
      }, 
      {
        "@id": "202", 
        "@name": "ScrollBn"
      }, 
      {
        "@id": "203", 
        "@name": "SideDn"
      }, 
      {
        "@id": "204", 
        "@name": "SideUp"
      }, 
      {
        "@id": "205", 
        "@name": "X3"
      }, 
      {
        "@id": "206", 
        "@name": "X4"
      }, 
      {
        "@id": "207", 
        "@name": "X5"
      }
    ]
  }
}