{
  "?xml": {
    "@version": "1.0", 
    "@encoding": "utf-8"
  }, 
  "ms2": {
    "key": [
      {
        "@id": "10100041", 
        "@level": "1", 
        "@name": "Shout of victory", 
        "@tooltipDescription": "Fraud has risen to shout! \\n 3% increase in physical damage and magic damage"
      }, 
      {
        "@id": "10100041", 
        "@level": "2", 
        "@name": "Shout of victory", 
        "@tooltipDescription": "Fraud has risen to shout! \\n 4% increase in physical damage and magic damage"
      }, 
      {
        "@id": "10100041", 
        "@level": "3", 
        "@name": "Shout of victory", 
        "@tooltipDescription": "Fraud has risen to shout! \\n 5% increase in physical damage and magic damage"
      }, 
      {
        "@id": "10100041", 
        "@level": "4", 
        "@name": "Shout of victory", 
        "@tooltipDescription": "Fraud has risen to shout! \\n Physical attack and magic damage increase 6%"
      }, 
      {
        "@id": "10100041", 
        "@level": "5", 
        "@name": "Shout of victory", 
        "@tooltipDescription": "Fraud has risen to shout! \\n Physical attack and magic attack power increased by 7%"
      }, 
      {
        "@id": "10100041", 
        "@level": "6", 
        "@name": "Shout of victory", 
        "@tooltipDescription": "Fraud has risen to shout! \\n 8% increase in physical damage and magic damage"
      }, 
      {
        "@id": "10100041", 
        "@level": "7", 
        "@name": "Shout of victory", 
        "@tooltipDescription": "Fraud has risen to shout! \\n Physical attack and magic attack power increased by 9%"
      }, 
      {
        "@id": "10100041", 
        "@level": "8", 
        "@name": "Shout of victory", 
        "@tooltipDescription": "Fraud has risen to shout! \\n 10% increase in physical damage and magic damage"
      }, 
      {
        "@id": "10100041", 
        "@level": "9", 
        "@name": "Shout of victory", 
        "@tooltipDescription": "Fraud has risen to shout! \\n 11% increase in physical damage and magic damage"
      }, 
      {
        "@id": "10100041", 
        "@level": "10", 
        "@name": "Shout of victory", 
        "@tooltipDescription": "Fraud has risen to shout! \\n Physical attack and magic attack power increased by 12%"
      }, 
      {
        "@id": "10100041", 
        "@level": "11", 
        "@name": "Shout of victory", 
        "@tooltipDescription": "Fraud has risen to shout! \\n Physical attack and magic damage increase 13%"
      }, 
      {
        "@id": "10100041", 
        "@level": "12", 
        "@name": "Shout of victory", 
        "@tooltipDescription": "Fraud has risen to shout! \\n 14% increase in physical damage and magic damage"
      }, 
      {
        "@id": "10100051", 
        "@level": "1", 
        "@name": "Shield Wall", 
        "@tooltipDescription": "Sacred aura from the shield surrounds your body. \\n 90% increase in physical resistance and magic resistance."
      }, 
      {
        "@id": "10100051", 
        "@level": "2", 
        "@name": "Shield Wall", 
        "@tooltipDescription": "A sacred aura from the shield surrounds your body. \\n Increased physical resistance and magic resistance by 120"
      }, 
      {
        "@id": "10100051", 
        "@level": "3", 
        "@name": "Shield Wall", 
        "@tooltipDescription": "A sacred aura from the shield surrounds your body. \\n 150 increased physical resistance and magic resistance."
      }, 
      {
        "@id": "10100051", 
        "@level": "4", 
        "@name": "Shield Wall", 
        "@tooltipDescription": "A sacred aura from the shield surrounds your body. \\n80 Increased physical resistance and magic resistance 180"
      }, 
      {
        "@id": "10100051", 
        "@level": "5", 
        "@name": "Shield Wall", 
        "@tooltipDescription": "A sacred aura from the shield surrounds your body. \\n202 Physical resistance and magic resistance increase 210"
      }, 
      {
        "@id": "10100051", 
        "@level": "6", 
        "@name": "Shield Wall", 
        "@tooltipDescription": "A sacred aura from the shield surrounds your body. \\n 240 increased physical resistance and magic resistance."
      }, 
      {
        "@id": "10100051", 
        "@level": "7", 
        "@name": "Shield Wall", 
        "@tooltipDescription": "A sacred aura from the shield surrounds your body. \\n70 Increased physical resistance and magic resistance by 270"
      }, 
      {
        "@id": "10100051", 
        "@level": "8", 
        "@name": "Shield Wall", 
        "@tooltipDescription": "Sacred aura from the shield surrounds your body. \\n 300 increased physical resistance and magic resistance."
      }, 
      {
        "@id": "10100051", 
        "@level": "9", 
        "@name": "Shield Wall", 
        "@tooltipDescription": "Sacred aura from the shield surrounds the body. \\n Physical resistance and magic resistance increase 330"
      }, 
      {
        "@id": "10100051", 
        "@level": "10", 
        "@name": "Shield Wall", 
        "@tooltipDescription": "A sacred aura from the shield surrounds your body. \\n Physical resistance and magic resistance increase 360"
      }, 
      {
        "@id": "10100051", 
        "@level": "11", 
        "@name": "Shield Wall", 
        "@tooltipDescription": "Sacred aura from the shield surrounds your body. \\n 390 increased physical resistance and magic resistance."
      }, 
      {
        "@id": "10100051", 
        "@level": "12", 
        "@name": "Shield Wall", 
        "@tooltipDescription": "A sacred aura from the shield surrounds your body. \\n420 Physical resistance and magic resistance increase 420"
      }, 
      {
        "@id": "10100052", 
        "@level": "1", 
        "@name": "Shield Wall", 
        "@tooltipDescription": "Sacred aura from the shield surrounds your body. \\n 90% increase in physical resistance and magic resistance."
      }, 
      {
        "@id": "10100052", 
        "@level": "2", 
        "@name": "Shield Wall", 
        "@tooltipDescription": "A sacred aura from the shield surrounds your body. \\n Increased physical resistance and magic resistance by 120"
      }, 
      {
        "@id": "10100052", 
        "@level": "3", 
        "@name": "Shield Wall", 
        "@tooltipDescription": "A sacred aura from the shield surrounds your body. \\n 150 increased physical resistance and magic resistance."
      }, 
      {
        "@id": "10100052", 
        "@level": "4", 
        "@name": "Shield Wall", 
        "@tooltipDescription": "A sacred aura from the shield surrounds your body. \\n80 Increased physical resistance and magic resistance 180"
      }, 
      {
        "@id": "10100052", 
        "@level": "5", 
        "@name": "Shield Wall", 
        "@tooltipDescription": "A sacred aura from the shield surrounds your body. \\n202 Physical resistance and magic resistance increase 210"
      }, 
      {
        "@id": "10100052", 
        "@level": "6", 
        "@name": "Shield Wall", 
        "@tooltipDescription": "A sacred aura from the shield surrounds your body. \\n 240 increased physical resistance and magic resistance."
      }, 
      {
        "@id": "10100052", 
        "@level": "7", 
        "@name": "Shield Wall", 
        "@tooltipDescription": "A sacred aura from the shield surrounds your body. \\n70 Increased physical resistance and magic resistance by 270"
      }, 
      {
        "@id": "10100052", 
        "@level": "8", 
        "@name": "Shield Wall", 
        "@tooltipDescription": "Sacred aura from the shield surrounds your body. \\n 300 increased physical resistance and magic resistance."
      }, 
      {
        "@id": "10100052", 
        "@level": "9", 
        "@name": "Shield Wall", 
        "@tooltipDescription": "Sacred aura from the shield surrounds the body. \\n Physical resistance and magic resistance increase 330"
      }, 
      {
        "@id": "10100052", 
        "@level": "10", 
        "@name": "Shield Wall", 
        "@tooltipDescription": "A sacred aura from the shield surrounds your body. \\n Physical resistance and magic resistance increase 360"
      }, 
      {
        "@id": "10100052", 
        "@level": "11", 
        "@name": "Shield Wall", 
        "@tooltipDescription": "Sacred aura from the shield surrounds your body. \\n 390 increased physical resistance and magic resistance."
      }, 
      {
        "@id": "10100052", 
        "@level": "12", 
        "@name": "Shield Wall", 
        "@tooltipDescription": "A sacred aura from the shield surrounds your body. \\n420 Physical resistance and magic resistance increase 420"
      }, 
      {
        "@id": "10100061", 
        "@level": "1", 
        "@name": "Iron Defense", 
        "@tooltipDescription": "\\n \\n0.3 Recovers SP 4 every second \\n Reduces physical damage and magic damage by 25% \\n Reduces damage received by 10%"
      }, 
      {
        "@id": "10100071", 
        "@level": "1", 
        "@name": "Throwing shield", 
        "@tooltipDescription": "Strong Shock destroys combat poise! \\n 1% reduction in defense"
      }, 
      {
        "@id": "10100071", 
        "@level": "2", 
        "@name": "Throwing shield", 
        "@tooltipDescription": "Strong Shock has knocked out combat poise! \\nArea 1.6% reduced defense"
      }, 
      {
        "@id": "10100071", 
        "@level": "3", 
        "@name": "Throwing shield", 
        "@tooltipDescription": "Strong Shock destroys combat poise! \\nArea 2.2% reduction in defense"
      }, 
      {
        "@id": "10100071", 
        "@level": "4", 
        "@name": "Throwing shield", 
        "@tooltipDescription": "Strong Shock destroys combat poise! \\nFor 2.8% reduction in defense"
      }, 
      {
        "@id": "10100071", 
        "@level": "5", 
        "@name": "Throwing shield", 
        "@tooltipDescription": "Strong Shock destroys combat poise! \\nFasture reduced by 3.4%"
      }, 
      {
        "@id": "10100071", 
        "@level": "6", 
        "@name": "Throwing shield", 
        "@tooltipDescription": "Strong Shock destroys combat poise! \\n 4% reduction in defense"
      }, 
      {
        "@id": "10100071", 
        "@level": "7", 
        "@name": "Throwing shield", 
        "@tooltipDescription": "Strong Shock destroys combat poise! \\nFasture reduced by 4.6%"
      }, 
      {
        "@id": "10100071", 
        "@level": "8", 
        "@name": "Throwing shield", 
        "@tooltipDescription": "Strong Shock destroys combat poise! \\nFerritory reduced by 5.2%"
      }, 
      {
        "@id": "10100071", 
        "@level": "9", 
        "@name": "Throwing shield", 
        "@tooltipDescription": "Strong Shock destroys combat poise! \\nFasture reduced by 5.8%"
      }, 
      {
        "@id": "10100071", 
        "@level": "10", 
        "@name": "Throwing shield", 
        "@tooltipDescription": "Strong Shock destroys combat poise! \\nFasture reduced by 6.4%"
      }, 
      {
        "@id": "10100071", 
        "@level": "11", 
        "@name": "Throwing shield", 
        "@tooltipDescription": "Strong Shock destroys combat poise! \\n7% reduction in defense"
      }, 
      {
        "@id": "10100071", 
        "@level": "12", 
        "@name": "Throwing shield", 
        "@tooltipDescription": "Strong Shock destroys combat poise! \\nDefinition reduced by 7.6%"
      }, 
      {
        "@id": "10100081", 
        "@level": "1", 
        "@name": "Article's Will", 
        "@tooltipDescription": "Protected from sacred shields. \\nAll enemy attack defense \\nNot some powerful attack defense"
      }, 
      {
        "@id": "10100081", 
        "@level": "2", 
        "@name": "Article's Will", 
        "@tooltipDescription": "Protected from sacred shields. \\nAll enemy attack defense \\nNot some powerful attack defense"
      }, 
      {
        "@id": "10100081", 
        "@level": "3", 
        "@name": "Article's Will", 
        "@tooltipDescription": "Protected from sacred shields. \\nAll enemy attack defense \\nNot some powerful attack defense"
      }, 
      {
        "@id": "10100081", 
        "@level": "4", 
        "@name": "Article's Will", 
        "@tooltipDescription": "Protected from sacred shields. \\nAll enemy attack defense \\nNot some powerful attack defense"
      }, 
      {
        "@id": "10100081", 
        "@level": "5", 
        "@name": "Article's Will", 
        "@tooltipDescription": "Protected from sacred shields. \\nAll enemy attack defense \\nNot some powerful attack defense"
      }, 
      {
        "@id": "10100081", 
        "@level": "6", 
        "@name": "Article's Will", 
        "@tooltipDescription": "Protected from sacred shields. \\nAll enemy attack defense \\nNot some powerful attack defense"
      }, 
      {
        "@id": "10100081", 
        "@level": "7", 
        "@name": "Article's Will", 
        "@tooltipDescription": "Protected from sacred shields. \\nAll enemy attack defense \\nNot some powerful attack defense"
      }, 
      {
        "@id": "10100081", 
        "@level": "8", 
        "@name": "Article's Will", 
        "@tooltipDescription": "Protected from sacred shields. \\nAll enemy attack defense \\nNot some powerful attack defense"
      }, 
      {
        "@id": "10100081", 
        "@level": "9", 
        "@name": "Article's Will", 
        "@tooltipDescription": "Protected from sacred shields. \\nAll enemy attack defense \\nNot some powerful attack defense"
      }, 
      {
        "@id": "10100081", 
        "@level": "10", 
        "@name": "Article's Will", 
        "@tooltipDescription": "Protected from sacred shields. \\nAll enemy attack defense \\nNot some powerful attack defense"
      }, 
      {
        "@id": "10100081", 
        "@level": "11", 
        "@name": "Article's Will", 
        "@tooltipDescription": "Protected from sacred shields. \\nAll enemy attack defense \\nNot some powerful attack defense"
      }, 
      {
        "@id": "10100081", 
        "@level": "12", 
        "@name": "Article's Will", 
        "@tooltipDescription": "Protected from sacred shields. \\nAll enemy attack defense \\nNot some powerful attack defense"
      }, 
      {
        "@id": "10100101", 
        "@level": "1", 
        "@name": "Defender of Belief", 
        "@tooltipDescription": "Protected from sacred shields. \\nAll enemy attack defense \\nNot some powerful attack defense"
      }, 
      {
        "@id": "10100101", 
        "@level": "2", 
        "@name": "Defender of Belief", 
        "@tooltipDescription": "Protected from sacred shields. \\nAll enemy attack defense \\nNot some powerful attack defense"
      }, 
      {
        "@id": "10100101", 
        "@level": "3", 
        "@name": "Defender of Belief", 
        "@tooltipDescription": "Protected from sacred shields. \\nAll enemy attack defense \\nNot some powerful attack defense"
      }, 
      {
        "@id": "10100101", 
        "@level": "4", 
        "@name": "Defender of Belief", 
        "@tooltipDescription": "Protected from sacred shields. \\nAll enemy attack defense \\nNot some powerful attack defense"
      }, 
      {
        "@id": "10100101", 
        "@level": "5", 
        "@name": "Defender of Belief", 
        "@tooltipDescription": "Protected from sacred shields. \\nAll enemy attack defense \\nNot some powerful attack defense"
      }, 
      {
        "@id": "10100101", 
        "@level": "6", 
        "@name": "Defender of Belief", 
        "@tooltipDescription": "Protected from sacred shields. \\nAll enemy attack defense \\nNot some powerful attack defense"
      }, 
      {
        "@id": "10100101", 
        "@level": "7", 
        "@name": "Defender of Belief", 
        "@tooltipDescription": "Protected from sacred shields. \\nAll enemy attack defense \\nNot some powerful attack defense"
      }, 
      {
        "@id": "10100101", 
        "@level": "8", 
        "@name": "Defender of Belief", 
        "@tooltipDescription": "Protected from sacred shields. \\nAll enemy attack defense \\nNot some powerful attack defense"
      }, 
      {
        "@id": "10100101", 
        "@level": "9", 
        "@name": "Defender of Belief", 
        "@tooltipDescription": "Protected from sacred shields. \\nAll enemy attack defense \\nNot some powerful attack defense"
      }, 
      {
        "@id": "10100101", 
        "@level": "10", 
        "@name": "Defender of Belief", 
        "@tooltipDescription": "Protected from sacred shields. \\nAll enemy attack defense \\nNot some powerful attack defense"
      }, 
      {
        "@id": "10100101", 
        "@level": "11", 
        "@name": "Defender of Belief", 
        "@tooltipDescription": "Protected from sacred shields. \\nAll enemy attack defense \\nNot some powerful attack defense"
      }, 
      {
        "@id": "10100101", 
        "@level": "12", 
        "@name": "Defender of Belief", 
        "@tooltipDescription": "Protected from sacred shields. \\nAll enemy attack defense \\nNot some powerful attack defense"
      }, 
      {
        "@id": "10100124", 
        "@level": "1", 
        "@name": "Opportunity of counterattack", 
        "@tooltipDescription": "Chance to fight back against enemies! \\nAll damage is increased"
      }, 
      {
        "@id": "10100124", 
        "@level": "2", 
        "@name": "Opportunity of counterattack", 
        "@tooltipDescription": "Chance to fight back against enemies! \\nAll damage is increased"
      }, 
      {
        "@id": "10100124", 
        "@level": "3", 
        "@name": "Opportunity of counterattack", 
        "@tooltipDescription": "Chance to fight back against enemies! \\nAll damage is increased"
      }, 
      {
        "@id": "10100124", 
        "@level": "4", 
        "@name": "Opportunity of counterattack", 
        "@tooltipDescription": "Chance to fight back against enemies! \\nAll damage is increased"
      }, 
      {
        "@id": "10100124", 
        "@level": "5", 
        "@name": "Opportunity of counterattack", 
        "@tooltipDescription": "Chance to fight back against enemies! \\nAll damage is increased"
      }, 
      {
        "@id": "10100124", 
        "@level": "6", 
        "@name": "Opportunity of counterattack", 
        "@tooltipDescription": "Chance to fight back against enemies! \\nAll damage is increased"
      }, 
      {
        "@id": "10100124", 
        "@level": "7", 
        "@name": "Opportunity of counterattack", 
        "@tooltipDescription": "Chance to fight back against enemies! \\nAll damage is increased"
      }, 
      {
        "@id": "10100124", 
        "@level": "8", 
        "@name": "Opportunity of counterattack", 
        "@tooltipDescription": "Chance to fight back against enemies! \\nAll damage is increased"
      }, 
      {
        "@id": "10100124", 
        "@level": "9", 
        "@name": "Opportunity of counterattack", 
        "@tooltipDescription": "Chance to fight back against enemies! \\nAll damage is increased"
      }, 
      {
        "@id": "10100124", 
        "@level": "10", 
        "@name": "Opportunity of counterattack", 
        "@tooltipDescription": "Chance to fight back against enemies! \\nAll damage is increased"
      }, 
      {
        "@id": "10100124", 
        "@level": "11", 
        "@name": "Opportunity of counterattack", 
        "@tooltipDescription": "Chance to fight back against enemies! \\nAll damage is increased"
      }, 
      {
        "@id": "10100124", 
        "@level": "12", 
        "@name": "Opportunity of counterattack", 
        "@tooltipDescription": "Chance to fight back against enemies! \\nAll damage is increased"
      }, 
      {
        "@id": "10100151", 
        "@level": "1", 
        "@name": "Iron Shield", 
        "@tooltipDescription": "Shield with defense posture. \\nAll enemies receive 25% less damage."
      }, 
      {
        "@id": "10100151", 
        "@level": "2", 
        "@name": "Iron Shield", 
        "@tooltipDescription": "Shields your defense posture. \\nAll damage done to your enemies is reduced by 30%."
      }, 
      {
        "@id": "10100151", 
        "@level": "3", 
        "@name": "Iron Shield", 
        "@tooltipDescription": "Shield with defense attitude. \\nAll enemies receive 35% less damage"
      }, 
      {
        "@id": "10100151", 
        "@level": "4", 
        "@name": "Iron Shield", 
        "@tooltipDescription": "Shield with defense posture. \\nAll damage to enemies is reduced by 40%."
      }, 
      {
        "@id": "10100151", 
        "@level": "5", 
        "@name": "Iron Shield", 
        "@tooltipDescription": "Shield with defense attitude. \\nAll enemies receive 45% less damage."
      }, 
      {
        "@id": "10100151", 
        "@level": "6", 
        "@name": "Iron Shield", 
        "@tooltipDescription": "Shield to defend posture. \\nAll enemies receive 50% less damage"
      }, 
      {
        "@id": "10100151", 
        "@level": "7", 
        "@name": "Iron Shield", 
        "@tooltipDescription": "Shields your defense posture. \\nAll damage done to your enemies is reduced by 55%."
      }, 
      {
        "@id": "10100151", 
        "@level": "8", 
        "@name": "Iron Shield", 
        "@tooltipDescription": "Shield with defense attitude. \\nAll damage done to enemies is reduced by 60%."
      }, 
      {
        "@id": "10100151", 
        "@level": "9", 
        "@name": "Iron Shield", 
        "@tooltipDescription": "Shields your defensive posture. \\nAll damage done to enemies is reduced by 65%."
      }, 
      {
        "@id": "10100151", 
        "@level": "10", 
        "@name": "Iron Shield", 
        "@tooltipDescription": "Shields your defense posture. \\nAll damage done to your enemies is reduced by 70%."
      }, 
      {
        "@id": "10100151", 
        "@level": "11", 
        "@name": "Iron Shield", 
        "@tooltipDescription": "Shields your defense posture. \\nAll damage done to your opponent is reduced by 75%."
      }, 
      {
        "@id": "10100151", 
        "@level": "12", 
        "@name": "Iron Shield", 
        "@tooltipDescription": "Shield to defend posture. \\nAll damage to enemies is reduced by 80%."
      }, 
      {
        "@id": "10100181", 
        "@level": "1", 
        "@name": "Divine Revenge", 
        "@tooltipDescription": "Controls your heart with divine energy and engages in battle coldly. \\n 5% increase in physical damage and magic damage.", 
        "@feature": "JobChange_01"
      }, 
      {
        "@id": "10100181", 
        "@level": "2", 
        "@name": "Divine Revenge", 
        "@tooltipDescription": "Divine energy regulates your mind and makes a cool battle. \\n 10% increase in physical damage and magic damage.", 
        "@feature": "JobChange_01"
      }, 
      {
        "@id": "10100181", 
        "@level": "3", 
        "@name": "Divine Revenge", 
        "@tooltipDescription": "Divine energy regulates your mind and fights coldly. \\n 15% increase in physical damage and magic damage.", 
        "@feature": "JobChange_01"
      }, 
      {
        "@id": "10100181", 
        "@level": "4", 
        "@name": "Divine Revenge", 
        "@tooltipDescription": "Divine energy regulates your mind and fights coldly. \\n 20% increase in physical damage and magic damage.", 
        "@feature": "JobChange_01"
      }, 
      {
        "@id": "10100181", 
        "@level": "5", 
        "@name": "Divine Revenge", 
        "@tooltipDescription": "Divine energy regulates your mind and makes you battle coldly. \\n 25% increase in physical damage and magic damage.", 
        "@feature": "JobChange_01"
      }, 
      {
        "@id": "10100181", 
        "@level": "6", 
        "@name": "Divine Revenge", 
        "@tooltipDescription": "Divine energy regulates your mind and fights in a cold battle. \\n 30% increase in physical damage and magic damage.", 
        "@feature": "JobChange_01"
      }, 
      {
        "@id": "10100181", 
        "@level": "7", 
        "@name": "Divine Revenge", 
        "@tooltipDescription": "Divine energy regulates your mind and fights coldly. \\n 35% increase in physical damage and magic damage.", 
        "@feature": "JobChange_01"
      }, 
      {
        "@id": "10100181", 
        "@level": "8", 
        "@name": "Divine Revenge", 
        "@tooltipDescription": "Divine energy regulates your mind and fights coldly. \\n 40% increase in physical damage and magic damage.", 
        "@feature": "JobChange_01"
      }, 
      {
        "@id": "10100181", 
        "@level": "9", 
        "@name": "Divine Revenge", 
        "@tooltipDescription": "Resolves your mind with sacred aura to battle coldly. \\n 45% increase in physical damage and magic attack power.", 
        "@feature": "JobChange_01"
      }, 
      {
        "@id": "10100181", 
        "@level": "10", 
        "@name": "Divine Revenge", 
        "@tooltipDescription": "Divine energy regulates your mind and makes you battle coldly. \\n 50% increase in physical damage and magic damage.", 
        "@feature": "JobChange_01"
      }, 
      {
        "@id": "10100181", 
        "@level": "11", 
        "@name": "Divine Revenge", 
        "@tooltipDescription": "Divine energy regulates your mind and makes you battle coldly. \\n 55% increase in physical damage and magic damage.", 
        "@feature": "JobChange_01"
      }, 
      {
        "@id": "10100181", 
        "@level": "12", 
        "@name": "Divine Revenge", 
        "@tooltipDescription": "You control your heart with sacred aura and battle coldly. \\n60% increase in physical damage and magic damage.", 
        "@feature": "JobChange_01"
      }, 
      {
        "@id": "10100201", 
        "@level": "1", 
        "@name": "The Guardian Wing", 
        "@tooltipDescription": "Protected from sacred energy. \\nAll damage done to enemies is reduced by 10%.", 
        "@feature": "JobChange_01"
      }, 
      {
        "@id": "10100201", 
        "@level": "2", 
        "@name": "The Guardian Wing", 
        "@tooltipDescription": "Protected from sacred energy. \\nAll damage to enemies is reduced by 20%.", 
        "@feature": "JobChange_01"
      }, 
      {
        "@id": "10100201", 
        "@level": "3", 
        "@name": "The Guardian Wing", 
        "@tooltipDescription": "Protected from sacred energy. \\nAll damage done to enemies is reduced by 30%.", 
        "@feature": "JobChange_01"
      }, 
      {
        "@id": "10100201", 
        "@level": "4", 
        "@name": "The Guardian Wing", 
        "@tooltipDescription": "Protected from sacred energy. \\nAll damage done to enemies is reduced by 40%.", 
        "@feature": "JobChange_01"
      }, 
      {
        "@id": "10100201", 
        "@level": "5", 
        "@name": "The Guardian Wing", 
        "@tooltipDescription": "Protected from sacred energy. \\n 50% reduction in all damage to enemies.", 
        "@feature": "JobChange_01"
      }, 
      {
        "@id": "10100201", 
        "@level": "6", 
        "@name": "The Guardian Wing", 
        "@tooltipDescription": "Protected from sacred energy. \\nAll damage done to enemies is reduced by 60%.", 
        "@feature": "JobChange_01"
      }, 
      {
        "@id": "10100201", 
        "@level": "7", 
        "@name": "The Guardian Wing", 
        "@tooltipDescription": "Protected from sacred energy. \\nAll damage done to enemies is reduced by 70%.", 
        "@feature": "JobChange_01"
      }, 
      {
        "@id": "10100201", 
        "@level": "8", 
        "@name": "The Guardian Wing", 
        "@tooltipDescription": "Protected from sacred energy. \\nAll damage done to enemies is reduced by 80%.", 
        "@feature": "JobChange_01"
      }, 
      {
        "@id": "10100201", 
        "@level": "9", 
        "@name": "The Guardian Wing", 
        "@tooltipDescription": "Protected from sacred energy. \\nAll damage done to enemies is reduced by 90%.", 
        "@feature": "JobChange_01"
      }, 
      {
        "@id": "10100201", 
        "@level": "10", 
        "@name": "The Guardian Wing", 
        "@tooltipDescription": "Protected from sacred energy. \\n 100% reduction of all damage to enemies", 
        "@feature": "JobChange_01"
      }, 
      {
        "@id": "10100201", 
        "@level": "11", 
        "@name": "The Guardian Wing", 
        "@tooltipDescription": "Protected from sacred energy. \\n 110% reduction in all damage to enemies.", 
        "@feature": "JobChange_01"
      }, 
      {
        "@id": "10100201", 
        "@level": "12", 
        "@name": "The Guardian Wing", 
        "@tooltipDescription": "Protected from sacred energy. \\n 120% reduction in all damage to enemies", 
        "@feature": "JobChange_01"
      }, 
      {
        "@id": "10100211", 
        "@level": "1", 
        "@name": "Cyclone shield", 
        "@tooltipDescription": "Strong Shock destroys combat poise! \\n 2% reduction in defense", 
        "@feature": "JobChange_01"
      }, 
      {
        "@id": "10100211", 
        "@level": "2", 
        "@name": "Cyclone shield", 
        "@tooltipDescription": "Strong Shock destroys combat poise! \\n 4% reduction in defense", 
        "@feature": "JobChange_01"
      }, 
      {
        "@id": "10100211", 
        "@level": "3", 
        "@name": "Cyclone shield", 
        "@tooltipDescription": "Strong Shock destroys combat poise! \\nFasture reduced by 6%", 
        "@feature": "JobChange_01"
      }, 
      {
        "@id": "10100211", 
        "@level": "4", 
        "@name": "Cyclone shield", 
        "@tooltipDescription": "Strong Shock destroys combat poise! \\nAfter 8% reduction in defense", 
        "@feature": "JobChange_01"
      }, 
      {
        "@id": "10100211", 
        "@level": "5", 
        "@name": "Cyclone shield", 
        "@tooltipDescription": "Strong Shock destroys combat poise! \\n 10% reduction in armor", 
        "@feature": "JobChange_01"
      }, 
      {
        "@id": "10100211", 
        "@level": "6", 
        "@name": "Cyclone shield", 
        "@tooltipDescription": "Strong Shock destroys combat poise! \\nAre 12% less defensive", 
        "@feature": "JobChange_01"
      }, 
      {
        "@id": "10100211", 
        "@level": "7", 
        "@name": "Cyclone shield", 
        "@tooltipDescription": "Strong Shock destroys combat poise! \\n 14% reduction in defense", 
        "@feature": "JobChange_01"
      }, 
      {
        "@id": "10100211", 
        "@level": "8", 
        "@name": "Cyclone shield", 
        "@tooltipDescription": "Strong Shock destroys combat poise! \\nFor 16% reduction in defense", 
        "@feature": "JobChange_01"
      }, 
      {
        "@id": "10100211", 
        "@level": "9", 
        "@name": "Cyclone shield", 
        "@tooltipDescription": "Strong Shock destroys combat poise! \\nArea 18% reduction in defense", 
        "@feature": "JobChange_01"
      }, 
      {
        "@id": "10100211", 
        "@level": "10", 
        "@name": "Cyclone shield", 
        "@tooltipDescription": "Strong Shock destroys combat poise! \\n 20% reduction in defense", 
        "@feature": "JobChange_01"
      }, 
      {
        "@id": "10100211", 
        "@level": "11", 
        "@name": "Cyclone shield", 
        "@tooltipDescription": "Strong Shock destroys combat poise! \\nFor 22% reduction in defense", 
        "@feature": "JobChange_01"
      }, 
      {
        "@id": "10100211", 
        "@level": "12", 
        "@name": "Cyclone shield", 
        "@tooltipDescription": "Strong Shock destroys combat poise! \\nFor 24% reduction in defense", 
        "@feature": "JobChange_01"
      }, 
      {
        "@id": "10100231", 
        "@level": "1", 
        "@name": "Dual tactics attack poised", 
        "@tooltipDescription": "Takes strategically aggressive moves. \\n 10% increase in damage done to enemies.", 
        "@feature": "JobChange_01"
      }, 
      {
        "@id": "10100232", 
        "@level": "1", 
        "@name": "Dual tactics defense posture", 
        "@tooltipDescription": "Increases your physical resistance by 150. \\n Increases your magic resistance by 150.", 
        "@feature": "JobChange_01"
      }, 
      {
        "@id": "10100041", 
        "@level": "1", 
        "@name": "Shout of victory", 
        "@tooltipDescription": "Fraud has risen to shout! \\n 3% increase in physical damage and magic damage", 
        "@feature": "CharacterBalance_01", 
        "@locale": "KR"
      }, 
      {
        "@id": "10100041", 
        "@level": "2", 
        "@name": "Shout of victory", 
        "@tooltipDescription": "Fraud has risen to shout! \\n 4% increase in physical damage and magic damage", 
        "@feature": "CharacterBalance_01", 
        "@locale": "KR"
      }, 
      {
        "@id": "10100041", 
        "@level": "3", 
        "@name": "Shout of victory", 
        "@tooltipDescription": "Fraud has risen to shout! \\n 5% increase in physical damage and magic damage", 
        "@feature": "CharacterBalance_01", 
        "@locale": "KR"
      }, 
      {
        "@id": "10100041", 
        "@level": "4", 
        "@name": "Shout of victory", 
        "@tooltipDescription": "Fraud has risen to shout! \\n Physical attack and magic damage increase 6%", 
        "@feature": "CharacterBalance_01", 
        "@locale": "KR"
      }, 
      {
        "@id": "10100041", 
        "@level": "5", 
        "@name": "Shout of victory", 
        "@tooltipDescription": "Fraud has risen to shout! \\n Physical attack and magic attack power increased by 7%", 
        "@feature": "CharacterBalance_01", 
        "@locale": "KR"
      }, 
      {
        "@id": "10100041", 
        "@level": "6", 
        "@name": "Shout of victory", 
        "@tooltipDescription": "Fraud has risen to shout! \\n 8% increase in physical damage and magic damage", 
        "@feature": "CharacterBalance_01", 
        "@locale": "KR"
      }, 
      {
        "@id": "10100041", 
        "@level": "7", 
        "@name": "Shout of victory", 
        "@tooltipDescription": "Fraud has risen to shout! \\n Physical attack and magic attack power increased by 9%", 
        "@feature": "CharacterBalance_01", 
        "@locale": "KR"
      }, 
      {
        "@id": "10100041", 
        "@level": "8", 
        "@name": "Shout of victory", 
        "@tooltipDescription": "Fraud has risen to shout! \\n 10% increase in physical damage and magic damage", 
        "@feature": "CharacterBalance_01", 
        "@locale": "KR"
      }, 
      {
        "@id": "10100041", 
        "@level": "9", 
        "@name": "Shout of victory", 
        "@tooltipDescription": "Fraud has risen to shout! \\n 11% increase in physical damage and magic damage", 
        "@feature": "CharacterBalance_01", 
        "@locale": "KR"
      }, 
      {
        "@id": "10100041", 
        "@level": "10", 
        "@name": "Shout of victory", 
        "@tooltipDescription": "Fraud has risen to shout! \\n Physical attack and magic attack power increased by 12%", 
        "@feature": "CharacterBalance_01", 
        "@locale": "KR"
      }, 
      {
        "@id": "10100041", 
        "@level": "11", 
        "@name": "Shout of victory", 
        "@tooltipDescription": "Fraud has risen to shout! \\n Physical attack and magic damage increase 13%", 
        "@feature": "CharacterBalance_01", 
        "@locale": "KR"
      }, 
      {
        "@id": "10100041", 
        "@level": "12", 
        "@name": "Shout of victory", 
        "@tooltipDescription": "Fraud has risen to shout! \\n 14% increase in physical damage and magic damage", 
        "@feature": "CharacterBalance_01", 
        "@locale": "KR"
      }, 
      {
        "@id": "10100051", 
        "@level": "1", 
        "@name": "Shield Wall", 
        "@tooltipDescription": "Sacred aura from the shield surrounds your body. \\n 90% increase in physical resistance and magic resistance.", 
        "@feature": "CharacterBalance_01", 
        "@locale": "KR"
      }, 
      {
        "@id": "10100051", 
        "@level": "2", 
        "@name": "Shield Wall", 
        "@tooltipDescription": "A sacred aura from the shield surrounds your body. \\n Increased physical resistance and magic resistance by 120", 
        "@feature": "CharacterBalance_01", 
        "@locale": "KR"
      }, 
      {
        "@id": "10100051", 
        "@level": "3", 
        "@name": "Shield Wall", 
        "@tooltipDescription": "A sacred aura from the shield surrounds your body. \\n 150 increased physical resistance and magic resistance.", 
        "@feature": "CharacterBalance_01", 
        "@locale": "KR"
      }, 
      {
        "@id": "10100051", 
        "@level": "4", 
        "@name": "Shield Wall", 
        "@tooltipDescription": "A sacred aura from the shield surrounds your body. \\n80 Increased physical resistance and magic resistance 180", 
        "@feature": "CharacterBalance_01", 
        "@locale": "KR"
      }, 
      {
        "@id": "10100051", 
        "@level": "5", 
        "@name": "Shield Wall", 
        "@tooltipDescription": "A sacred aura from the shield surrounds your body. \\n202 Physical resistance and magic resistance increase 210", 
        "@feature": "CharacterBalance_01", 
        "@locale": "KR"
      }, 
      {
        "@id": "10100051", 
        "@level": "6", 
        "@name": "Shield Wall", 
        "@tooltipDescription": "A sacred aura from the shield surrounds your body. \\n 240 increased physical resistance and magic resistance.", 
        "@feature": "CharacterBalance_01", 
        "@locale": "KR"
      }, 
      {
        "@id": "10100051", 
        "@level": "7", 
        "@name": "Shield Wall", 
        "@tooltipDescription": "A sacred aura from the shield surrounds your body. \\n70 Increased physical resistance and magic resistance by 270", 
        "@feature": "CharacterBalance_01", 
        "@locale": "KR"
      }, 
      {
        "@id": "10100051", 
        "@level": "8", 
        "@name": "Shield Wall", 
        "@tooltipDescription": "Sacred aura from the shield surrounds your body. \\n 300 increased physical resistance and magic resistance.", 
        "@feature": "CharacterBalance_01", 
        "@locale": "KR"
      }, 
      {
        "@id": "10100051", 
        "@level": "9", 
        "@name": "Shield Wall", 
        "@tooltipDescription": "Sacred aura from the shield surrounds the body. \\n Physical resistance and magic resistance increase 330", 
        "@feature": "CharacterBalance_01", 
        "@locale": "KR"
      }, 
      {
        "@id": "10100051", 
        "@level": "10", 
        "@name": "Shield Wall", 
        "@tooltipDescription": "A sacred aura from the shield surrounds your body. \\n Physical resistance and magic resistance increase 360", 
        "@feature": "CharacterBalance_01", 
        "@locale": "KR"
      }, 
      {
        "@id": "10100051", 
        "@level": "11", 
        "@name": "Shield Wall", 
        "@tooltipDescription": "Sacred aura from the shield surrounds your body. \\n 390 increased physical resistance and magic resistance.", 
        "@feature": "CharacterBalance_01", 
        "@locale": "KR"
      }, 
      {
        "@id": "10100051", 
        "@level": "12", 
        "@name": "Shield Wall", 
        "@tooltipDescription": "A sacred aura from the shield surrounds your body. \\n420 Physical resistance and magic resistance increase 420", 
        "@feature": "CharacterBalance_01", 
        "@locale": "KR"
      }, 
      {
        "@id": "10100061", 
        "@level": "1", 
        "@name": "Iron Defense", 
        "@tooltipDescription": "\\n \\n0.3 Recovers SP 4 every second \\n Reduces physical damage and magic damage by 25% \\n Reduces damage received by 10%", 
        "@feature": "CharacterBalance_01", 
        "@locale": "KR"
      }, 
      {
        "@id": "10100071", 
        "@level": "1", 
        "@name": "Throwing shield", 
        "@tooltipDescription": "Strong Shock destroys combat poise! \\n 1% reduction in defense", 
        "@feature": "CharacterBalance_01", 
        "@locale": "KR"
      }, 
      {
        "@id": "10100071", 
        "@level": "2", 
        "@name": "Throwing shield", 
        "@tooltipDescription": "Strong Shock has knocked out combat poise! \\nArea 1.6% reduced defense", 
        "@feature": "CharacterBalance_01", 
        "@locale": "KR"
      }, 
      {
        "@id": "10100071", 
        "@level": "3", 
        "@name": "Throwing shield", 
        "@tooltipDescription": "Strong Shock destroys combat poise! \\nArea 2.2% reduction in defense", 
        "@feature": "CharacterBalance_01", 
        "@locale": "KR"
      }, 
      {
        "@id": "10100071", 
        "@level": "4", 
        "@name": "Throwing shield", 
        "@tooltipDescription": "Strong Shock destroys combat poise! \\nFor 2.8% reduction in defense", 
        "@feature": "CharacterBalance_01", 
        "@locale": "KR"
      }, 
      {
        "@id": "10100071", 
        "@level": "5", 
        "@name": "Throwing shield", 
        "@tooltipDescription": "Strong Shock destroys combat poise! \\nFasture reduced by 3.4%", 
        "@feature": "CharacterBalance_01", 
        "@locale": "KR"
      }, 
      {
        "@id": "10100071", 
        "@level": "6", 
        "@name": "Throwing shield", 
        "@tooltipDescription": "Strong Shock destroys combat poise! \\n 4% reduction in defense", 
        "@feature": "CharacterBalance_01", 
        "@locale": "KR"
      }, 
      {
        "@id": "10100071", 
        "@level": "7", 
        "@name": "Throwing shield", 
        "@tooltipDescription": "Strong Shock destroys combat poise! \\nFasture reduced by 4.6%", 
        "@feature": "CharacterBalance_01", 
        "@locale": "KR"
      }, 
      {
        "@id": "10100071", 
        "@level": "8", 
        "@name": "Throwing shield", 
        "@tooltipDescription": "Strong Shock destroys combat poise! \\nFerritory reduced by 5.2%", 
        "@feature": "CharacterBalance_01", 
        "@locale": "KR"
      }, 
      {
        "@id": "10100071", 
        "@level": "9", 
        "@name": "Throwing shield", 
        "@tooltipDescription": "Strong Shock destroys combat poise! \\nFasture reduced by 5.8%", 
        "@feature": "CharacterBalance_01", 
        "@locale": "KR"
      }, 
      {
        "@id": "10100071", 
        "@level": "10", 
        "@name": "Throwing shield", 
        "@tooltipDescription": "Strong Shock destroys combat poise! \\nFasture reduced by 6.4%", 
        "@feature": "CharacterBalance_01", 
        "@locale": "KR"
      }, 
      {
        "@id": "10100071", 
        "@level": "11", 
        "@name": "Throwing shield", 
        "@tooltipDescription": "Strong Shock destroys combat poise! \\n7% reduction in defense", 
        "@feature": "CharacterBalance_01", 
        "@locale": "KR"
      }, 
      {
        "@id": "10100071", 
        "@level": "12", 
        "@name": "Throwing shield", 
        "@tooltipDescription": "Strong Shock destroys combat poise! \\nDefinition reduced by 7.6%", 
        "@feature": "CharacterBalance_01", 
        "@locale": "KR"
      }, 
      {
        "@id": "10100081", 
        "@level": "1", 
        "@name": "Article's Will", 
        "@tooltipDescription": "Protected from sacred shields. \\nAll enemy attack defense \\nNot some powerful attack defense", 
        "@feature": "CharacterBalance_01", 
        "@locale": "KR"
      }, 
      {
        "@id": "10100081", 
        "@level": "2", 
        "@name": "Article's Will", 
        "@tooltipDescription": "Protected from sacred shields. \\nAll enemy attack defense \\nNot some powerful attack defense", 
        "@feature": "CharacterBalance_01", 
        "@locale": "KR"
      }, 
      {
        "@id": "10100081", 
        "@level": "3", 
        "@name": "Article's Will", 
        "@tooltipDescription": "Protected from sacred shields. \\nAll enemy attack defense \\nNot some powerful attack defense", 
        "@feature": "CharacterBalance_01", 
        "@locale": "KR"
      }, 
      {
        "@id": "10100081", 
        "@level": "4", 
        "@name": "Article's Will", 
        "@tooltipDescription": "Protected from sacred shields. \\nAll enemy attack defense \\nNot some powerful attack defense", 
        "@feature": "CharacterBalance_01", 
        "@locale": "KR"
      }, 
      {
        "@id": "10100081", 
        "@level": "5", 
        "@name": "Article's Will", 
        "@tooltipDescription": "Protected from sacred shields. \\nAll enemy attack defense \\nNot some powerful attack defense", 
        "@feature": "CharacterBalance_01", 
        "@locale": "KR"
      }, 
      {
        "@id": "10100081", 
        "@level": "6", 
        "@name": "Article's Will", 
        "@tooltipDescription": "Protected from sacred shields. \\nAll enemy attack defense \\nNot some powerful attack defense", 
        "@feature": "CharacterBalance_01", 
        "@locale": "KR"
      }, 
      {
        "@id": "10100081", 
        "@level": "7", 
        "@name": "Article's Will", 
        "@tooltipDescription": "Protected from sacred shields. \\nAll enemy attack defense \\nNot some powerful attack defense", 
        "@feature": "CharacterBalance_01", 
        "@locale": "KR"
      }, 
      {
        "@id": "10100081", 
        "@level": "8", 
        "@name": "Article's Will", 
        "@tooltipDescription": "Protected from sacred shields. \\nAll enemy attack defense \\nNot some powerful attack defense", 
        "@feature": "CharacterBalance_01", 
        "@locale": "KR"
      }, 
      {
        "@id": "10100081", 
        "@level": "9", 
        "@name": "Article's Will", 
        "@tooltipDescription": "Protected from sacred shields. \\nAll enemy attack defense \\nNot some powerful attack defense", 
        "@feature": "CharacterBalance_01", 
        "@locale": "KR"
      }, 
      {
        "@id": "10100081", 
        "@level": "10", 
        "@name": "Article's Will", 
        "@tooltipDescription": "Protected from sacred shields. \\nAll enemy attack defense \\nNot some powerful attack defense", 
        "@feature": "CharacterBalance_01", 
        "@locale": "KR"
      }, 
      {
        "@id": "10100081", 
        "@level": "11", 
        "@name": "Article's Will", 
        "@tooltipDescription": "Protected from sacred shields. \\nAll enemy attack defense \\nNot some powerful attack defense", 
        "@feature": "CharacterBalance_01", 
        "@locale": "KR"
      }, 
      {
        "@id": "10100081", 
        "@level": "12", 
        "@name": "Article's Will", 
        "@tooltipDescription": "Protected from sacred shields. \\nAll enemy attack defense \\nNot some powerful attack defense", 
        "@feature": "CharacterBalance_01", 
        "@locale": "KR"
      }, 
      {
        "@id": "10100101", 
        "@level": "1", 
        "@name": "Defender of Belief", 
        "@tooltipDescription": "Protected from sacred shields. \\nAll enemy attack defense \\nNot some powerful attack defense", 
        "@feature": "CharacterBalance_01", 
        "@locale": "KR"
      }, 
      {
        "@id": "10100101", 
        "@level": "2", 
        "@name": "Defender of Belief", 
        "@tooltipDescription": "Protected from sacred shields. \\nAll enemy attack defense \\nNot some powerful attack defense", 
        "@feature": "CharacterBalance_01", 
        "@locale": "KR"
      }, 
      {
        "@id": "10100101", 
        "@level": "3", 
        "@name": "Defender of Belief", 
        "@tooltipDescription": "Protected from sacred shields. \\nAll enemy attack defense \\nNot some powerful attack defense", 
        "@feature": "CharacterBalance_01", 
        "@locale": "KR"
      }, 
      {
        "@id": "10100101", 
        "@level": "4", 
        "@name": "Defender of Belief", 
        "@tooltipDescription": "Protected from sacred shields. \\nAll enemy attack defense \\nNot some powerful attack defense", 
        "@feature": "CharacterBalance_01", 
        "@locale": "KR"
      }, 
      {
        "@id": "10100101", 
        "@level": "5", 
        "@name": "Defender of Belief", 
        "@tooltipDescription": "Protected from sacred shields. \\nAll enemy attack defense \\nNot some powerful attack defense", 
        "@feature": "CharacterBalance_01", 
        "@locale": "KR"
      }, 
      {
        "@id": "10100101", 
        "@level": "6", 
        "@name": "Defender of Belief", 
        "@tooltipDescription": "Protected from sacred shields. \\nAll enemy attack defense \\nNot some powerful attack defense", 
        "@feature": "CharacterBalance_01", 
        "@locale": "KR"
      }, 
      {
        "@id": "10100101", 
        "@level": "7", 
        "@name": "Defender of Belief", 
        "@tooltipDescription": "Protected from sacred shields. \\nAll enemy attack defense \\nNot some powerful attack defense", 
        "@feature": "CharacterBalance_01", 
        "@locale": "KR"
      }, 
      {
        "@id": "10100101", 
        "@level": "8", 
        "@name": "Defender of Belief", 
        "@tooltipDescription": "Protected from sacred shields. \\nAll enemy attack defense \\nNot some powerful attack defense", 
        "@feature": "CharacterBalance_01", 
        "@locale": "KR"
      }, 
      {
        "@id": "10100101", 
        "@level": "9", 
        "@name": "Defender of Belief", 
        "@tooltipDescription": "Protected from sacred shields. \\nAll enemy attack defense \\nNot some powerful attack defense", 
        "@feature": "CharacterBalance_01", 
        "@locale": "KR"
      }, 
      {
        "@id": "10100101", 
        "@level": "10", 
        "@name": "Defender of Belief", 
        "@tooltipDescription": "Protected from sacred shields. \\nAll enemy attack defense \\nNot some powerful attack defense", 
        "@feature": "CharacterBalance_01", 
        "@locale": "KR"
      }, 
      {
        "@id": "10100101", 
        "@level": "11", 
        "@name": "Defender of Belief", 
        "@tooltipDescription": "Protected from sacred shields. \\nAll enemy attack defense \\nNot some powerful attack defense", 
        "@feature": "CharacterBalance_01", 
        "@locale": "KR"
      }, 
      {
        "@id": "10100101", 
        "@level": "12", 
        "@name": "Defender of Belief", 
        "@tooltipDescription": "Protected from sacred shields. \\nAll enemy attack defense \\nNot some powerful attack defense", 
        "@feature": "CharacterBalance_01", 
        "@locale": "KR"
      }, 
      {
        "@id": "10100124", 
        "@level": "1", 
        "@name": "Opportunity of counterattack", 
        "@tooltipDescription": "Chance to fight back against enemies! \\nAll damage is increased", 
        "@feature": "CharacterBalance_01", 
        "@locale": "KR"
      }, 
      {
        "@id": "10100124", 
        "@level": "2", 
        "@name": "Opportunity of counterattack", 
        "@tooltipDescription": "Chance to fight back against enemies! \\nAll damage is increased", 
        "@feature": "CharacterBalance_01", 
        "@locale": "KR"
      }, 
      {
        "@id": "10100124", 
        "@level": "3", 
        "@name": "Opportunity of counterattack", 
        "@tooltipDescription": "Chance to fight back against enemies! \\nAll damage is increased", 
        "@feature": "CharacterBalance_01", 
        "@locale": "KR"
      }, 
      {
        "@id": "10100124", 
        "@level": "4", 
        "@name": "Opportunity of counterattack", 
        "@tooltipDescription": "Chance to fight back against enemies! \\nAll damage is increased", 
        "@feature": "CharacterBalance_01", 
        "@locale": "KR"
      }, 
      {
        "@id": "10100124", 
        "@level": "5", 
        "@name": "Opportunity of counterattack", 
        "@tooltipDescription": "Chance to fight back against enemies! \\nAll damage is increased", 
        "@feature": "CharacterBalance_01", 
        "@locale": "KR"
      }, 
      {
        "@id": "10100124", 
        "@level": "6", 
        "@name": "Opportunity of counterattack", 
        "@tooltipDescription": "Chance to fight back against enemies! \\nAll damage is increased", 
        "@feature": "CharacterBalance_01", 
        "@locale": "KR"
      }, 
      {
        "@id": "10100124", 
        "@level": "7", 
        "@name": "Opportunity of counterattack", 
        "@tooltipDescription": "Chance to fight back against enemies! \\nAll damage is increased", 
        "@feature": "CharacterBalance_01", 
        "@locale": "KR"
      }, 
      {
        "@id": "10100124", 
        "@level": "8", 
        "@name": "Opportunity of counterattack", 
        "@tooltipDescription": "Chance to fight back against enemies! \\nAll damage is increased", 
        "@feature": "CharacterBalance_01", 
        "@locale": "KR"
      }, 
      {
        "@id": "10100124", 
        "@level": "9", 
        "@name": "Opportunity of counterattack", 
        "@tooltipDescription": "Chance to fight back against enemies! \\nAll damage is increased", 
        "@feature": "CharacterBalance_01", 
        "@locale": "KR"
      }, 
      {
        "@id": "10100124", 
        "@level": "10", 
        "@name": "Opportunity of counterattack", 
        "@tooltipDescription": "Chance to fight back against enemies! \\nAll damage is increased", 
        "@feature": "CharacterBalance_01", 
        "@locale": "KR"
      }, 
      {
        "@id": "10100124", 
        "@level": "11", 
        "@name": "Opportunity of counterattack", 
        "@tooltipDescription": "Chance to fight back against enemies! \\nAll damage is increased", 
        "@feature": "CharacterBalance_01", 
        "@locale": "KR"
      }, 
      {
        "@id": "10100124", 
        "@level": "12", 
        "@name": "Opportunity of counterattack", 
        "@tooltipDescription": "Chance to fight back against enemies! \\nAll damage is increased", 
        "@feature": "CharacterBalance_01", 
        "@locale": "KR"
      }, 
      {
        "@id": "10100151", 
        "@level": "1", 
        "@name": "Iron Shield", 
        "@tooltipDescription": "Shield with defense posture. \\nAll enemies receive 25% less damage.", 
        "@feature": "CharacterBalance_01", 
        "@locale": "KR"
      }, 
      {
        "@id": "10100151", 
        "@level": "2", 
        "@name": "Iron Shield", 
        "@tooltipDescription": "Shields your defense posture. \\nAll damage done to your enemies is reduced by 30%.", 
        "@feature": "CharacterBalance_01", 
        "@locale": "KR"
      }, 
      {
        "@id": "10100151", 
        "@level": "3", 
        "@name": "Iron Shield", 
        "@tooltipDescription": "Shield with defense attitude. \\nAll enemies receive 35% less damage", 
        "@feature": "CharacterBalance_01", 
        "@locale": "KR"
      }, 
      {
        "@id": "10100151", 
        "@level": "4", 
        "@name": "Iron Shield", 
        "@tooltipDescription": "Shield with defense posture. \\nAll damage to enemies is reduced by 40%.", 
        "@feature": "CharacterBalance_01", 
        "@locale": "KR"
      }, 
      {
        "@id": "10100151", 
        "@level": "5", 
        "@name": "Iron Shield", 
        "@tooltipDescription": "Shield with defense attitude. \\nAll enemies receive 45% less damage.", 
        "@feature": "CharacterBalance_01", 
        "@locale": "KR"
      }, 
      {
        "@id": "10100151", 
        "@level": "6", 
        "@name": "Iron Shield", 
        "@tooltipDescription": "Shield to defend posture. \\nAll enemies receive 50% less damage", 
        "@feature": "CharacterBalance_01", 
        "@locale": "KR"
      }, 
      {
        "@id": "10100151", 
        "@level": "7", 
        "@name": "Iron Shield", 
        "@tooltipDescription": "Shields your defense posture. \\nAll damage done to your enemies is reduced by 55%.", 
        "@feature": "CharacterBalance_01", 
        "@locale": "KR"
      }, 
      {
        "@id": "10100151", 
        "@level": "8", 
        "@name": "Iron Shield", 
        "@tooltipDescription": "Shield with defense attitude. \\nAll damage done to enemies is reduced by 60%.", 
        "@feature": "CharacterBalance_01", 
        "@locale": "KR"
      }, 
      {
        "@id": "10100151", 
        "@level": "9", 
        "@name": "Iron Shield", 
        "@tooltipDescription": "Shields your defensive posture. \\nAll damage done to enemies is reduced by 65%.", 
        "@feature": "CharacterBalance_01", 
        "@locale": "KR"
      }, 
      {
        "@id": "10100151", 
        "@level": "10", 
        "@name": "Iron Shield", 
        "@tooltipDescription": "Shields your defense posture. \\nAll damage done to your enemies is reduced by 70%.", 
        "@feature": "CharacterBalance_01", 
        "@locale": "KR"
      }, 
      {
        "@id": "10100151", 
        "@level": "11", 
        "@name": "Iron Shield", 
        "@tooltipDescription": "Shields your defense posture. \\nAll damage done to your opponent is reduced by 75%.", 
        "@feature": "CharacterBalance_01", 
        "@locale": "KR"
      }, 
      {
        "@id": "10100151", 
        "@level": "12", 
        "@name": "Iron Shield", 
        "@tooltipDescription": "Shield to defend posture. \\nAll damage to enemies is reduced by 80%.", 
        "@feature": "CharacterBalance_01", 
        "@locale": "KR"
      }
    ]
  }
}