{
  "?xml": {
    "@version": "1.0", 
    "@encoding": "utf-8"
  }, 
  "ms2": {
    "key": [
      {
        "@id": "10400001", 
        "@level": "1", 
        "@name": "Heavenly light", 
        "@tooltipDescription": "Cleansed by Divine Light! \\n 4% Holy Damage per second"
      }, 
      {
        "@id": "10400001", 
        "@level": "2", 
        "@name": "Heavenly light", 
        "@tooltipDescription": "Cleansed by Divine Light! \\n 5% Holy Damage per second"
      }, 
      {
        "@id": "10400001", 
        "@level": "3", 
        "@name": "Heavenly light", 
        "@tooltipDescription": "It is being cleansed by Divine Light! \\n 6% sacred damage per second"
      }, 
      {
        "@id": "10400001", 
        "@level": "4", 
        "@name": "Heavenly light", 
        "@tooltipDescription": "Cleansed by Divine Light! \\n 7% Holy damage per second"
      }, 
      {
        "@id": "10400001", 
        "@level": "5", 
        "@name": "Heavenly light", 
        "@tooltipDescription": "It is being cleansed by Divine Light! \\n 8% sacred damage per second"
      }, 
      {
        "@id": "10400001", 
        "@level": "6", 
        "@name": "Heavenly light", 
        "@tooltipDescription": "It is being cleansed by Divine Light! \\n 9% sacred damage per second"
      }, 
      {
        "@id": "10400001", 
        "@level": "7", 
        "@name": "Heavenly light", 
        "@tooltipDescription": "It is being cleansed by Divine Light! \\n 10% Holy Damage per second"
      }, 
      {
        "@id": "10400001", 
        "@level": "8", 
        "@name": "Heavenly light", 
        "@tooltipDescription": "Cleansed by Divine Light! \\n 11% Holy Damage per second"
      }, 
      {
        "@id": "10400001", 
        "@level": "9", 
        "@name": "Heavenly light", 
        "@tooltipDescription": "Cleansed by Divine Light! \\n 12% Holy Damage per second"
      }, 
      {
        "@id": "10400001", 
        "@level": "10", 
        "@name": "Heavenly light", 
        "@tooltipDescription": "Sanctified by Divine Light! \\n 13% sanctity damage per second"
      }, 
      {
        "@id": "10400001", 
        "@level": "11", 
        "@name": "Heavenly light", 
        "@tooltipDescription": "Cleansed by Divine Light! \\n 14% Holy Damage per second"
      }, 
      {
        "@id": "10400001", 
        "@level": "12", 
        "@name": "Heavenly light", 
        "@tooltipDescription": "Cleansed by Divine Light! \\n 15% Holy Damage per second"
      }, 
      {
        "@id": "10400041", 
        "@level": "1", 
        "@name": "Shield of Arkon", 
        "@tooltipDescription": "The shield of the Judge is surrounded by the body. \\n80% Physical Resistance, Magical Resistance increased by 165% 80%"
      }, 
      {
        "@id": "10400041", 
        "@level": "2", 
        "@name": "Shield of Arkon", 
        "@tooltipDescription": "Increases Physical Resistance and Magical Resistance by 220. \\n 85% Divine Damage to nearby enemies."
      }, 
      {
        "@id": "10400041", 
        "@level": "3", 
        "@name": "Shield of Arkon", 
        "@tooltipDescription": "The shield of the referee is surrounded by the body. \\n 275 increased physical resistance and magic resistance. \\n 90% sacred damage to nearby enemies."
      }, 
      {
        "@id": "10400041", 
        "@level": "4", 
        "@name": "Shield of Arkon", 
        "@tooltipDescription": "The shield of the referee is surrounded by the body. \\nThe Physical Resistance and Magic Resistance increase by 330. \\n 95%"
      }, 
      {
        "@id": "10400041", 
        "@level": "5", 
        "@name": "Shield of Arkon", 
        "@tooltipDescription": "The shield of the referee is surrounded by the body. \\nThe physical resistance and magic resistance increase by 385. \\n 100% sacred damage to adjacent enemies."
      }, 
      {
        "@id": "10400041", 
        "@level": "6", 
        "@name": "Shield of Arkon", 
        "@tooltipDescription": "The shield of the referee is surrounded by the body. \\n440 Increased physical resistance and magic resistance by \\n105% Divine Damage to adjacent enemies."
      }, 
      {
        "@id": "10400041", 
        "@level": "7", 
        "@name": "Shield of Arkon", 
        "@tooltipDescription": "The shield of the referee is surrounded by the body. \\n Increased Physical Resistance, Magic Resistance 495. \\n 110% Divine Damage to nearby enemies."
      }, 
      {
        "@id": "10400041", 
        "@level": "8", 
        "@name": "Shield of Arkon", 
        "@tooltipDescription": "Increases Physical Resistance and Magic Resistance by 550. \\n 115% Divine Damage to nearby enemies."
      }, 
      {
        "@id": "10400041", 
        "@level": "9", 
        "@name": "Shield of Arkon", 
        "@tooltipDescription": "The shield of the referee is surrounded by the body. \\n602 Increases physical resistance and magic resistance by \\n 120% deity damage to adjacent enemies."
      }, 
      {
        "@id": "10400041", 
        "@level": "10", 
        "@name": "Shield of Arkon", 
        "@tooltipDescription": "The shield of the referee is surrounded by the body. \\n660 Increased physical resistance and magic resistance by \\n250% deity damage to adjacent enemies."
      }, 
      {
        "@id": "10400041", 
        "@level": "11", 
        "@name": "Shield of Arkon", 
        "@tooltipDescription": "The shield of the referee is surrounded by the body. \\nThe physical resistance and magic resistance increase by 715. \\nThe 130%"
      }, 
      {
        "@id": "10400041", 
        "@level": "12", 
        "@name": "Shield of Arkon", 
        "@tooltipDescription": "The shield of the referee is surrounded by the body. \\n 770 increased physical resistance and magic resistance. \\n 135% sanctity damage to nearby enemies."
      }, 
      {
        "@id": "10400051", 
        "@level": "1", 
        "@name": "Holly Symbol", 
        "@tooltipDescription": "Divine cleanse cleanses your mind. \\n 1% increase in physical damage and magic damage \\n% 1% increase in attack rate \\n% increase in hit"
      }, 
      {
        "@id": "10400051", 
        "@level": "2", 
        "@name": "Holly Symbol", 
        "@tooltipDescription": "Divine cleanse cleanse your mind. \\n 3% increase in physical damage and magic damage \\n \\ 3% increase in attack speed \\n 3 increase in hit"
      }, 
      {
        "@id": "10400051", 
        "@level": "3", 
        "@name": "Holly Symbol", 
        "@tooltipDescription": "Divine cleanse cleanses your mind. \\n 5% increase in physical damage and magic damage \\n% 5% increase in attack rate \\n% increase in hit"
      }, 
      {
        "@id": "10400051", 
        "@level": "4", 
        "@name": "Holly Symbol", 
        "@tooltipDescription": "Divine cleanse cleanses your mind. \\n7% increase in physical damage and magic damage \\n% 7% increase in attack speed \\n% increase in hit"
      }, 
      {
        "@id": "10400051", 
        "@level": "5", 
        "@name": "Holly Symbol", 
        "@tooltipDescription": "Divine cleanse cleanses your mind. \\n 9% increase in physical damage and magic damage \\n9% increase in attack speed \\n% increase in hit"
      }, 
      {
        "@id": "10400051", 
        "@level": "6", 
        "@name": "Holly Symbol", 
        "@tooltipDescription": "Divine cleanse cleanses your mind. \\n 11% increase in physical damage and magic damage \\n% 11% increase in attack speed \\n% increase in hit"
      }, 
      {
        "@id": "10400051", 
        "@level": "7", 
        "@name": "Holly Symbol", 
        "@tooltipDescription": "Divine cleanse cleanses your mind. \\n 13% increase in physical damage and magic damage \\n% 13% increase in attack rate \\n 13 increase in hit"
      }, 
      {
        "@id": "10400051", 
        "@level": "8", 
        "@name": "Holly Symbol", 
        "@tooltipDescription": "Divine cleanse has clarified your spirit. \\n 15% increase in physical damage and magic damage \\n% 15% increase in attack speed \\n 15 increase in hit"
      }, 
      {
        "@id": "10400051", 
        "@level": "9", 
        "@name": "Holly Symbol", 
        "@tooltipDescription": "Divine cleanse cleanses your mind. \\n 17% increase in physical damage and magic damage \\n% 17% increase in attack rate \\n 17% increase in hit"
      }, 
      {
        "@id": "10400051", 
        "@level": "10", 
        "@name": "Holly Symbol", 
        "@tooltipDescription": "Divine cleanse cleanses your mind. \\n 19% increase in physical damage and magic damage \\n% 19% increase in attack speed \\n 19 increase in hit"
      }, 
      {
        "@id": "10400051", 
        "@level": "11", 
        "@name": "Holly Symbol", 
        "@tooltipDescription": "Divine cleanse cleanses your mind. \\n 21% increase in physical damage and magic damage \\n% 21% increase in attack speed \\n 21 increase in hit"
      }, 
      {
        "@id": "10400051", 
        "@level": "12", 
        "@name": "Holly Symbol", 
        "@tooltipDescription": "Divine cleanse cleanses your mind. \\n 23% increase in physical damage and magic damage \\n% 23% increase in attack rate \\n 23 increase in hit"
      }, 
      {
        "@id": "10400053", 
        "@level": "1", 
        "@name": "Holly Symbol", 
        "@tooltipDescription": "You can not get the Holy Symbol effect because of the energy of cleansing."
      }, 
      {
        "@id": "10400081", 
        "@level": "1", 
        "@name": "Heavenly Guardian", 
        "@tooltipDescription": "Angel gives sacred power \\n Magic Attack 2% increase"
      }, 
      {
        "@id": "10400081", 
        "@level": "2", 
        "@name": "Heavenly Guardian", 
        "@tooltipDescription": "Angel gives sacred power \\n Magic Attack 3% increase"
      }, 
      {
        "@id": "10400081", 
        "@level": "3", 
        "@name": "Heavenly Guardian", 
        "@tooltipDescription": "Angel gives sacred power \\n Magic Attack 4% increase"
      }, 
      {
        "@id": "10400081", 
        "@level": "4", 
        "@name": "Heavenly Guardian", 
        "@tooltipDescription": "Angel gives sacred power \\nMagnificent damage 5% increase"
      }, 
      {
        "@id": "10400081", 
        "@level": "5", 
        "@name": "Heavenly Guardian", 
        "@tooltipDescription": "Angel gives sacred power \\n Magic Attack Power increased by 6%"
      }, 
      {
        "@id": "10400081", 
        "@level": "6", 
        "@name": "Heavenly Guardian", 
        "@tooltipDescription": "Angel gives sacred power \\n Magic Attack Power increased by 7%"
      }, 
      {
        "@id": "10400081", 
        "@level": "7", 
        "@name": "Heavenly Guardian", 
        "@tooltipDescription": "Angel gives sacred power \\n Magic Attack Power increased by 8%"
      }, 
      {
        "@id": "10400081", 
        "@level": "8", 
        "@name": "Heavenly Guardian", 
        "@tooltipDescription": "Angel gives sacred power \\n9% Magic Attack Power increased by 9%"
      }, 
      {
        "@id": "10400081", 
        "@level": "9", 
        "@name": "Heavenly Guardian", 
        "@tooltipDescription": "Angel gives sacred power \\n Magic Attack Power increased by 10%"
      }, 
      {
        "@id": "10400081", 
        "@level": "10", 
        "@name": "Heavenly Guardian", 
        "@tooltipDescription": "Angel gives sacred power \\n Magic Attack Power increased by 11%"
      }, 
      {
        "@id": "10400081", 
        "@level": "11", 
        "@name": "Heavenly Guardian", 
        "@tooltipDescription": "Angel gives sacred power \\nMagic damage 12% increase"
      }, 
      {
        "@id": "10400081", 
        "@level": "12", 
        "@name": "Heavenly Guardian", 
        "@tooltipDescription": "Angel gives sacred power \\n Magic Attack Power increased by 13%"
      }, 
      {
        "@id": "10400091", 
        "@level": "1", 
        "@name": "Heavenly blessing", 
        "@tooltipDescription": "Angel's blessing is reduced. \\n 1% increase in physical damage and magic damage, \\n10% increase in physical resistance and magic resistance."
      }, 
      {
        "@id": "10400091", 
        "@level": "2", 
        "@name": "Heavenly blessing", 
        "@tooltipDescription": "Angel's blessing has been reduced. \\n6 Physical attack and magic damage increased by 1.6%. \\n Physical resistance and magic resistance increased by 30."
      }, 
      {
        "@id": "10400091", 
        "@level": "3", 
        "@name": "Heavenly blessing", 
        "@tooltipDescription": "Angel's blessing has been reduced. \\n 2.2% increase in Physical Attack and Magic Attack Power \\n 50% increase in Physical Resistance and Magic Resistance"
      }, 
      {
        "@id": "10400091", 
        "@level": "4", 
        "@name": "Heavenly blessing", 
        "@tooltipDescription": "Angel's blessing has been reduced. \\n2 Physical damage and magic damage increased by 2.8% \\n 70 increased physical resistance and magic resistance"
      }, 
      {
        "@id": "10400091", 
        "@level": "5", 
        "@name": "Heavenly blessing", 
        "@tooltipDescription": "Angel's blessing has been given. \\n4 Physical attack and magic damage increased by 3.4%. \\n 90 increased physical resistance and magic resistance."
      }, 
      {
        "@id": "10400091", 
        "@level": "6", 
        "@name": "Heavenly blessing", 
        "@tooltipDescription": "Angel's blessing has been reduced. \\n 4% increase in physical damage and magic attack power. \\n 110 increased physical resistance and magic resistance."
      }, 
      {
        "@id": "10400091", 
        "@level": "7", 
        "@name": "Heavenly blessing", 
        "@tooltipDescription": "Angel's blessing has been reduced. \\n4 Physical damage and magic damage increased by 4.6%. \\n Physical resistance and magic resistance increased by 130."
      }, 
      {
        "@id": "10400091", 
        "@level": "8", 
        "@name": "Heavenly blessing", 
        "@tooltipDescription": "Angel's blessing is reduced. \\n 5.2% increase in physical damage and magic damage, \\n 150 increase in physical resistance and magic resistance."
      }, 
      {
        "@id": "10400091", 
        "@level": "9", 
        "@name": "Heavenly blessing", 
        "@tooltipDescription": "Angel's blessing is reduced. \\n Physical damage and magic damage increased by 5.8%. \\nThe physical resistance and magic resistance increased by 170%."
      }, 
      {
        "@id": "10400091", 
        "@level": "10", 
        "@name": "Heavenly blessing", 
        "@tooltipDescription": "Angel's blessing has been reduced. \\n Physical damage and magic damage increased by 6.4%. \\n 190 increased physical resistance and magic resistance."
      }, 
      {
        "@id": "10400091", 
        "@level": "11", 
        "@name": "Heavenly blessing", 
        "@tooltipDescription": "Angel's blessing has been reduced. \\n7% Physical Attack and Magical Attack Power increased by \\n \\n102 Physical Resistance and Magic Resistance increased by 210"
      }, 
      {
        "@id": "10400091", 
        "@level": "12", 
        "@name": "Heavenly blessing", 
        "@tooltipDescription": "Angel's blessing has been reduced. \\n7 Physical attack and magic damage increased by 7.6%. \\n2 Physical resistance and magic resistance increased by 230"
      }, 
      {
        "@id": "10400122", 
        "@level": "1", 
        "@name": "Spirit of the Spirit", 
        "@tooltipDescription": "Exposed to intense light! \\nAll enemies receive 1% more damage"
      }, 
      {
        "@id": "10400122", 
        "@level": "2", 
        "@name": "Spirit of the Spirit", 
        "@tooltipDescription": "Exposed to intense light! \\nAll damage done by enemies is increased by 1.6%"
      }, 
      {
        "@id": "10400122", 
        "@level": "3", 
        "@name": "Spirit of the Spirit", 
        "@tooltipDescription": "Exposed to intense light! \\nAll enemies receive 2.2% more damage"
      }, 
      {
        "@id": "10400122", 
        "@level": "4", 
        "@name": "Spirit of the Spirit", 
        "@tooltipDescription": "Exposed to intense light! \\n All damage your enemies receive increased 2.8%"
      }, 
      {
        "@id": "10400122", 
        "@level": "5", 
        "@name": "Spirit of the Spirit", 
        "@tooltipDescription": "Exposed to intense light! \\nAll enemies receive 3.4% more damage"
      }, 
      {
        "@id": "10400122", 
        "@level": "6", 
        "@name": "Spirit of the Spirit", 
        "@tooltipDescription": "Exposed to intense light! \\nAll enemies receive 4% more damage"
      }, 
      {
        "@id": "10400122", 
        "@level": "7", 
        "@name": "Spirit of the Spirit", 
        "@tooltipDescription": "Exposed to intense light! \\nAll damage your enemies receive is increased by 4.6%"
      }, 
      {
        "@id": "10400122", 
        "@level": "8", 
        "@name": "Spirit of the Spirit", 
        "@tooltipDescription": "Exposed to intense light! \\n All damage received by enemies increased by 5.2%"
      }, 
      {
        "@id": "10400122", 
        "@level": "9", 
        "@name": "Spirit of the Spirit", 
        "@tooltipDescription": "Exposed to intense light! \\n All enemies receive 5.8% more damage"
      }, 
      {
        "@id": "10400122", 
        "@level": "10", 
        "@name": "Spirit of the Spirit", 
        "@tooltipDescription": "Exposed to intense light! \\nAll enemies receive 6.4% more damage"
      }, 
      {
        "@id": "10400122", 
        "@level": "11", 
        "@name": "Spirit of the Spirit", 
        "@tooltipDescription": "Exposed to intense light! \\nAll damage done by enemies increases by 7%"
      }, 
      {
        "@id": "10400122", 
        "@level": "12", 
        "@name": "Spirit of the Spirit", 
        "@tooltipDescription": "Exposed to intense light! \\n All enemies receive 7.6% increase in damage"
      }, 
      {
        "@id": "10400151", 
        "@level": "1", 
        "@name": "Heavenly Wings", 
        "@tooltipDescription": "Light wings lighten your body. \\n 20% increase in movement speed."
      }, 
      {
        "@id": "10400241", 
        "@level": "1", 
        "@name": "Protector of Life", 
        "@tooltipDescription": "Increases healing power by 20% and movement speed by 20%. \\n Heals the enemy with less energy.", 
        "@feature": "JobChange_01"
      }, 
      {
        "@id": "10400181", 
        "@level": "1", 
        "@name": "Heaven's Exploion I", 
        "@tooltipDescription": "Gained the power of God. \\nPepper Recovery, Stamina, Movement Speed", 
        "@feature": "JobChange_01"
      }, 
      {
        "@id": "10400181", 
        "@level": "2", 
        "@name": "Heaven's Exploion I", 
        "@tooltipDescription": "Gained the power of God. \\nPepper Recovery, Stamina, Movement Speed", 
        "@feature": "JobChange_01"
      }, 
      {
        "@id": "10400181", 
        "@level": "3", 
        "@name": "Heaven's Exploion I", 
        "@tooltipDescription": "Gained the power of God. \\nPepper Recovery, Stamina, Movement Speed", 
        "@feature": "JobChange_01"
      }, 
      {
        "@id": "10400181", 
        "@level": "4", 
        "@name": "Heaven's Exploion I", 
        "@tooltipDescription": "Gained the power of God. \\nPepper Recovery, Stamina, Movement Speed", 
        "@feature": "JobChange_01"
      }, 
      {
        "@id": "10400181", 
        "@level": "5", 
        "@name": "Heaven's Exploion I", 
        "@tooltipDescription": "Gained the power of God. \\nPepper Recovery, Stamina, Movement Speed", 
        "@feature": "JobChange_01"
      }, 
      {
        "@id": "10400181", 
        "@level": "6", 
        "@name": "Heaven's Exploion I", 
        "@tooltipDescription": "Gained the power of God. \\nPepper Recovery, Stamina, Movement Speed", 
        "@feature": "JobChange_01"
      }, 
      {
        "@id": "10400181", 
        "@level": "7", 
        "@name": "Heaven's Exploion I", 
        "@tooltipDescription": "Gained the power of God. \\nPepper Recovery, Stamina, Movement Speed", 
        "@feature": "JobChange_01"
      }, 
      {
        "@id": "10400181", 
        "@level": "8", 
        "@name": "Heaven's Exploion I", 
        "@tooltipDescription": "Gained the power of God. \\nPepper Recovery, Stamina, Movement Speed", 
        "@feature": "JobChange_01"
      }, 
      {
        "@id": "10400181", 
        "@level": "9", 
        "@name": "Heaven's Exploion I", 
        "@tooltipDescription": "Gained the power of God. \\nPepper Recovery, Stamina, Movement Speed", 
        "@feature": "JobChange_01"
      }, 
      {
        "@id": "10400181", 
        "@level": "10", 
        "@name": "Heaven's Exploion I", 
        "@tooltipDescription": "Gained the power of God. \\nPepper Recovery, Stamina, Movement Speed", 
        "@feature": "JobChange_01"
      }, 
      {
        "@id": "10400181", 
        "@level": "11", 
        "@name": "Heaven's Exploion I", 
        "@tooltipDescription": "Gained the power of God. \\nPepper Recovery, Stamina, Movement Speed", 
        "@feature": "JobChange_01"
      }, 
      {
        "@id": "10400181", 
        "@level": "12", 
        "@name": "Heaven's Exploion I", 
        "@tooltipDescription": "Gained the power of God. \\nPepper Recovery, Stamina, Movement Speed", 
        "@feature": "JobChange_01"
      }, 
      {
        "@id": "10400221", 
        "@level": "1", 
        "@name": "Light of Cleansing", 
        "@tooltipDescription": "Purging. \\nDefinishing power by 1.5%.", 
        "@feature": "JobChange_01"
      }, 
      {
        "@id": "10400221", 
        "@level": "2", 
        "@name": "Light of Cleansing", 
        "@tooltipDescription": "Cleansing. \\n 3% reduction in defense", 
        "@feature": "JobChange_01"
      }, 
      {
        "@id": "10400221", 
        "@level": "3", 
        "@name": "Light of Cleansing", 
        "@tooltipDescription": "Cleansing. \\n4.5% reduction in defense", 
        "@feature": "JobChange_01"
      }, 
      {
        "@id": "10400221", 
        "@level": "4", 
        "@name": "Light of Cleansing", 
        "@tooltipDescription": "Purging. \\n 6% reduction in defense", 
        "@feature": "JobChange_01"
      }, 
      {
        "@id": "10400221", 
        "@level": "5", 
        "@name": "Light of Cleansing", 
        "@tooltipDescription": "Purging. \\n750% reduction in armor.", 
        "@feature": "JobChange_01"
      }, 
      {
        "@id": "10400221", 
        "@level": "6", 
        "@name": "Light of Cleansing", 
        "@tooltipDescription": "Purging. \\n9% reduction in defense", 
        "@feature": "JobChange_01"
      }, 
      {
        "@id": "10400221", 
        "@level": "7", 
        "@name": "Light of Cleansing", 
        "@tooltipDescription": "Cleansing. \\n 10.5% reduction in defense", 
        "@feature": "JobChange_01"
      }, 
      {
        "@id": "10400221", 
        "@level": "8", 
        "@name": "Light of Cleansing", 
        "@tooltipDescription": "Cleansing. \\nDeast 12% reduction in defense.", 
        "@feature": "JobChange_01"
      }, 
      {
        "@id": "10400221", 
        "@level": "9", 
        "@name": "Light of Cleansing", 
        "@tooltipDescription": "Cleansing. \\n135% reduction in defense.", 
        "@feature": "JobChange_01"
      }, 
      {
        "@id": "10400221", 
        "@level": "10", 
        "@name": "Light of Cleansing", 
        "@tooltipDescription": "Cleansing. \\n 15% reduction in defense", 
        "@feature": "JobChange_01"
      }, 
      {
        "@id": "10400221", 
        "@level": "11", 
        "@name": "Light of Cleansing", 
        "@tooltipDescription": "Cleansing. \\nDefinition reduced by 16.5%.", 
        "@feature": "JobChange_01"
      }, 
      {
        "@id": "10400221", 
        "@level": "12", 
        "@name": "Light of Cleansing", 
        "@tooltipDescription": "Cleansing. \\n 18% reduction in defense", 
        "@feature": "JobChange_01"
      }, 
      {
        "@id": "10400231", 
        "@level": "1", 
        "@name": "Greater Hill", 
        "@tooltipDescription": "Recovers as many as 56% of magic damage per 0.5 second", 
        "@feature": "JobChange_01"
      }, 
      {
        "@id": "10400231", 
        "@level": "2", 
        "@name": "Greater Hill", 
        "@tooltipDescription": "Recovers as many as 60% of magic damage per 0.5 second", 
        "@feature": "JobChange_01"
      }, 
      {
        "@id": "10400231", 
        "@level": "3", 
        "@name": "Greater Hill", 
        "@tooltipDescription": "Recovers as many as 64% of magic damage per 0.5 second", 
        "@feature": "JobChange_01"
      }, 
      {
        "@id": "10400231", 
        "@level": "4", 
        "@name": "Greater Hill", 
        "@tooltipDescription": "Recovers as many as 68% of magic damage per 0.5 second", 
        "@feature": "JobChange_01"
      }, 
      {
        "@id": "10400231", 
        "@level": "5", 
        "@name": "Greater Hill", 
        "@tooltipDescription": "Recovers as many as 72% of magic damage per 0.5 second", 
        "@feature": "JobChange_01"
      }, 
      {
        "@id": "10400231", 
        "@level": "6", 
        "@name": "Greater Hill", 
        "@tooltipDescription": "Recovers as many as 76% of magic damage per 0.5 second", 
        "@feature": "JobChange_01"
      }, 
      {
        "@id": "10400231", 
        "@level": "7", 
        "@name": "Greater Hill", 
        "@tooltipDescription": "Recovers as many as 80% of magic damage per 0.5 second", 
        "@feature": "JobChange_01"
      }, 
      {
        "@id": "10400231", 
        "@level": "8", 
        "@name": "Greater Hill", 
        "@tooltipDescription": "Recovers as many as 84% of magic damage per 0.5 second", 
        "@feature": "JobChange_01"
      }, 
      {
        "@id": "10400231", 
        "@level": "9", 
        "@name": "Greater Hill", 
        "@tooltipDescription": "Recovers as many as 88% of magic damage per 0.5 second", 
        "@feature": "JobChange_01"
      }, 
      {
        "@id": "10400231", 
        "@level": "10", 
        "@name": "Greater Hill", 
        "@tooltipDescription": "Recovers as many as 92% of magic damage per 0.5 second", 
        "@feature": "JobChange_01"
      }, 
      {
        "@id": "10400231", 
        "@level": "11", 
        "@name": "Greater Hill", 
        "@tooltipDescription": "Recovers as many as 96% of magic damage per 0.5 second", 
        "@feature": "JobChange_01"
      }, 
      {
        "@id": "10400231", 
        "@level": "12", 
        "@name": "Greater Hill", 
        "@tooltipDescription": "Recovers 100% of magic damage per 0.5 second", 
        "@feature": "JobChange_01"
      }, 
      {
        "@id": "10400232", 
        "@level": "1", 
        "@name": "Greater Hill", 
        "@tooltipDescription": "Physical and magic damage increased by 9%", 
        "@feature": "JobChange_01"
      }, 
      {
        "@id": "10400232", 
        "@level": "2", 
        "@name": "Greater Hill", 
        "@tooltipDescription": "Physical and magic damage increased by 16%", 
        "@feature": "JobChange_01"
      }, 
      {
        "@id": "10400232", 
        "@level": "3", 
        "@name": "Greater Hill", 
        "@tooltipDescription": "Physical and magic damage increased by 23%", 
        "@feature": "JobChange_01"
      }, 
      {
        "@id": "10400232", 
        "@level": "4", 
        "@name": "Greater Hill", 
        "@tooltipDescription": "Physical, magic damage increased by 30%", 
        "@feature": "JobChange_01"
      }, 
      {
        "@id": "10400232", 
        "@level": "5", 
        "@name": "Greater Hill", 
        "@tooltipDescription": "Physical and magic damage increased by 37%", 
        "@feature": "JobChange_01"
      }, 
      {
        "@id": "10400232", 
        "@level": "6", 
        "@name": "Greater Hill", 
        "@tooltipDescription": "Physical and magic damage increased by 44%", 
        "@feature": "JobChange_01"
      }, 
      {
        "@id": "10400232", 
        "@level": "7", 
        "@name": "Greater Hill", 
        "@tooltipDescription": "Physical and magic damage increased by 9%", 
        "@feature": "JobChange_01"
      }, 
      {
        "@id": "10400232", 
        "@level": "8", 
        "@name": "Greater Hill", 
        "@tooltipDescription": "Physical and magic damage increased by 9%", 
        "@feature": "JobChange_01"
      }, 
      {
        "@id": "10400232", 
        "@level": "9", 
        "@name": "Greater Hill", 
        "@tooltipDescription": "Physical and magic damage increased by 9%", 
        "@feature": "JobChange_01"
      }, 
      {
        "@id": "10400232", 
        "@level": "10", 
        "@name": "Greater Hill", 
        "@tooltipDescription": "Physical and magic damage increased by 9%", 
        "@feature": "JobChange_01"
      }, 
      {
        "@id": "10400232", 
        "@level": "11", 
        "@name": "Greater Hill", 
        "@tooltipDescription": "Physical and magic damage increased by 9%", 
        "@feature": "JobChange_01"
      }, 
      {
        "@id": "10400232", 
        "@level": "12", 
        "@name": "Greater Hill", 
        "@tooltipDescription": "Physical and magic damage increased by 9%", 
        "@feature": "JobChange_01"
      }, 
      {
        "@id": "10400232", 
        "@level": "13", 
        "@name": "Greater Hill", 
        "@tooltipDescription": "Physical and magic damage increased by 9%", 
        "@feature": "JobChange_01"
      }, 
      {
        "@id": "10400232", 
        "@level": "14", 
        "@name": "Greater Hill", 
        "@tooltipDescription": "Physical and magic damage increased by 9%", 
        "@feature": "JobChange_01"
      }, 
      {
        "@id": "10400232", 
        "@level": "15", 
        "@name": "Greater Hill", 
        "@tooltipDescription": "Physical and magic damage increased by 9%", 
        "@feature": "JobChange_01"
      }, 
      {
        "@id": "10400232", 
        "@level": "16", 
        "@name": "Greater Hill", 
        "@tooltipDescription": "Physical and magic damage increased by 9%", 
        "@feature": "JobChange_01"
      }, 
      {
        "@id": "10400232", 
        "@level": "17", 
        "@name": "Greater Hill", 
        "@tooltipDescription": "Physical and magic damage increased by 9%", 
        "@feature": "JobChange_01"
      }, 
      {
        "@id": "10400232", 
        "@level": "18", 
        "@name": "Greater Hill", 
        "@tooltipDescription": "Physical and magic damage increased by 9%", 
        "@feature": "JobChange_01"
      }, 
      {
        "@id": "10400232", 
        "@level": "19", 
        "@name": "Greater Hill", 
        "@tooltipDescription": "Physical and magic damage increased by 9%", 
        "@feature": "JobChange_01"
      }, 
      {
        "@id": "10400232", 
        "@level": "20", 
        "@name": "Greater Hill", 
        "@tooltipDescription": "Physical and magic damage increased by 9%", 
        "@feature": "JobChange_01"
      }, 
      {
        "@id": "10400263", 
        "@level": "1", 
        "@name": "vitality", 
        "@tooltipDescription": "Physical attack and magic attack power increased by 7%", 
        "@feature": "JobChange_01"
      }, 
      {
        "@id": "10400271", 
        "@level": "1", 
        "@name": "The Cross of God", 
        "@tooltipDescription": "Increases attack rate by 1%, magic damage by 2%", 
        "@feature": "JobChange_02"
      }, 
      {
        "@id": "10400271", 
        "@level": "2", 
        "@name": "The Cross of God", 
        "@tooltipDescription": "Attack speed 2%, magic damage 4% increase", 
        "@feature": "JobChange_02"
      }, 
      {
        "@id": "10400271", 
        "@level": "3", 
        "@name": "The Cross of God", 
        "@tooltipDescription": "Attack speed 3%, magic damage 6% increase", 
        "@feature": "JobChange_02"
      }, 
      {
        "@id": "10400271", 
        "@level": "4", 
        "@name": "The Cross of God", 
        "@tooltipDescription": "Attack Speed 4%, Magic Attack Power 8%", 
        "@feature": "JobChange_02"
      }, 
      {
        "@id": "10400271", 
        "@level": "5", 
        "@name": "The Cross of God", 
        "@tooltipDescription": "Increases attack rate by 5%, magic damage by 10%", 
        "@feature": "JobChange_02"
      }, 
      {
        "@id": "10400271", 
        "@level": "6", 
        "@name": "The Cross of God", 
        "@tooltipDescription": "Attack speed 6%, magic damage 12% increase", 
        "@feature": "JobChange_02"
      }, 
      {
        "@id": "10400271", 
        "@level": "7", 
        "@name": "The Cross of God", 
        "@tooltipDescription": "Increases attack speed by 7% and magic damage by 14%", 
        "@feature": "JobChange_02"
      }, 
      {
        "@id": "10400271", 
        "@level": "8", 
        "@name": "The Cross of God", 
        "@tooltipDescription": "Increases attack rate by 8% and magic damage by 16%", 
        "@feature": "JobChange_02"
      }, 
      {
        "@id": "10400271", 
        "@level": "9", 
        "@name": "The Cross of God", 
        "@tooltipDescription": "Attack speed 9%, magic damage 18% increase", 
        "@feature": "JobChange_02"
      }, 
      {
        "@id": "10400271", 
        "@level": "10", 
        "@name": "The Cross of God", 
        "@tooltipDescription": "Increases attack rate by 10% and magic damage by 20%", 
        "@feature": "JobChange_02"
      }, 
      {
        "@id": "10400271", 
        "@level": "11", 
        "@name": "The Cross of God", 
        "@tooltipDescription": "Increases attack speed by 11% and magic damage by 22%", 
        "@feature": "JobChange_02"
      }, 
      {
        "@id": "10400271", 
        "@level": "12", 
        "@name": "The Cross of God", 
        "@tooltipDescription": "Increases attack speed by 12% and magic damage by 24%", 
        "@feature": "JobChange_02"
      }, 
      {
        "@id": "10400301", 
        "@level": "1", 
        "@name": "Divine power", 
        "@tooltipDescription": "Movement Speed 2%, Attack Speed 1%, Physical / Magical Resistance 40", 
        "@feature": "JobChange_02"
      }, 
      {
        "@id": "10400301", 
        "@level": "2", 
        "@name": "Divine power", 
        "@tooltipDescription": "Movement Speed 4%, Attack Speed 2%, Physical / Magical Resistance 60", 
        "@feature": "JobChange_02"
      }, 
      {
        "@id": "10400301", 
        "@level": "3", 
        "@name": "Divine power", 
        "@tooltipDescription": "Movement Speed 6%, Attack Speed 3%, Physical / Magic Resistance 80", 
        "@feature": "JobChange_02"
      }, 
      {
        "@id": "10400301", 
        "@level": "4", 
        "@name": "Divine power", 
        "@tooltipDescription": "Movement Speed 8%, Attack Speed 4%, Physical / Magical Resistance 100", 
        "@feature": "JobChange_02"
      }, 
      {
        "@id": "10400301", 
        "@level": "5", 
        "@name": "Divine power", 
        "@tooltipDescription": "Increases movement speed by 10%, attack speed by 5%, physical / magic resistance by 120", 
        "@feature": "JobChange_02"
      }, 
      {
        "@id": "10400301", 
        "@level": "6", 
        "@name": "Divine power", 
        "@tooltipDescription": "Movement Speed 12%, Attack Speed 6%, Physical / Magical Resistance 140", 
        "@feature": "JobChange_02"
      }, 
      {
        "@id": "10400301", 
        "@level": "7", 
        "@name": "Divine power", 
        "@tooltipDescription": "Movement Speed 14%, Attack Speed 7%, Physical / Magical Resistance 160", 
        "@feature": "JobChange_02"
      }, 
      {
        "@id": "10400301", 
        "@level": "8", 
        "@name": "Divine power", 
        "@tooltipDescription": "Movement speed 16%, attack speed 8%, physical / magic resistance 180 increase", 
        "@feature": "JobChange_02"
      }, 
      {
        "@id": "10400301", 
        "@level": "9", 
        "@name": "Divine power", 
        "@tooltipDescription": "Movement Speed 18%, Attack Speed 9%, Physical / Magical Resistance 200", 
        "@feature": "JobChange_02"
      }, 
      {
        "@id": "10400301", 
        "@level": "10", 
        "@name": "Divine power", 
        "@tooltipDescription": "Movement Speed 20%, Attack Speed 10%, Physical / Magic Resistance 220", 
        "@feature": "JobChange_02"
      }, 
      {
        "@id": "10400301", 
        "@level": "11", 
        "@name": "Divine power", 
        "@tooltipDescription": "Movement Speed 22%, Attack Speed 11%, Physical / Magic Resistance 240", 
        "@feature": "JobChange_02"
      }, 
      {
        "@id": "10400301", 
        "@level": "12", 
        "@name": "Divine power", 
        "@tooltipDescription": "Movement Speed 24%, Attack Speed 12%, Physical / Magical Resistance 260", 
        "@feature": "JobChange_02"
      }, 
      {
        "@id": "10400302", 
        "@level": "1", 
        "@name": "Divine power", 
        "@tooltipDescription": "Movement Speed 2%, Attack Speed 1%, Physical / Magical Resistance 40", 
        "@feature": "JobChange_02"
      }, 
      {
        "@id": "10400302", 
        "@level": "2", 
        "@name": "Divine power", 
        "@tooltipDescription": "Movement Speed 4%, Attack Speed 2%, Physical / Magical Resistance 60", 
        "@feature": "JobChange_02"
      }, 
      {
        "@id": "10400302", 
        "@level": "3", 
        "@name": "Divine power", 
        "@tooltipDescription": "Movement Speed 6%, Attack Speed 3%, Physical / Magic Resistance 80", 
        "@feature": "JobChange_02"
      }, 
      {
        "@id": "10400302", 
        "@level": "4", 
        "@name": "Divine power", 
        "@tooltipDescription": "Movement Speed 8%, Attack Speed 4%, Physical / Magical Resistance 100", 
        "@feature": "JobChange_02"
      }, 
      {
        "@id": "10400302", 
        "@level": "5", 
        "@name": "Divine power", 
        "@tooltipDescription": "Increases movement speed by 10%, attack speed by 5%, physical / magic resistance by 120", 
        "@feature": "JobChange_02"
      }, 
      {
        "@id": "10400302", 
        "@level": "6", 
        "@name": "Divine power", 
        "@tooltipDescription": "Movement Speed 12%, Attack Speed 6%, Physical / Magical Resistance 140", 
        "@feature": "JobChange_02"
      }, 
      {
        "@id": "10400302", 
        "@level": "7", 
        "@name": "Divine power", 
        "@tooltipDescription": "Movement Speed 14%, Attack Speed 7%, Physical / Magical Resistance 160", 
        "@feature": "JobChange_02"
      }, 
      {
        "@id": "10400302", 
        "@level": "8", 
        "@name": "Divine power", 
        "@tooltipDescription": "Movement speed 16%, attack speed 8%, physical / magic resistance 180 increase", 
        "@feature": "JobChange_02"
      }, 
      {
        "@id": "10400302", 
        "@level": "9", 
        "@name": "Divine power", 
        "@tooltipDescription": "Movement Speed 18%, Attack Speed 9%, Physical / Magical Resistance 200", 
        "@feature": "JobChange_02"
      }, 
      {
        "@id": "10400302", 
        "@level": "10", 
        "@name": "Divine power", 
        "@tooltipDescription": "Movement Speed 20%, Attack Speed 10%, Physical / Magic Resistance 220", 
        "@feature": "JobChange_02"
      }, 
      {
        "@id": "10400302", 
        "@level": "11", 
        "@name": "Divine power", 
        "@tooltipDescription": "Movement Speed 22%, Attack Speed 11%, Physical / Magic Resistance 240", 
        "@feature": "JobChange_02"
      }, 
      {
        "@id": "10400302", 
        "@level": "12", 
        "@name": "Divine power", 
        "@tooltipDescription": "Movement Speed 24%, Attack Speed 12%, Physical / Magical Resistance 260", 
        "@feature": "JobChange_02"
      }, 
      {
        "@id": "10400001", 
        "@level": "1", 
        "@name": "Heavenly light", 
        "@tooltipDescription": "Cleansed by Divine Light! \\n 4% Holy Damage per second", 
        "@feature": "CharacterBalance_01", 
        "@locale": "KR"
      }, 
      {
        "@id": "10400001", 
        "@level": "2", 
        "@name": "Heavenly light", 
        "@tooltipDescription": "Cleansed by Divine Light! \\n 5% Holy Damage per second", 
        "@feature": "CharacterBalance_01", 
        "@locale": "KR"
      }, 
      {
        "@id": "10400001", 
        "@level": "3", 
        "@name": "Heavenly light", 
        "@tooltipDescription": "It is being cleansed by Divine Light! \\n 6% sacred damage per second", 
        "@feature": "CharacterBalance_01", 
        "@locale": "KR"
      }, 
      {
        "@id": "10400001", 
        "@level": "4", 
        "@name": "Heavenly light", 
        "@tooltipDescription": "Cleansed by Divine Light! \\n 7% Holy damage per second", 
        "@feature": "CharacterBalance_01", 
        "@locale": "KR"
      }, 
      {
        "@id": "10400001", 
        "@level": "5", 
        "@name": "Heavenly light", 
        "@tooltipDescription": "It is being cleansed by Divine Light! \\n 8% sacred damage per second", 
        "@feature": "CharacterBalance_01", 
        "@locale": "KR"
      }, 
      {
        "@id": "10400001", 
        "@level": "6", 
        "@name": "Heavenly light", 
        "@tooltipDescription": "It is being cleansed by Divine Light! \\n 9% sacred damage per second", 
        "@feature": "CharacterBalance_01", 
        "@locale": "KR"
      }, 
      {
        "@id": "10400001", 
        "@level": "7", 
        "@name": "Heavenly light", 
        "@tooltipDescription": "It is being cleansed by Divine Light! \\n 10% Holy Damage per second", 
        "@feature": "CharacterBalance_01", 
        "@locale": "KR"
      }, 
      {
        "@id": "10400001", 
        "@level": "8", 
        "@name": "Heavenly light", 
        "@tooltipDescription": "Cleansed by Divine Light! \\n 11% Holy Damage per second", 
        "@feature": "CharacterBalance_01", 
        "@locale": "KR"
      }, 
      {
        "@id": "10400001", 
        "@level": "9", 
        "@name": "Heavenly light", 
        "@tooltipDescription": "Cleansed by Divine Light! \\n 12% Holy Damage per second", 
        "@feature": "CharacterBalance_01", 
        "@locale": "KR"
      }, 
      {
        "@id": "10400001", 
        "@level": "10", 
        "@name": "Heavenly light", 
        "@tooltipDescription": "Sanctified by Divine Light! \\n 13% sanctity damage per second", 
        "@feature": "CharacterBalance_01", 
        "@locale": "KR"
      }, 
      {
        "@id": "10400001", 
        "@level": "11", 
        "@name": "Heavenly light", 
        "@tooltipDescription": "Cleansed by Divine Light! \\n 14% Holy Damage per second", 
        "@feature": "CharacterBalance_01", 
        "@locale": "KR"
      }, 
      {
        "@id": "10400001", 
        "@level": "12", 
        "@name": "Heavenly light", 
        "@tooltipDescription": "Cleansed by Divine Light! \\n 15% Holy Damage per second", 
        "@feature": "CharacterBalance_01", 
        "@locale": "KR"
      }, 
      {
        "@id": "10400041", 
        "@level": "1", 
        "@name": "Shield of Arkon", 
        "@tooltipDescription": "The shield of the referee is surrounded by the body. \\nThe Physical Resistance and Magic Resistance increase by 165. \\nThe 78%", 
        "@feature": "CharacterBalance_01", 
        "@locale": "KR"
      }, 
      {
        "@id": "10400041", 
        "@level": "2", 
        "@name": "Shield of Arkon", 
        "@tooltipDescription": "The shield of the referee is surrounded by the body. \\nThe Physical Resistance and Magic Resistance increase by 220. \\nThe 83%", 
        "@feature": "CharacterBalance_01", 
        "@locale": "KR"
      }, 
      {
        "@id": "10400041", 
        "@level": "3", 
        "@name": "Shield of Arkon", 
        "@tooltipDescription": "Increases Physical Resistance and Magic Resist power by 275. \\n 88% Divine Damage to adjacent enemies.", 
        "@feature": "CharacterBalance_01", 
        "@locale": "KR"
      }, 
      {
        "@id": "10400041", 
        "@level": "4", 
        "@name": "Shield of Arkon", 
        "@tooltipDescription": "The shield of the referee is surrounded by the body. \\nThe Physical Resistance and Magic Resistance increase by 330. \\n93% Divine Damage to nearby enemies.", 
        "@feature": "CharacterBalance_01", 
        "@locale": "KR"
      }, 
      {
        "@id": "10400041", 
        "@level": "5", 
        "@name": "Shield of Arkon", 
        "@tooltipDescription": "The shield of the referee is surrounded by the body. \\n Increased physical resistance and magic resistance by 385.", 
        "@feature": "CharacterBalance_01", 
        "@locale": "KR"
      }, 
      {
        "@id": "10400041", 
        "@level": "6", 
        "@name": "Shield of Arkon", 
        "@tooltipDescription": "The shield of the referee is surrounded by the body. \\n440 Increased Physical Resistance and Magic Resist power by \\n 103% Divine Damage to nearby enemies", 
        "@feature": "CharacterBalance_01", 
        "@locale": "KR"
      }, 
      {
        "@id": "10400041", 
        "@level": "7", 
        "@name": "Shield of Arkon", 
        "@tooltipDescription": "The shield of the referee is surrounded by the body. \\nThe Physical Resistance and Magic Resistance increase by 495. \\nThe 108%", 
        "@feature": "CharacterBalance_01", 
        "@locale": "KR"
      }, 
      {
        "@id": "10400041", 
        "@level": "8", 
        "@name": "Shield of Arkon", 
        "@tooltipDescription": "Increases Physical Resistance and Magic Resistance by 550. \\n 113% Divine Damage to nearby enemies.", 
        "@feature": "CharacterBalance_01", 
        "@locale": "KR"
      }, 
      {
        "@id": "10400041", 
        "@level": "9", 
        "@name": "Shield of Arkon", 
        "@tooltipDescription": "The shield of the Judge is surrounded by the body. \\n605 Increased Physical Resistance and Magic Resist power by \\n 118% Divine Damage to adjacent enemies", 
        "@feature": "CharacterBalance_01", 
        "@locale": "KR"
      }, 
      {
        "@id": "10400041", 
        "@level": "10", 
        "@name": "Shield of Arkon", 
        "@tooltipDescription": "The shield of the referee is surrounded by the body. \\n Physical resistance, magic resistance increased 660 \\n 123%", 
        "@feature": "CharacterBalance_01", 
        "@locale": "KR"
      }, 
      {
        "@id": "10400041", 
        "@level": "11", 
        "@name": "Shield of Arkon", 
        "@tooltipDescription": "The shield of the referee is surrounded by the body. \\n Physical resistance, magic resistance increased by 715. \\n 128%", 
        "@feature": "CharacterBalance_01", 
        "@locale": "KR"
      }, 
      {
        "@id": "10400041", 
        "@level": "12", 
        "@name": "Shield of Arkon", 
        "@tooltipDescription": "The shield of the referee is surrounded by the body. \\n770 increased physical resistance and magic resistance \\n 133% sanctity damage to adjacent enemies", 
        "@feature": "CharacterBalance_01", 
        "@locale": "KR"
      }, 
      {
        "@id": "10400051", 
        "@level": "1", 
        "@name": "Holly Symbol", 
        "@tooltipDescription": "Divine cleanse cleanses your mind. \\n 1% increase in physical damage and magic damage \\n% 1% increase in attack rate \\n% increase in hit", 
        "@feature": "CharacterBalance_01", 
        "@locale": "KR"
      }, 
      {
        "@id": "10400051", 
        "@level": "2", 
        "@name": "Holly Symbol", 
        "@tooltipDescription": "Divine cleanse cleanse your mind. \\n 3% increase in physical damage and magic damage \\n \\ 3% increase in attack speed \\n 3 increase in hit", 
        "@feature": "CharacterBalance_01", 
        "@locale": "KR"
      }, 
      {
        "@id": "10400051", 
        "@level": "3", 
        "@name": "Holly Symbol", 
        "@tooltipDescription": "Divine cleanse cleanses your mind. \\n 5% increase in physical damage and magic damage \\n% 5% increase in attack rate \\n% increase in hit", 
        "@feature": "CharacterBalance_01", 
        "@locale": "KR"
      }, 
      {
        "@id": "10400051", 
        "@level": "4", 
        "@name": "Holly Symbol", 
        "@tooltipDescription": "Divine cleanse cleanses your mind. \\n7% increase in physical damage and magic damage \\n% 7% increase in attack speed \\n% increase in hit", 
        "@feature": "CharacterBalance_01", 
        "@locale": "KR"
      }, 
      {
        "@id": "10400051", 
        "@level": "5", 
        "@name": "Holly Symbol", 
        "@tooltipDescription": "Divine cleanse cleanses your mind. \\n 9% increase in physical damage and magic damage \\n9% increase in attack speed \\n% increase in hit", 
        "@feature": "CharacterBalance_01", 
        "@locale": "KR"
      }, 
      {
        "@id": "10400051", 
        "@level": "6", 
        "@name": "Holly Symbol", 
        "@tooltipDescription": "Divine cleanse cleanses your mind. \\n 11% increase in physical damage and magic damage \\n% 11% increase in attack speed \\n% increase in hit", 
        "@feature": "CharacterBalance_01", 
        "@locale": "KR"
      }, 
      {
        "@id": "10400051", 
        "@level": "7", 
        "@name": "Holly Symbol", 
        "@tooltipDescription": "Divine cleanse cleanses your mind. \\n 13% increase in physical damage and magic damage \\n% 13% increase in attack rate \\n 13 increase in hit", 
        "@feature": "CharacterBalance_01", 
        "@locale": "KR"
      }, 
      {
        "@id": "10400051", 
        "@level": "8", 
        "@name": "Holly Symbol", 
        "@tooltipDescription": "Divine cleanse has clarified your spirit. \\n 15% increase in physical damage and magic damage \\n% 15% increase in attack speed \\n 15 increase in hit", 
        "@feature": "CharacterBalance_01", 
        "@locale": "KR"
      }, 
      {
        "@id": "10400051", 
        "@level": "9", 
        "@name": "Holly Symbol", 
        "@tooltipDescription": "Divine cleanse cleanses your mind. \\n 17% increase in physical damage and magic damage \\n% 17% increase in attack rate \\n 17% increase in hit", 
        "@feature": "CharacterBalance_01", 
        "@locale": "KR"
      }, 
      {
        "@id": "10400051", 
        "@level": "10", 
        "@name": "Holly Symbol", 
        "@tooltipDescription": "Divine cleanse cleanses your mind. \\n 19% increase in physical damage and magic damage \\n% 19% increase in attack speed \\n 19 increase in hit", 
        "@feature": "CharacterBalance_01", 
        "@locale": "KR"
      }, 
      {
        "@id": "10400051", 
        "@level": "11", 
        "@name": "Holly Symbol", 
        "@tooltipDescription": "Divine cleanse cleanses your mind. \\n 21% increase in physical damage and magic damage \\n% 21% increase in attack speed \\n 21 increase in hit", 
        "@feature": "CharacterBalance_01", 
        "@locale": "KR"
      }, 
      {
        "@id": "10400051", 
        "@level": "12", 
        "@name": "Holly Symbol", 
        "@tooltipDescription": "Divine cleanse cleanses your mind. \\n 23% increase in physical damage and magic damage \\n% 23% increase in attack rate \\n 23 increase in hit", 
        "@feature": "CharacterBalance_01", 
        "@locale": "KR"
      }, 
      {
        "@id": "10400053", 
        "@level": "1", 
        "@name": "Holly Symbol", 
        "@tooltipDescription": "You can not get the Holy Symbol effect because of the energy of cleansing.", 
        "@feature": "CharacterBalance_01", 
        "@locale": "KR"
      }, 
      {
        "@id": "10400081", 
        "@level": "1", 
        "@name": "Heavenly Guardian", 
        "@tooltipDescription": "Angel gives sacred power \\n Magic Attack 2% increase", 
        "@feature": "CharacterBalance_01", 
        "@locale": "KR"
      }, 
      {
        "@id": "10400081", 
        "@level": "2", 
        "@name": "Heavenly Guardian", 
        "@tooltipDescription": "Angel gives sacred power \\n Magic Attack 3% increase", 
        "@feature": "CharacterBalance_01", 
        "@locale": "KR"
      }, 
      {
        "@id": "10400081", 
        "@level": "3", 
        "@name": "Heavenly Guardian", 
        "@tooltipDescription": "Angel gives sacred power \\n Magic Attack 4% increase", 
        "@feature": "CharacterBalance_01", 
        "@locale": "KR"
      }, 
      {
        "@id": "10400081", 
        "@level": "4", 
        "@name": "Heavenly Guardian", 
        "@tooltipDescription": "Angel gives sacred power \\nMagnificent damage 5% increase", 
        "@feature": "CharacterBalance_01", 
        "@locale": "KR"
      }, 
      {
        "@id": "10400081", 
        "@level": "5", 
        "@name": "Heavenly Guardian", 
        "@tooltipDescription": "Angel gives sacred power \\n Magic Attack Power increased by 6%", 
        "@feature": "CharacterBalance_01", 
        "@locale": "KR"
      }, 
      {
        "@id": "10400081", 
        "@level": "6", 
        "@name": "Heavenly Guardian", 
        "@tooltipDescription": "Angel gives sacred power \\n Magic Attack Power increased by 7%", 
        "@feature": "CharacterBalance_01", 
        "@locale": "KR"
      }, 
      {
        "@id": "10400081", 
        "@level": "7", 
        "@name": "Heavenly Guardian", 
        "@tooltipDescription": "Angel gives sacred power \\n Magic Attack Power increased by 8%", 
        "@feature": "CharacterBalance_01", 
        "@locale": "KR"
      }, 
      {
        "@id": "10400081", 
        "@level": "8", 
        "@name": "Heavenly Guardian", 
        "@tooltipDescription": "Angel gives sacred power \\n9% Magic Attack Power increased by 9%", 
        "@feature": "CharacterBalance_01", 
        "@locale": "KR"
      }, 
      {
        "@id": "10400081", 
        "@level": "9", 
        "@name": "Heavenly Guardian", 
        "@tooltipDescription": "Angel gives sacred power \\n Magic Attack Power increased by 10%", 
        "@feature": "CharacterBalance_01", 
        "@locale": "KR"
      }, 
      {
        "@id": "10400081", 
        "@level": "10", 
        "@name": "Heavenly Guardian", 
        "@tooltipDescription": "Angel gives sacred power \\n Magic Attack Power increased by 11%", 
        "@feature": "CharacterBalance_01", 
        "@locale": "KR"
      }, 
      {
        "@id": "10400081", 
        "@level": "11", 
        "@name": "Heavenly Guardian", 
        "@tooltipDescription": "Angel gives sacred power \\nMagic damage 12% increase", 
        "@feature": "CharacterBalance_01", 
        "@locale": "KR"
      }, 
      {
        "@id": "10400081", 
        "@level": "12", 
        "@name": "Heavenly Guardian", 
        "@tooltipDescription": "Angel gives sacred power \\n Magic Attack Power increased by 13%", 
        "@feature": "CharacterBalance_01", 
        "@locale": "KR"
      }, 
      {
        "@id": "10400091", 
        "@level": "1", 
        "@name": "Heavenly blessing", 
        "@tooltipDescription": "Angel's blessing is reduced. \\n 1% increase in physical damage and magic damage, \\n10% increase in physical resistance and magic resistance.", 
        "@feature": "CharacterBalance_01", 
        "@locale": "KR"
      }, 
      {
        "@id": "10400091", 
        "@level": "2", 
        "@name": "Heavenly blessing", 
        "@tooltipDescription": "Angel's blessing has been reduced. \\n6 Physical attack and magic damage increased by 1.6%. \\n Physical resistance and magic resistance increased by 30.", 
        "@feature": "CharacterBalance_01", 
        "@locale": "KR"
      }, 
      {
        "@id": "10400091", 
        "@level": "3", 
        "@name": "Heavenly blessing", 
        "@tooltipDescription": "Angel's blessing has been reduced. \\n 2.2% increase in Physical Attack and Magic Attack Power \\n 50% increase in Physical Resistance and Magic Resistance", 
        "@feature": "CharacterBalance_01", 
        "@locale": "KR"
      }, 
      {
        "@id": "10400091", 
        "@level": "4", 
        "@name": "Heavenly blessing", 
        "@tooltipDescription": "Angel's blessing has been reduced. \\n2 Physical damage and magic damage increased by 2.8% \\n 70 increased physical resistance and magic resistance", 
        "@feature": "CharacterBalance_01", 
        "@locale": "KR"
      }, 
      {
        "@id": "10400091", 
        "@level": "5", 
        "@name": "Heavenly blessing", 
        "@tooltipDescription": "Angel's blessing has been given. \\n4 Physical attack and magic damage increased by 3.4%. \\n 90 increased physical resistance and magic resistance.", 
        "@feature": "CharacterBalance_01", 
        "@locale": "KR"
      }, 
      {
        "@id": "10400091", 
        "@level": "6", 
        "@name": "Heavenly blessing", 
        "@tooltipDescription": "Angel's blessing has been reduced. \\n 4% increase in physical damage and magic attack power. \\n 110 increased physical resistance and magic resistance.", 
        "@feature": "CharacterBalance_01", 
        "@locale": "KR"
      }, 
      {
        "@id": "10400091", 
        "@level": "7", 
        "@name": "Heavenly blessing", 
        "@tooltipDescription": "Angel's blessing has been reduced. \\n4 Physical damage and magic damage increased by 4.6%. \\n Physical resistance and magic resistance increased by 130.", 
        "@feature": "CharacterBalance_01", 
        "@locale": "KR"
      }, 
      {
        "@id": "10400091", 
        "@level": "8", 
        "@name": "Heavenly blessing", 
        "@tooltipDescription": "Angel's blessing is reduced. \\n 5.2% increase in physical damage and magic damage, \\n 150 increase in physical resistance and magic resistance.", 
        "@feature": "CharacterBalance_01", 
        "@locale": "KR"
      }, 
      {
        "@id": "10400091", 
        "@level": "9", 
        "@name": "Heavenly blessing", 
        "@tooltipDescription": "Angel's blessing is reduced. \\n Physical damage and magic damage increased by 5.8%. \\nThe physical resistance and magic resistance increased by 170%.", 
        "@feature": "CharacterBalance_01", 
        "@locale": "KR"
      }, 
      {
        "@id": "10400091", 
        "@level": "10", 
        "@name": "Heavenly blessing", 
        "@tooltipDescription": "Angel's blessing has been reduced. \\n Physical damage and magic damage increased by 6.4%. \\n 190 increased physical resistance and magic resistance.", 
        "@feature": "CharacterBalance_01", 
        "@locale": "KR"
      }, 
      {
        "@id": "10400091", 
        "@level": "11", 
        "@name": "Heavenly blessing", 
        "@tooltipDescription": "Angel's blessing has been reduced. \\n7% Physical Attack and Magical Attack Power increased by \\n \\n102 Physical Resistance and Magic Resistance increased by 210", 
        "@feature": "CharacterBalance_01", 
        "@locale": "KR"
      }, 
      {
        "@id": "10400091", 
        "@level": "12", 
        "@name": "Heavenly blessing", 
        "@tooltipDescription": "Angel's blessing has been reduced. \\n7 Physical attack and magic damage increased by 7.6%. \\n2 Physical resistance and magic resistance increased by 230", 
        "@feature": "CharacterBalance_01", 
        "@locale": "KR"
      }, 
      {
        "@id": "10400122", 
        "@level": "1", 
        "@name": "Spirit of the Spirit", 
        "@tooltipDescription": "Exposed to intense light! \\nAll enemies receive 1% more damage", 
        "@feature": "CharacterBalance_01", 
        "@locale": "KR"
      }, 
      {
        "@id": "10400122", 
        "@level": "2", 
        "@name": "Spirit of the Spirit", 
        "@tooltipDescription": "Exposed to intense light! \\nAll damage done by enemies is increased by 1.6%", 
        "@feature": "CharacterBalance_01", 
        "@locale": "KR"
      }, 
      {
        "@id": "10400122", 
        "@level": "3", 
        "@name": "Spirit of the Spirit", 
        "@tooltipDescription": "Exposed to intense light! \\nAll enemies receive 2.2% more damage", 
        "@feature": "CharacterBalance_01", 
        "@locale": "KR"
      }, 
      {
        "@id": "10400122", 
        "@level": "4", 
        "@name": "Spirit of the Spirit", 
        "@tooltipDescription": "Exposed to intense light! \\n All damage your enemies receive increased 2.8%", 
        "@feature": "CharacterBalance_01", 
        "@locale": "KR"
      }, 
      {
        "@id": "10400122", 
        "@level": "5", 
        "@name": "Spirit of the Spirit", 
        "@tooltipDescription": "Exposed to intense light! \\nAll enemies receive 3.4% more damage", 
        "@feature": "CharacterBalance_01", 
        "@locale": "KR"
      }, 
      {
        "@id": "10400122", 
        "@level": "6", 
        "@name": "Spirit of the Spirit", 
        "@tooltipDescription": "Exposed to intense light! \\nAll enemies receive 4% more damage", 
        "@feature": "CharacterBalance_01", 
        "@locale": "KR"
      }, 
      {
        "@id": "10400122", 
        "@level": "7", 
        "@name": "Spirit of the Spirit", 
        "@tooltipDescription": "Exposed to intense light! \\nAll damage your enemies receive is increased by 4.6%", 
        "@feature": "CharacterBalance_01", 
        "@locale": "KR"
      }, 
      {
        "@id": "10400122", 
        "@level": "8", 
        "@name": "Spirit of the Spirit", 
        "@tooltipDescription": "Exposed to intense light! \\n All damage received by enemies increased by 5.2%", 
        "@feature": "CharacterBalance_01", 
        "@locale": "KR"
      }, 
      {
        "@id": "10400122", 
        "@level": "9", 
        "@name": "Spirit of the Spirit", 
        "@tooltipDescription": "Exposed to intense light! \\n All enemies receive 5.8% more damage", 
        "@feature": "CharacterBalance_01", 
        "@locale": "KR"
      }, 
      {
        "@id": "10400122", 
        "@level": "10", 
        "@name": "Spirit of the Spirit", 
        "@tooltipDescription": "Exposed to intense light! \\nAll enemies receive 6.4% more damage", 
        "@feature": "CharacterBalance_01", 
        "@locale": "KR"
      }, 
      {
        "@id": "10400122", 
        "@level": "11", 
        "@name": "Spirit of the Spirit", 
        "@tooltipDescription": "Exposed to intense light! \\nAll damage done by enemies increases by 7%", 
        "@feature": "CharacterBalance_01", 
        "@locale": "KR"
      }, 
      {
        "@id": "10400122", 
        "@level": "12", 
        "@name": "Spirit of the Spirit", 
        "@tooltipDescription": "Exposed to intense light! \\n All enemies receive 7.6% increase in damage", 
        "@feature": "CharacterBalance_01", 
        "@locale": "KR"
      }, 
      {
        "@id": "10400151", 
        "@level": "1", 
        "@name": "Heavenly Wings", 
        "@tooltipDescription": "Light wings lighten your body. \\n 20% increase in movement speed.", 
        "@feature": "CharacterBalance_01", 
        "@locale": "KR"
      }
    ]
  }
}