{
  "?xml": {
    "@version": "1.0", 
    "@encoding": "utf-8"
  }, 
  "ms2": {
    "key": [
      {
        "@id": "10000031", 
        "@level": "1", 
        "@name": "butt", 
        "@tooltipDescription": "I have lost my mind because I hit my head strongly! \\nNo act"
      }, 
      {
        "@id": "10000031", 
        "@level": "2", 
        "@name": "butt", 
        "@tooltipDescription": "I have lost my mind because I hit my head strongly! \\nNo act"
      }, 
      {
        "@id": "10000031", 
        "@level": "3", 
        "@name": "butt", 
        "@tooltipDescription": "I have lost my mind because I hit my head strongly! \\nNo act"
      }, 
      {
        "@id": "10000031", 
        "@level": "4", 
        "@name": "butt", 
        "@tooltipDescription": "I have lost my mind because I hit my head strongly! \\nNo act"
      }, 
      {
        "@id": "10000031", 
        "@level": "5", 
        "@name": "butt", 
        "@tooltipDescription": "I have lost my mind because I hit my head strongly! \\nNo act"
      }, 
      {
        "@id": "10000031", 
        "@level": "6", 
        "@name": "butt", 
        "@tooltipDescription": "I have lost my mind because I hit my head strongly! \\nNo act"
      }, 
      {
        "@id": "10000031", 
        "@level": "7", 
        "@name": "butt", 
        "@tooltipDescription": "I have lost my mind because I hit my head strongly! \\nNo act"
      }, 
      {
        "@id": "10000031", 
        "@level": "8", 
        "@name": "butt", 
        "@tooltipDescription": "I have lost my mind because I hit my head strongly! \\nNo act"
      }, 
      {
        "@id": "10000031", 
        "@level": "9", 
        "@name": "butt", 
        "@tooltipDescription": "I have lost my mind because I hit my head strongly! \\nNo act"
      }, 
      {
        "@id": "10000031", 
        "@level": "10", 
        "@name": "butt", 
        "@tooltipDescription": "I have lost my mind because I hit my head strongly! \\nNo act"
      }, 
      {
        "@id": "10000031", 
        "@level": "11", 
        "@name": "butt", 
        "@tooltipDescription": "I have lost my mind because I hit my head strongly! \\nNo act"
      }, 
      {
        "@id": "10000031", 
        "@level": "12", 
        "@name": "butt", 
        "@tooltipDescription": "I have lost my mind because I hit my head strongly! \\nNo act"
      }, 
      {
        "@id": "10000031", 
        "@level": "13", 
        "@name": "butt", 
        "@tooltipDescription": "I have lost my mind because I hit my head strongly! \\nNo act"
      }, 
      {
        "@id": "10000031", 
        "@level": "14", 
        "@name": "butt", 
        "@tooltipDescription": "I have lost my mind because I hit my head strongly! \\nNo act"
      }, 
      {
        "@id": "10000031", 
        "@level": "15", 
        "@name": "butt", 
        "@tooltipDescription": "I have lost my mind because I hit my head strongly! \\nNo act"
      }, 
      {
        "@id": "10000031", 
        "@level": "16", 
        "@name": "butt", 
        "@tooltipDescription": "I have lost my mind because I hit my head strongly! \\nNo act"
      }, 
      {
        "@id": "10000031", 
        "@level": "17", 
        "@name": "butt", 
        "@tooltipDescription": "I have lost my mind because I hit my head strongly! \\nNo act"
      }, 
      {
        "@id": "10000031", 
        "@level": "18", 
        "@name": "butt", 
        "@tooltipDescription": "I have lost my mind because I hit my head strongly! \\nNo act"
      }, 
      {
        "@id": "10000031", 
        "@level": "19", 
        "@name": "butt", 
        "@tooltipDescription": "I have lost my mind because I hit my head strongly! \\nNo act"
      }, 
      {
        "@id": "10000031", 
        "@level": "20", 
        "@name": "butt", 
        "@tooltipDescription": "I have lost my mind because I hit my head strongly! \\nNo act"
      }, 
      {
        "@id": "10000031", 
        "@level": "21", 
        "@name": "butt", 
        "@tooltipDescription": "I have lost my mind because I hit my head strongly! \\nNo act"
      }, 
      {
        "@id": "10000031", 
        "@level": "22", 
        "@name": "butt", 
        "@tooltipDescription": "I have lost my mind because I hit my head strongly! \\nNo act"
      }, 
      {
        "@id": "10000031", 
        "@level": "23", 
        "@name": "butt", 
        "@tooltipDescription": "I have lost my mind because I hit my head strongly! \\nNo act"
      }, 
      {
        "@id": "10000031", 
        "@level": "24", 
        "@name": "butt", 
        "@tooltipDescription": "I have lost my mind because I hit my head strongly! \\nNo act"
      }, 
      {
        "@id": "19900031", 
        "@level": "1", 
        "@name": "GM's love", 
        "@tooltipDescription": "Critical Hit 76, Critical Damage 200 \\n Physical / Magical Damage by 4.6% \\nCapacity of Sharp Eyes, Focused Magic, and Runesquare"
      }, 
      {
        "@id": "19900041", 
        "@level": "1", 
        "@name": "GM's support", 
        "@tooltipDescription": "\\nIncreased 2x experience with monsters \\nIncreased 2x experience with fishing \\nIncreased 2x experience in playing musical instruments \\nIncreased 2x in experience with Arcade \\nAdded 22% in mexo \\nIncreased HP 100% with activation"
      }, 
      {
        "@id": "19900051", 
        "@level": "1", 
        "@name": "GM's anthem", 
        "@tooltipDescription": "I have an unknown curse. \\n My body grows and becomes dull."
      }
    ]
  }
}