{
  "?xml": {
    "@version": "1.0", 
    "@encoding": "utf-8"
  }, 
  "ms2": {
    "key": [
      {
        "@id": "10000001", 
        "@level": "1", 
        "@uiDescription": "With a weapon equipped in the right hand, quickly drop 5 enemies within 2m in front of you and cause <font color='#00aaef'>99%</font> damage. Recovers SP 7 when hit."
      }, 
      {
        "@id": "10000001", 
        "@level": "2", 
        "@uiDescription": "With a weapon equipped in the right hand, quickly drop 5 enemies within 2m to damage <font color='#00aaef'>101%</font> . Recovers SP 7 when hit."
      }, 
      {
        "@id": "10000001", 
        "@level": "3", 
        "@uiDescription": "With a weapon equipped in the right hand, quickly drop 5 enemies within 2m of the front and damage <font color='#00aaef'>103%</font> . Recovers SP 7 when hit."
      }, 
      {
        "@id": "10000001", 
        "@level": "4", 
        "@uiDescription": "With a weapon equipped in the right hand, quickly drop 5 enemies within 2m in front of you and cause <font color='#00aaef'>105%</font> damage. Recovers SP 7 when hit."
      }, 
      {
        "@id": "10000001", 
        "@level": "5", 
        "@uiDescription": "With a weapon equipped in the right hand, it quickly drops 5 enemies within 2m in front of it and deals <font color='#00aaef'>107%</font> damage. Recovers SP 7 when hit."
      }, 
      {
        "@id": "10000001", 
        "@level": "6", 
        "@uiDescription": "With a weapon equipped in the right hand, it rapidly drops 5 enemies within 2m in front of it and deals <font color='#00aaef'>109%</font> damage. Recovers SP 7 when hit."
      }, 
      {
        "@id": "10000001", 
        "@level": "7", 
        "@uiDescription": "With a weapon equipped in the right hand, quickly drop 5 enemies within 2m to cause <font color='#00aaef'>111%</font> damage. Recovers SP 7 when hit."
      }, 
      {
        "@id": "10000001", 
        "@level": "8", 
        "@uiDescription": "With a weapon equipped in the right hand, quickly drop 5 enemies within 2m to cause <font color='#00aaef'>113%</font> damage. Recovers SP 7 when hit."
      }, 
      {
        "@id": "10000001", 
        "@level": "9", 
        "@uiDescription": "With a weapon equipped in your right hand, quickly drop 5 enemies within 2m in front of you and cause <font color='#00aaef'>115%</font> damage. Recovers SP 7 when hit."
      }, 
      {
        "@id": "10000001", 
        "@level": "10", 
        "@uiDescription": "With a weapon equipped in the right hand, it quickly drops 5 enemies within 2m in front of it and deals <font color='#00aaef'>117%</font> damage. Recovers SP 7 when hit."
      }, 
      {
        "@id": "10000001", 
        "@level": "11", 
        "@uiDescription": "With a weapon equipped in the right hand, it quickly drops 5 enemies within 2m in front of it and deals <font color='#00aaef'>119%</font> damage. Recovers SP 7 when hit."
      }, 
      {
        "@id": "10000001", 
        "@level": "12", 
        "@uiDescription": "With a weapon equipped in the right hand, quickly drop 5 enemies within 2m in front of you and cause <font color='#00aaef'>121%</font> damage. Recovers SP 7 when hit."
      }, 
      {
        "@id": "10000001", 
        "@level": "13", 
        "@uiDescription": "With a weapon equipped in the right hand, quickly drop 5 enemies within 2m in front of you and cause <font color='#00aaef'>123%</font> damage. Recovers SP 7 when hit."
      }, 
      {
        "@id": "10000001", 
        "@level": "14", 
        "@uiDescription": "With a weapon equipped in the right hand, quickly drop 5 enemies within 2m in front of you and cause <font color='#00aaef'>125%</font> damage. Recovers SP 7 when hit."
      }, 
      {
        "@id": "10000001", 
        "@level": "15", 
        "@uiDescription": "With a weapon equipped in the right hand, it quickly drops 5 enemies within 2m in front of it and deals <font color='#00aaef'>127%</font> damage. Recovers SP 7 when hit."
      }, 
      {
        "@id": "10000001", 
        "@level": "16", 
        "@uiDescription": "With a weapon equipped in the right hand, it quickly drops 5 enemies within 2m in front of it and deals <font color='#00aaef'>129%</font> damage. Recovers SP 7 when hit."
      }, 
      {
        "@id": "10000001", 
        "@level": "17", 
        "@uiDescription": "With a weapon equipped in your right hand, quickly drop 5 enemies within 2m to cause <font color='#00aaef'>131%</font> damage. Recovers SP 7 when hit."
      }, 
      {
        "@id": "10000001", 
        "@level": "18", 
        "@uiDescription": "With a weapon equipped in the right hand, quickly drop 5 enemies within 2m of the front and damage <font color='#00aaef'>133%</font> . Recovers SP 7 when hit."
      }, 
      {
        "@id": "10000001", 
        "@level": "19", 
        "@uiDescription": "With a weapon equipped in the right hand, quickly drop 5 enemies within 2m in front of you and cause damage of <font color='#00aaef'>135%</font> . Recovers SP 7 when hit."
      }, 
      {
        "@id": "10000001", 
        "@level": "20", 
        "@uiDescription": "With a weapon equipped in the right hand, quickly drop 5 enemies within 2m to cause <font color='#00aaef'>137%</font> damage. Recovers SP 7 when hit."
      }, 
      {
        "@id": "10000001", 
        "@level": "21", 
        "@uiDescription": "With a weapon equipped in the right hand, quickly drop 5 enemies within 2m of the enemy and cause damage of <font color='#00aaef'>139%</font> . Recovers SP 7 when hit."
      }, 
      {
        "@id": "10000001", 
        "@level": "22", 
        "@uiDescription": "With a weapon equipped in the right hand, quickly drop 5 enemies within 2m to cause <font color='#00aaef'>141%</font> damage. Recovers SP 7 when hit."
      }, 
      {
        "@id": "10000001", 
        "@level": "23", 
        "@uiDescription": "With a weapon equipped in the right hand, quickly drop 5 enemies within 2m to cause <font color='#00aaef'>143%</font> damage. Recovers SP 7 when hit."
      }, 
      {
        "@id": "10000001", 
        "@level": "24", 
        "@uiDescription": "With a weapon equipped in your right hand, quickly drop 5 enemies within 2m in front of you and cause <font color='#00aaef'>145%</font> damage. Recovers SP 7 when hit."
      }, 
      {
        "@id": "10000011", 
        "@level": "1", 
        "@uiDescription": "<font color='#ff5f5f'>Consumes 10 SPs and</font> wields a weapon equipped in the right hand with a force of <font color='#00aaef'>239%</font> for 8 enemies within a 2m radius. If you enter the key in succession, it will be activated in 3-step attack mode. The first and second attacks have the same effect, but the third attack deals <font color='#00aaef'>296%</font> damage and pushes 1.5m to 8 enemies within 2.5m. The third attack can be attacked with a movement of 0.6m when you enter a direction key."
      }, 
      {
        "@id": "10000011", 
        "@level": "2", 
        "@uiDescription": "<font color='#ff5f5f'>Spend 10 SPs,</font> swing a weapon equipped with your right hand as hard as you can and inflict <font color='#00aaef'>244%</font> of damage to 8 enemies within 2m of the front. If you enter the key in succession, it will be activated in a 3-step attack mode. The first and second attacks have the same effect, but the third attack adds <font color='#00aaef'>304%</font> damage and pushes 1.5m to 8 enemies within 2.5m. The third attack can be attacked with a movement of 0.6m when you enter a direction key."
      }, 
      {
        "@id": "10000011", 
        "@level": "3", 
        "@uiDescription": "<font color='#ff5f5f'>Spend 10 SPs,</font> swing a weapon equipped with your right hand as hard as you can and inflict <font color='#00aaef'>249%</font> of damage to 8 enemies within 2m of the front. If you enter the key in succession, it will be activated in a 3-step attack mode. The first and second attacks have the same effect, but the third attack deals <font color='#00aaef'>312%</font> damage to 8 enemies within 2.5m ahead and pushes them by 1.5m. The third attack can be attacked with a movement of 0.6m when you enter a direction key."
      }, 
      {
        "@id": "10000011", 
        "@level": "4", 
        "@uiDescription": "<font color='#ff5f5f'>Spend 10 SP,</font> swing your weapon equipped with your right hand as hard as possible, and cause <font color='#00aaef'>254%</font> damage to 8 enemies within 2m. If you enter the key in succession, it will be activated in 3-step attack mode. The first and second attacks have the same effect, but the third attack inflicts <font color='#00aaef'>320%</font> damage to 8 enemies within 2.5m ahead and pushes them by 1.5m. The third attack can be attacked with a movement of 0.6m when you enter a direction key."
      }, 
      {
        "@id": "10000011", 
        "@level": "5", 
        "@uiDescription": "<font color='#ff5f5f'>Spend 10 SPs,</font> swing a weapon equipped with your right hand as hard as you can, and cause <font color='#00aaef'>259%</font> damage to 8 enemies within 2m. If you enter the key in succession, it will be activated in a 3-step attack mode. The first and second attacks have the same effect, but the third attack inflicts <font color='#00aaef'>328%</font> of damage to 8 enemies within 2.5m ahead and pushes them by 1.5m. The third attack can be attacked with a movement of 0.6m when you enter a direction key."
      }, 
      {
        "@id": "10000011", 
        "@level": "6", 
        "@uiDescription": "<font color='#ff5f5f'>Spend 10 SPs,</font> swing a weapon equipped with your right hand as hard as you can, and inflict <font color='#00aaef'>264%</font> of damage to 8 enemies within a 2m radius. If you enter the key in succession, it will be activated in a 3-step attack mode. The first and second attacks have the same effect, but the third attack adds <font color='#00aaef'>336%</font> damage and pushes 1.5m to 8 enemies within 2.5m. The third attack can be attacked with a movement of 0.6m when you enter a direction key."
      }, 
      {
        "@id": "10000011", 
        "@level": "7", 
        "@uiDescription": "<font color='#ff5f5f'>Spend 10 SPs,</font> swing your weapon equipped with your right hand as hard as you can and inflict <font color='#00aaef'>269%</font> of damage to 8 enemies within 2m. If you enter the key in succession, it will be activated in 3-step attack mode. The first and second attacks have the same effect, but the third attack inflicts <font color='#00aaef'>344%</font> damage to 8 enemies within 2.5m and pushes them by 1.5m. The third attack can be attacked with a movement of 0.6m when you enter a direction key."
      }, 
      {
        "@id": "10000011", 
        "@level": "8", 
        "@uiDescription": "<font color='#ff5f5f'>Spend 10 SPs,</font> swing your weapon equipped with your right hand as hard as you can, and cause <font color='#00aaef'>274%</font> damage to 8 enemies within 2m of the front. If you enter the key in succession, it will be activated in 3-step attack mode. The first and second attacks have the same effect, but the third attack will cause <font color='#00aaef'>352%</font> damage to 8 enemies within 2.5m in front of you and push out 1.5m. The third attack can be attacked with a movement of 0.6m when you enter a direction key."
      }, 
      {
        "@id": "10000011", 
        "@level": "9", 
        "@uiDescription": "<font color='#ff5f5f'>Spend 10 SPs,</font> wielding a weapon equipped with your right hand as hard as you can, causing <font color='#00aaef'>279%</font> damage to 8 enemies within a 2m radius. If you enter the key in succession, it will be activated in a 3-step attack mode. The first and second attacks have the same effect, but the third attack inflicts <font color='#00aaef'>360%</font> damage to 8 enemies within 2.5m in front of you and pushes them by 1.5m. The third attack can be attacked with a movement of 0.6m when you enter a direction key."
      }, 
      {
        "@id": "10000011", 
        "@level": "10", 
        "@uiDescription": "<font color='#ff5f5f'>Spend 10 SPs and</font> wield a weapon equipped with your right hand as hard as you can, causing <font color='#00aaef'>284%</font> damage to 8 enemies within a 2m radius. If you enter the key in succession, it will be activated in 3-step attack mode. The first and second attacks have the same effect, but the third attack inflicts <font color='#00aaef'>368%</font> damage to 8 enemies within 2.5m in front of you and pushes them by 1.5m. The third attack can be attacked with a movement of 0.6m when you enter a direction key."
      }, 
      {
        "@id": "10000011", 
        "@level": "11", 
        "@uiDescription": "<font color='#ff5f5f'>Spend 10 SPs,</font> wielding a weapon equipped with your right hand as hard as you can, causing <font color='#00aaef'>289%</font> damage to 8 enemies within a 2m radius. If you enter the key in succession, it will be activated in 3-step attack mode. The first and second attacks have the same effect, but the third attack inflicts <font color='#00aaef'>376%</font> damage to 8 enemies within 2.5m and pushes them by 1.5m. The third attack can be attacked with a movement of 0.6m when you enter a direction key."
      }, 
      {
        "@id": "10000011", 
        "@level": "12", 
        "@uiDescription": "<font color='#ff5f5f'>Spend 10 SPs,</font> swing a weapon equipped with your right hand as hard as you can, and cause <font color='#00aaef'>294%</font> damage to 8 enemies within 2m of the front. If you enter the key in succession, it will be activated in 3-step attack mode. The first and second attacks have the same effect, but the third attack deals <font color='#00aaef'>384%</font> damage to 8 enemies within 2.5m and pushes them by 1.5m. The third attack can be attacked with a movement of 0.6m when you enter a direction key."
      }, 
      {
        "@id": "10000011", 
        "@level": "13", 
        "@uiDescription": "<font color='#ff5f5f'>Spend 10 SPs,</font> swing a weapon equipped with your right hand as hard as you can, and cause <font color='#00aaef'>299%</font> damage to 8 enemies within 2m of the front. If you enter the key in succession, it will be activated in a 3-step attack mode. The first and second attacks have the same effect, but the third attack inflicts <font color='#00aaef'>392%</font> of damage to 8 enemies within 2.5m ahead and pushes them by 1.5m. The third attack can be attacked with a movement of 0.6m when you enter a direction key."
      }, 
      {
        "@id": "10000011", 
        "@level": "14", 
        "@uiDescription": "<font color='#ff5f5f'>Spend 10 SPs,</font> swing a weapon equipped with your right hand as hard as you can and inflict <font color='#00aaef'>304%</font> damage to 8 enemies within a 2m radius. If you enter the key in succession, it will be activated in 3-step attack mode. The first and second attacks have the same effect, but the third attack inflicts <font color='#00aaef'>400%</font> damage to 8 enemies within 2.5m ahead and pushes them by 1.5m. The third attack can be attacked with a movement of 0.6m when you enter a direction key."
      }, 
      {
        "@id": "10000011", 
        "@level": "15", 
        "@uiDescription": "<font color='#ff5f5f'>Spend 10 SPs,</font> swing your weapon equipped with your right hand as hard as you can, and cause <font color='#00aaef'>309%</font> damage to 8 enemies within 2m of the front. If you enter the key in succession, it will be activated in a 3-step attack mode. The first and second attacks have the same effect, but the third attack deals <font color='#00aaef'>408%</font> damage to 8 enemies within 2.5m and pushes them by 1.5m. The third attack can be attacked with a movement of 0.6m when you enter a direction key."
      }, 
      {
        "@id": "10000011", 
        "@level": "16", 
        "@uiDescription": "<font color='#ff5f5f'>Spend 10 SPs and</font> wield a weapon equipped with your right hand as hard as you can, causing <font color='#00aaef'>314%</font> damage to 8 enemies within 2m of the front. If you enter the key in succession, it will be activated in a 3-step attack mode. The first and second attacks have the same effect, but the third attack deals <font color='#00aaef'>416%</font> damage to 8 enemies within 2.5m ahead and pushes them by 1.5m. The third attack can be attacked with a movement of 0.6m when you enter a direction key."
      }, 
      {
        "@id": "10000011", 
        "@level": "17", 
        "@uiDescription": "<font color='#ff5f5f'>Spend 10 SPs and</font> wield a weapon equipped with your right hand as hard as you can, causing <font color='#00aaef'>319%</font> damage to 8 enemies within a 2m radius. If you enter the key in succession, it will be activated in a 3-step attack mode. The first and second attacks have the same effect, but the third attack inflicts <font color='#00aaef'>424%</font> damage to 8 enemies within 2.5m in front of you and pushes them by 1.5m. The third attack can be attacked with a movement of 0.6m when you enter a direction key."
      }, 
      {
        "@id": "10000011", 
        "@level": "18", 
        "@uiDescription": "<font color='#ff5f5f'>Spend 10 SPs,</font> swing your weapon equipped with your right hand as hard as you can and inflict <font color='#00aaef'>324%</font> of damage to 8 enemies within 2m of the front. If you enter the key in succession, it will be activated in a 3-step attack mode. The first and second attacks have the same effect, but the third attack inflicts <font color='#00aaef'>432%</font> damage to 8 enemies within 2.5m ahead and pushes them by 1.5m. The third attack can be attacked with a movement of 0.6m when you enter a direction key."
      }, 
      {
        "@id": "10000011", 
        "@level": "19", 
        "@uiDescription": "<font color='#ff5f5f'>Spend 10 SPs,</font> swing your weapon equipped with your right hand as hard as you can and inflict <font color='#00aaef'>329%</font> of damage to 8 enemies within 2m of the front. If you enter the key in succession, it will be activated in a 3-step attack mode. The first and second attacks have the same effect, but the third attack inflicts <font color='#00aaef'>440%</font> of damage to 8 enemies within 2.5m ahead and pushes them by 1.5m. The third attack can be attacked with a movement of 0.6m when you enter a direction key."
      }, 
      {
        "@id": "10000011", 
        "@level": "20", 
        "@uiDescription": "<font color='#ff5f5f'>Spend 10 SPs,</font> swing your weapon equipped with your right hand as hard as you can and inflict <font color='#00aaef'>334%</font> of damage to 8 enemies within a 2m radius. If you enter the key in succession, it will be activated in 3-step attack mode. The first and second attacks have the same effect, but the third attack causes <font color='#00aaef'>448%</font> damage to 8 enemies within 2.5m and pushes them by 1.5m. The third attack can be attacked with a movement of 0.6m when you enter a direction key."
      }, 
      {
        "@id": "10000011", 
        "@level": "21", 
        "@uiDescription": "<font color='#ff5f5f'>Spend 10 SP,</font> swing your weapon equipped with your right hand as hard as you can and inflict <font color='#00aaef'>339%</font> of damage to 8 enemies within a 2m radius. If you enter the key in succession, it will be activated in 3-step attack mode. The first and second attacks have the same effect, but the third attack inflicts <font color='#00aaef'>456%</font> damage to 8 enemies within 2.5m ahead and pushes them by 1.5m. The third attack can be attacked with a movement of 0.6m when you enter a direction key."
      }, 
      {
        "@id": "10000011", 
        "@level": "22", 
        "@uiDescription": "<font color='#ff5f5f'>Spend 10 SPs,</font> swing a weapon equipped with your right hand as hard as you can and inflict <font color='#00aaef'>344%</font> of damage to 8 enemies within a 2m radius. If you enter the key in succession, it will be activated in 3-step attack mode. The first and second attacks have the same effect, but the third attack inflicts <font color='#00aaef'>464%</font> damage to 8 enemies within 2.5m in front of you and pushes them by 1.5m. The third attack can be attacked with a movement of 0.6m when you enter a direction key."
      }, 
      {
        "@id": "10000011", 
        "@level": "23", 
        "@uiDescription": "<font color='#ff5f5f'>Spend 10 SPs,</font> swing your weapon equipped with your right hand as hard as you can and inflict <font color='#00aaef'>349%</font> of damage to 8 enemies within a 2m radius. If you enter the key in succession, it will be activated in a 3-step attack mode. The first and second attacks have the same effect, but the third attack deals <font color='#00aaef'>472%</font> damage to 8 enemies within 2.5m in front of you and pushes them by 1.5m. The third attack can be attacked with a movement of 0.6m when you enter a direction key."
      }, 
      {
        "@id": "10000011", 
        "@level": "24", 
        "@uiDescription": "<font color='#ff5f5f'>Wastes 10 SPs,</font> wields a weapon equipped in the right hand, and inflicts <font color='#00aaef'>354%</font> damage to 8 enemies within a 2m radius. If you enter the key in succession, it will be activated in 3-step attack mode. The first and second attacks have the same effect, but the third attack inflicts <font color='#00aaef'>480%</font> damage to 8 enemies within 2.5m in front of you and pushes them by 1.5m. The third attack can be attacked with a movement of 0.6m when you enter a direction key."
      }, 
      {
        "@id": "10000021", 
        "@level": "1", 
        "@uiDescription": "<font color='#ff5f5f'>SP consumes 3</font> and throws the snail shell to the nearest enemy within 7.5m ahead, causing <font color='#00aaef'>70%</font> damage. The snail shells collide with the target, blasting the broken debris around it and causing <font color='#00aaef'>41%</font> additional damage to 5 enemies within 2m radius."
      }, 
      {
        "@id": "10000021", 
        "@level": "2", 
        "@uiDescription": "Spend <font color='#ff5f5f'>3 SPs to</font> throw the snail shells to the nearest enemy within 7.5m ahead, causing <font color='#00aaef'>72%</font> damage. The snail shells collide with the target, blowing the broken debris around it, causing <font color='#00aaef'>42%</font> additional damage to 5 enemies within 2m radius."
      }, 
      {
        "@id": "10000021", 
        "@level": "3", 
        "@uiDescription": "Spend <font color='#ff5f5f'>3 SPs to</font> throw the snail shell to the nearest enemy within 7.5m ahead of you and cause <font color='#00aaef'>74%</font> damage. The snail shells collide with the target, blowing up broken fragments around and causing <font color='#00aaef'>43%</font> additional damage to 5 enemies within 2m radius."
      }, 
      {
        "@id": "10000021", 
        "@level": "4", 
        "@uiDescription": "Spend <font color='#ff5f5f'>3 SPs to</font> throw the snail shell to the nearest enemy within 7.5m ahead, causing <font color='#00aaef'>76%</font> damage. The snail shells collide with the target and blow up broken fragments around the target, causing <font color='#00aaef'>44%</font> additional damage to 5 enemies within 2m radius."
      }, 
      {
        "@id": "10000021", 
        "@level": "5", 
        "@uiDescription": "Spend <font color='#ff5f5f'>3 SPs to</font> throw the snail shells to the nearest enemy within 7.5m ahead of them and cause <font color='#00aaef'>78%</font> damage. The snail shells collide with the target, blowing up broken fragments around them, causing <font color='#00aaef'>45%</font> additional damage to 5 enemies within 2m radius."
      }, 
      {
        "@id": "10000021", 
        "@level": "6", 
        "@uiDescription": "Spend <font color='#ff5f5f'>3 SPs to</font> throw the snail shells to the nearest enemy within 7.5m ahead, causing <font color='#00aaef'>80%</font> damage. The snail shells collide with the target, blowing up broken fragments around and inflicting <font color='#00aaef'>46%</font> additional damage to 5 enemies within 2m radius."
      }, 
      {
        "@id": "10000021", 
        "@level": "7", 
        "@uiDescription": "<font color='#ff5f5f'>SP consumes 3</font> to throw snail shells to the nearest enemy within 7.5m ahead of them, causing <font color='#00aaef'>82%</font> damage. The snail shells collide with the target and blow broken fragments around it, causing <font color='#00aaef'>47%</font> additional damage to 5 enemies within 2m radius."
      }, 
      {
        "@id": "10000021", 
        "@level": "8", 
        "@uiDescription": "Spend <font color='#ff5f5f'>3 SPs to</font> throw snail shells to the nearest enemy within 7.5m ahead of them, causing <font color='#00aaef'>84%</font> damage. The snail shells collide with the target, blowing the broken debris around it, causing <font color='#00aaef'>48%</font> additional damage to 5 enemies within 2m radius."
      }, 
      {
        "@id": "10000021", 
        "@level": "9", 
        "@uiDescription": "Spend <font color='#ff5f5f'>3 SPs to</font> throw the snail shells to the nearest enemy within 7.5m ahead of them, causing <font color='#00aaef'>86%</font> damage. The snail shells collide with the target, blowing up broken fragments around and causing <font color='#00aaef'>49%</font> additional damage to 5 enemies within 2m radius."
      }, 
      {
        "@id": "10000021", 
        "@level": "10", 
        "@uiDescription": "Spend <font color='#ff5f5f'>3 SPs to</font> throw the snail shell to the nearest enemy within 7.5m in front of you, causing <font color='#00aaef'>88%</font> damage. The snail shells collide with the target, blowing the broken pieces around and causing <font color='#00aaef'>50%</font> additional damage to 5 enemies within 2m radius."
      }, 
      {
        "@id": "10000021", 
        "@level": "11", 
        "@uiDescription": "Spend <font color='#ff5f5f'>3 SPs and</font> throw snail shells to the nearest enemy within 7.5m ahead of them to cause <font color='#00aaef'>90%</font> damage. The snail shells collide with the target, blasting the broken debris around it and causing <font color='#00aaef'>51%</font> additional damage to 5 enemies within 2m radius."
      }, 
      {
        "@id": "10000021", 
        "@level": "12", 
        "@uiDescription": "Spend <font color='#ff5f5f'>3 SPs and</font> throw snail shells to the nearest enemy within 7.5m ahead of them to damage <font color='#00aaef'>92%</font> . The snail shells collide with the target, blasting the broken debris around it and causing <font color='#00aaef'>52%</font> additional damage to 5 enemies within 2m radius."
      }, 
      {
        "@id": "10000021", 
        "@level": "13", 
        "@uiDescription": "Spend <font color='#ff5f5f'>3 SPs to</font> throw the snail shells to the nearest enemy within 7.5m ahead and damage <font color='#00aaef'>94%</font> . The snail shells collide with the target and blow up broken fragments around the target, causing 5 additional enemies within 2m radius to deal <font color='#00aaef'>53%</font> additional damage."
      }, 
      {
        "@id": "10000021", 
        "@level": "14", 
        "@uiDescription": "Spend <font color='#ff5f5f'>3 SPs to</font> throw the snail shells to the nearest enemy within 7.5m ahead of them to cause <font color='#00aaef'>96%</font> damage. The snail shells collide with the target, blasting the broken debris around it and causing <font color='#00aaef'>54%</font> additional damage to 5 enemies within 2m radius."
      }, 
      {
        "@id": "10000021", 
        "@level": "15", 
        "@uiDescription": "Spend <font color='#ff5f5f'>3 SPs to</font> throw the snail shells to the nearest enemy within 7.5m ahead of them, causing <font color='#00aaef'>98%</font> damage. The snail shells collide with the target and blow broken fragments around it, causing 5 additional enemies within 2m radius to deal <font color='#00aaef'>55%</font> additional damage."
      }, 
      {
        "@id": "10000021", 
        "@level": "16", 
        "@uiDescription": "Spend <font color='#ff5f5f'>3 SPs to</font> throw the snail shell to the nearest enemy within 7.5m ahead of it and cause <font color='#00aaef'>100%</font> damage. The snail shells collide with the target, blowing broken fragments around them, causing <font color='#00aaef'>56%</font> additional damage to 5 enemies within 2m radius."
      }, 
      {
        "@id": "10000021", 
        "@level": "17", 
        "@uiDescription": "Spend <font color='#ff5f5f'>3 SPs to</font> throw the snail shells to the nearest enemy within 7.5m ahead of them and cause <font color='#00aaef'>102%</font> damage. The snail shells collide with the target and blow the broken debris around it, causing <font color='#00aaef'>57%</font> additional damage to 5 enemies within 2m radius."
      }, 
      {
        "@id": "10000021", 
        "@level": "18", 
        "@uiDescription": "<font color='#ff5f5f'>SP consumes 3</font> to throw snail shells to the nearest enemy within 7.5m ahead, causing <font color='#00aaef'>104%</font> of damage. The snail shells collide with the target, blowing up broken fragments around the target and causing <font color='#00aaef'>58%</font> additional damage to 5 enemies within 2m radius."
      }, 
      {
        "@id": "10000021", 
        "@level": "19", 
        "@uiDescription": "<font color='#ff5f5f'>SP consumes 3</font> and throws the snail shell to the nearest enemy within 7.5m in front of it and deals <font color='#00aaef'>106%</font> damage. The snail shells collide with the target, blowing the broken debris around and causing <font color='#00aaef'>59%</font> additional damage to 5 enemies within 2m radius."
      }, 
      {
        "@id": "10000021", 
        "@level": "20", 
        "@uiDescription": "Spend <font color='#ff5f5f'>3 SPs to</font> throw the snail shells to the nearest enemy within 7.5m ahead of them, causing <font color='#00aaef'>108%</font> damage. The snail shells collide with the target, blowing the broken debris around it, causing <font color='#00aaef'>60%</font> additional damage to 5 enemies within 2m radius."
      }, 
      {
        "@id": "10000021", 
        "@level": "21", 
        "@uiDescription": "Spend <font color='#ff5f5f'>3 SPs to</font> throw the snail shell to the nearest enemy within 7.5m ahead, causing <font color='#00aaef'>110%</font> damage. The snail shells collide with the target, blowing up broken fragments around and inflicting <font color='#00aaef'>61%</font> additional damage to 5 enemies within 2m radius."
      }, 
      {
        "@id": "10000021", 
        "@level": "22", 
        "@uiDescription": "<font color='#ff5f5f'>SP consumes 3</font> and throws the snail shell to the nearest enemy within 7.5m ahead, causing <font color='#00aaef'>112%</font> damage. The snail shells collide with the target, blowing the broken debris around and causing <font color='#00aaef'>62%</font> additional damage to 5 enemies within 2m radius."
      }, 
      {
        "@id": "10000021", 
        "@level": "23", 
        "@uiDescription": "<font color='#ff5f5f'>SP consumes 3</font> and throws the snail shell to the nearest enemy within 7.5m ahead, causing <font color='#00aaef'>114%</font> damage. The snail shells collide with the target, blowing the broken pieces around and causing <font color='#00aaef'>63%</font> additional damage to 5 enemies within 2m radius."
      }, 
      {
        "@id": "10000021", 
        "@level": "24", 
        "@uiDescription": "Spend <font color='#ff5f5f'>3 SPs to</font> throw the snail shells to the nearest enemy within 7.5m ahead of them and cause <font color='#00aaef'>116%</font> damage. The snail shells collide with the target, blowing the broken debris around it, causing <font color='#00aaef'>64%</font> of additional damage to enemies within a 2m radius."
      }, 
      {
        "@id": "10000031", 
        "@level": "1", 
        "@uiDescription": "<font color='#ff5f5f'>Consumes 10</font> <font color='#00aaef'>%</font> of <font color='#ff5f5f'>SP and</font> causes the head to be hardened, causing <font color='#00aaef'>410</font> enemies within 1.5m to inflict <font color='#00aaef'>410%</font> damage and stunning it for <font color='#00aaef'>1 second</font> with a 100% chance."
      }, 
      {
        "@id": "10000031", 
        "@level": "2", 
        "@uiDescription": "<font color='#ff5f5f'>Consumes 10 SPs, hardens</font> the head, inflicts <font color='#00aaef'>420%</font> damage to 5 enemies within 1.5m of the front and stuns 100% chance for <font color='#00aaef'>1.05 seconds</font> ."
      }, 
      {
        "@id": "10000031", 
        "@level": "3", 
        "@uiDescription": "<font color='#ff5f5f'>It consumes 10 SPs, hardens</font> the head, inflicts <font color='#00aaef'>430%</font> of damage to 5 enemies within 1.5m of the front, and stuns for <font color='#00aaef'>1.1 seconds</font> with a 100% chance."
      }, 
      {
        "@id": "10000031", 
        "@level": "4", 
        "@uiDescription": "<font color='#ff5f5f'>Consumes 10</font> <font color='#00aaef'>%</font> of <font color='#ff5f5f'>SP,</font> causing <font color='#00aaef'>440%</font> of damage to 5 enemies within 1.5m and stunning it for <font color='#00aaef'>1.15 seconds</font> with a 100% chance."
      }, 
      {
        "@id": "10000031", 
        "@level": "5", 
        "@uiDescription": "<font color='#ff5f5f'>Consumes 10 SPs, hardens</font> the head, inflicts <font color='#00aaef'>450%</font> damage to 5 enemies within 1.5m and stuns them for <font color='#00aaef'>1.2 seconds</font> with a 100% chance."
      }, 
      {
        "@id": "10000031", 
        "@level": "6", 
        "@uiDescription": "<font color='#ff5f5f'>Consume 10</font> <font color='#00aaef'>%</font> of the <font color='#ff5f5f'>SP and</font> make <font color='#00aaef'>460%</font> damage to 5 enemies within 1.5m in front of the head and stun for 100% chance for <font color='#00aaef'>1.25 seconds</font> ."
      }, 
      {
        "@id": "10000031", 
        "@level": "7", 
        "@uiDescription": "<font color='#ff5f5f'>Consumes 10</font> <font color='#00aaef'>%</font> of <font color='#ff5f5f'>SP,</font> causing <font color='#00aaef'>470%</font> damage to 5 enemies within 1.5m and stunning for <font color='#00aaef'>1.3 seconds</font> with a 100% chance."
      }, 
      {
        "@id": "10000031", 
        "@level": "8", 
        "@uiDescription": "<font color='#ff5f5f'>The SP is consumed 10 times</font> and the head is hardened, causing <font color='#00aaef'>480%</font> damage to 5 enemies within 1.5m ahead and stunning for 100% chance for <font color='#00aaef'>1.35 seconds</font> ."
      }, 
      {
        "@id": "10000031", 
        "@level": "9", 
        "@uiDescription": "<font color='#ff5f5f'>Consumes 10 SPs, hardens</font> the head, inflicts <font color='#00aaef'>490%</font> of damage to 5 enemies within 1.5m and stuns for <font color='#00aaef'>1.4 seconds</font> with a 100% chance."
      }, 
      {
        "@id": "10000031", 
        "@level": "10", 
        "@uiDescription": "<font color='#ff5f5f'>Consumes 10 SPs, hardens</font> the head, inflicts <font color='#00aaef'>500%</font> damage to 5 enemies within 1.5m and stuns it for <font color='#00aaef'>1.45 seconds</font> with a 100% chance."
      }, 
      {
        "@id": "10000031", 
        "@level": "11", 
        "@uiDescription": "<font color='#ff5f5f'>Consumes 10 SPs, hardens</font> the head, inflicts <font color='#00aaef'>510%</font> damage to 5 enemies within 1.5m of the front, and stuns for <font color='#00aaef'>1.5 seconds</font> with a 100% chance."
      }, 
      {
        "@id": "10000031", 
        "@level": "12", 
        "@uiDescription": "<font color='#ff5f5f'>Consumes 10</font> <font color='#00aaef'>%</font> of <font color='#ff5f5f'>SP,</font> causing 5 <font color='#00aaef'>%</font> of enemies within 1.5m to inflict <font color='#00aaef'>520%</font> of damage, stunning it for <font color='#00aaef'>1.55 seconds</font> with a 100% chance."
      }, 
      {
        "@id": "10000031", 
        "@level": "13", 
        "@uiDescription": "<font color='#ff5f5f'>Consumes 10</font> <font color='#00aaef'>%</font> of <font color='#ff5f5f'>SP,</font> causing 5 <font color='#00aaef'>%</font> of enemies within 1.5m to damage <font color='#00aaef'>530%</font> , stunning it for <font color='#00aaef'>1.6 seconds</font> with a 100% chance."
      }, 
      {
        "@id": "10000031", 
        "@level": "14", 
        "@uiDescription": "<font color='#ff5f5f'>Consumes 10 SPs, hardens</font> the head, inflicts <font color='#00aaef'>540%</font> damage to 5 enemies within 1.5m and stuns for <font color='#00aaef'>1.65 seconds</font> with a 100% chance."
      }, 
      {
        "@id": "10000031", 
        "@level": "15", 
        "@uiDescription": "<font color='#ff5f5f'>It consumes 10 SPs, hardens</font> the head, inflicts <font color='#00aaef'>550%</font> damage to 5 enemies within 1.5m and stuns for <font color='#00aaef'>1.7 seconds</font> with a 100% chance."
      }, 
      {
        "@id": "10000031", 
        "@level": "16", 
        "@uiDescription": "<font color='#ff5f5f'>It consumes 10 SP,</font> and hardens the head, causing <font color='#00aaef'>560%</font> damage to enemies within 1.5m ahead and stunning it for <font color='#00aaef'>1.75 seconds</font> with a 100% chance."
      }, 
      {
        "@id": "10000031", 
        "@level": "17", 
        "@uiDescription": "<font color='#ff5f5f'>It consumes 10 SPs, hardens</font> the head, inflicts <font color='#00aaef'>570%</font> damage to 5 enemies within 1.5m and stuns for <font color='#00aaef'>1.8 seconds</font> with a 100% chance."
      }, 
      {
        "@id": "10000031", 
        "@level": "18", 
        "@uiDescription": "<font color='#ff5f5f'>Consumes 10</font> <font color='#00aaef'>%</font> of <font color='#ff5f5f'>SP,</font> causing <font color='#00aaef'>580%</font> damage to enemies within 1.5m and stunning it for <font color='#00aaef'>1.85 seconds</font> with a 100% chance."
      }, 
      {
        "@id": "10000031", 
        "@level": "19", 
        "@uiDescription": "Driving hard on the head with <font color='#ff5f5f'>a consumption SP 10,</font> dealing <font color='#00aaef'>590%</font> damage to enemies within five people ahead 1.5m stun for <font color='#00aaef'>1.9 seconds</font> at 100% probability."
      }, 
      {
        "@id": "10000031", 
        "@level": "20", 
        "@uiDescription": "<font color='#ff5f5f'>Consumes 10 SPs, hardens</font> the head, inflicts <font color='#00aaef'>600%</font> damage to 5 enemies within 1.5m and stuns for <font color='#00aaef'>1.95 seconds</font> with a 100% chance."
      }, 
      {
        "@id": "10000031", 
        "@level": "21", 
        "@uiDescription": "<font color='#ff5f5f'>Consumes 10</font> <font color='#00aaef'>%</font> of <font color='#ff5f5f'>SP and makes</font> <font color='#00aaef'>610%</font> of damage to 5 enemies within 1.5m and stuns for <font color='#00aaef'>2 seconds</font> with a 100% chance."
      }, 
      {
        "@id": "10000031", 
        "@level": "22", 
        "@uiDescription": "<font color='#ff5f5f'>Consume 10</font> <font color='#00aaef'>%</font> of <font color='#ff5f5f'>SP and</font> make <font color='#00aaef'>620%</font> of damage to 5 enemies within 1.5m and stun for 100 <font color='#00aaef'>seconds</font> ."
      }, 
      {
        "@id": "10000031", 
        "@level": "23", 
        "@uiDescription": "<font color='#ff5f5f'>Consumes 10</font> <font color='#00aaef'>%</font> of <font color='#ff5f5f'>SP,</font> causing <font color='#00aaef'>630%</font> damage to 5 enemies within 1.5m and stunning it for <font color='#00aaef'>2.1 seconds</font> with a 100% chance."
      }, 
      {
        "@id": "10000031", 
        "@level": "24", 
        "@uiDescription": "<font color='#ff5f5f'>Consumes 10 SPs, hardens</font> the head, inflicts <font color='#00aaef'>640%</font> damage to 5 enemies within 1.5m and stuns for 100% chance for <font color='#00aaef'>2.15 seconds</font> ."
      }, 
      {
        "@id": "10000041", 
        "@level": "1", 
        "@uiDescription": "<font color='#ff5f5f'>EP consumes 40</font> and rolls quickly to move to <font color='#00aaef'>3m</font> forward."
      }, 
      {
        "@id": "10000051", 
        "@level": "1", 
        "@uiDescription": "Attracts the body's base to collect HP, SP, and EP by <font color='#00aaef'>11%</font> and 40, respectively."
      }, 
      {
        "@id": "10000051", 
        "@level": "2", 
        "@uiDescription": "Attracts the base of the body to regain HP, SP, and EP by <font color='#00aaef'>12%</font> and 40, respectively."
      }, 
      {
        "@id": "10000051", 
        "@level": "3", 
        "@uiDescription": "Attracts the body's base to collect HP, SP, and EP by <font color='#00aaef'>13%</font> and 40, respectively."
      }, 
      {
        "@id": "10000051", 
        "@level": "4", 
        "@uiDescription": "Attracts the body's base and collects HP, SP, and EP by <font color='#00aaef'>14%</font> and 40, respectively."
      }, 
      {
        "@id": "10000051", 
        "@level": "5", 
        "@uiDescription": "Attracts the body's base and recovers HP, SP, and EP by <font color='#00aaef'>15%</font> and 40, respectively."
      }, 
      {
        "@id": "10000051", 
        "@level": "6", 
        "@uiDescription": "Attracts the base of the body and recovers HP, SP, and EP by <font color='#00aaef'>16%</font> and 40, respectively."
      }, 
      {
        "@id": "10000051", 
        "@level": "7", 
        "@uiDescription": "Attracts the base of the body and recovers HP, SP, and EP by <font color='#00aaef'>17%</font> and 40, respectively."
      }, 
      {
        "@id": "10000051", 
        "@level": "8", 
        "@uiDescription": "Attracts the body's base to collect HP, SP, and EP by <font color='#00aaef'>18%</font> and 40, respectively."
      }, 
      {
        "@id": "10000051", 
        "@level": "9", 
        "@uiDescription": "Attracts the body's base and recovers HP, SP, and EP by <font color='#00aaef'>19%</font> and 40, respectively."
      }, 
      {
        "@id": "10000051", 
        "@level": "10", 
        "@uiDescription": "Attracts the body's base and recovers HP and SP by <font color='#00aaef'>20%</font> and EP by 40."
      }, 
      {
        "@id": "10000051", 
        "@level": "11", 
        "@uiDescription": "Gather the base of the body to collect <font color='#00aaef'>21%</font> HP and SP, 40 EP to recover."
      }, 
      {
        "@id": "10000051", 
        "@level": "12", 
        "@uiDescription": "Gather the base of the body to collect HP, SP <font color='#00aaef'>22%</font> , EP 40 to recover."
      }, 
      {
        "@id": "10000051", 
        "@level": "13", 
        "@uiDescription": "Attracts the base of the body and recovers HP, SP, and EP by <font color='#00aaef'>23%</font> and 40, respectively."
      }, 
      {
        "@id": "10000051", 
        "@level": "14", 
        "@uiDescription": "Gather the base of the body, HP and SP <font color='#00aaef'>24%</font> , EP 40 to recover."
      }, 
      {
        "@id": "10000051", 
        "@level": "15", 
        "@uiDescription": "Attracts the body's base and recovers HP, SP, and EP by <font color='#00aaef'>25%</font> and 40, respectively."
      }, 
      {
        "@id": "10000051", 
        "@level": "16", 
        "@uiDescription": "Attacks the body's base and recovers HP, SP, and EP by <font color='#00aaef'>26%</font> and 40, respectively."
      }, 
      {
        "@id": "10000051", 
        "@level": "17", 
        "@uiDescription": "Attracts the body's base to recover HP, SP, and EP by <font color='#00aaef'>27%</font> and 40, respectively."
      }, 
      {
        "@id": "10000051", 
        "@level": "18", 
        "@uiDescription": "Attracts the body's base and recovers HP, SP, and EP by <font color='#00aaef'>28%</font> and 40, respectively."
      }, 
      {
        "@id": "10000051", 
        "@level": "19", 
        "@uiDescription": "Attracts the body's base and recovers HP, SP, and EP by <font color='#00aaef'>29%</font> and 40, respectively."
      }, 
      {
        "@id": "10000051", 
        "@level": "20", 
        "@uiDescription": "Attracts the body's base and recovers HP, SP, and EP by <font color='#00aaef'>30%</font> and 40, respectively."
      }, 
      {
        "@id": "10000051", 
        "@level": "21", 
        "@uiDescription": "Attracts the body's base to collect HP and SP <font color='#00aaef'>31%</font> and EP 40."
      }, 
      {
        "@id": "10000051", 
        "@level": "22", 
        "@uiDescription": "Attracts the body's base and recovers HP, SP, and EP by <font color='#00aaef'>32%</font> and 40, respectively."
      }, 
      {
        "@id": "10000051", 
        "@level": "23", 
        "@uiDescription": "Attracts the base of the body and recovers HP, SP, and EP by <font color='#00aaef'>33%</font> and 40, respectively."
      }, 
      {
        "@id": "10000051", 
        "@level": "24", 
        "@uiDescription": "Attracts the body's base and collects HP, SP, and EP by <font color='#00aaef'>34%</font> and 40, respectively."
      }, 
      {
        "@id": "10000061", 
        "@level": "1", 
        "@uiDescription": "I do not belong to any power, I go on my own will adventure. Fishing, Playing, Maple Arcade Experience <font color='#00aaef'>1%</font> and Physical Damage <font color='#00aaef'>1%</font> ."
      }, 
      {
        "@id": "10000061", 
        "@level": "2", 
        "@uiDescription": "I do not belong to any power, I go on my own will adventure. Fishing, playing, and maple arcade experience increased by <font color='#00aaef'>1.2%</font> and physical damage increased by <font color='#00aaef'>1.3%</font> ."
      }, 
      {
        "@id": "10000061", 
        "@level": "3", 
        "@uiDescription": "I do not belong to any power, I go on my own will adventure. Fishing, playing, maple arcade experience increased by <font color='#00aaef'>1.4%</font> and physical damage increased by <font color='#00aaef'>1.6%</font> ."
      }, 
      {
        "@id": "10000061", 
        "@level": "4", 
        "@uiDescription": "I do not belong to any power, I go on my own will adventure. Fishing, playing, and maple arcade experience increased by <font color='#00aaef'>1.6%</font> and physical damage increased by <font color='#00aaef'>1.9%</font> ."
      }, 
      {
        "@id": "10000061", 
        "@level": "5", 
        "@uiDescription": "I do not belong to any power, I go on my own will adventure. Fishing, playing, maple arcade experience increased by <font color='#00aaef'>1.8%</font> and physical damage increased by <font color='#00aaef'>2.2%</font> ."
      }, 
      {
        "@id": "10000061", 
        "@level": "6", 
        "@uiDescription": "I do not belong to any power, I go on my own will adventure. Fishing, playing, maple arcade experience <font color='#00aaef'>2%</font> , physical damage increased by <font color='#00aaef'>2.5%</font> ."
      }, 
      {
        "@id": "10000061", 
        "@level": "7", 
        "@uiDescription": "I do not belong to any power, I go on my own will adventure. Fishing, playing, and maple arcade experience increased by <font color='#00aaef'>2.2%</font> and physical damage increased by <font color='#00aaef'>2.8%</font> ."
      }, 
      {
        "@id": "10000061", 
        "@level": "8", 
        "@uiDescription": "I do not belong to any power, I go on my own will adventure. Fishing, playing, and maple arcade experience increased by <font color='#00aaef'>2.4%</font> and physical damage by <font color='#00aaef'>3.1%</font> ."
      }, 
      {
        "@id": "10000061", 
        "@level": "9", 
        "@uiDescription": "I do not belong to any power, I go on my own will adventure. Fishing, playing, and maple arcade experience increased by <font color='#00aaef'>2.6%</font> and physical damage by <font color='#00aaef'>3.4%</font> ."
      }, 
      {
        "@id": "10000061", 
        "@level": "10", 
        "@uiDescription": "I do not belong to any power, I go on my own will adventure. Fishing, playing, maple arcade experience increased by <font color='#00aaef'>2.8%</font> and physical damage increased by <font color='#00aaef'>3.7%</font> ."
      }, 
      {
        "@id": "10000061", 
        "@level": "11", 
        "@uiDescription": "I do not belong to any power, I go on my own will adventure. Fishing, playing, maple arcade experience <font color='#00aaef'>3%</font> and physical damage <font color='#00aaef'>4%</font> ."
      }, 
      {
        "@id": "10000061", 
        "@level": "12", 
        "@uiDescription": "I do not belong to any power, I go on my own will adventure. Fishing, Playing, Maple Arcade experience increased by <font color='#00aaef'>3.2%</font> and physical damage increased by <font color='#00aaef'>4.3%</font> ."
      }, 
      {
        "@id": "10000061", 
        "@level": "13", 
        "@uiDescription": "I do not belong to any power, I go on my own will adventure. Fishing, playing, and maple arcade experience increased by <font color='#00aaef'>3.4%</font> and physical damage increased by <font color='#00aaef'>4.6%</font> ."
      }, 
      {
        "@id": "10000061", 
        "@level": "14", 
        "@uiDescription": "I do not belong to any power, I go on my own will adventure. Fishing, playing, maple arcade experience increased by <font color='#00aaef'>3.6%</font> and physical damage increased by <font color='#00aaef'>4.9%</font> ."
      }, 
      {
        "@id": "10000061", 
        "@level": "15", 
        "@uiDescription": "I do not belong to any power, I go on my own will adventure. Fishing, playing, and maple arcade experience increased by <font color='#00aaef'>3.8%</font> and physical damage increased by <font color='#00aaef'>5.2%</font> ."
      }, 
      {
        "@id": "10000061", 
        "@level": "16", 
        "@uiDescription": "I do not belong to any power, I go on my own will adventure. Fishing, playing, maple arcade experience increased by <font color='#00aaef'>4%</font> and physical damage increased by <font color='#00aaef'>5.5%</font> ."
      }, 
      {
        "@id": "10000061", 
        "@level": "17", 
        "@uiDescription": "I do not belong to any power, I go on my own will adventure. Fishing, playing, and maple arcade experience increased by <font color='#00aaef'>4.2%</font> and physical damage by <font color='#00aaef'>5.8%</font> ."
      }, 
      {
        "@id": "10000061", 
        "@level": "18", 
        "@uiDescription": "I do not belong to any power, I go on my own will adventure. Fishing, playing, and maple arcade experience increased by <font color='#00aaef'>4.4%</font> and physical damage increased by <font color='#00aaef'>6.1%</font> ."
      }, 
      {
        "@id": "10000061", 
        "@level": "19", 
        "@uiDescription": "I do not belong to any power, I go on my own will adventure. Fishing, playing, maple arcade experience increased by <font color='#00aaef'>4.6%</font> and physical damage increased by <font color='#00aaef'>6.4%</font> ."
      }, 
      {
        "@id": "10000061", 
        "@level": "20", 
        "@uiDescription": "I do not belong to any power, I go on my own will adventure. Fishing, playing, maple arcade experience increased by <font color='#00aaef'>4.8%</font> and physical damage increased by <font color='#00aaef'>6.7%</font> ."
      }, 
      {
        "@id": "10000061", 
        "@level": "21", 
        "@uiDescription": "I do not belong to any power, I go on my own will adventure. Fishing, playing, maple arcade experience increases <font color='#00aaef'>5%</font> and physical damage increases <font color='#00aaef'>7%</font> ."
      }, 
      {
        "@id": "10000061", 
        "@level": "22", 
        "@uiDescription": "I do not belong to any power, I go on my own will adventure. Fishing, playing, and maple arcade experience increased by <font color='#00aaef'>5.2%</font> and physical damage by <font color='#00aaef'>7.3%</font> ."
      }, 
      {
        "@id": "10000061", 
        "@level": "23", 
        "@uiDescription": "I do not belong to any power, I go on my own will adventure. Fishing, playing, maple arcade experience increased by <font color='#00aaef'>5.4%</font> and physical damage increased by <font color='#00aaef'>7.6%</font> ."
      }, 
      {
        "@id": "10000061", 
        "@level": "24", 
        "@uiDescription": "I do not belong to any power, I go on my own will adventure. Fishing, Playing, Maple Arcade experience increased by <font color='#00aaef'>5.6%</font> and physical damage increased by <font color='#00aaef'>7.9%</font> ."
      }, 
      {
        "@id": "19900001", 
        "@level": "1", 
        "@uiDescription": "With all-powerful GM power, it destroys everything around you ...!"
      }, 
      {
        "@id": "19900061", 
        "@level": "1", 
        "@uiDescription": "Number of targets 1. Damage 100%. I am very sick."
      }
    ]
  }
}