{
  "?xml": {
    "@version": "1.0", 
    "@encoding": "utf-8"
  }, 
  "ms2": {
    "key": [
      {
        "@id": "100", 
        "@name": "Character"
      }, 
      {
        "@id": "101", 
        "@name": "Whisper"
      }, 
      {
        "@id": "102", 
        "@name": "Character"
      }, 
      {
        "@id": "200", 
        "@name": "Leave Party"
      }, 
      {
        "@id": "201", 
        "@name": "Invite to Party"
      }, 
      {
        "@id": "202", 
        "@name": "Kick from Party"
      }, 
      {
        "@id": "203", 
        "@name": "Make Party Leader"
      }, 
      {
        "@id": "204", 
        "@name": "Vote to Kick"
      }, 
      {
        "@id": "205", 
        "@name": "Party ready"
      }, 
      {
        "@id": "300", 
        "@name": "Unfriend"
      }, 
      {
        "@id": "301", 
        "@name": "Add Friend"
      }, 
      {
        "@id": "400", 
        "@name": "Block"
      }, 
      {
        "@id": "401", 
        "@name": "Unblock"
      }, 
      {
        "@id": "402", 
        "@name": "Edit Block Reason"
      }, 
      {
        "@id": "500", 
        "@name": "Trade"
      }, 
      {
        "@id": "501", 
        "@name": "Report"
      }, 
      {
        "@id": "502", 
        "@name": "Invite to Group Chat"
      }, 
      {
        "@id": "502", 
        "@name": "Invite to Group Chat", 
        "@locale": "CN"
      }, 
      {
        "@id": "503", 
        "@name": "Visit House"
      }, 
      {
        "@id": "504", 
        "@name": "Invite to My Home"
      }, 
      {
        "@id": "505", 
        "@name": "Pet Info"
      }, 
      {
        "@id": "506", 
        "@name": "Dismiss Pet"
      }, 
      {
        "@id": "507", 
        "@name": "Grant Furnishing Rights"
      }, 
      {
        "@id": "508", 
        "@name": "Buddy Emote"
      }, 
      {
        "@id": "600", 
        "@name": "Smite Visitor"
      }, 
      {
        "@id": "601", 
        "@name": "Revive Visitor"
      }, 
      {
        "@id": "602", 
        "@name": "Kick from Home"
      }, 
      {
        "@id": "701", 
        "@name": "Invite to Guild"
      }
    ]
  }
}