{
  "?xml": {
    "@version": "1.0", 
    "@encoding": "utf-8"
  }, 
  "ms2": {
    "quest": {
      "@questID": "", 
      "@name": "", 
      "@desc": "", 
      "@manual": "", 
      "@complete": "", 
      "@count": "", 
      "@locale": ""
    }
  }
}