{
  "?xml": {
    "@version": "1.0", 
    "@encoding": "utf-8"
  }, 
  "ms2": {
    "quest": [
      {
        "@questID": "74000001", 
        "@name": "Defeat 50 enemies", 
        "@desc": "Defeat 50 enemies", 
        "@manual": "Defeat 50 enemies ", 
        "@complete": "", 
        "@count": "1", 
        "@feature": "Mentoring", 
        "@locale": "", 
        "@locking": "0"
      }, 
      {
        "@questID": "74000002", 
        "@name": "Speak with $npc:11001002$ in $map:02000064$", 
        "@desc": "Speak with $npc:11001002$ in $map:02000064$", 
        "@manual": "Speak with $npc:11001002$ in $map:02000064$ ", 
        "@complete": "", 
        "@count": "1", 
        "@feature": "Mentoring", 
        "@locale": "", 
        "@locking": "0"
      }, 
      {
        "@questID": "74000003", 
        "@name": "Use the safe inside your home once", 
        "@desc": "Use the safe inside your home once", 
        "@manual": "Use the safe inside your home once ", 
        "@complete": "", 
        "@count": "1", 
        "@feature": "Mentoring", 
        "@locale": "", 
        "@locking": "0"
      }, 
      {
        "@questID": "74000004", 
        "@name": "Ride 1 taxi", 
        "@desc": "Ride 1 taxi", 
        "@manual": "Ride 1 taxi ", 
        "@complete": "", 
        "@count": "1", 
        "@feature": "Mentoring", 
        "@locale": "", 
        "@locking": "0"
      }, 
      {
        "@questID": "74000005", 
        "@name": "Adventure [General] Clear once", 
        "@desc": "Adventure [General] Clear once", 
        "@manual": "Adventure [General] Clear once", 
        "@complete": "", 
        "@count": "1", 
        "@feature": "Mentoring", 
        "@locale": "", 
        "@locking": "0"
      }, 
      {
        "@questID": "74000006", 
        "@name": "Perform once in $map:02000001$", 
        "@desc": "Perform once in $map:02000001$", 
        "@manual": "Perform once in $map:02000001$ ", 
        "@complete": "", 
        "@count": "1", 
        "@feature": "Mentoring", 
        "@locale": "", 
        "@locking": "0"
      }, 
      {
        "@questID": "74000007", 
        "@name": "Catch 10 saltwater fish", 
        "@desc": "Catch 10 saltwater fish", 
        "@manual": "Catch 10 saltwater fish ", 
        "@complete": "", 
        "@count": "1", 
        "@feature": "Mentoring", 
        "@locale": "", 
        "@locking": "0"
      }, 
      {
        "@questID": "74000008", 
        "@name": "Enjoy the scenery in $map:02000076$ through a binoculars", 
        "@desc": "Enjoy the scenery in $map:02000076$ through a binoculars", 
        "@manual": "Enjoy the scenery in $map:02000076$ through a binoculars ", 
        "@complete": "", 
        "@count": "1", 
        "@feature": "Mentoring", 
        "@locale": "", 
        "@locking": "0"
      }, 
      {
        "@questID": "74000009", 
        "@name": "Open 5 wooden treasure chests", 
        "@desc": "Open 5 wooden treasure chests", 
        "@manual": "Open 5 wooden treasure chests ", 
        "@complete": "", 
        "@count": "1", 
        "@feature": "Mentoring", 
        "@locale": "", 
        "@locking": "0"
      }, 
      {
        "@questID": "74000010", 
        "@name": "Adventure [General]: 1 boss kills", 
        "@desc": "Adventure [General]: 1 boss kills", 
        "@manual": "Adventure [General]: 1 boss kills", 
        "@complete": "", 
        "@count": "1", 
        "@feature": "Mentoring", 
        "@locale": "", 
        "@locking": "0"
      }, 
      {
        "@questID": "74000011", 
        "@name": "Dismantle 1 item", 
        "@desc": "Dismantle 1 item", 
        "@manual": "Dismantle 1 item ", 
        "@complete": "", 
        "@count": "1", 
        "@feature": "Mentoring", 
        "@locale": "", 
        "@locking": "0"
      }, 
      {
        "@questID": "74000012", 
        "@name": "Harvest from the snail pen 10 times", 
        "@desc": "Harvest from the snail pen 10 times", 
        "@manual": "Harvest from the snail pen 10 times ", 
        "@complete": "", 
        "@count": "1", 
        "@feature": "Mentoring", 
        "@locale": "", 
        "@locking": "0"
      }, 
      {
        "@questID": "74000013", 
        "@name": "Mine copper veins in $map:02000002$ 10 times", 
        "@desc": "Mine copper veins in $map:02000002$ 10 times", 
        "@manual": "Mine copper veins in $map:02000002$ 10 times ", 
        "@complete": "", 
        "@count": "1", 
        "@feature": "Mentoring", 
        "@locale": "", 
        "@locking": "0"
      }, 
      {
        "@questID": "74000014", 
        "@name": "Send mail 1 time", 
        "@desc": "Send mail 1 time", 
        "@manual": "Send mail 1 time ", 
        "@complete": "", 
        "@count": "1", 
        "@feature": "Mentoring", 
        "@locale": "", 
        "@locking": "0"
      }, 
      {
        "@questID": "74000015", 
        "@name": "Enchant 1 item", 
        "@desc": "Enchant 1 item", 
        "@manual": "Enchant 1 item ", 
        "@complete": "", 
        "@count": "1", 
        "@feature": "Mentoring", 
        "@locale": "", 
        "@locking": "0"
      }, 
      {
        "@questID": "74000016", 
        "@name": "Use Greet or Bow in $map:02000100$", 
        "@desc": "Use Greet or Bow in $map:02000100$", 
        "@manual": "Use Greet or Bow in $map:02000100$ ", 
        "@complete": "", 
        "@count": "1", 
        "@feature": "Mentoring", 
        "@locale": "", 
        "@locking": "0"
      }, 
      {
        "@questID": "74000017", 
        "@name": "Complete 1 Daily Mission", 
        "@desc": "Complete 1 Daily Mission", 
        "@manual": "Complete 1 Daily Mission ", 
        "@complete": "", 
        "@count": "1", 
        "@feature": "Mentoring", 
        "@locale": "", 
        "@locking": "0"
      }, 
      {
        "@questID": "74000018", 
        "@name": "Participate in an MC Kay mini-game ", 
        "@desc": "Participate in an MC Kay mini-game ", 
        "@manual": "Participate in an MC Kay mini-game ", 
        "@complete": "", 
        "@count": "1", 
        "@feature": "Mentoring", 
        "@locale": "", 
        "@locking": "0"
      }, 
      {
        "@questID": "74000019", 
        "@name": "Travel 50 m by air", 
        "@desc": "Travel 50 m by air", 
        "@manual": "Travel 50 m by air ", 
        "@complete": "", 
        "@count": "1", 
        "@feature": "Mentoring", 
        "@locale": "", 
        "@locking": "0"
      }, 
      {
        "@questID": "74000020", 
        "@name": "Complete round 1 in $dungeonTitle:25008001$", 
        "@desc": "Complete round 1 in $dungeonTitle:25008001$", 
        "@manual": "Complete round 1 in $dungeonTitle:25008001$ ", 
        "@complete": "", 
        "@count": "1", 
        "@feature": "Mentoring", 
        "@locale": "", 
        "@locking": "0"
      }, 
      {
        "@questID": "74000021", 
        "@name": "Run 50 m", 
        "@desc": "Run 50 m", 
        "@manual": "Run 50 m ", 
        "@complete": "", 
        "@count": "1", 
        "@feature": "Mentoring", 
        "@locale": "", 
        "@locking": "0"
      }, 
      {
        "@questID": "74000022", 
        "@name": "Craft 1 Sweet Pumpkin Soup", 
        "@desc": "Craft 1 Sweet Pumpkin Soup", 
        "@manual": "Craft 1 Sweet Pumpkin Soup ", 
        "@complete": "", 
        "@count": "1", 
        "@feature": "Mentoring", 
        "@locale": "", 
        "@locking": "0"
      }, 
      {
        "@questID": "74000023", 
        "@name": "Loot 50 items", 
        "@desc": "Loot 50 items", 
        "@manual": "Loot 50 items ", 
        "@complete": "", 
        "@count": "1", 
        "@feature": "Mentoring", 
        "@locale": "", 
        "@locking": "0"
      }, 
      {
        "@questID": "74000024", 
        "@name": "Hit a tree 20 times", 
        "@desc": "Hit a tree 20 times", 
        "@manual": "Hit a tree 20 times ", 
        "@complete": "", 
        "@count": "1", 
        "@feature": "Mentoring", 
        "@locale": "", 
        "@locking": "0"
      }, 
      {
        "@questID": "74000025", 
        "@name": "Upgrade 1 gemstone", 
        "@desc": "Upgrade 1 gemstone", 
        "@manual": "Upgrade 1 gemstone ", 
        "@complete": "", 
        "@count": "1", 
        "@feature": "Mentoring", 
        "@locale": "", 
        "@locking": "0"
      }, 
      {
        "@questID": "74000026", 
        "@name": "Collect from the pig pen 3 times in someone else's home ", 
        "@desc": "Collect from the pig pen 3 times in someone else's home ", 
        "@manual": "Collect from the pig pen 3 times in someone else's home ", 
        "@complete": "", 
        "@count": "1", 
        "@feature": "Mentoring", 
        "@locale": "", 
        "@locking": "0"
      }, 
      {
        "@questID": "74000027", 
        "@name": "Cling to a ladder for 60 seconds", 
        "@desc": "Cling to a ladder for 60 seconds", 
        "@manual": "Cling to a ladder for 60 seconds ", 
        "@complete": "", 
        "@count": "1", 
        "@feature": "Mentoring", 
        "@locale": "", 
        "@locking": "0"
      }, 
      {
        "@questID": "74000028", 
        "@name": "Spend 5,000 mesos placing furnishings in your house", 
        "@desc": "Spend 5,000 mesos placing furnishings in your house", 
        "@manual": "Spend 5,000 mesos placing furnishings in your house ", 
        "@complete": "", 
        "@count": "1", 
        "@feature": "Mentoring", 
        "@locale": "", 
        "@locking": "0"
      }, 
      {
        "@questID": "74000029", 
        "@name": "Obtain 100 guild experience", 
        "@desc": "Obtain 100 guild experience", 
        "@manual": "Obtain 100 guild experience ", 
        "@complete": "", 
        "@count": "1", 
        "@feature": "Mentoring", 
        "@locale": "", 
        "@locking": "0"
      }, 
      {
        "@questID": "74000030", 
        "@name": "Defeat 1 world boss", 
        "@desc": "Defeat 1 world boss", 
        "@manual": "Defeat 1 world boss ", 
        "@complete": "", 
        "@count": "1", 
        "@feature": "Mentoring", 
        "@locale": "", 
        "@locking": "0"
      }, 
      {
        "@questID": "74000031", 
        "@name": "Open a golden treasure chest", 
        "@desc": "Open a golden treasure chest", 
        "@manual": "Open a golden treasure chest ", 
        "@complete": "", 
        "@count": "1", 
        "@feature": "Mentoring", 
        "@locale": "", 
        "@locking": "0"
      }, 
      {
        "@questID": "74000032", 
        "@name": "Craft 1 template in the workshop", 
        "@desc": "Craft 1 template in the workshop", 
        "@manual": "Craft 1 template in the workshop ", 
        "@complete": "", 
        "@count": "1", 
        "@feature": "Mentoring", 
        "@locale": "", 
        "@locking": "0"
      }, 
      {
        "@questID": "74000033", 
        "@name": "Catch 1 big fish", 
        "@desc": "Catch 1 big fish", 
        "@manual": "Catch 1 big fish ", 
        "@complete": "", 
        "@count": "1", 
        "@feature": "Mentoring", 
        "@locale": "", 
        "@locking": "0"
      }, 
      {
        "@questID": "74000034", 
        "@name": "Swim 50 m", 
        "@desc": "Swim 50 m", 
        "@manual": "Swim 50 m ", 
        "@complete": "", 
        "@count": "1", 
        "@feature": "Mentoring", 
        "@locale": "", 
        "@locking": "0"
      }, 
      {
        "@questID": "74000035", 
        "@name": "Adventure [difficult] clear once", 
        "@desc": "Adventure [difficult] clear once", 
        "@manual": "Adventure [difficult] clear once", 
        "@complete": "", 
        "@count": "1", 
        "@feature": "Mentoring", 
        "@locale": "", 
        "@locking": "0"
      }
    ]
  }
}