﻿{
  "?xml": {
    "@version": "1.0", 
    "@encoding": "utf-8"
  }, 
  "ms2": {
    "quest": [
      {
        "@questID": "40001000", 
        "@name": "Warehouse cleanup later", 
        "@desc": "$npc:11000148$$pp:는,은$ $npc:11000104$$pp:와,과$ We decided to organize the warehouse together. But my back hurts, $npc:11000148$ that I will postpone rearranging the warehouse later. Let me share this news as I go to $npc:11000104$ to tell about $npc:11000054$ 's whereabouts.", 
        "@manual": "", 
        "@complete": "Meet $npc:11000104$ in $map:63000001$", 
        "@count": "", 
        "@locale": "", 
        "@locking": "1"
      }, 
      {
        "@questID": "40001001", 
        "@name": "A touch of warmth", 
        "@desc": "Trying to buy tropical juice $npc:11000105$. I can not think of helping because I do not have a problem. $npc:11000105$ Instead of$pp:를,을$, let's help the guy who fell on the sandy beach.", 
        "@manual": "", 
        "@complete": "Meet $npc:11000444$ in $map:02000062$", 
        "@count": "", 
        "@locale": "", 
        "@locking": "1"
      }, 
      {
        "@questID": "40001002", 
        "@name": "The balloon owner is TiVo", 
        "@desc": "He wants to give the owner a $npc:11000114$$pp:는,은$ balloon that has snatched the flying balloon. Instead of $npc:11000114$$pp:를,을$ to meet your sister, let's bring it to $item:30000171$$pp:를,을$ $npc:11000389$.", 
        "@manual": "Receive $item:30000171$ from $npc:11000114$ in $map:2000115$", 
        "@complete": "Meet $npc:11000389$ in $map:02000115$", 
        "@count": "1", 
        "@locale": "", 
        "@locking": "1"
      }, 
      {
        "@questID": "40001010", 
        "@name": "Beverage delivery", 
        "@desc": "$item:30000195$$pp:를,을$ Ordered and disappeared $npc:11000080$! $npc:11000704$$pp:와,과$ It seems to have gone somewhere during the making of juice. Bring the $npc:11000080$ to $item:30000195$$pp:를,을$ before the ice in the juice melts.", 
        "@manual": "Receive $item:30000195$ from $npc:11000704$ in $map:2000062$", 
        "@complete": "Meet $npc:11000080$ in $map:02000062$", 
        "@count": "1", 
        "@locale": "", 
        "@locking": "1"
      }, 
      {
        "@questID": "40001020", 
        "@name": "Raising a cart", 
        "@desc": "The floats fall because of the shock of the earthquake. $npc:11000618$$pp:와,과$ I want to raise it up but it is not easy. $npc:11000618$$pp:를,을$ Help, raise your wagon.", 
        "@manual": "$map:2000114$, $npc:11000618$ Producing carts in front", 
        "@complete": "Meet $npc:11000618$ in $map:02000114$", 
        "@count": "0", 
        "@locale": "", 
        "@locking": "1"
      }, 
      {
        "@questID": "40001021", 
        "@name": "Where is she?", 
        "@desc": "The wife of $npc:11000618$ who went to find someone to raise the cart together $npc:11000619$. I wish I could come back and look back, but the lady who keeps wandering is frustrated $npc:11000618$. $npc:11000619$$pp:를,을$ Let me tell you to go back to your husband.", 
        "@manual": "", 
        "@complete": "Meet $npc:11000619$ in $map:02000114$", 
        "@count": "", 
        "@locale": "", 
        "@locking": "1"
      }, 
      {
        "@questID": "40001030", 
        "@name": "Emergency recovery action", 
        "@desc": "The road was cut by the earthquake and the facilities were broken. Before the complaints of the residents were poured $npc:11000622$. First of all, I am going to fix the ladder first, but it is said to have been taken by $item:30000196$$pp:를,을$ $npc:21000007$. $npc:11000622$$pp:를,을$ Let me help you roll your feet.", 
        "@manual": "$item:30000196$ Retrieval from $npc:21000007$ in $map:2000115$", 
        "@complete": "Meet $npc:11000622$ in $map:02000115$", 
        "@count": "1", 
        "@locale": "", 
        "@locking": "1"
      }, 
      {
        "@questID": "40001040", 
        "@name": "Paul's message", 
        "@desc": "We have arrived to investigate the cause of the earthquake, but we do not know when the equipment will be used due to lack of manpower. $npc:11000617$ Beginning with the survey site$pp:와,과$ Let's first ask for a visual inspection, as you may be waiting for the survey equipment.", 
        "@manual": "", 
        "@complete": "Meet $npc:11000617$ in $map:02000118$", 
        "@count": "", 
        "@locale": "", 
        "@locking": "1"
      }, 
      {
        "@questID": "40001041", 
        "@name": "Tension and trembling", 
        "@desc": "I thought the earthquake was over, but the earth is still shaking. I came to investigate the aftershocks with the command of the upper $npc:11000617$$pp:는,은$ I am unable to lift my feet in front of the ground that is shaking in fear. $npcName:11000617$$pp:를,을$ Let's examine the shaky ground instead.", 
        "@manual": "Explore the shaky land in $map:2000118$", 
        "@complete": "Meet $npc:11000617$ in $map:02000118$", 
        "@count": "0", 
        "@locale": "", 
        "@locking": "1"
      }, 
      {
        "@questID": "40001050", 
        "@name": "Food ingredients for banquet", 
        "@desc": "In order to prepare the food for the banquet, you should hastily send $ $map:2000001$ pp2 to the ingredients. With $map:2000001$$pp2:로,으로$  :, let me bring $npc:11000157$ to $item:30000070$$pp:를,을$ packing me up.", 
        "@manual": "Receive $item:30000070$ from $npc:11000159$ in $map:2000118$", 
        "@complete": "Meet $npc:11000157$ in $map:02000118$", 
        "@count": "1", 
        "@locale": "", 
        "@locking": "1"
      }, 
      {
        "@questID": "10001000", 
        "@name": "The worries of Santiago", 
        "@desc": "The grandson of $npc:11000021$.1 $npc:11000054$$pp:는,은$ Suddenly he disappeared when he was swarming it to send it to Al-Hsi. $npc:11000054$$pp:는,은$ Where is it? $npc:11000148$ in $map:63000001$ Let's ask about$pp:를,을$, $npc:11000054$, and $npc:11000054$.", 
        "@manual": "", 
        "@complete": "Meet $map:63000001$ to $npc:11000148$", 
        "@count": "", 
        "@locale": "", 
        "@locking": "1"
      }, 
      {
        "@questID": "10001001", 
        "@name": "The beginning of the journey", 
        "@desc": "I heard from the $npc:11000062$ that the general public was also able to attend, especially at the hands of the Empress. I do not want to miss it because it is a very special occasion to have once or for all in my life. Can I leave once?", 
        "@manual": "$npc:11000016$ in the $map:63000002$$pp:와,과$ Convoy Harris Port Ride", 
        "@complete": "Meet $map:02000062$ to $npc:11000096$", 
        "@count": "0", 
        "@locale": "", 
        "@locking": "1"
      }, 
      {
        "@questID": "10001002", 
        "@name": "The wisdom of the woman", 
        "@desc": "Island Village $npc:11000080$$pp:를,을$ $map:02000062$ It seems more welcoming to see you again. $map:02000001$$pp2:로,으로$ : With $ as, I think I can meet another nice face. If you use the Royal Road from $map:02000062$ to $map:02000001$, will you be able to get there soon? First, let's look at the route from $ $map:02000062$ to $ $map:02000114$$pp2:로,으로$ : to $.", 
        "@manual": "$ $map:02000001$$pp2:로,으로$ : with $ as an open expression", 
        "@complete": "Meet $map:02000001$ to $npc:11000160$", 
        "@count": "0", 
        "@locale": "", 
        "@locking": "1"
      }, 
      {
        "@questID": "10001010", 
        "@name": "Crisis merchants", 
        "@desc": "Even the porter carrying the items necessary for the horseshoe preparation was at risk and entered the house at $ $map:02000116$ pp2, and was lost and stuck in a thorn bush. If you find a porch in a thorn bush on your way, I will help you.", 
        "@manual": "Obtaining a Thorn Barker in $map:02000116$", 
        "@complete": "Meet $map:02000116$ to $npc:11000129$", 
        "@count": "1", 
        "@locale": "", 
        "@locking": "1"
      }, 
      {
        "@questID": "10001011", 
        "@name": "Tell your story", 
        "@desc": "$npc:11000129$$pp:는,은$ $map:02000117$$pp2:로,으로$ : As there is a party ahead of me, I met him and asked him to tell the story of the crisis merchants in the forest and wait for everyone to arrive. $map:02000117$$pp2:로,으로$ : Go to $, and find another royal porter.", 
        "@manual": "", 
        "@complete": "Find the Royal Porter in $map:02000117$", 
        "@count": "", 
        "@locale": "", 
        "@locking": "1"
      }, 
      {
        "@questID": "10001050", 
        "@name": "Curious boy", 
        "@desc": "Even if I grumble, it seems to be a good sister who is busy to take $npc:11000107$$pp:는,은$ brother $npc:11000114$. $npc:11000114$$pp:는,은$ Where did it go? Was he really going to the Royal Road?", 
        "@manual": "", 
        "@complete": "Browse $map:02000115$ through $npc:11000114$", 
        "@count": "", 
        "@locale": "", 
        "@locking": "1"
      }, 
      {
        "@questID": "10001070", 
        "@name": "Bee revolt", 
        "@desc": "$npc:22000022$ It seems that honey bees that have been robbed of all the honey that they gathered hard are getting angry. For the bees who have lost their food, I need to bring $npc:22000022$ whole honey. $map:02000117$ to $npc:22000022$$pp:와,과$ Let's look for the honey pots under the rocky rooftops.", 
        "@manual": "Retrieve Honey from $map:02000117$", 
        "@complete": "Meeting $npc:11000183$ of $map:02000117$", 
        "@count": "1", 
        "@locale": "", 
        "@locking": "1"
      }, 
      {
        "@questID": "10001110", 
        "@name": "Come on, claws.", 
        "@desc": "$npc:11000098$$pp:는,은$ $npc:11000151$$pp:와,과$ It looks really good. $npc:21000059$$pp:를,을$ If you grab $item:30000011$$pp:를,을$ You said you can save ... ? So let's get rid of it. Take from the $map:63000002$ to the $npc:21000059$$pp:를,을$ and collect the $item:30000011$ 1$npc:11000151$.", 
        "@manual": "Collecting $item:30000011$ from $map:63000002$ to $npc:21000059$", 
        "@complete": "Meet $map:63000002$ to $npc:11000098$", 
        "@count": "1", 
        "@locale": "", 
        "@locking": "1"
      }, 
      {
        "@questID": "10001111", 
        "@name": "For her!", 
        "@desc": "$npc:11000151$$pp:는,은$ Do not you speak well? Or is the original nature blunt? Maybe $npc:11000151$ boyfriend does not come back from $map:63000002$ deliberately because I hate her.", 
        "@manual": "", 
        "@complete": "Press M key to confirm $map:63000002$ location and go to", 
        "@count": "", 
        "@locale": "", 
        "@locking": "1"
      }, 
      {
        "@questID": "10001121", 
        "@name": "Her ejaculation", 
        "@desc": "poor… $npc:11000118$ ... I want you to help her when I hurt my hand. $map:63000002$ Let's find shells with pearls everywhere! $item:30000008$ Find out and start!", 
        "@manual": "Collecting from $map:63000002$ to $item:30000008$", 
        "@complete": "Meet $map:63000002$ to $npc:11000118$", 
        "@count": "1", 
        "@locale": "", 
        "@locking": "1"
      }, 
      {
        "@questID": "10001130", 
        "@name": "Turtles, turtles", 
        "@desc": "$npc:22300149$$pp:와,과$ I got a request from $npc:11000053$ asking me to bring $item:20000013$$pp:를,을$ out of the turtle hill. Would not it be easy, but would you like to try it once?", 
        "@manual": "Obtaining $item:20000013$ from $map:63000002$", 
        "@complete": "Meet $map:63000002$ to $npc:11000053$", 
        "@count": "1", 
        "@locale": "", 
        "@locking": "1"
      }, 
      {
        "@questID": "10001140", 
        "@name": "Ship leaving Lees harbor", 
        "@desc": "$map:02000062$ There is a lot of people leaving the row boat ... ? Once you get to the $map:63000002$ marina, find out if the ship is ready for $npc:11000016$.", 
        "@manual": "", 
        "@complete": "Meet the boatman $npc:11000016$ at $map:63000002$", 
        "@count": "", 
        "@locale": "", 
        "@locking": "1"
      }, 
      {
        "@questID": "10001330", 
        "@name": "This is the edge ...", 
        "@desc": "I met Victoria Island again on $npc:11000110$.1.1 and said that there is something else to ask me. There is no reason not to listen to a friend who first ran together in Maple Island. $map:02000114$ Eliminate monsters flying in the grass beneath your legs, and find them in $npc:11000110$$pp:와,과$ Lost $item:30000054$.", 
        "@manual": "Destroy $map:02000114$ monsters and regain $item:30000054$", 
        "@complete": "Meet $map:02000114$ to $npc:11000110$", 
        "@count": "1", 
        "@locale": "", 
        "@locking": "1"
      }, 
      {
        "@questID": "10001340", 
        "@name": "Rough to the ground", 
        "@desc": "Suddenly, the earthquake and the guard are also embarrassed. It looks like you are investigating the cause of the earthquake. Can I get a hand job? $npc:11000157$ Lift the equipment box near by and move it to the bottom of the stairs.", 
        "@manual": "$npc:11000157$ Moving the Equipment Box Down Near", 
        "@complete": "Meet $map:02000118$ to $npc:11000157$", 
        "@count": "1", 
        "@locale": "", 
        "@locking": "1"
      }, 
      {
        "@questID": "10001350", 
        "@name": "It is power to eat.", 
        "@desc": "The safety of $map:02000001$ can be compromised if you are hungry in a hard battle. $map:02000118$ Recover the monsters and regain them $item:20000014$$pp:를,을$.", 
        "@manual": "$map:02000118$ Recovering $item:20000014$ from a monster", 
        "@complete": "Meet $map:02000118$ to $npc:11000158$", 
        "@count": "1", 
        "@locale": "", 
        "@locking": "1"
      }, 
      {
        "@questID": "10001690", 
        "@name": "The elegance of wolf leather", 
        "@desc": "We recommend that you bring $item:30000112$$pp:를,을$ to $npc:11000546$, saying that there are $npc:11000374$$pp:는,은$ salary earners who met at $map:02000117$. $npc:21000062$$pp:를,을$ Hunt $item:30000112$$pp:를,을$ Save and bring it to $npc:11000546$.", 
        "@manual": "Hunt and collect $item:30000112$ from $map:02000117$", 
        "@complete": "Meet $map:02000117$ to $npc:11000546$", 
        "@count": "1", 
        "@locale": "", 
        "@locking": "1"
      }, 
      {
        "@questID": "10001700", 
        "@name": "The secret of the mushroom", 
        "@desc": "$npc:11000375$ met at $map:02000117$$pp:는,은$ Rare herb that can only be seen in clean areas, $item:20000058$$pp:를,을$ Suggested that you pay good value when you get it. The road is narrow and the monster is a dangerous place too ... Let's do it. $npc:11000375$$pp:와,과$ I could get a really good price ... Collect $map:02000117$ to $item:20000058$ and$pp:를,을$.", 
        "@manual": "Collecting from $map:02000117$ to $item:20000058$", 
        "@complete": "Meet $map:02000117$ to $npc:11000375$", 
        "@count": "1", 
        "@locale": "", 
        "@locking": "1"
      }, 
      {
        "@questID": "10001780", 
        "@name": "Finding a place", 
        "@desc": "It is said that it is necessary to move $item:30000130$ produced in $npc:11000148$$pp:는,은$ $map:63000001$ that manages the village warehouse of $map:63000001$ to ship to the continent by ship, but suddenly there is trouble in departure and move $item:30000130$ back to $map:63000004$ suddenly. Let us help you move the $item:30000130$s forward to $map:63000004$, even if the waist of $npc:11000148$ is okay!", 
        "@manual": "$npc:11000148$ Moving the surrounding $item:30000130$ to the $map:63000001$ village warehouse", 
        "@complete": "Meet $map:63000001$ to $npc:11000148$", 
        "@count": "1", 
        "@locale": "", 
        "@locking": "1"
      }, 
      {
        "@questID": "60001150", 
        "@name": "Welcome to Queen Kubin Rumble!", 
        "@desc": "The Queen of Pink Beans descended on Maple World $npcName:11004285$! As soon as he arrived, he had a big event called Queen Kubbin Rumble. It is said that players with enormous prizes and tremendous skills are on standby ... Who the hell is she? To hear the details, let's talk to $npc:11004287$$pp:와,과$ in $map:83000001$. $map:83000001$$pp:는,은$ You can enter through Dungeon Search.", 
        "@manual": "", 
        "@complete": "", 
        "@count": "", 
        "@locale": "", 
        "@locking": "0"
      }, 
      {
        "@questID": "60001160", 
        "@name": "For the joy of the Queen!", 
        "@desc": "Wondering about $npcName:11004285$, I wonder if I came to live in the cave $npcName:11004287$. She is a queen of pink beans who enjoys all kinds of fun. A person who smiles at $npcName:11004285$ says that he can win a large sum of money $npcName:11004287$. I'd like to hear more about the Queen Kubbin rumble.", 
        "@manual": "", 
        "@complete": "", 
        "@count": "", 
        "@locale": "", 
        "@locking": "0"
      }
    ]
  }
}
