{
  "?xml": {
    "@version": "1.0", 
    "@encoding": "utf-8"
  }, 
  "ms2": {
    "key": [
      {
        "@id": "1", 
        "@name": "스카니아"
      }, 
      {
        "@id": "2", 
        "@name": "베라"
      }, 
      {
        "@id": "3", 
        "@name": "브로아"
      }, 
      {
        "@id": "4", 
        "@name": "카이니"
      }, 
      {
        "@id": "5", 
        "@name": "제니스"
      }, 
      {
        "@id": "6", 
        "@name": "크로아"
      }, 
      {
        "@id": "7", 
        "@name": "마르디아"
      }, 
      {
        "@id": "8", 
        "@name": "아케니아"
      }, 
      {
        "@id": "9", 
        "@name": "플라나"
      }, 
      {
        "@id": "10", 
        "@name": "스티어스"
      }, 
      {
        "@id": "11", 
        "@name": "벨로칸"
      }, 
      {
        "@id": "12", 
        "@name": "데메토스"
      }, 
      {
        "@id": "13", 
        "@name": "옐론드"
      }, 
      {
        "@id": "14", 
        "@name": "카스티아"
      }, 
      {
        "@id": "15", 
        "@name": "칼루나"
      }, 
      {
        "@id": "16", 
        "@name": "갈리시아"
      }, 
      {
        "@id": "17", 
        "@name": "카디아"
      }, 
      {
        "@id": "18", 
        "@name": "쥬디스"
      }, 
      {
        "@id": "19", 
        "@name": "윈디아"
      }, 
      {
        "@id": "20", 
        "@name": "빅토리아"
      }, 
      {
        "@id": "21", 
        "@name": "엘나스"
      }, 
      {
        "@id": "22", 
        "@name": "오르비스"
      }, 
      {
        "@id": "23", 
        "@name": "오시리아"
      }, 
      {
        "@id": "24", 
        "@name": "페리온"
      }, 
      {
        "@id": "25", 
        "@name": "엘리니아"
      }, 
      {
        "@id": "26", 
        "@name": "헤네시스"
      }, 
      {
        "@id": "27", 
        "@name": "커닝시티"
      }, 
      {
        "@id": "28", 
        "@name": "리스항구"
      }, 
      {
        "@id": "29", 
        "@name": "사우스페리"
      }, 
      {
        "@id": "30", 
        "@name": "루디브리엄"
      }, 
      {
        "@id": "31", 
        "@name": "아쿠아리움"
      }, 
      {
        "@id": "32", 
        "@name": "아쿠아로드"
      }, 
      {
        "@id": "33", 
        "@name": "아랫마을"
      }, 
      {
        "@id": "34", 
        "@name": "지구방위본부"
      }, 
      {
        "@id": "35", 
        "@name": "리프레"
      }, 
      {
        "@id": "36", 
        "@name": "무릉"
      }, 
      {
        "@id": "37", 
        "@name": "백초마을"
      }, 
      {
        "@id": "38", 
        "@name": "아리안트"
      }, 
      {
        "@id": "39", 
        "@name": "몬스터카니발"
      }, 
      {
        "@id": "40", 
        "@name": "마가티아"
      }, 
      {
        "@id": "41", 
        "@name": "근위대장"
      }, 
      {
        "@id": "42", 
        "@name": "프레이"
      }, 
      {
        "@id": "43", 
        "@name": "알론"
      }, 
      {
        "@id": "44", 
        "@name": "웅크린엉덩이"
      }, 
      {
        "@id": "45", 
        "@name": "레이먼"
      }, 
      {
        "@id": "46", 
        "@name": "넬프"
      }, 
      {
        "@id": "47", 
        "@name": "나메드"
      }, 
      {
        "@id": "48", 
        "@name": "워렌킹"
      }, 
      {
        "@id": "49", 
        "@name": "구르는천둥"
      }, 
      {
        "@id": "50", 
        "@name": "투르카"
      }, 
      {
        "@id": "51", 
        "@name": "파토스"
      }, 
      {
        "@id": "52", 
        "@name": "이브"
      }, 
      {
        "@id": "53", 
        "@name": "벨라"
      }, 
      {
        "@id": "54", 
        "@name": "비드블라임"
      }, 
      {
        "@id": "55", 
        "@name": "에르멘"
      }, 
      {
        "@id": "56", 
        "@name": "칼비드블라임"
      }, 
      {
        "@id": "57", 
        "@name": "에레브"
      }, 
      {
        "@id": "58", 
        "@name": "여제"
      }, 
      {
        "@id": "59", 
        "@name": "에레브여제"
      }, 
      {
        "@id": "60", 
        "@name": "마노비치"
      }, 
      {
        "@id": "61", 
        "@name": "장로마노비치"
      }, 
      {
        "@id": "62", 
        "@name": "아시모프"
      }, 
      {
        "@id": "63", 
        "@name": "붉은늑대심장"
      }, 
      {
        "@id": "64", 
        "@name": "붉은늑대"
      }, 
      {
        "@id": "65", 
        "@name": "늑대의심장"
      }, 
      {
        "@id": "66", 
        "@name": "시장마르코"
      }, 
      {
        "@id": "67", 
        "@name": "마르코"
      }, 
      {
        "@id": "68", 
        "@name": "아노스"
      }, 
      {
        "@id": "69", 
        "@name": "로베"
      }, 
      {
        "@id": "70", 
        "@name": "차르"
      }, 
      {
        "@id": "71", 
        "@name": "이카스"
      }, 
      {
        "@id": "72", 
        "@name": "레논"
      }, 
      {
        "@id": "73", 
        "@name": "블랙아이"
      }, 
      {
        "@id": "74", 
        "@name": "레크"
      }, 
      {
        "@id": "75", 
        "@name": "카트반"
      }, 
      {
        "@id": "76", 
        "@name": "웨이홍"
      }, 
      {
        "@id": "77", 
        "@name": "골두스회장"
      }, 
      {
        "@id": "78", 
        "@name": "영웅트리스탄"
      }, 
      {
        "@id": "79", 
        "@name": "트리스탄"
      }, 
      {
        "@id": "80", 
        "@name": "앤디"
      }, 
      {
        "@id": "81", 
        "@name": "민트"
      }, 
      {
        "@id": "82", 
        "@name": "바닐라"
      }, 
      {
        "@id": "83", 
        "@name": "제이시"
      }, 
      {
        "@id": "84", 
        "@name": "벨마"
      }, 
      {
        "@id": "85", 
        "@name": "Anos"
      }, 
      {
        "@id": "86", 
        "@name": "Thunder"
      }, 
      {
        "@id": "87", 
        "@name": "Robe"
      }, 
      {
        "@id": "88", 
        "@name": "Tsar"
      }, 
      {
        "@id": "89", 
        "@name": "Icas"
      }, 
      {
        "@id": "90", 
        "@name": "Lennon"
      }, 
      {
        "@id": "91", 
        "@name": "BlackEye"
      }, 
      {
        "@id": "92", 
        "@name": "Alon"
      }, 
      {
        "@id": "93", 
        "@name": "Fray"
      }, 
      {
        "@id": "94", 
        "@name": "Leck"
      }, 
      {
        "@id": "95", 
        "@name": "Katvan"
      }, 
      {
        "@id": "96", 
        "@name": "Ramon"
      }, 
      {
        "@id": "97", 
        "@name": "Karl"
      }, 
      {
        "@id": "98", 
        "@name": "WeiHong"
      }, 
      {
        "@id": "99", 
        "@name": "Marco"
      }, 
      {
        "@id": "100", 
        "@name": "RedWolf"
      }, 
      {
        "@id": "101", 
        "@name": "Manovich"
      }, 
      {
        "@id": "102", 
        "@name": "Asimov"
      }, 
      {
        "@id": "103", 
        "@name": "Goldus"
      }, 
      {
        "@id": "104", 
        "@name": "Tristan"
      }, 
      {
        "@id": "105", 
        "@name": "Andy"
      }, 
      {
        "@id": "106", 
        "@name": "늑대소녀티나"
      }, 
      {
        "@id": "107", 
        "@name": "제나"
      }, 
      {
        "@id": "108", 
        "@name": "아도르"
      }, 
      {
        "@id": "109", 
        "@name": "오르데"
      }, 
      {
        "@id": "110", 
        "@name": "오스칼"
      }, 
      {
        "@id": "111", 
        "@name": "루키"
      }, 
      {
        "@id": "112", 
        "@name": "Tina"
      }, 
      {
        "@id": "113", 
        "@name": "Jena"
      }, 
      {
        "@id": "114", 
        "@name": "Trini"
      }, 
      {
        "@id": "115", 
        "@name": "Bella"
      }, 
      {
        "@id": "116", 
        "@name": "Ermen"
      }, 
      {
        "@id": "117", 
        "@name": "Orde"
      }, 
      {
        "@id": "118", 
        "@name": "Oskhal"
      }, 
      {
        "@id": "119", 
        "@name": "Rookie"
      }, 
      {
        "@id": "120", 
        "@name": "Namid"
      }, 
      {
        "@id": "121", 
        "@name": "Ereb"
      }, 
      {
        "@id": "122", 
        "@name": "경비대장차우"
      }, 
      {
        "@id": "123", 
        "@name": "깡패바라하"
      }, 
      {
        "@id": "124", 
        "@name": "닉시"
      }, 
      {
        "@id": "125", 
        "@name": "에피"
      }, 
      {
        "@id": "126", 
        "@name": "매디앨리스"
      }, 
      {
        "@id": "127", 
        "@name": "바포메트"
      }, 
      {
        "@id": "128", 
        "@name": "발록"
      }, 
      {
        "@id": "129", 
        "@name": "Chow"
      }, 
      {
        "@id": "130", 
        "@name": "Baraha"
      }, 
      {
        "@id": "131", 
        "@name": "Nixi"
      }, 
      {
        "@id": "132", 
        "@name": "Effy"
      }, 
      {
        "@id": "133", 
        "@name": "Madionette"
      }, 
      {
        "@id": "134", 
        "@name": "Baphomet"
      }, 
      {
        "@id": "135", 
        "@name": "Barlog"
      }, 
      {
        "@id": "136", 
        "@name": "Eve"
      }, 
      {
        "@id": "137", 
        "@name": "바니걸"
      }, 
      {
        "@id": "138", 
        "@name": "bunnygirl"
      }, 
      {
        "@id": "139", 
        "@name": "솔베이"
      }, 
      {
        "@id": "140", 
        "@name": "Solvey"
      }, 
      {
        "@id": "141", 
        "@name": "리나"
      }, 
      {
        "@id": "142", 
        "@name": "Rina"
      }, 
      {
        "@id": "143", 
        "@name": "트루"
      }, 
      {
        "@id": "144", 
        "@name": "True"
      }, 
      {
        "@id": "145", 
        "@name": "마야"
      }, 
      {
        "@id": "146", 
        "@name": "maya"
      }, 
      {
        "@id": "147", 
        "@name": "산티아고"
      }, 
      {
        "@id": "148", 
        "@name": "Santiago"
      }, 
      {
        "@id": "149", 
        "@name": "앤"
      }, 
      {
        "@id": "150", 
        "@name": "Ann"
      }, 
      {
        "@id": "151", 
        "@name": "엘리"
      }, 
      {
        "@id": "152", 
        "@name": "Elly"
      }, 
      {
        "@id": "153", 
        "@name": "코사무이"
      }, 
      {
        "@id": "154", 
        "@name": "Kosamui"
      }, 
      {
        "@id": "155", 
        "@name": "카랑코"
      }, 
      {
        "@id": "156", 
        "@name": "Karangco"
      }, 
      {
        "@id": "157", 
        "@name": "어흥이"
      }, 
      {
        "@id": "158", 
        "@name": "TigerBoo"
      }, 
      {
        "@id": "159", 
        "@name": "로제타"
      }, 
      {
        "@id": "160", 
        "@name": "Rosetta"
      }, 
      {
        "@id": "161", 
        "@name": "베셰렐"
      }, 
      {
        "@id": "162", 
        "@name": "Vecherel"
      }, 
      {
        "@id": "163", 
        "@name": "아르웬"
      }, 
      {
        "@id": "164", 
        "@name": "Arwen"
      }, 
      {
        "@id": "165", 
        "@name": "그리파"
      }, 
      {
        "@id": "166", 
        "@name": "Grippa"
      }, 
      {
        "@id": "167", 
        "@name": "줄리앙"
      }, 
      {
        "@id": "168", 
        "@name": "Jullian"
      }, 
      {
        "@id": "169", 
        "@name": "비너스"
      }, 
      {
        "@id": "170", 
        "@name": "Venus"
      }, 
      {
        "@id": "171", 
        "@name": "김여사"
      }, 
      {
        "@id": "172", 
        "@name": "중개인김여사"
      }, 
      {
        "@id": "173", 
        "@name": "모모"
      }, 
      {
        "@id": "174", 
        "@name": "제인"
      }, 
      {
        "@id": "175", 
        "@name": "렌"
      }, 
      {
        "@id": "176", 
        "@name": "더글러스"
      }, 
      {
        "@id": "177", 
        "@name": "momo"
      }, 
      {
        "@id": "178", 
        "@name": "Jane"
      }, 
      {
        "@id": "179", 
        "@name": "Len"
      }, 
      {
        "@id": "180", 
        "@name": "Douglas"
      }, 
      {
        "@id": "181", 
        "@name": "김단풍"
      }, 
      {
        "@id": "182", 
        "@name": "최러닝"
      }, 
      {
        "@id": "183", 
        "@name": "땅마니"
      }, 
      {
        "@id": "184", 
        "@name": "김단풍기자"
      }, 
      {
        "@id": "185", 
        "@name": "최러닝기자"
      }, 
      {
        "@id": "186", 
        "@name": "땅마니기자"
      }, 
      {
        "@id": "187", 
        "@name": "단풍일보"
      }, 
      {
        "@id": "188", 
        "@name": "메이플스포츠"
      }, 
      {
        "@id": "189", 
        "@name": "골든홈투데이"
      }, 
      {
        "@id": "190", 
        "@name": "id"
      }, 
      {
        "@id": "191", 
        "@name": "아이디"
      }, 
      {
        "@id": "192", 
        "@name": "uid"
      }, 
      {
        "@id": "193", 
        "@name": "gid"
      }, 
      {
        "@id": "194", 
        "@name": "매니저"
      }, 
      {
        "@id": "195", 
        "@name": "게임매니저"
      }, 
      {
        "@id": "196", 
        "@name": "manager"
      }, 
      {
        "@id": "197", 
        "@name": "gamemanager"
      }, 
      {
        "@id": "198", 
        "@name": "player"
      }, 
      {
        "@id": "199", 
        "@name": "테스터"
      }, 
      {
        "@id": "200", 
        "@name": "에러"
      }, 
      {
        "@id": "201", 
        "@name": "오류"
      }, 
      {
        "@id": "202", 
        "@name": "server"
      }, 
      {
        "@id": "203", 
        "@name": "servermanager"
      }, 
      {
        "@id": "204", 
        "@name": "서버"
      }, 
      {
        "@id": "205", 
        "@name": "서버매니저"
      }, 
      {
        "@id": "206", 
        "@name": "client"
      }, 
      {
        "@id": "207", 
        "@name": "클라이언트"
      }, 
      {
        "@id": "208", 
        "@name": "database"
      }, 
      {
        "@id": "209", 
        "@name": "security"
      }, 
      {
        "@id": "210", 
        "@name": "guest"
      }, 
      {
        "@id": "211", 
        "@name": "계정"
      }, 
      {
        "@id": "212", 
        "@name": "cash"
      }, 
      {
        "@id": "213", 
        "@name": "cashitem"
      }, 
      {
        "@id": "214", 
        "@name": "cashmanager"
      }, 
      {
        "@id": "215", 
        "@name": "캐시"
      }, 
      {
        "@id": "216", 
        "@name": "캐시아이템"
      }, 
      {
        "@id": "217", 
        "@name": "캐시매니저"
      }, 
      {
        "@id": "218", 
        "@name": "캐쉬"
      }, 
      {
        "@id": "219", 
        "@name": "캐쉬아이템"
      }, 
      {
        "@id": "220", 
        "@name": "캐쉬매니저"
      }, 
      {
        "@id": "221", 
        "@name": "캐시샵"
      }, 
      {
        "@id": "222", 
        "@name": "캐시샵매니저"
      }, 
      {
        "@id": "223", 
        "@name": "캐쉬샵"
      }, 
      {
        "@id": "224", 
        "@name": "cashshop"
      }, 
      {
        "@id": "225", 
        "@name": "shop"
      }, 
      {
        "@id": "226", 
        "@name": "shopmanager"
      }, 
      {
        "@id": "227", 
        "@name": "샵매니저"
      }, 
      {
        "@id": "228", 
        "@name": "market"
      }, 
      {
        "@id": "229", 
        "@name": "marketmanager"
      }, 
      {
        "@id": "230", 
        "@name": "마켓"
      }, 
      {
        "@id": "231", 
        "@name": "마켓매니저"
      }, 
      {
        "@id": "232", 
        "@name": "index"
      }, 
      {
        "@id": "233", 
        "@name": "data"
      }, 
      {
        "@id": "234", 
        "@name": "데이터"
      }, 
      {
        "@id": "235", 
        "@name": "데이타"
      }, 
      {
        "@id": "236", 
        "@name": "datamanager"
      }, 
      {
        "@id": "237", 
        "@name": "데이터매니저"
      }, 
      {
        "@id": "238", 
        "@name": "데이타매니저"
      }, 
      {
        "@id": "239", 
        "@name": "ban"
      }, 
      {
        "@id": "240", 
        "@name": "banid"
      }, 
      {
        "@id": "241", 
        "@name": "이용제한"
      }, 
      {
        "@id": "242", 
        "@name": "제한계정"
      }, 
      {
        "@id": "243", 
        "@name": "제한아이디"
      }, 
      {
        "@id": "244", 
        "@name": "host"
      }, 
      {
        "@id": "245", 
        "@name": "호스트"
      }, 
      {
        "@id": "246", 
        "@name": "localhost"
      }, 
      {
        "@id": "247", 
        "@name": "로컬호스트"
      }, 
      {
        "@id": "248", 
        "@name": "DB"
      }, 
      {
        "@id": "249", 
        "@name": "DBA"
      }, 
      {
        "@id": "250", 
        "@name": "dbmanager"
      }, 
      {
        "@id": "251", 
        "@name": "DB매니저"
      }, 
      {
        "@id": "252", 
        "@name": "local"
      }, 
      {
        "@id": "253", 
        "@name": "로컬"
      }, 
      {
        "@id": "254", 
        "@name": "localmanager"
      }, 
      {
        "@id": "255", 
        "@name": "로컬매니저"
      }, 
      {
        "@id": "256", 
        "@name": "마스터"
      }, 
      {
        "@id": "257", 
        "@name": "게임마스터"
      }, 
      {
        "@id": "258", 
        "@name": "gamemaster"
      }, 
      {
        "@id": "259", 
        "@name": "샵마스터"
      }, 
      {
        "@id": "260", 
        "@name": "캐시샵마스터"
      }, 
      {
        "@id": "261", 
        "@name": "보안"
      }, 
      {
        "@id": "262", 
        "@name": "보안매니저"
      }, 
      {
        "@id": "263", 
        "@name": "securemanager"
      }, 
      {
        "@id": "264", 
        "@name": "management"
      }, 
      {
        "@id": "265", 
        "@name": "content"
      }, 
      {
        "@id": "266", 
        "@name": "contents"
      }, 
      {
        "@id": "267", 
        "@name": "contentmanager"
      }, 
      {
        "@id": "268", 
        "@name": "contentsmanager"
      }, 
      {
        "@id": "269", 
        "@name": "콘텐츠"
      }, 
      {
        "@id": "270", 
        "@name": "컨텐츠"
      }, 
      {
        "@id": "271", 
        "@name": "콘텐츠매니저"
      }, 
      {
        "@id": "272", 
        "@name": "account"
      }, 
      {
        "@id": "273", 
        "@name": "accountmanager"
      }, 
      {
        "@id": "274", 
        "@name": "accountinfo"
      }, 
      {
        "@id": "275", 
        "@name": "service"
      }, 
      {
        "@id": "276", 
        "@name": "servicemanger"
      }, 
      {
        "@id": "277", 
        "@name": "서비스"
      }, 
      {
        "@id": "278", 
        "@name": "서비스매니저"
      }, 
      {
        "@id": "279", 
        "@name": "bugreport"
      }, 
      {
        "@id": "280", 
        "@name": "버그리포트"
      }, 
      {
        "@id": "281", 
        "@name": "복구"
      }, 
      {
        "@id": "282", 
        "@name": "복구매니저"
      }, 
      {
        "@id": "283", 
        "@name": "거래"
      }, 
      {
        "@id": "284", 
        "@name": "거래매니저"
      }, 
      {
        "@id": "285", 
        "@name": "recoverymanager"
      }, 
      {
        "@id": "286", 
        "@name": "trademanager"
      }, 
      {
        "@id": "287", 
        "@name": "소지품경고"
      }, 
      {
        "@id": "288", 
        "@name": "벽보매니저"
      }, 
      {
        "@id": "289", 
        "@name": "전광판매니저"
      }, 
      {
        "@id": "290", 
        "@name": "network"
      }, 
      {
        "@id": "291", 
        "@name": "networkmanager"
      }, 
      {
        "@id": "292", 
        "@name": "game마스터"
      }, 
      {
        "@id": "293", 
        "@name": "containermanager"
      }, 
      {
        "@id": "294", 
        "@name": "컨테이너매니저"
      }, 
      {
        "@id": "295", 
        "@name": "콘테이너매니저"
      }, 
      {
        "@id": "296", 
        "@name": "창고매니저"
      }, 
      {
        "@id": "297", 
        "@name": "domain"
      }, 
      {
        "@id": "298", 
        "@name": "domainmanager"
      }, 
      {
        "@id": "299", 
        "@name": "도메인매니저"
      }, 
      {
        "@id": "300", 
        "@name": "메이뷰"
      }, 
      {
        "@id": "301", 
        "@name": "매이뷰"
      }, 
      {
        "@id": "302", 
        "@name": "maview"
      }, 
      {
        "@id": "303", 
        "@name": "maviewmanager"
      }, 
      {
        "@id": "304", 
        "@name": "메이뷰매니저"
      }, 
      {
        "@id": "305", 
        "@name": "매이뷰매니저"
      }, 
      {
        "@id": "306", 
        "@name": "invalid"
      }, 
      {
        "@id": "307", 
        "@name": "invalidid"
      }, 
      {
        "@id": "308", 
        "@name": "invaliduser"
      }, 
      {
        "@id": "309", 
        "@name": "unknown"
      }, 
      {
        "@id": "310", 
        "@name": "로라"
      }, 
      {
        "@id": "311", 
        "@name": "지노"
      }, 
      {
        "@id": "312", 
        "@name": "춘배"
      }, 
      {
        "@id": "313", 
        "@name": "잭키"
      }, 
      {
        "@id": "314", 
        "@name": "워릭"
      }, 
      {
        "@id": "315", 
        "@name": "미카"
      }, 
      {
        "@id": "316", 
        "@name": "혁이"
      }
    ]
  }
}