{
  "?xml": {
    "@version": "1.0", 
    "@encoding": "utf-8"
  }, 
  "ms2": {
    "key": [
      {
        "@id": "20000001", 
        "@name": "Swift Swim"
      }, 
      {
        "@id": "20000011", 
        "@name": "Wall Climbing"
      }, 
      {
        "@id": "20000021", 
        "@name": "Flying Balloon"
      }, 
      {
        "@id": "20000031", 
        "@name": "Grab"
      }, 
      {
        "@id": "20000041", 
        "@name": "Eagle Familiar"
      }, 
      {
        "@id": "20000051", 
        "@name": "Heavenbound Hog"
      }, 
      {
        "@id": "20000061", 
        "@name": "Second Wind"
      }, 
      {
        "@id": "20000071", 
        "@name": "Brilliant Bulb"
      }, 
      {
        "@id": "20000081", 
        "@name": "Alien Menace"
      }, 
      {
        "@id": "20000091", 
        "@name": "Booster Missile"
      }, 
      {
        "@id": "20000101", 
        "@name": "Titan Rocket"
      }, 
      {
        "@id": "20000111", 
        "@name": "Paper Airplane"
      }, 
      {
        "@id": "20000121", 
        "@name": "Drone"
      }, 
      {
        "@id": "20000131", 
        "@name": "Snowflake"
      }, 
      {
        "@id": "20000141", 
        "@name": "Levitation Sigil"
      }, 
      {
        "@id": "20000151", 
        "@name": "Duckling Balloons"
      }, 
      {
        "@id": "20000161", 
        "@name": "Flying Slime"
      }, 
      {
        "@id": "20000171", 
        "@name": "Flying Maple Leaf"
      }, 
      {
        "@id": "40000001", 
        "@name": "Headbutt"
      }, 
      {
        "@id": "40001001", 
        "@name": "Rushing Headbutt"
      }, 
      {
        "@id": "40002001", 
        "@name": "Leaf Throw"
      }, 
      {
        "@id": "40003001", 
        "@name": "Headbutt"
      }, 
      {
        "@id": "40003011", 
        "@name": "Rushing Headbutt"
      }, 
      {
        "@id": "40004001", 
        "@name": "Headbutt"
      }, 
      {
        "@id": "40005001", 
        "@name": "Headbutt"
      }, 
      {
        "@id": "40005011", 
        "@name": "Release Poison Powder"
      }, 
      {
        "@id": "40006001", 
        "@name": "Headbutt"
      }, 
      {
        "@id": "40006011", 
        "@name": "Release Confusion Powder"
      }, 
      {
        "@id": "40007001", 
        "@name": "Headbutt"
      }, 
      {
        "@id": "40007011", 
        "@name": "Release Paralysis Powder"
      }, 
      {
        "@id": "40008001", 
        "@name": "Jumping Slam Down"
      }, 
      {
        "@id": "40008011", 
        "@name": "Rolling Attack"
      }, 
      {
        "@id": "40009001", 
        "@name": "Jumping Slam Down"
      }, 
      {
        "@id": "40009011", 
        "@name": "Thorn Thrust"
      }, 
      {
        "@id": "40010001", 
        "@name": "Vine Sting Hit 3"
      }, 
      {
        "@id": "40010002", 
        "@name": "Vine Sting Hit 3 Splash"
      }, 
      {
        "@id": "40010011", 
        "@name": "Cross Vine Sting"
      }, 
      {
        "@id": "40010012", 
        "@name": "Cross Vine Sting Splash"
      }, 
      {
        "@id": "40011001", 
        "@name": "Vine Wave"
      }, 
      {
        "@id": "40011002", 
        "@name": "Vine Splash"
      }, 
      {
        "@id": "40011011", 
        "@name": "Vine Prison"
      }, 
      {
        "@id": "40011012", 
        "@name": "Vine Prison Splash"
      }, 
      {
        "@id": "40011021", 
        "@name": "Release Poison Cloud"
      }, 
      {
        "@id": "59000001", 
        "@name": "Honk"
      }, 
      {
        "@id": "59000002", 
        "@name": "Accelerator"
      }, 
      {
        "@id": "59000003", 
        "@name": "High Beam"
      }, 
      {
        "@id": "59000004", 
        "@name": "Tamed Ducky"
      }, 
      {
        "@id": "59000005", 
        "@name": "Tamed Lycao"
      }, 
      {
        "@id": "59000006", 
        "@name": "Tamed Cobalt Lupin"
      }, 
      {
        "@id": "59000007", 
        "@name": "Tamed Cerbe"
      }, 
      {
        "@id": "59000008", 
        "@name": "Tamed Birk"
      }, 
      {
        "@id": "59000009", 
        "@name": "Tamed Dueling Birk"
      }, 
      {
        "@id": "59000010", 
        "@name": "Tamed Lupin"
      }, 
      {
        "@id": "59000011", 
        "@name": "Tamed Scarlet Lupin"
      }, 
      {
        "@id": "59000012", 
        "@name": "Tamed Curse Eye"
      }, 
      {
        "@id": "59000013", 
        "@name": "Tamed Evil Eye"
      }, 
      {
        "@id": "59000014", 
        "@name": "Tamed Lava Eye"
      }, 
      {
        "@id": "59000015", 
        "@name": "Tamed Broccoli Turtle"
      }, 
      {
        "@id": "59000016", 
        "@name": "Tamed Dark Broccoli Turtle"
      }, 
      {
        "@id": "59000017", 
        "@name": "Tamed Red Lotus Turtle"
      }, 
      {
        "@id": "59000018", 
        "@name": "Tamed Yellow Lotus Turtle"
      }, 
      {
        "@id": "59000019", 
        "@name": "Tamed Hylicao"
      }, 
      {
        "@id": "60012001", 
        "@name": "Hammer Slam Down"
      }, 
      {
        "@id": "60012011", 
        "@name": "Hammer Slam Down (Move)"
      }, 
      {
        "@id": "60012021", 
        "@name": "Strike up with Hammer"
      }, 
      {
        "@id": "60012031", 
        "@name": "Dash Strike up with Hammer"
      }, 
      {
        "@id": "60012041", 
        "@name": "Poison Hammer Slam Down"
      }, 
      {
        "@id": "60012051", 
        "@name": "Throw Toxic Substance"
      }, 
      {
        "@id": "60012052", 
        "@name": "Throw Toxic Substance Splash"
      }, 
      {
        "@id": "60012061", 
        "@name": "Throw Enhanced Toxic Substance"
      }, 
      {
        "@id": "70000001", 
        "@name": "Thorn"
      }, 
      {
        "@id": "70000002", 
        "@name": "Lava"
      }, 
      {
        "@id": "70000003", 
        "@name": "Pincer Attack"
      }, 
      {
        "@id": "70000004", 
        "@name": "Lava Stack Damage"
      }, 
      {
        "@id": "70000005", 
        "@name": "Attack Down"
      }, 
      {
        "@id": "70000006", 
        "@name": "Attack Down"
      }, 
      {
        "@id": "70000007"
      }, 
      {
        "@id": "70000008", 
        "@name": "Movement Speed Up"
      }, 
      {
        "@id": "70000009", 
        "@name": "Decreases movement speed."
      }, 
      {
        "@id": "70000010", 
        "@name": "Toxic Swamp"
      }, 
      {
        "@id": "70000011", 
        "@name": "Steam Pit"
      }, 
      {
        "@id": "70000012", 
        "@name": "Steam Pit Wall"
      }, 
      {
        "@id": "70000013", 
        "@name": "Steam Pit Wall 2"
      }, 
      {
        "@id": "70000014", 
        "@name": "Geyser"
      }, 
      {
        "@id": "70000015", 
        "@name": "Iron Skewer"
      }, 
      {
        "@id": "70000016", 
        "@name": "Wooden Skewer"
      }, 
      {
        "@id": "70000017", 
        "@name": "Shadow Poison"
      }, 
      {
        "@id": "70000018", 
        "@name": "Regenerate"
      }, 
      {
        "@id": "70000019", 
        "@name": "Blessing of Ereve"
      }, 
      {
        "@id": "70000020", 
        "@name": "Blessing of Puzroon"
      }, 
      {
        "@id": "70000021", 
        "@name": "Shadow Poison"
      }, 
      {
        "@id": "70000022", 
        "@name": "G-star Mini-game Steam"
      }, 
      {
        "@id": "70000023", 
        "@name": "Decreases movement speed."
      }, 
      {
        "@id": "70000025", 
        "@name": "Nullify Stamina"
      }, 
      {
        "@id": "70000027", 
        "@name": "Toxic Swamp (Toh and Googoo)"
      }, 
      {
        "@id": "70000028", 
        "@name": "Shadow Domination"
      }, 
      {
        "@id": "70000029", 
        "@name": "Lapenta Aegis"
      }, 
      {
        "@id": "70000030", 
        "@name": "Well Rested"
      }, 
      {
        "@id": "70000031", 
        "@name": "Shadow Power (Gain Full Health)"
      }, 
      {
        "@id": "70000032", 
        "@name": "Safe Travels"
      }, 
      {
        "@id": "70000034", 
        "@name": "Red Wolf's Valor"
      }, 
      {
        "@id": "70000035", 
        "@name": "Activate Red Wolf's Valor"
      }, 
      {
        "@id": "70000036", 
        "@name": "Wisdom of Namid"
      }, 
      {
        "@id": "70000037", 
        "@name": "Activate Wisdom of Namid"
      }, 
      {
        "@id": "70000038", 
        "@name": "Blessing of Kumbawanka"
      }, 
      {
        "@id": "70000039", 
        "@name": "Activate Blessing of Kumbawanka"
      }, 
      {
        "@id": "70000040", 
        "@name": "Enhanced Geyser"
      }, 
      {
        "@id": "70000041", 
        "@name": "Vengeance"
      }, 
      {
        "@id": "70000042", 
        "@name": "Electric AoE"
      }, 
      {
        "@id": "70000043", 
        "@name": "Party Dungeon Bomb"
      }, 
      {
        "@id": "70000045", 
        "@name": "Dimensional Chaos"
      }, 
      {
        "@id": "70000046", 
        "@name": "Toxic Swamp (Toh and Googoo)"
      }, 
      {
        "@id": "70000047", 
        "@name": "Plant Bomb & Remove Poisoned Status (Lo and Moomoo)"
      }, 
      {
        "@id": "70000048", 
        "@name": "Display Effect of Lo and Moomoo Recovery Spring"
      }, 
      {
        "@id": "70000049", 
        "@name": "Remove Frozen State (Shoo and Googoo)"
      }, 
      {
        "@id": "70000050", 
        "@name": "Display Effect of Shoo and Googoo Recovery Fire"
      }, 
      {
        "@id": "70000051", 
        "@name": "Bella's Flame"
      }, 
      {
        "@id": "70000058", 
        "@name": "Wind of Life"
      }, 
      {
        "@id": "70000113", 
        "@name": "Burning Breath"
      }, 
      {
        "@id": "70000114", 
        "@name": "Snowfield's Intense Cold"
      }, 
      {
        "@id": "70000117", 
        "@name": "Slime Factory Furnace Terrain Damage", 
        "@feature": "GuildRaid01"
      }, 
      {
        "@id": "70000136", 
        "@name": "Bleed"
      }, 
      {
        "@id": "70000137", 
        "@name": "Bleed"
      }, 
      {
        "@id": "70000138", 
        "@name": "Bleed"
      }, 
      {
        "@id": "70000139", 
        "@name": "Bleed"
      }, 
      {
        "@id": "70000140", 
        "@name": "Bleed"
      }, 
      {
        "@id": "70000201", 
        "@name": "Thornbush"
      }, 
      {
        "@id": "70000202", 
        "@name": "Thornbush"
      }, 
      {
        "@id": "70000203", 
        "@name": "Thornbush"
      }, 
      {
        "@id": "70000204", 
        "@name": "Thornbush"
      }, 
      {
        "@id": "70000211", 
        "@name": "Thornbush"
      }, 
      {
        "@id": "70000212", 
        "@name": "Thornbush"
      }, 
      {
        "@id": "70000213", 
        "@name": "Thornbush"
      }, 
      {
        "@id": "70000214", 
        "@name": "Thornbush"
      }, 
      {
        "@id": "70000301", 
        "@name": "Poisonous Swamp"
      }, 
      {
        "@id": "80000002", 
        "@name": "Tamed Lycao"
      }, 
      {
        "@id": "80000003", 
        "@name": "Tamed Lightning Wolf"
      }, 
      {
        "@id": "80000004", 
        "@name": "Merrari 458 Tria (Red)"
      }, 
      {
        "@id": "80000005", 
        "@name": "Tamed Cerbe"
      }, 
      {
        "@id": "80000006", 
        "@name": "Tamed Birk"
      }, 
      {
        "@id": "80000007", 
        "@name": "Tamed Dueling Birk"
      }, 
      {
        "@id": "80000008", 
        "@name": "Merrari 458 Tria (White)"
      }, 
      {
        "@id": "80000009", 
        "@name": "Merrari 458 Tria (Black)"
      }, 
      {
        "@id": "90000001", 
        "@name": "Red Potion"
      }, 
      {
        "@id": "90000002", 
        "@name": "Green Milk"
      }, 
      {
        "@id": "90000003", 
        "@name": "Red Milk"
      }, 
      {
        "@id": "90000004", 
        "@name": "Instantly Recover Mana"
      }, 
      {
        "@id": "90000005", 
        "@name": "Instantly Recover Health/Mana"
      }, 
      {
        "@id": "90000006", 
        "@name": "Barbecue"
      }, 
      {
        "@id": "90000007", 
        "@name": "Fairy Cookie"
      }, 
      {
        "@id": "90000008", 
        "@name": "Sweet Honey"
      }, 
      {
        "@id": "90000009", 
        "@name": "Energy Drink"
      }, 
      {
        "@id": "90000010", 
        "@name": "Lv. 1 Elixir"
      }, 
      {
        "@id": "90000011", 
        "@name": "Orange Potion"
      }, 
      {
        "@id": "90000012", 
        "@name": "White Potion"
      }, 
      {
        "@id": "90000013", 
        "@name": "Boiling Lava"
      }, 
      {
        "@id": "90000014", 
        "@name": "Health % Recovery"
      }, 
      {
        "@id": "90000015", 
        "@name": "Lv. 2 Elixir"
      }, 
      {
        "@id": "90000016", 
        "@name": "Lv. 3 Elixir"
      }, 
      {
        "@id": "90000017", 
        "@name": "Lv. 4 Elixir"
      }, 
      {
        "@id": "90000018", 
        "@name": "Lv. 5 Elixir"
      }, 
      {
        "@id": "90000019", 
        "@name": "Powerful White Potion"
      }, 
      {
        "@id": "90000020", 
        "@name": "Super Powerful White Potion"
      }, 
      {
        "@id": "90000021", 
        "@name": "Super Duper Powerful White Potion"
      }, 
      {
        "@id": "90000022", 
        "@name": "Turtle Egg"
      }, 
      {
        "@id": "90000023", 
        "@name": "Combat Rations"
      }, 
      {
        "@id": "90000024", 
        "@name": "Dubi Gummies"
      }, 
      {
        "@id": "90000025", 
        "@name": "Glutamine Tablet"
      }, 
      {
        "@id": "90000026", 
        "@name": "Warrior Tonic"
      }, 
      {
        "@id": "90000027", 
        "@name": "Magic Tonic"
      }, 
      {
        "@id": "90000028", 
        "@name": "Health Tonic"
      }, 
      {
        "@id": "90000029", 
        "@name": "Experience Tonic"
      }, 
      {
        "@id": "90000031", 
        "@name": "Lv. 1 Instant Recovery Potion"
      }, 
      {
        "@id": "90000032", 
        "@name": "Lv. 10 Instant Recovery Potion"
      }, 
      {
        "@id": "90000033", 
        "@name": "Lv. 20 Instant Recovery Potion"
      }, 
      {
        "@id": "90000034", 
        "@name": "Lv. 30 Instant Recovery Potion"
      }, 
      {
        "@id": "90000035", 
        "@name": "Lv. 40 Instant Recovery Potion"
      }, 
      {
        "@id": "90000036", 
        "@name": "Lv. 45 Instant Recovery Potion"
      }, 
      {
        "@id": "90000037", 
        "@name": "Lv. 50 Instant Recovery Potion"
      }, 
      {
        "@id": "90000038", 
        "@name": "Lv. 1 Gradual Recovery Potion"
      }, 
      {
        "@id": "90000039", 
        "@name": "Lv. 10 Gradual Recovery Potion"
      }, 
      {
        "@id": "90000040", 
        "@name": "Lv. 20 Gradual Recovery Potion"
      }, 
      {
        "@id": "90000041", 
        "@name": "Lv. 30 Gradual Recovery Potion"
      }, 
      {
        "@id": "90000042", 
        "@name": "Lv. 40 Gradual Recovery Potion"
      }, 
      {
        "@id": "90000043", 
        "@name": "Lv. 45 Gradual Recovery Potion"
      }, 
      {
        "@id": "90000044", 
        "@name": "Lv. 50 Gradual Recovery Potion"
      }, 
      {
        "@id": "90000046", 
        "@name": "Strawberry Punch"
      }, 
      {
        "@id": "90000047", 
        "@name": "Rainbow Shake"
      }, 
      {
        "@id": "90000048", 
        "@name": "Orange Cooler"
      }, 
      {
        "@id": "90000049", 
        "@name": "Strawberry Knock-out"
      }, 
      {
        "@id": "90000050", 
        "@name": "High Flyer"
      }, 
      {
        "@id": "90000051", 
        "@name": "Milk"
      }, 
      {
        "@id": "90000052", 
        "@name": "Egg"
      }, 
      {
        "@id": "90000053", 
        "@name": "Pot of Honey"
      }, 
      {
        "@id": "90000054", 
        "@name": "Golden Apple"
      }, 
      {
        "@id": "90000055", 
        "@name": "Blue Mushroom"
      }, 
      {
        "@id": "90000056", 
        "@name": "Baba Powder"
      }, 
      {
        "@id": "90000057", 
        "@name": "Abyssal DNA"
      }, 
      {
        "@id": "90000058", 
        "@name": "Unprocessed Sample"
      }, 
      {
        "@id": "90000059", 
        "@name": "Mutated DNA"
      }, 
      {
        "@id": "90000060", 
        "@name": "Experimental Potion"
      }, 
      {
        "@id": "90000061", 
        "@name": "Concrete Powder"
      }, 
      {
        "@id": "90000062", 
        "@name": "Sweet Leaf"
      }, 
      {
        "@id": "90000063", 
        "@name": "Lava Eye Tail"
      }, 
      {
        "@id": "90000064", 
        "@name": "Evil Eye Poop"
      }, 
      {
        "@id": "90000065", 
        "@name": "Slime Glob"
      }, 
      {
        "@id": "90000066", 
        "@name": "Captured Stone Crabby"
      }, 
      {
        "@id": "90000067", 
        "@name": "Mandecasil"
      }, 
      {
        "@id": "90000068", 
        "@name": "Ripe Valley Enoki"
      }, 
      {
        "@id": "90000069", 
        "@name": "Rotten Valley Enoki"
      }, 
      {
        "@id": "90000070", 
        "@name": "Fairy Dew"
      }, 
      {
        "@id": "90000071", 
        "@name": "Red Daisy"
      }, 
      {
        "@id": "90000072", 
        "@name": "Clam Meat"
      }, 
      {
        "@id": "90000073", 
        "@name": "Fresh Chicken"
      }, 
      {
        "@id": "90000074", 
        "@name": "Fast-gro"
      }, 
      {
        "@id": "90000075", 
        "@name": "Springy Ramen"
      }, 
      {
        "@id": "90000076", 
        "@name": "Plump Chicken"
      }, 
      {
        "@id": "90000077", 
        "@name": "Squid Peanut"
      }, 
      {
        "@id": "90000078", 
        "@name": "Fireworks"
      }, 
      {
        "@id": "90000079", 
        "@name": "Experience Booster +50%"
      }, 
      {
        "@id": "90000080", 
        "@name": "Superb Experience Booster +50%"
      }, 
      {
        "@id": "90000081", 
        "@name": "Experience Booster +100%"
      }, 
      {
        "@id": "90000082", 
        "@name": "Superb Experience Booster +100%"
      }, 
      {
        "@id": "90000083", 
        "@name": "Experience Booster +200%"
      }, 
      {
        "@id": "90000084", 
        "@name": "Superb Experience Booster +200%"
      }, 
      {
        "@id": "90000085", 
        "@name": "Giant Lava Eye Tail"
      }, 
      {
        "@id": "90000086", 
        "@name": "Spoiled Milk"
      }, 
      {
        "@id": "90000087", 
        "@name": "Multigrain Bread"
      }, 
      {
        "@id": "90000088", 
        "@name": "Green Herb"
      }, 
      {
        "@id": "90000089", 
        "@name": "Green Potion"
      }, 
      {
        "@id": "90000090", 
        "@name": "Invisibility Potion"
      }, 
      {
        "@id": "90000091", 
        "@name": "Stun Grenade"
      }, 
      {
        "@id": "90000092"
      }, 
      {
        "@id": "90000093", 
        "@name": "Baba Fruit"
      }, 
      {
        "@id": "90000094", 
        "@name": "Torn Shadow"
      }, 
      {
        "@id": "90000121", 
        "@name": "Snowflake Fireworks"
      }, 
      {
        "@id": "90000122", 
        "@name": "Pink Petal Fireworks"
      }, 
      {
        "@id": "90000123", 
        "@name": "Premium Fireworks"
      }, 
      {
        "@id": "90000124", 
        "@name": "Heart Fireworks"
      }, 
      {
        "@id": "90000125", 
        "@name": "Bat Tracks"
      }, 
      {
        "@id": "90000126", 
        "@name": "Star Tracks"
      }, 
      {
        "@id": "90000127", 
        "@name": "Petal Tracks"
      }, 
      {
        "@id": "90000128", 
        "@name": "Starry Fireworks"
      }, 
      {
        "@id": "90000180", 
        "@name": "Mano's Mesmerizing Flower"
      }, 
      {
        "@id": "90000190", 
        "@name": "Bitter Pill"
      }, 
      {
        "@id": "90000191", 
        "@name": "Heart Starter"
      }, 
      {
        "@id": "90000193", 
        "@name": "Golden Dungeon Key"
      }, 
      {
        "@id": "90000262", 
        "@name": "Worm Lure"
      }, 
      {
        "@id": "90000263", 
        "@name": "Fresh Bait"
      }, 
      {
        "@id": "90000264", 
        "@name": "Fancy Bait"
      }, 
      {
        "@id": "90000265", 
        "@name": "Shiny Bait"
      }, 
      {
        "@id": "90000266", 
        "@name": "Tasty Bait"
      }, 
      {
        "@id": "90000267", 
        "@name": "Big Worm Lure"
      }, 
      {
        "@id": "90000268", 
        "@name": "Striped Worm"
      }, 
      {
        "@id": "90000269", 
        "@name": "Luminous Lure"
      }, 
      {
        "@id": "90000270", 
        "@name": "Fire Worm Lure"
      }, 
      {
        "@id": "90000271", 
        "@name": "Devil Spider"
      }, 
      {
        "@id": "90000331", 
        "@name": "Maple Cookie "
      }, 
      {
        "@id": "90000332", 
        "@name": "Maple Cookie 2"
      }, 
      {
        "@id": "90000333", 
        "@name": "Maple Cookie 3"
      }, 
      {
        "@id": "90000334", 
        "@name": "Maple Cooki 4"
      }, 
      {
        "@id": "90000335", 
        "@name": "Spoiled Maple Cookie"
      }, 
      {
        "@id": "90000339", 
        "@name": "Experience Booster +100%"
      }, 
      {
        "@id": "90000341", 
        "@name": "Experience Booster +200%"
      }, 
      {
        "@id": "90000343", 
        "@name": "Mining Production Buff Tool (Guide Quest)", 
        "@feature": "Mastery"
      }, 
      {
        "@id": "90000344", 
        "@name": "Mining Production Buff Tool 1", 
        "@feature": "Mastery"
      }, 
      {
        "@id": "90000345", 
        "@name": "Mining Production Buff Tool 2", 
        "@feature": "Mastery"
      }, 
      {
        "@id": "90000346", 
        "@name": "Mining Production Buff Tool 3", 
        "@feature": "Mastery"
      }, 
      {
        "@id": "90000347", 
        "@name": "Mining Production Buff Tool 4", 
        "@feature": "Mastery"
      }, 
      {
        "@id": "90000348", 
        "@name": "Mining Production Buff Tool 5", 
        "@feature": "Mastery"
      }, 
      {
        "@id": "90000349", 
        "@name": "Mining Production Buff Tool 6", 
        "@feature": "Mastery"
      }, 
      {
        "@id": "90000350", 
        "@name": "Ranching Production Buff Tool (Guide Quest)", 
        "@feature": "Mastery"
      }, 
      {
        "@id": "90000351", 
        "@name": "Ranching Production Buff Tool 1", 
        "@feature": "Mastery"
      }, 
      {
        "@id": "90000352", 
        "@name": "Ranching Production Buff Tool 2", 
        "@feature": "Mastery"
      }, 
      {
        "@id": "90000353", 
        "@name": "Ranching Production Buff Tool 3", 
        "@feature": "Mastery"
      }, 
      {
        "@id": "90000354", 
        "@name": "Ranching Production Buff Tool 4", 
        "@feature": "Mastery"
      }, 
      {
        "@id": "90000355", 
        "@name": "Ranching Production Buff Tool 5", 
        "@feature": "Mastery"
      }, 
      {
        "@id": "90000356", 
        "@name": "Ranching Production Buff Tool 6", 
        "@feature": "Mastery"
      }, 
      {
        "@id": "90000357", 
        "@name": "Mining Production Tool 1", 
        "@feature": "Mastery"
      }, 
      {
        "@id": "90000358", 
        "@name": "Mining Production Tool 2", 
        "@feature": "Mastery"
      }, 
      {
        "@id": "90000359", 
        "@name": "Mining Production Tool 3", 
        "@feature": "Mastery"
      }, 
      {
        "@id": "90000360", 
        "@name": "Mining Production Tool 4", 
        "@feature": "Mastery"
      }, 
      {
        "@id": "90000361", 
        "@name": "Mining Production Tool 5", 
        "@feature": "Mastery"
      }, 
      {
        "@id": "90000362", 
        "@name": "Mining Production Tool 6", 
        "@feature": "Mastery"
      }, 
      {
        "@id": "90000363", 
        "@name": "Ranching Production Tool 1", 
        "@feature": "Mastery"
      }, 
      {
        "@id": "90000364", 
        "@name": "Ranching Production Tool 2", 
        "@feature": "Mastery"
      }, 
      {
        "@id": "90000365", 
        "@name": "Ranching Production Tool 3", 
        "@feature": "Mastery"
      }, 
      {
        "@id": "90000366", 
        "@name": "Ranching Production Tool 4", 
        "@feature": "Mastery"
      }, 
      {
        "@id": "90000367", 
        "@name": "Ranching Production Tool 5", 
        "@feature": "Mastery"
      }, 
      {
        "@id": "90000368", 
        "@name": "Ranching Production Tool 6", 
        "@feature": "Mastery"
      }, 
      {
        "@id": "90000369", 
        "@name": "Smithing Production Tool 1", 
        "@feature": "Mastery"
      }, 
      {
        "@id": "90000370", 
        "@name": "Smithing Production Tool 2", 
        "@feature": "Mastery"
      }, 
      {
        "@id": "90000371", 
        "@name": "Smithing Production Tool 3", 
        "@feature": "Mastery"
      }, 
      {
        "@id": "90000372", 
        "@name": "Smithing Production Tool 4", 
        "@feature": "Mastery"
      }, 
      {
        "@id": "90000373", 
        "@name": "Smithing Production Tool 5", 
        "@feature": "Mastery"
      }, 
      {
        "@id": "90000374", 
        "@name": "Smithing Production Tool 6", 
        "@feature": "Mastery"
      }, 
      {
        "@id": "90000375", 
        "@name": "Handicraft Production Tool 1", 
        "@feature": "Mastery"
      }, 
      {
        "@id": "90000376", 
        "@name": "Handicraft Production Tool 2", 
        "@feature": "Mastery"
      }, 
      {
        "@id": "90000377", 
        "@name": "Handicraft Production Tool 3", 
        "@feature": "Mastery"
      }, 
      {
        "@id": "90000378", 
        "@name": "Handicraft Production Tool 4", 
        "@feature": "Mastery"
      }, 
      {
        "@id": "90000379", 
        "@name": "Handicraft Production Tool 5", 
        "@feature": "Mastery"
      }, 
      {
        "@id": "90000380", 
        "@name": "Handicraft Production Tool 6", 
        "@feature": "Mastery"
      }, 
      {
        "@id": "90000381", 
        "@name": "Smithing Mastery Buff Tool 1", 
        "@feature": "Mastery"
      }, 
      {
        "@id": "90000382", 
        "@name": "Smithing Mastery Buff Tool 2", 
        "@feature": "Mastery"
      }, 
      {
        "@id": "90000383", 
        "@name": "Smithing Mastery Buff Tool 3", 
        "@feature": "Mastery"
      }, 
      {
        "@id": "90000384", 
        "@name": "Smithing Mastery Buff Tool 4", 
        "@feature": "Mastery"
      }, 
      {
        "@id": "90000385", 
        "@name": "Smithing Mastery Buff Tool 5", 
        "@feature": "Mastery"
      }, 
      {
        "@id": "90000386", 
        "@name": "Smithing Mastery Buff Tool 6", 
        "@feature": "Mastery"
      }, 
      {
        "@id": "90000387", 
        "@name": "Handicraft Mastery Buff Tool 1", 
        "@feature": "Mastery"
      }, 
      {
        "@id": "90000388", 
        "@name": "Handicraft Mastery Buff Tool 2", 
        "@feature": "Mastery"
      }, 
      {
        "@id": "90000389", 
        "@name": "Handicraft Mastery Buff Tool 3", 
        "@feature": "Mastery"
      }, 
      {
        "@id": "90000390", 
        "@name": "Handicraft Mastery Buff Tool 4", 
        "@feature": "Mastery"
      }, 
      {
        "@id": "90000391", 
        "@name": "Handicraft Mastery Buff Tool 5", 
        "@feature": "Mastery"
      }, 
      {
        "@id": "90000392", 
        "@name": "Handicraft Mastery Buff Tool 6", 
        "@feature": "Mastery"
      }, 
      {
        "@id": "90000394", 
        "@name": "Tin Whetstone", 
        "@feature": "Mastery"
      }, 
      {
        "@id": "90000395", 
        "@name": "Platinum Whetstone", 
        "@feature": "Mastery"
      }, 
      {
        "@id": "90000396", 
        "@name": "Snail Shell Compound", 
        "@feature": "Mastery"
      }, 
      {
        "@id": "90000397", 
        "@name": "Fox Tail Compound", 
        "@feature": "Mastery"
      }, 
      {
        "@id": "90000398", 
        "@name": "Experience Booster +100%"
      }, 
      {
        "@id": "90000399", 
        "@name": "Mini Vitality Elixir"
      }, 
      {
        "@id": "90000400", 
        "@name": "Vitality Elixir"
      }, 
      {
        "@id": "90000401", 
        "@name": "Mini Energy Elixir"
      }, 
      {
        "@id": "90000402", 
        "@name": "Energy Elixir"
      }, 
      {
        "@id": "90000403", 
        "@name": "Mini Recovery Elixir"
      }, 
      {
        "@id": "90000404", 
        "@name": "Recovery Elixir"
      }, 
      {
        "@id": "90000405", 
        "@name": "Special Vitality Herb"
      }, 
      {
        "@id": "90000406", 
        "@name": "Special Energy Herb"
      }, 
      {
        "@id": "90000408", 
        "@name": "Powerful Magnetic Lure"
      }, 
      {
        "@id": "90000409", 
        "@name": "(Premium) Special White Potion"
      }, 
      {
        "@id": "90000410", 
        "@name": "Golden Pot"
      }, 
      {
        "@id": "90000411", 
        "@name": "Lulu's Experience Tonic"
      }, 
      {
        "@id": "90000412", 
        "@name": "Lulu's Mini Experience Tonic"
      }, 
      {
        "@id": "90000413", 
        "@name": "Concentrated Experience Tonic"
      }, 
      {
        "@id": "90000414", 
        "@name": "Burning Breath"
      }, 
      {
        "@id": "90000415", 
        "@name": "Lumenstone Shard"
      }, 
      {
        "@id": "90000416", 
        "@name": "Lavender Candle", 
        "@feature": "MasterySecond"
      }, 
      {
        "@id": "90000417", 
        "@name": "Yarrow Candle", 
        "@feature": "MasterySecond"
      }, 
      {
        "@id": "90000418", 
        "@name": "Sweet Pumpkin Soup", 
        "@feature": "MasterySecond"
      }, 
      {
        "@id": "90000419", 
        "@name": "Baguette", 
        "@feature": "MasterySecond"
      }, 
      {
        "@id": "90000420", 
        "@name": "Marjoram Supplement", 
        "@feature": "MasterySecond"
      }, 
      {
        "@id": "90000421", 
        "@name": "Rosemary Supplement", 
        "@feature": "MasterySecond"
      }, 
      {
        "@id": "90000422", 
        "@name": "Mandarin Supplement", 
        "@feature": "MasterySecond"
      }, 
      {
        "@id": "90000423", 
        "@name": "Tea Supplement", 
        "@feature": "MasterySecond"
      }, 
      {
        "@id": "90000424", 
        "@name": "Patchouli Supplement", 
        "@feature": "MasterySecond"
      }, 
      {
        "@id": "90000425", 
        "@name": "Bergamot Supplement", 
        "@feature": "MasterySecond"
      }, 
      {
        "@id": "90000426", 
        "@name": "Rice Chips", 
        "@feature": "MasterySecond"
      }, 
      {
        "@id": "90000427", 
        "@name": "Apple Chips", 
        "@feature": "MasterySecond"
      }, 
      {
        "@id": "90000428", 
        "@name": "Orange Chips", 
        "@feature": "MasterySecond"
      }, 
      {
        "@id": "90000429", 
        "@name": "Banana Chips", 
        "@feature": "MasterySecond"
      }, 
      {
        "@id": "90000430", 
        "@name": "Tomato Chips", 
        "@feature": "MasterySecond"
      }, 
      {
        "@id": "90000431", 
        "@name": "Pear Chips", 
        "@feature": "MasterySecond"
      }, 
      {
        "@id": "90000432", 
        "@name": "Lavender Crystal", 
        "@feature": "MasterySecond"
      }, 
      {
        "@id": "90000433", 
        "@name": "Lemon Balm Crystal", 
        "@feature": "MasterySecond"
      }, 
      {
        "@id": "90000434", 
        "@name": "Jasmine Crystal", 
        "@feature": "MasterySecond"
      }, 
      {
        "@id": "90000435", 
        "@name": "Cherry Sage Crystal", 
        "@feature": "MasterySecond"
      }, 
      {
        "@id": "90000436", 
        "@name": "Oregano Crystal", 
        "@feature": "MasterySecond"
      }, 
      {
        "@id": "90000437", 
        "@name": "Basil Crystal", 
        "@feature": "MasterySecond"
      }, 
      {
        "@id": "90000438", 
        "@name": "Pumpkin Seasoning", 
        "@feature": "MasterySecond"
      }, 
      {
        "@id": "90000439", 
        "@name": "Pine Mushroom Seasoning", 
        "@feature": "MasterySecond"
      }, 
      {
        "@id": "90000440", 
        "@name": "Green Onion Seasoning", 
        "@feature": "MasterySecond"
      }, 
      {
        "@id": "90000441", 
        "@name": "Medicinal Mushroom Seasoning", 
        "@feature": "MasterySecond"
      }, 
      {
        "@id": "90000442", 
        "@name": "Cucumber Seasoning", 
        "@feature": "MasterySecond"
      }, 
      {
        "@id": "90000443", 
        "@name": "Agaric Mushroom Seasoning", 
        "@feature": "MasterySecond"
      }, 
      {
        "@id": "90000444", 
        "@name": "Orange Madeleine", 
        "@feature": "MasterySecond"
      }, 
      {
        "@id": "90000445", 
        "@name": "Banana Sandwich", 
        "@feature": "MasterySecond"
      }, 
      {
        "@id": "90000446", 
        "@name": "Caprese Salad", 
        "@feature": "MasterySecond"
      }, 
      {
        "@id": "90000447", 
        "@name": "Fruit Tart", 
        "@feature": "MasterySecond"
      }, 
      {
        "@id": "90000448", 
        "@name": "Maple Cheesecake with Pears", 
        "@feature": "MasterySecond"
      }, 
      {
        "@id": "90000449", 
        "@name": "Pine Mushroom Stew ", 
        "@feature": "MasterySecond"
      }, 
      {
        "@id": "90000450", 
        "@name": "Medicinal Mushroom Tea", 
        "@feature": "MasterySecond"
      }, 
      {
        "@id": "90000451", 
        "@name": "Agaric Mushroom Kebab", 
        "@feature": "MasterySecond"
      }, 
      {
        "@id": "90000452", 
        "@name": "Valentine's Day Chocolate"
      }, 
      {
        "@id": "90000453", 
        "@name": "Bright Brilliance Tonic"
      }, 
      {
        "@id": "90000454", 
        "@name": "Blood Bond Tonic"
      }, 
      {
        "@id": "90000455", 
        "@name": "Swift Wind Tonic"
      }, 
      {
        "@id": "90000456", 
        "@name": "Focused Rage Tonic "
      }, 
      {
        "@id": "90000457", 
        "@name": "Immortal Guardian Tonic "
      }, 
      {
        "@id": "90000458", 
        "@name": "Condensed Boost Tonic"
      }, 
      {
        "@id": "90000459", 
        "@name": "Soaring Focus Tonic"
      }, 
      {
        "@id": "90000460", 
        "@name": "Steel Defense Tonic"
      }, 
      {
        "@id": "90000461", 
        "@name": "Concentrated Experience Tonic"
      }, 
      {
        "@id": "90000462", 
        "@name": "Special Warrior Tonic"
      }, 
      {
        "@id": "90000463", 
        "@name": "Special Mage Tonic"
      }, 
      {
        "@id": "90000464", 
        "@name": "Special Health Tonic"
      }, 
      {
        "@id": "90000465", 
        "@name": "Special Defense Tonic"
      }, 
      {
        "@id": "90000466", 
        "@name": "Experience Booster +100%"
      }, 
      {
        "@id": "90000467", 
        "@name": "Regurgitated Chocolate Milk"
      }, 
      {
        "@id": "90000482", 
        "@name": "Nutritional Supplement", 
        "@feature": "ContentsGuide02"
      }, 
      {
        "@id": "90000483", 
        "@name": "Dried Persimmon", 
        "@feature": "ContentsGuide02"
      }, 
      {
        "@id": "90000484", 
        "@name": "Fantastic Level-up Booster"
      }, 
      {
        "@id": "90000485", 
        "@name": "Experience Tonic 1"
      }, 
      {
        "@id": "90000486", 
        "@name": "Experience Tonic 2"
      }, 
      {
        "@id": "90000487", 
        "@name": "Experience Tonic 3"
      }, 
      {
        "@id": "90000488", 
        "@name": "Experience Tonic 4"
      }, 
      {
        "@id": "90100001", 
        "@name": "Has a 20% chance to drain health for 3 sec on hit."
      }, 
      {
        "@id": "90100011", 
        "@name": "20% chance to increase strength on hit."
      }, 
      {
        "@id": "90000490", 
        "@name": "Special Yummy Omelet"
      }, 
      {
        "@id": "90000491", 
        "@name": "Experience Booster +100%"
      }, 
      {
        "@id": "90000492", 
        "@name": "Overpowered Magnetic Lure"
      }, 
      {
        "@id": "90000493", 
        "@name": "Sweet adventurer potion", 
        "@locale": "CN"
      }, 
      {
        "@id": "90000494", 
        "@name": "Experience Booster +100%"
      }, 
      {
        "@id": "90000495", 
        "@name": "Pink Pot"
      }, 
      {
        "@id": "90000496", 
        "@name": "Bright Brilliance Tonic"
      }, 
      {
        "@id": "90000497", 
        "@name": "Blood Bond Tonic"
      }, 
      {
        "@id": "90000498", 
        "@name": "Swift Wind Tonic"
      }, 
      {
        "@id": "90000499", 
        "@name": "Focused Rage Tonic "
      }, 
      {
        "@id": "90000500", 
        "@name": "Immortal Guardian Tonic "
      }, 
      {
        "@id": "90000501", 
        "@name": "Condensed Boost Tonic"
      }, 
      {
        "@id": "90000502", 
        "@name": "Soaring Focus Tonic"
      }, 
      {
        "@id": "90000503", 
        "@name": "Steel Defense Tonic"
      }, 
      {
        "@id": "90000504", 
        "@name": "Experience coupon twice", 
        "@locale": "CN"
      }, 
      {
        "@id": "90000505", 
        "@name": "Experience Booster +200%"
      }, 
      {
        "@id": "90000506", 
        "@name": "Potent Meso Eye Drop"
      }, 
      {
        "@id": "90000507", 
        "@name": "Bright Brilliance Tonic"
      }, 
      {
        "@id": "90000508", 
        "@name": "Blood Bond Tonic"
      }, 
      {
        "@id": "90000509", 
        "@name": "Swift Wind Tonic"
      }, 
      {
        "@id": "90000510", 
        "@name": "Focused Rage Tonic"
      }, 
      {
        "@id": "90000511", 
        "@name": "Immortal Guardian Tonic"
      }, 
      {
        "@id": "90000512", 
        "@name": "Condensed Boost Tonic"
      }, 
      {
        "@id": "90000513", 
        "@name": "Soaring Focus Tonic"
      }, 
      {
        "@id": "90000514", 
        "@name": "Steel Defense Tonic"
      }, 
      {
        "@id": "90000595", 
        "@name": "Lulu's Elixir"
      }, 
      {
        "@id": "90000596", 
        "@name": "Automatic fishing", 
        "@locale": "CN"
      }, 
      {
        "@id": "90000597", 
        "@name": "Automatic fishing", 
        "@locale": "CN"
      }, 
      {
        "@id": "90000598", 
        "@name": "Automatic fishing", 
        "@locale": "CN"
      }, 
      {
        "@id": "90000599", 
        "@name": "Automatic playing", 
        "@locale": "CN"
      }, 
      {
        "@id": "90000600", 
        "@name": "Automatic playing", 
        "@locale": "CN"
      }, 
      {
        "@id": "90000601", 
        "@name": "Automatic playing", 
        "@locale": "CN"
      }, 
      {
        "@id": "90000606", 
        "@name": "Bright Brilliance Tonic"
      }, 
      {
        "@id": "90000607", 
        "@name": "Blood Bond Tonic"
      }, 
      {
        "@id": "90000608", 
        "@name": "Swift Wind Tonic"
      }, 
      {
        "@id": "90000609", 
        "@name": "Focused Rage Tonic"
      }, 
      {
        "@id": "90000610", 
        "@name": "Immortal Guardian Tonic"
      }, 
      {
        "@id": "90000611", 
        "@name": "Condensed Boost Tonic"
      }, 
      {
        "@id": "90000612", 
        "@name": "Soaring Focus Tonic"
      }, 
      {
        "@id": "90000613", 
        "@name": "Mini-Elixir"
      }, 
      {
        "@id": "90000614", 
        "@name": "Fantastic Level-up Booster"
      }, 
      {
        "@id": "90000615", 
        "@name": "Crispy Zakum Cookie"
      }, 
      {
        "@id": "90000616", 
        "@name": "Golden Pot"
      }, 
      {
        "@id": "90000617", 
        "@name": "Auto-Fishing"
      }, 
      {
        "@id": "90000618", 
        "@name": "Auto-Perform"
      }, 
      {
        "@id": "90000619", 
        "@name": "Pink Bean Experience Tonic"
      }, 
      {
        "@id": "90000651", 
        "@name": "Ray Fireworks"
      }, 
      {
        "@id": "90000652", 
        "@name": "Birthday Cake Fireworks"
      }, 
      {
        "@id": "90000653", 
        "@name": "((China Only)) sets of National Day Fireworks"
      }, 
      {
        "@id": "90000654", 
        "@name": "((China Only)) MapleStory Traditional Mooncake"
      }, 
      {
        "@id": "90000655", 
        "@name": "((China Only)) MapleStory Distinct Mooncake"
      }, 
      {
        "@id": "90000656", 
        "@name": "((China Only)) LAY's Spicy Stir-fried Beef"
      }, 
      {
        "@id": "90000657", 
        "@name": "((China Only)) LAY's Cream Pasta"
      }, 
      {
        "@id": "90000658", 
        "@name": "((China Only)) LAY's Homemade Hamburger"
      }, 
      {
        "@id": "90000659", 
        "@name": "Warrior Tonic"
      }, 
      {
        "@id": "90000660", 
        "@name": "Mage Tonic"
      }, 
      {
        "@id": "90000661", 
        "@name": "Health Tonic"
      }, 
      {
        "@id": "90000662", 
        "@name": "Elixir"
      }, 
      {
        "@id": "90000663", 
        "@name": "Mini-Elixir"
      }, 
      {
        "@id": "90000664", 
        "@name": "Pink Petal Fireworks"
      }, 
      {
        "@id": "90000665", 
        "@name": "Heart Fireworks"
      }, 
      {
        "@id": "90000666", 
        "@name": "Sweet cupcakes", 
        "@locale": "CN"
      }, 
      {
        "@id": "90000667", 
        "@name": "((China Only)) China Grand Opening Celebration Fireworks"
      }, 
      {
        "@id": "90000668", 
        "@name": "Starlight Magnetic Lure"
      }, 
      {
        "@id": "90000669", 
        "@name": "Pumpkin Candy"
      }, 
      {
        "@id": "90000670", 
        "@name": "Purple candy", 
        "@locale": "CN"
      }, 
      {
        "@id": "90000672", 
        "@name": "Superb Experience Booster +200%"
      }, 
      {
        "@id": "90000676", 
        "@name": "Xiao Long Pao", 
        "@locale": "CN"
      }, 
      {
        "@id": "90000677", 
        "@name": "Sengen Bao", 
        "@locale": "CN"
      }, 
      {
        "@id": "90000678", 
        "@name": "Mole atom", 
        "@locale": "CN"
      }, 
      {
        "@id": "90000679", 
        "@name": "Ching", 
        "@locale": "CN"
      }, 
      {
        "@id": "90000680", 
        "@name": "Unknown", 
        "@locale": "CN"
      }, 
      {
        "@id": "90000685", 
        "@name": "Special Defense Tonic"
      }, 
      {
        "@id": "90000686", 
        "@name": "Superb Experience Booster +100%"
      }, 
      {
        "@id": "90000687", 
        "@name": "Multigrain Bread"
      }, 
      {
        "@id": "90000688", 
        "@name": "Superb Experience Booster +200%"
      }, 
      {
        "@id": "90000689", 
        "@name": "Mushroom Experience Potion"
      }, 
      {
        "@id": "90000701", 
        "@name": "Crispy Zakum Cookie"
      }, 
      {
        "@id": "90000702", 
        "@name": "Kay's Experience Booster +100% (30 Min)"
      }, 
      {
        "@id": "90000703", 
        "@name": "Fishing Experience Booster +100% (30 Min)"
      }, 
      {
        "@id": "90000704", 
        "@name": "Beginner's Golden Lure (10 Min)"
      }, 
      {
        "@id": "90000705", 
        "@name": "Beginner's Golden Lure (1 Hour)"
      }, 
      {
        "@id": "90000706", 
        "@name": "Master's Golden Lure (10 Min)"
      }, 
      {
        "@id": "90000707", 
        "@name": "Experience Potion (500)"
      }, 
      {
        "@id": "90000708", 
        "@name": "Experience Potion (1,000)"
      }, 
      {
        "@id": "90000709", 
        "@name": "Experience Potion (5,000)"
      }, 
      {
        "@id": "90000710", 
        "@name": "Experience Potion (10,000)"
      }, 
      {
        "@id": "90000711", 
        "@name": "Experience Potion (50,000)"
      }, 
      {
        "@id": "90000712", 
        "@name": "Experience Potion (100,000)"
      }, 
      {
        "@id": "90000713", 
        "@name": "Experience Potion (500,000)"
      }, 
      {
        "@id": "90000714", 
        "@name": "Experience Potion (1,000,000)"
      }, 
      {
        "@id": "90000720", 
        "@name": "Herb", 
        "@feature": "SurvivalContents01"
      }, 
      {
        "@id": "90000728", 
        "@name": "Starlight Magnetic Lure"
      }, 
      {
        "@id": "90000729", 
        "@name": "Magic Boom", 
        "@feature": "SurvivalContents01"
      }, 
      {
        "@id": "90000730", 
        "@name": "Magic Arrow", 
        "@feature": "SurvivalContents01"
      }, 
      {
        "@id": "90000735", 
        "@name": "Stun Grenades"
      }, 
      {
        "@id": "90000736", 
        "@name": "Stun Grenades"
      }, 
      {
        "@id": "90000740", 
        "@name": "((China Only)) Adventure Island Light Crystal"
      }, 
      {
        "@id": "90000741", 
        "@name": "((China Only)) Adventure Island Snow Crystal"
      }, 
      {
        "@id": "90000749", 
        "@name": "Performance Experience Booster +100% (30 Min)"
      }, 
      {
        "@id": "90000750", 
        "@name": "Golden Butterfly Blessing"
      }, 
      {
        "@id": "90000751", 
        "@name": "Alliance Protection", 
        "@feature": "FameContents"
      }, 
      {
        "@id": "90000772", 
        "@name": "Jab", 
        "@feature": "SurvivalContents01"
      }, 
      {
        "@id": "90000773", 
        "@name": "Heavy Strike", 
        "@feature": "SurvivalContents01"
      }, 
      {
        "@id": "90000774", 
        "@name": "Whirlwind", 
        "@feature": "SurvivalContents01"
      }, 
      {
        "@id": "90000775", 
        "@name": "Bleed", 
        "@feature": "SurvivalContents01"
      }, 
      {
        "@id": "90000782", 
        "@name": "Dash"
      }, 
      {
        "@id": "90000783", 
        "@name": "Arrow Stream"
      }, 
      {
        "@id": "90000784", 
        "@name": "Lock-on"
      }, 
      {
        "@id": "90000785", 
        "@name": "M-Bomb"
      }, 
      {
        "@id": "90000786", 
        "@name": "M-Bomb"
      }, 
      {
        "@id": "90000787", 
        "@name": "M-Bomb"
      }, 
      {
        "@id": "90000791", 
        "@name": "Fireblast"
      }, 
      {
        "@id": "90000792", 
        "@name": "Magic Arrow"
      }, 
      {
        "@id": "90000793", 
        "@name": "Stun Grenades"
      }, 
      {
        "@id": "90000794", 
        "@name": "Stun Grenades"
      }, 
      {
        "@id": "90000795", 
        "@name": "Jab"
      }, 
      {
        "@id": "90000796", 
        "@name": "Arrow Stream"
      }, 
      {
        "@id": "90000797", 
        "@name": "Lock-on"
      }, 
      {
        "@id": "90000798", 
        "@name": "M-Bomb"
      }, 
      {
        "@id": "90000799", 
        "@name": "M-Bomb"
      }, 
      {
        "@id": "90000800", 
        "@name": "M-Bomb"
      }, 
      {
        "@id": "90000801", 
        "@name": "Flame Wave"
      }, 
      {
        "@id": "90000802", 
        "@name": "Flame Wave"
      }, 
      {
        "@id": "90000803", 
        "@name": "Screwdriver Shot"
      }, 
      {
        "@id": "90000804", 
        "@name": "Screwdriver Shot"
      }, 
      {
        "@id": "90000805", 
        "@name": "Shurricane"
      }, 
      {
        "@id": "90000806", 
        "@name": "Shurricane"
      }, 
      {
        "@id": "90000807", 
        "@name": "Arcane Orb"
      }, 
      {
        "@id": "90000808", 
        "@name": "Arcane Orb"
      }, 
      {
        "@id": "90000809", 
        "@name": "Arcane Orb"
      }, 
      {
        "@id": "90000810", 
        "@name": "Arcane Orb"
      }, 
      {
        "@id": "90000811", 
        "@name": "Shurricane"
      }, 
      {
        "@id": "90000812", 
        "@name": "Shurricane"
      }, 
      {
        "@id": "90000813", 
        "@name": "Mushroom Sporeblock"
      }, 
      {
        "@id": "90000831", 
        "@name": "Dash Attack"
      }, 
      {
        "@id": "90000832", 
        "@name": "Dash Attack"
      }, 
      {
        "@id": "90000834", 
        "@name": "Whirlwind", 
        "@feature": "SurvivalContents01"
      }, 
      {
        "@id": "90000837", 
        "@name": "Spring Jump", 
        "@feature": "SurvivalContents02"
      }, 
      {
        "@id": "90000840", 
        "@name": "Animal Production Buffer Tool 7", 
        "@feature": "Mastery06"
      }, 
      {
        "@id": "90000841", 
        "@name": "Mining production buff tool 7", 
        "@feature": "Mastery06"
      }, 
      {
        "@id": "90000842", 
        "@name": "Spartium crystals", 
        "@feature": "Mastery06"
      }, 
      {
        "@id": "90000843", 
        "@name": "Time Nutrition", 
        "@feature": "Mastery06"
      }, 
      {
        "@id": "90000844", 
        "@name": "Pineapple flavor seasoning", 
        "@feature": "Mastery06"
      }, 
      {
        "@id": "90000845", 
        "@name": "Durian flavored chips", 
        "@feature": "Mastery06"
      }, 
      {
        "@id": "90000846", 
        "@name": "Duck cone wheel", 
        "@feature": "Mastery06"
      }, 
      {
        "@id": "90000847", 
        "@name": "Upholstery", 
        "@feature": "Mastery06"
      }, 
      {
        "@id": "90000848", 
        "@name": "Enhanced Special Wizards Potion", 
        "@feature": "Mastery06"
      }, 
      {
        "@id": "90000849", 
        "@name": "Enhanced Crisis Detection Potion", 
        "@feature": "Mastery06"
      }, 
      {
        "@id": "90000850", 
        "@name": "Enhanced SP-fortified Potion", 
        "@feature": "Mastery06"
      }, 
      {
        "@id": "90000851", 
        "@name": "Pineapple pizza", 
        "@feature": "Mastery06"
      }, 
      {
        "@id": "90000852", 
        "@name": "Crape cake of heaven", 
        "@feature": "Mastery06"
      }, 
      {
        "@id": "90000854", 
        "@name": "Enhanced Specialist Champion Potion", 
        "@feature": "Mastery06"
      }, 
      {
        "@id": "90000855", 
        "@name": "Cool Summer Fireworks"
      }, 
      {
        "@id": "90000861", 
        "@name": "Yellow Paint Bomb"
      }, 
      {
        "@id": "90000864", 
        "@name": "Lucky Fireworks"
      }, 
      {
        "@id": "90000885", 
        "@name": "Steaming Songpyeon"
      }, 
      {
        "@id": "90000886", 
        "@name": "Soft Star Jelly"
      }, 
      {
        "@id": "90000897", 
        "@name": "Star Pop Candy"
      }, 
      {
        "@id": "90000901", 
        "@name": "Papulatus's Clock"
      }, 
      {
        "@id": "90000907", 
        "@name": "Maple Syrup", 
        "@locale": "NA"
      }, 
      {
        "@id": "90000911", 
        "@name": "Winter's Golden Apple"
      }, 
      {
        "@id": "90000912", 
        "@name": "Winter's Golden Apple"
      }, 
      {
        "@id": "90000913", 
        "@name": "Sweet Hot Cocoa"
      }, 
      {
        "@id": "90000914", 
        "@name": "Sweet Hot Cocoa"
      }, 
      {
        "@id": "90000915", 
        "@name": "Mysterious Aetherine"
      }, 
      {
        "@id": "90000916", 
        "@name": "Nairin's Special Candy"
      }, 
      {
        "@id": "90000940", 
        "@name": "Pink paint", 
        "@feature": "Event"
      }, 
      {
        "@id": "90000942", 
        "@name": "Green paint", 
        "@feature": "Event"
      }, 
      {
        "@id": "90200001", 
        "@name": "Anger"
      }, 
      {
        "@id": "90200002", 
        "@name": "Martial Shout"
      }, 
      {
        "@id": "90200003", 
        "@name": "Pout"
      }, 
      {
        "@id": "90200004", 
        "@name": "Scheme"
      }, 
      {
        "@id": "90200005", 
        "@name": "Dejected"
      }, 
      {
        "@id": "90200006", 
        "@name": "Like"
      }, 
      {
        "@id": "90200007", 
        "@name": "Don't Ask Me"
      }, 
      {
        "@id": "90200008", 
        "@name": "Dynamic Pose"
      }, 
      {
        "@id": "90200009", 
        "@name": "Despair"
      }, 
      {
        "@id": "90200010", 
        "@name": "Dreamy"
      }, 
      {
        "@id": "90200011", 
        "@name": "Greet"
      }, 
      {
        "@id": "90200012", 
        "@name": "Mock"
      }, 
      {
        "@id": "90200013", 
        "@name": "Crazy Dance"
      }, 
      {
        "@id": "90200014", 
        "@name": "Time-out"
      }, 
      {
        "@id": "90200015", 
        "@name": "Punishment"
      }, 
      {
        "@id": "90200016", 
        "@name": "Sleep"
      }, 
      {
        "@id": "90200017", 
        "@name": "Para Para Dance"
      }, 
      {
        "@id": "90200018", 
        "@name": "Tantrum"
      }, 
      {
        "@id": "90200019", 
        "@name": "Scissors"
      }, 
      {
        "@id": "90200020", 
        "@name": "Rock"
      }, 
      {
        "@id": "90200021", 
        "@name": "Paper"
      }, 
      {
        "@id": "90200022", 
        "@name": "Bow"
      }, 
      {
        "@id": "90200023", 
        "@name": "Surprise"
      }, 
      {
        "@id": "90200024", 
        "@name": "Reject"
      }, 
      {
        "@id": "90200025", 
        "@name": "Taunt"
      }, 
      {
        "@id": "90200026", 
        "@name": "Sulk"
      }, 
      {
        "@id": "90200027", 
        "@name": "Blow Kiss"
      }, 
      {
        "@id": "90200028", 
        "@name": "Kiss"
      }, 
      {
        "@id": "90200029", 
        "@name": "Tap Dance"
      }, 
      {
        "@id": "90200030", 
        "@name": "Shimmy"
      }, 
      {
        "@id": "90200031", 
        "@name": "Cry"
      }, 
      {
        "@id": "90200037", 
        "@name": "Job_Male Knight"
      }, 
      {
        "@id": "90200038", 
        "@name": "Job_Male Assassin"
      }, 
      {
        "@id": "90200039", 
        "@name": "Job_Female Priest"
      }, 
      {
        "@id": "90200040", 
        "@name": "Job_Female Archer"
      }, 
      {
        "@id": "90200041", 
        "@name": "Sit"
      }, 
      {
        "@id": "90200042", 
        "@name": "Ledge Sit"
      }, 
      {
        "@id": "90200043", 
        "@name": "Epiphany"
      }, 
      {
        "@id": "90200044", 
        "@name": "Worry"
      }, 
      {
        "@id": "90200045", 
        "@name": "Big Meanie"
      }, 
      {
        "@id": "90200046", 
        "@name": "Wave Dance"
      }, 
      {
        "@id": "90200047", 
        "@name": "Spin Dance"
      }, 
      {
        "@id": "90200048", 
        "@name": "Bunny Dance"
      }, 
      {
        "@id": "90200049", 
        "@name": "Shuffle Dance"
      }, 
      {
        "@id": "90200050", 
        "@name": "Strut Dance"
      }, 
      {
        "@id": "90200051", 
        "@name": "Worm Dance"
      }, 
      {
        "@id": "90200052", 
        "@name": "Sing"
      }, 
      {
        "@id": "90200053", 
        "@name": "Kowtow"
      }, 
      {
        "@id": "90200054", 
        "@name": "Goofy Dance"
      }, 
      {
        "@id": "90200055", 
        "@name": "Rowboat Dance"
      }, 
      {
        "@id": "90200056", 
        "@name": "Lean Dance"
      }, 
      {
        "@id": "90200057", 
        "@name": "Possessed Fan Dance"
      }, 
      {
        "@id": "90200058", 
        "@name": "Rolling Dance"
      }, 
      {
        "@id": "90200059", 
        "@name": "China GM Mannequin"
      }, 
      {
        "@id": "90200060", 
        "@name": "Windmill Dance"
      }, 
      {
        "@id": "90200061", 
        "@name": "Groove Dance"
      }, 
      {
        "@id": "90200062", 
        "@name": "Whip Dance"
      }, 
      {
        "@id": "90200063", 
        "@name": "Gold Exemplar Throne"
      }, 
      {
        "@id": "90200064", 
        "@name": "Silver Exemplar Throne"
      }, 
      {
        "@id": "90200065", 
        "@name": "Bronze Exemplar Throne"
      }, 
      {
        "@id": "90200066", 
        "@name": "Summoned Pim"
      }, 
      {
        "@id": "90200067", 
        "@name": "Dark Shade"
      }, 
      {
        "@id": "90200068", 
        "@name": "Zombie Dance"
      }, 
      {
        "@id": "90200069", 
        "@name": "Hypnotic Dance"
      }, 
      {
        "@id": "90200070", 
        "@name": "Anticipated Gift"
      }, 
      {
        "@id": "90200071", 
        "@name": "Snow Day"
      }, 
      {
        "@id": "90200072", 
        "@name": "Phoenix Throne"
      }, 
      {
        "@id": "90200073", 
        "@name": "Make It Rain"
      }, 
      {
        "@id": "90200074", 
        "@name": "Smooched by Bobby"
      }, 
      {
        "@id": "90200075", 
        "@name": "Smooched by Ruby"
      }, 
      {
        "@id": "90200076", 
        "@name": "Rose"
      }, 
      {
        "@id": "90200077", 
        "@name": "Catch of the Day"
      }, 
      {
        "@id": "90200078", 
        "@name": "Class with Goldus"
      }, 
      {
        "@id": "90200079", 
        "@name": "Class with Miel"
      }, 
      {
        "@id": "90200080", 
        "@name": "Class with Belma"
      }, 
      {
        "@id": "90200081", 
        "@name": "Cherry Blossom Picnic"
      }, 
      {
        "@id": "90200082", 
        "@name": "Salty Noodles"
      }, 
      {
        "@id": "90200083", 
        "@name": "Tasty Noodles"
      }, 
      {
        "@id": "90200084", 
        "@name": "Run for Your Life"
      }, 
      {
        "@id": "90200085", 
        "@name": "Heartfelt Proposal"
      }, 
      {
        "@id": "90200086", 
        "@name": "Accept Proposal"
      }, 
      {
        "@id": "90200087", 
        "@name": "Reject Proposal"
      }, 
      {
        "@id": "90200088", 
        "@name": "Soft Pink Bean"
      }, 
      {
        "@id": "90200089", 
        "@name": "Zakum Chair"
      }, 
      {
        "@id": "90200090", 
        "@name": "Happy Birthday"
      }, 
      {
        "@id": "90200091", 
        "@name": "Ambitious Throne"
      }, 
      {
        "@id": "90200092", 
        "@name": "High Five"
      }, 
      {
        "@id": "90200093", 
        "@name": "Hop Shuffle Boogie"
      }, 
      {
        "@id": "90200094", 
        "@name": "((China Only)) Ray Dance"
      }, 
      {
        "@id": "90200095", 
        "@name": "Pound Rice Cake"
      }, 
      {
        "@id": "90200096", 
        "@name": "A special birthday", 
        "@locale": "CN"
      }, 
      {
        "@id": "90200097", 
        "@name": "Noble Exemplar Throne"
      }, 
      {
        "@id": "90200098", 
        "@name": "Cheer Up"
      }, 
      {
        "@id": "90200099", 
        "@name": "Sweet birthday", 
        "@locale": "CN"
      }, 
      {
        "@id": "90200100", 
        "@name": "Orange Mushroom"
      }, 
      {
        "@id": "90200101", 
        "@name": "Hip Shimmy"
      }, 
      {
        "@id": "90200102", 
        "@name": "Internet Celebrity"
      }, 
      {
        "@id": "90200103", 
        "@name": "Fireworks"
      }, 
      {
        "@id": "90200104", 
        "@name": "Floral Kite"
      }, 
      {
        "@id": "90200105", 
        "@name": "Swing Set"
      }, 
      {
        "@id": "90200106", 
        "@name": "CBT Celebration", 
        "@locale": "NA"
      }, 
      {
        "@id": "90200107", 
        "@name": "Psych Up"
      }, 
      {
        "@id": "90200108", 
        "@name": "Mash King's Golden Kiln", 
        "@feature": "WorldChampionMushroom"
      }, 
      {
        "@id": "90200109", 
        "@name": "Mash King Dancer Dance", 
        "@feature": "WorldChampionMushroom"
      }, 
      {
        "@id": "90200110", 
        "@name": "Beach Day"
      }, 
      {
        "@id": "90200111", 
        "@name": "Penguin Cup"
      }, 
      {
        "@id": "90200112", 
        "@name": "Sleepy Shroom Dance"
      }, 
      {
        "@id": "90200113", 
        "@name": "Cool Watermelon Salad"
      }, 
      {
        "@id": "90200114", 
        "@name": "Congratulations on the first anniversary of Panda!", 
        "@feature": "WorldChampionMushroom"
      }, 
      {
        "@id": "90200115", 
        "@name": "Shugishi dance", 
        "@feature": "WorldChampionMushroom"
      }, 
      {
        "@id": "90200119", 
        "@name": "Puppet Show"
      }, 
      {
        "@id": "90200120", 
        "@name": "Maple Bliss"
      }, 
      {
        "@id": "90200121", 
        "@name": "Shark fishing success!", 
        "@feature": "Fishing02"
      }, 
      {
        "@id": "90200122", 
        "@name": "Piggy Dreams"
      }, 
      {
        "@id": "90200123", 
        "@name": "Hot Soak"
      }, 
      {
        "@id": "90200124", 
        "@name": "Mason Chase", 
        "@feature": "Kritias_2018_12"
      }, 
      {
        "@id": "90200125", 
        "@name": "Shuffle Step Dance"
      }, 
      {
        "@id": "90200126", 
        "@name": "Poing Poing Dance", 
        "@feature": "Event"
      }, 
      {
        "@id": "90200127", 
        "@name": "Poing Playdate", 
        "@feature": "Event"
      }, 
      {
        "@id": "90200128", 
        "@name": "Study Frenzy"
      }, 
      {
        "@id": "90200129", 
        "@name": "Zzz"
      }, 
      {
        "@id": "90200130", 
        "@name": "Insa Dance"
      }, 
      {
        "@id": "90200132", 
        "@name": "Alberto Bein training", 
        "@feature": "Colosseum01"
      }, 
      {
        "@id": "90210001", 
        "@name": "Applause", 
        "@locale": "CN"
      }, 
      {
        "@id": "90210002", 
        "@name": "Shake", 
        "@locale": "CN"
      }, 
      {
        "@id": "90220001", 
        "@name": "Embrace"
      }, 
      {
        "@id": "90220002", 
        "@name": "Fist Bump"
      }, 
      {
        "@id": "90220003", 
        "@name": "Winter Mischief"
      }, 
      {
        "@id": "90220004", 
        "@name": "Sweet Candy"
      }, 
      {
        "@id": "90220005", 
        "@name": "Please Help"
      }, 
      {
        "@id": "90220006", 
        "@name": "Lean on Me"
      }, 
      {
        "@id": "90220007", 
        "@name": "Kowtow"
      }, 
      {
        "@id": "90220008", 
        "@name": "Fantastic Couple Dance"
      }, 
      {
        "@id": "90220009", 
        "@name": "Clap Hands"
      }, 
      {
        "@id": "90220010", 
        "@name": "Hot Coffee"
      }, 
      {
        "@id": "90220011", 
        "@name": "Ducky Dance"
      }, 
      {
        "@id": "90220012", 
        "@name": "Rolling and rolling"
      }, 
      {
        "@id": "90220013", 
        "@name": "Tug o' War"
      }, 
      {
        "@id": "90220014", 
        "@name": "Water Gun"
      }, 
      {
        "@id": "90220015", 
        "@name": "Into My Arms"
      }, 
      {
        "@id": "90220016", 
        "@name": "Warm Holiday"
      }, 
      {
        "@id": "90220017", 
        "@name": "Red Lantern"
      }, 
      {
        "@id": "90220018", 
        "@name": "Nom Nom Chocolate"
      }, 
      {
        "@id": "90220019", 
        "@name": "Consolation Candy"
      }, 
      {
        "@id": "90220020", 
        "@name": "Candy Time"
      }, 
      {
        "@id": "90300001", 
        "@name": "20% chance to inflict burn on hit."
      }, 
      {
        "@id": "90300011", 
        "@name": "20% chance to increase intelligence on hit."
      }, 
      {
        "@id": "90400001", 
        "@name": "10% chance to inflict burn on hit."
      }, 
      {
        "@id": "90400011", 
        "@name": "20% chance to increase critical rate on hit."
      }, 
      {
        "@id": "90500001", 
        "@name": "25% chance to inflict bleeding on hit."
      }, 
      {
        "@id": "90500011", 
        "@name": "20% chance to increase attack speed on hit."
      }, 
      {
        "@id": "90800001", 
        "@name": "20% chance to inflict poison on hit."
      }, 
      {
        "@id": "90800011", 
        "@name": "10% chance to increase movement speed on hit."
      }, 
      {
        "@id": "99900991", 
        "@name": "Sticky Jelly", 
        "@feature": "SurvivalContents01"
      }, 
      {
        "@id": "99900992", 
        "@name": "Sticky Jelly", 
        "@feature": "SurvivalContents01"
      }, 
      {
        "@id": "99901001", 
        "@name": "Flame Bomb", 
        "@feature": "SurvivalContents01"
      }, 
      {
        "@id": "99901002", 
        "@name": "Flame Bomb", 
        "@feature": "SurvivalContents01"
      }, 
      {
        "@id": "99901003", 
        "@name": "Gravity Well", 
        "@feature": "SurvivalContents01"
      }, 
      {
        "@id": "99901004", 
        "@name": "Gravity Well", 
        "@feature": "SurvivalContents01"
      }, 
      {
        "@id": "99901005", 
        "@name": "Acorn Cart", 
        "@feature": "SurvivalContents01"
      }, 
      {
        "@id": "99901006", 
        "@name": "Thorny Vine", 
        "@feature": "SurvivalContents01"
      }, 
      {
        "@id": "99901007", 
        "@name": "Thorny Vine", 
        "@feature": "SurvivalContents01"
      }, 
      {
        "@id": "99901011", 
        "@name": "Paint Bomb", 
        "@feature": "SurvivalContents01"
      }, 
      {
        "@id": "99901012", 
        "@name": "Paint Bomb", 
        "@feature": "SurvivalContents01"
      }, 
      {
        "@id": "99901021", 
        "@name": "Thorny Vine", 
        "@feature": "SurvivalContents01"
      }, 
      {
        "@id": "99901022", 
        "@name": "Thorny Vine", 
        "@feature": "SurvivalContents01"
      }, 
      {
        "@id": "99910001", 
        "@name": "Horn Headbutt"
      }, 
      {
        "@id": "99910002", 
        "@name": "Rush"
      }, 
      {
        "@id": "99910021", 
        "@name": "Fireball"
      }, 
      {
        "@id": "99910031", 
        "@name": "A"
      }, 
      {
        "@id": "99910032", 
        "@name": "B"
      }, 
      {
        "@id": "99910033", 
        "@name": "B Splash"
      }, 
      {
        "@id": "99910041", 
        "@name": "Fist Swing"
      }, 
      {
        "@id": "99910042", 
        "@name": "One Two Punch"
      }, 
      {
        "@id": "99910043", 
        "@name": "Stone Shock"
      }, 
      {
        "@id": "99910051", 
        "@name": "Whack-a-mole"
      }, 
      {
        "@id": "99910052", 
        "@name": "Big Nail Drive"
      }, 
      {
        "@id": "99910053", 
        "@name": "Picnic"
      }, 
      {
        "@id": "99910061", 
        "@name": "Sploot"
      }, 
      {
        "@id": "99910062", 
        "@name": "Swish Smash!"
      }, 
      {
        "@id": "99910071", 
        "@name": "Electric Shock (Left)"
      }, 
      {
        "@id": "99910072", 
        "@name": "Electric Shock (Right)"
      }, 
      {
        "@id": "99910073", 
        "@name": "Laser"
      }, 
      {
        "@id": "99910074", 
        "@name": "Hyper Booster"
      }, 
      {
        "@id": "99910075", 
        "@name": "Gunfire"
      }, 
      {
        "@id": "99910076", 
        "@name": "Electric Laser"
      }, 
      {
        "@id": "99910081", 
        "@name": "Magical Bullet"
      }, 
      {
        "@id": "99910091", 
        "@name": "Lazy Swing", 
        "@feature": "VIPDungeon"
      }, 
      {
        "@id": "99910092", 
        "@name": "Roll and Strike", 
        "@feature": "VIPDungeon"
      }, 
      {
        "@id": "99910101", 
        "@name": "Slash and Stab", 
        "@feature": "VIPDungeon"
      }, 
      {
        "@id": "99910102", 
        "@name": "Wind Cutter II", 
        "@feature": "VIPDungeon"
      }, 
      {
        "@id": "99910111", 
        "@name": "Rapid Fire", 
        "@feature": "VIPDungeon"
      }, 
      {
        "@id": "99910112", 
        "@name": "Barrage", 
        "@feature": "VIPDungeon"
      }, 
      {
        "@id": "99910121", 
        "@name": "Bubble shot", 
        "@feature": "PirateOcean"
      }, 
      {
        "@id": "99910122", 
        "@name": "Water Cannon", 
        "@feature": "PirateOcean"
      }, 
      {
        "@id": "99910131", 
        "@name": "20mm Fountain", 
        "@feature": "DarkCastle"
      }, 
      {
        "@id": "99910132", 
        "@name": "Drilling stabbing", 
        "@feature": "DarkCastle"
      }, 
      {
        "@id": "99910133", 
        "@name": "105mm howitzer", 
        "@feature": "DarkCastle"
      }, 
      {
        "@id": "99910141", 
        "@name": "Charging!", 
        "@feature": "DarkCastle"
      }, 
      {
        "@id": "99910142", 
        "@name": "refreshment", 
        "@feature": "DarkCastle"
      }, 
      {
        "@id": "99910151", 
        "@name": "Rapid fire", 
        "@feature": "DarkCastle"
      }, 
      {
        "@id": "99910152", 
        "@name": "Uniform fire", 
        "@feature": "DarkCastle"
      }, 
      {
        "@id": "99910161", 
        "@name": "saturation", 
        "@feature": "DarkCastle"
      }, 
      {
        "@id": "99910162", 
        "@name": "Laser beam", 
        "@feature": "DarkCastle"
      }, 
      {
        "@id": "99910163", 
        "@name": "Hyper Booster", 
        "@feature": "DarkCastle"
      }, 
      {
        "@id": "99910164", 
        "@name": "Laser booster", 
        "@feature": "DarkCastle"
      }, 
      {
        "@id": "99910171", 
        "@name": "Two-stage Throwing", 
        "@feature": "DarkCastle"
      }, 
      {
        "@id": "99910172", 
        "@name": "Grenade Throwing", 
        "@feature": "DarkCastle"
      }, 
      {
        "@id": "99910173", 
        "@name": "Dodge", 
        "@feature": "DarkCastle"
      }, 
      {
        "@id": "99910181", 
        "@name": "Chop", 
        "@feature": "DarkCastle"
      }, 
      {
        "@id": "99910182", 
        "@name": "Winding II", 
        "@feature": "DarkCastle"
      }, 
      {
        "@id": "99910191", 
        "@name": "Rapid fire", 
        "@feature": "DarkCastle"
      }, 
      {
        "@id": "99910192", 
        "@name": "Uniform fire", 
        "@feature": "DarkCastle"
      }, 
      {
        "@id": "99910193", 
        "@name": "Erostorm II", 
        "@feature": "DarkCastle"
      }, 
      {
        "@id": "99910241", 
        "@name": "Steal Egg", 
        "@feature": "GuildRaid01"
      }, 
      {
        "@id": "99910301", 
        "@name": "Swing", 
        "@feature": "FameContents_EP1_02"
      }, 
      {
        "@id": "99910302", 
        "@name": "Leaf Cut", 
        "@feature": "FameContents_EP1_02"
      }, 
      {
        "@id": "99910303", 
        "@name": "Wind Cutter", 
        "@feature": "FameContents_EP1_02"
      }, 
      {
        "@id": "99910304", 
        "@name": "Swing", 
        "@feature": "FameContents_EP1_02"
      }, 
      {
        "@id": "99910305", 
        "@name": "Leaf Cut", 
        "@feature": "FameContents_EP1_02"
      }, 
      {
        "@id": "99910306", 
        "@name": "Wind Cutter", 
        "@feature": "FameContents_EP1_02"
      }, 
      {
        "@id": "99910307", 
        "@name": "Inferno Strike", 
        "@feature": "FameContents_EP1_02"
      }, 
      {
        "@id": "99910341", 
        "@name": "Area Blast", 
        "@feature": "SurvivalContents02"
      }, 
      {
        "@id": "99910342", 
        "@name": "Primary Lasers", 
        "@feature": "SurvivalContents02"
      }, 
      {
        "@id": "99910343", 
        "@name": "Booster Rush", 
        "@feature": "SurvivalContents02"
      }, 
      {
        "@id": "99910344", 
        "@name": "Overload Beam", 
        "@feature": "SurvivalContents02"
      }, 
      {
        "@id": "99910371", 
        "@name": "barrage", 
        "@feature": "Fieldwar01"
      }, 
      {
        "@id": "99910372", 
        "@name": "Flame radiation", 
        "@feature": "Fieldwar01"
      }, 
      {
        "@id": "99910401", 
        "@name": "Drill attack", 
        "@feature": "Gigantica01"
      }, 
      {
        "@id": "99910402", 
        "@name": "Drill Rush", 
        "@feature": "Gigantica01"
      }, 
      {
        "@id": "99910403", 
        "@name": "Seismic wave", 
        "@feature": "Gigantica01"
      }, 
      {
        "@id": "50001354", 
        "@name": "Ikkiyushan - Flow of time to be emitted", 
        "@feature": "LapentaDungeon"
      }, 
      {
        "@id": "60300016", 
        "@name": "Power - The power of life to explode", 
        "@feature": "LapentaDungeon"
      }, 
      {
        "@id": "60300114", 
        "@name": "Thunderstorms - a congested phase", 
        "@feature": "LapentaDungeon"
      }, 
      {
        "@id": "70003001", 
        "@name": "Super Nucleus Skill", 
        "@feature": "Kritias_2018_12"
      }, 
      {
        "@id": "70003011", 
        "@name": "Super Nucleus Skill", 
        "@feature": "Kritias_2018_12"
      }, 
      {
        "@id": "70003021", 
        "@name": "Super Nucleus Skill", 
        "@feature": "Kritias_2018_12"
      }, 
      {
        "@id": "70003031", 
        "@name": "Super Nucleus Skill", 
        "@feature": "Kritias_2018_12"
      }, 
      {
        "@id": "70003041", 
        "@name": "Super Nucleus Skill for Boss", 
        "@feature": "Kritias_2018_12"
      }, 
      {
        "@id": "70003051", 
        "@name": "Super Nucleus Skill for Boss", 
        "@feature": "Kritias_2018_12"
      }, 
      {
        "@id": "70003061", 
        "@name": "Super Nucleus Skill for Boss", 
        "@feature": "Kritias_2018_12"
      }, 
      {
        "@id": "70003071", 
        "@name": "Super Nucleus Skill for Boss", 
        "@feature": "Kritias_2018_12"
      }, 
      {
        "@id": "70003091", 
        "@name": "Punch", 
        "@feature": "Fieldwar02"
      }, 
      {
        "@id": "70003101", 
        "@name": "Shockwave", 
        "@feature": "Fieldwar02"
      }, 
      {
        "@id": "70003121", 
        "@name": "Machine gun firing", 
        "@feature": "Fieldwar02"
      }, 
      {
        "@id": "70003122", 
        "@name": "Drill driver", 
        "@feature": "Fieldwar02"
      }, 
      {
        "@id": "70003123", 
        "@name": "Power Cannon", 
        "@feature": "Fieldwar02"
      }, 
      {
        "@id": "70003131", 
        "@name": "Special white potion", 
        "@feature": "Fieldwar02"
      }, 
      {
        "@id": "90003003", 
        "@name": "Sword of Time: Red Lapenshard", 
        "@feature": "LapentaDungeon"
      }, 
      {
        "@id": "90003004", 
        "@name": "Space Crack: Blue Rampensard", 
        "@feature": "LapentaDungeon"
      }, 
      {
        "@id": "90003005", 
        "@name": "Euperia's Friend: Green Rappard", 
        "@feature": "LapentaDungeon"
      }, 
      {
        "@id": "120010001", 
        "@name": "Celine's Heart", 
        "@feature": "Lapenshard01"
      }, 
      {
        "@id": "120010002", 
        "@name": "Black Brother's Energy", 
        "@feature": "Lapenshard01"
      }, 
      {
        "@id": "120010003", 
        "@name": "Pride of Lumi Eragon", 
        "@feature": "Lapenshard01"
      }, 
      {
        "@id": "120010004", 
        "@name": "Sword of Time: Red Lapenshard", 
        "@feature": "Lapenshard01"
      }, 
      {
        "@id": "120010010", 
        "@name": "Mulberry Cutting: Red Lapenshard", 
        "@feature": "Lapenshard01"
      }, 
      {
        "@id": "120010020", 
        "@name": "Periodic Racer: Red Lapenshard", 
        "@feature": "Lapenshard01"
      }
    ]
  }
}