{
  "?xml": {
    "@version": "1.0", 
    "@encoding": "utf-8"
  }, 
  "ms2": {
    "key": [
      {
        "@id": "10100001", 
        "@name": "Cross swing"
      }, 
      {
        "@id": "10100011", 
        "@name": "Tornado Slash"
      }, 
      {
        "@id": "10100021", 
        "@name": "Holly Strike"
      }, 
      {
        "@id": "10100031", 
        "@name": "Drill blade"
      }, 
      {
        "@id": "10100041", 
        "@name": "Shout of victory"
      }, 
      {
        "@id": "10100051", 
        "@name": "Shield Wall"
      }, 
      {
        "@id": "10100061", 
        "@name": "Iron Defense"
      }, 
      {
        "@id": "10100062", 
        "@name": "Iron Defense off"
      }, 
      {
        "@id": "10100071", 
        "@name": "Throwing shield"
      }, 
      {
        "@id": "10100081", 
        "@name": "Article's Will"
      }, 
      {
        "@id": "10100091", 
        "@name": "charge"
      }, 
      {
        "@id": "10100101", 
        "@name": "Defender of Belief"
      }, 
      {
        "@id": "10100111", 
        "@name": "Long Sword Mastery"
      }, 
      {
        "@id": "10100121", 
        "@name": "Shield Mastery"
      }, 
      {
        "@id": "10100131", 
        "@name": "Typhoon slash"
      }, 
      {
        "@id": "10100141", 
        "@name": "Millionsting"
      }, 
      {
        "@id": "10100151", 
        "@name": "Iron Shield"
      }, 
      {
        "@id": "10100161", 
        "@name": "Shield Upper"
      }, 
      {
        "@id": "10100171", 
        "@name": "Strike of Belief", 
        "@feature": "JobChange_01"
      }, 
      {
        "@id": "10100181", 
        "@name": "Divine Revenge", 
        "@feature": "JobChange_01"
      }, 
      {
        "@id": "10100191", 
        "@name": "Lightbringer", 
        "@feature": "JobChange_01"
      }, 
      {
        "@id": "10100201", 
        "@name": "The Guardian Wing", 
        "@feature": "JobChange_01"
      }, 
      {
        "@id": "10100211", 
        "@name": "Cyclone shield", 
        "@feature": "JobChange_01"
      }, 
      {
        "@id": "10100221", 
        "@name": "Heavens Judgment", 
        "@feature": "JobChange_01"
      }, 
      {
        "@id": "10100231", 
        "@name": "Dual tactics", 
        "@feature": "JobChange_01"
      }, 
      {
        "@id": "10100241", 
        "@name": "Sword Stance Training", 
        "@feature": "JobChange_01"
      }, 
      {
        "@id": "10100251", 
        "@name": "Shield Stance Training", 
        "@feature": "JobChange_01"
      }, 
      {
        "@id": "10100261", 
        "@name": "Sacred discipline", 
        "@feature": "JobChange_02"
      }, 
      {
        "@id": "10100271", 
        "@name": "Summon Sword", 
        "@feature": "JobChange_02"
      }, 
      {
        "@id": "10100281", 
        "@name": "Shield Aura", 
        "@feature": "JobChange_02"
      }, 
      {
        "@id": "10100291", 
        "@name": "Break through the attack", 
        "@feature": "JobChange_02"
      }, 
      {
        "@id": "10100294", 
        "@name": "Break through defenses", 
        "@feature": "JobChange_02"
      }
    ]
  }
}