{
  "?xml": {
    "@version": "1.0", 
    "@encoding": "utf-8"
  }, 
  "ms2": {
    "key": [
      {
        "@id": "10", 
        "@name": "Face Accessory"
      }, 
      {
        "@id": "11", 
        "@name": "Eyewear"
      }, 
      {
        "@id": "12", 
        "@name": "Earrings"
      }, 
      {
        "@id": "13", 
        "@name": "Headgear"
      }, 
      {
        "@id": "14", 
        "@name": "Top"
      }, 
      {
        "@id": "15", 
        "@name": "Bottom"
      }, 
      {
        "@id": "16", 
        "@name": "Gloves"
      }, 
      {
        "@id": "17", 
        "@name": "Shoes"
      }, 
      {
        "@id": "18", 
        "@name": "Cape"
      }, 
      {
        "@id": "19", 
        "@name": "Necklace"
      }, 
      {
        "@id": "20", 
        "@name": "Ring"
      }, 
      {
        "@id": "21", 
        "@name": "Belt"
      }, 
      {
        "@id": "22", 
        "@name": "Suit"
      }, 
      {
        "@id": "30", 
        "@name": "Main Hand Bludgeon"
      }, 
      {
        "@id": "31", 
        "@name": "One-handed Dagger"
      }, 
      {
        "@id": "32", 
        "@name": "Main Hand Longsword"
      }, 
      {
        "@id": "33", 
        "@name": "Main Hand Scepter"
      }, 
      {
        "@id": "34", 
        "@name": "One-handed Thrown Weapon"
      }, 
      {
        "@id": "40", 
        "@name": "Off-hand Codex"
      }, 
      {
        "@id": "41", 
        "@name": "Off-hand Shield"
      }, 
      {
        "@id": "50", 
        "@name": "Two-handed Greatsword"
      }, 
      {
        "@id": "51", 
        "@name": "Two-handed Bow"
      }, 
      {
        "@id": "52", 
        "@name": "Two-handed Staff"
      }, 
      {
        "@id": "53", 
        "@name": "Two-handed Cannon"
      }, 
      {
        "@id": "54", 
        "@name": "Two-handed Blade"
      }, 
      {
        "@id": "55", 
        "@name": "Two-handed Knuckles"
      }, 
      {
        "@id": "56", 
        "@name": "Two-handed Orb"
      }
    ]
  }
}