{
  "?xml": {
    "@version": "1.0", 
    "@encoding": "utf-8"
  }, 
  "ms2": {
    "key": [
      {
        "@id": "10000001", 
        "@name": "세트 장비 체크용 additional effect 설명", 
        "@feature": "LapentaDungeon"
      }, 
      {
        "@id": "10000002", 
        "@name": "라펜샤드 체크용 additional effect 설명", 
        "@feature": "LapentaDungeon"
      }, 
      {
        "@id": "90051320", 
        "@name": "아래 방법 중 한 가지 방법을 선택하여 효과 발동\\n\\n<font color='#00A2ED'>[카오스 레이드] 서릿발 신전</font>에서 획득할 수 있는 <font color='#FFD200'>베히모스 무기</font>와 <font color='#FFD200'>베히모스 방어구</font> 4개 이상 장착\\n<font color='#00A2ED'>[아이 오브 라펜타] 블랙샤드 체임버</font>에서 획득할 수 있는 <font color='#FFD200'>블랙 퓨리티 무기</font>와 <font color='#FFD200'>블랙 퓨리티 방어구</font> 5개 장착", 
        "@feature": "LapentaDungeon"
      }, 
      {
        "@id": "90051321", 
        "@name": "아래 방법 중 한 가지 방법을 선택하여 효과 발동\\n\\n<font color='#00A2ED'>[카오스 레이드] 마드라칸 첨탑</font>에서 획득할 수 있는 <font color='#FFD200'>블랙 뱅가드 무기</font>와 <font color='#FFD200'>블랙 뱅가드 방어구</font> 4개 이상 장착\\n<font color='#00A2ED'>[아이 오브 라펜타] 블랙샤드 체임버</font>에서 획득할 수 있는 <font color='#FFD200'>블랙 퓨리티 무기</font>와 <font color='#FFD200'>블랙 퓨리티 방어구</font> 5개 장착", 
        "@feature": "LapentaDungeon"
      }, 
      {
        "@id": "90051322", 
        "@name": "아래 방법 중 한 가지 방법을 선택하여 효과 발동\\n\\n<font color='#00A2ED'>[카오스 레이드] 이계의 존재</font>에서 획득할 수 있는 <font color='#FFD200'>에일리온 무기</font>와 <font color='#FFD200'>에일리온 방어구</font> 4개 이상 장착\\n<font color='#00A2ED'>[아이 오브 라펜타] 블랙샤드 체임버</font>에서 획득할 수 있는 <font color='#FFD200'>블랙 퓨리티 무기</font>와 <font color='#FFD200'>블랙 퓨리티 방어구</font> 5개 장착", 
        "@feature": "LapentaDungeon"
      }, 
      {
        "@id": "90051326", 
        "@name": "<font color='#00A2ED'>[아이 오브 라펜타] 터미너스 엔즈</font>에서 획득할 수 있는 <font color='#FFD200'>시간의 검 : 레드 라펜샤드 (1단계) 이상</font> 장착 시 효과 발동", 
        "@feature": "LapentaDungeon"
      }, 
      {
        "@id": "90051327", 
        "@name": "<font color='#00A2ED'>[아이 오브 라펜타] 그레이브 블루</font>에서 획득할 수 있는 <font color='#FFD200'>공간 균열 : 블루 라펜샤드 (1단계) 이상</font> 장착 시 효과 발동", 
        "@feature": "LapentaDungeon"
      }, 
      {
        "@id": "90051328", 
        "@name": "<font color='#00A2ED'>[아이 오브 라펜타] 에메랄드 프리즌</font>에서 획득할 수 있는 <font color='#FFD200'>유페리아의 가호 : 그린 라펜샤드 (1단계) 이상</font> 장착 시 효과 발동", 
        "@feature": "LapentaDungeon"
      }, 
      {
        "@id": "90051442", 
        "@name": "<font color='#00A2ED'>[아이 오브 라펜타] 터미너스 엔즈</font>에서 획득할 수 있는 <font color='#FFD200'>시간의 검 : 레드 라펜샤드 (6단계) 이상</font> 장착 시 효과 발동", 
        "@feature": "LapentaDungeon"
      }, 
      {
        "@id": "90051443", 
        "@name": "<font color='#00A2ED'>[아이 오브 라펜타] 그레이브 블루</font>에서 획득할 수 있는 <font color='#FFD200'>공간 균열 : 블루 라펜샤드 (6단계) 이상</font> 장착 시 효과 발동", 
        "@feature": "LapentaDungeon"
      }, 
      {
        "@id": "90051444", 
        "@name": "<font color='#00A2ED'>[아이 오브 라펜타] 에메랄드 프리즌</font>에서 획득할 수 있는 <font color='#FFD200'>유페리아의 가호 : 그린 라펜샤드 (6단계) 이상</font> 장착 시 효과 발동", 
        "@feature": "LapentaDungeon"
      }, 
      {
        "@id": "90051447", 
        "@name": "아래 방법 중 한 가지 방법을 선택하여 효과 발동\\n\\n<font color='#00A2ED'>[카오스 레이드] 서릿발 신전</font>에서 획득할 수 있는 <font color='#FFD200'>베히모스 무기</font>와 <font color='#FFD200'>베히모스 방어구</font> 4개 이상 장착 \\n<font color='#00A2ED'>[카오스 레이드] 마드라칸 첨탑</font>에서 획득할 수 있는 <font color='#FFD200'>블랙 뱅가드 무기</font>와 <font color='#FFD200'>블랙 뱅가드 방어구</font> 4개 이상 장착 \\n<font color='#00A2ED'>[카오스 레이드] 이계의 존재</font>에서 획득할 수 있는 <font color='#FFD200'>에일리온 무기</font>와 <font color='#FFD200'>에일리온 방어구</font> 4개 이상 장착\\n<font color='#00A2ED'>[아이 오브 라펜타] 블랙샤드 체임버</font>에서 획득할 수 있는 <font color='#FFD200'>블랙 퓨리티 무기</font>와 <font color='#FFD200'>블랙 퓨리티 방어구</font> 5개 장착", 
        "@feature": "LapentaDungeon"
      }
    ]
  }
}