{
  "?xml": {
    "@version": "1.0", 
    "@encoding": "utf-8"
  }, 
  "ms2": {
    "key": [
      {
        "@id": "1", 
        "@name": "A Suspicious Start", 
        "@feature": "QuestChapter00"
      }, 
      {
        "@id": "2", 
        "@name": "Crisis in Henesys", 
        "@feature": "QuestChapter00"
      }, 
      {
        "@id": "3", 
        "@name": "Darkness Unleashed", 
        "@feature": "QuestChapter00"
      }, 
      {
        "@id": "4", 
        "@name": "Lost Guardian", 
        "@feature": "QuestChapter00"
      }, 
      {
        "@id": "5", 
        "@name": "Light and Shadows", 
        "@feature": "QuestChapter00"
      }, 
      {
        "@id": "6", 
        "@name": "Seek and Find", 
        "@feature": "QuestChapter00"
      }, 
      {
        "@id": "7", 
        "@name": "Beyond Friendship", 
        "@feature": "QuestChapter00"
      }, 
      {
        "@id": "8", 
        "@name": "Lightless Scion", 
        "@feature": "QuestChapter00"
      }, 
      {
        "@id": "9", 
        "@name": "Where There's Darkness", 
        "@feature": "LapentaFrontierQuest"
      }, 
      {
        "@id": "10", 
        "@name": "Power in Unity", 
        "@feature": "LapentaFrontierQuest"
      }, 
      {
        "@id": "11", 
        "@name": "The Quest for Truth", 
        "@feature": "QuestChapter00"
      }, 
      {
        "@id": "12", 
        "@name": "Sky fortress, highest priority mission", 
        "@feature": "FameContents_EP1_01"
      }, 
      {
        "@id": "13", 
        "@name": "Immortal monarch", 
        "@feature": "FameContents_EP1_02"
      }, 
      {
        "@id": "14", 
        "@name": "Immortal monarch", 
        "@feature": "JobChange_01"
      }, 
      {
        "@id": "15", 
        "@name": "Immortal monarch", 
        "@feature": "LapentaFrontierQuest"
      }, 
      {
        "@id": "16", 
        "@name": "Immortal monarch", 
        "@feature": "LapentaFrontierQuest"
      }, 
      {
        "@id": "17", 
        "@name": "Immortal monarch", 
        "@feature": "LapentaFrontierQuest"
      }, 
      {
        "@id": "18", 
        "@name": "Immortal monarch", 
        "@feature": "LapentaFrontierQuest"
      }, 
      {
        "@id": "19", 
        "@name": "Immortal monarch", 
        "@feature": "LapentaFrontierQuest"
      }, 
      {
        "@id": "20", 
        "@name": "Immortal monarch", 
        "@feature": "LapentaFrontierQuest"
      }, 
      {
        "@id": "21", 
        "@name": "Immortal monarch", 
        "@feature": "LapentaFrontierQuest"
      }, 
      {
        "@id": "22", 
        "@name": "Immortal monarch", 
        "@feature": "LapentaFrontierQuest"
      }, 
      {
        "@id": "23", 
        "@name": "Immortal monarch", 
        "@feature": "LapentaFrontierQuest"
      }, 
      {
        "@id": "24", 
        "@name": "Immortal monarch", 
        "@feature": "LapentaFrontierQuest"
      }, 
      {
        "@id": "25", 
        "@name": "Immortal monarch", 
        "@feature": "LapentaFrontierQuest"
      }, 
      {
        "@id": "26", 
        "@name": "Upcoming trial", 
        "@feature": "EyeOfLapentaQuest"
      }, 
      {
        "@id": "27", 
        "@name": "Unknown continent Creteas", 
        "@feature": "Kritias_Epic01"
      }
    ]
  }
}