{
  "?xml": {
    "@version": "1.0", 
    "@encoding": "utf-8"
  }, 
  "ms2": {
    "key": [
      {
        "@id": "1", 
        "@name": "Basic"
      }, 
      {
        "@id": "2", 
        "@name": "Green Meadow"
      }, 
      {
        "@id": "3", 
        "@name": "Moonlit Forest"
      }, 
      {
        "@id": "4", 
        "@name": "Rainbow Snowfield"
      }, 
      {
        "@id": "5", 
        "@name": "Skyscraper"
      }, 
      {
        "@id": "6", 
        "@name": "Blue Sea"
      }, 
      {
        "@id": "7", 
        "@name": "Barren Mountains"
      }, 
      {
        "@id": "8", 
        "@name": "Space"
      }, 
      {
        "@id": "101", 
        "@name": "Basic"
      }, 
      {
        "@id": "102", 
        "@name": "Natural Lighting"
      }, 
      {
        "@id": "103", 
        "@name": "Warm Lighting"
      }, 
      {
        "@id": "104", 
        "@name": "Cool Lighting"
      }, 
      {
        "@id": "105", 
        "@name": "Dark Lighting"
      }, 
      {
        "@id": "201", 
        "@name": "Quarter View (Default)"
      }, 
      {
        "@id": "202", 
        "@name": "Side View"
      }, 
      {
        "@id": "203", 
        "@name": "Top View"
      }
    ]
  }
}