{
  "?xml": {
    "@version": "1.0", 
    "@encoding": "utf-8"
  }, 
  "ms2": {
    "key": [
      {
        "@id": "1", 
        "@name": "Guild Trophies"
      }, 
      {
        "@id": "2", 
        "@name": "Personal Trophies"
      }, 
      {
        "@id": "3", 
        "@name": "Dark Stream"
      }, 
      {
        "@id": "4", 
        "@name": "Maple Arena"
      }, 
      {
        "@id": "5", 
        "@name": "Guild Championship"
      }, 
      {
        "@id": "6", 
        "@name": "Star Architect"
      }, 
      {
        "@id": "7", 
        "@name": "Raid"
      }, 
      {
        "@id": "8", 
        "@name": "Chaos Raid"
      }, 
      {
        "@id": "9", 
        "@name": "Reverse Raid"
      }, 
      {
        "@id": "10", 
        "@name": "Arcade"
      }, 
      {
        "@id": "11", 
        "@name": "World Invasion"
      }, 
      {
        "@id": "12", 
        "@name": "Fortress Rumble"
      }, 
      {
        "@id": "13", 
        "@name": "Mush King Championship"
      }, 
      {
        "@id": "14", 
        "@name": "World Raid"
      }, 
      {
        "@id": "15", 
        "@name": "Eye of La Penta", 
        "@feature": "LapentaDungeon"
      }, 
      {
        "@id": "16", 
        "@name": "Queen Kubin Rumble", 
        "@feature": "ColosseumDungeon"
      }
    ]
  }
}