{
  "?xml": {
    "@version": "1.0", 
    "@encoding": "utf-8"
  }, 
  "ms2": {
    "key": [
      {
        "@id": "s_DestinyofMika_01", 
        "@name": "Several of the Lumarigon elders corrupted by the Demon King\\nshifted the balance of power from light to dark by his will.\\nThe creatures of darkness formed from this are known as &quot;Kargon&quot;. ", 
        "@npc": "NotUse"
      }, 
      {
        "@id": "s_DestinyofMika_02", 
        "@name": "Tribal division between light and dark adherents dragged on, \\nand now Drachenheim is facing its greatest threat ever. ", 
        "@npc": "NotUse"
      }, 
      {
        "@id": "s_DestinyofMika_03", 
        "@name": "To protect Mika, Layla used forbidden magic to cover her escape.\\nAs a result, Layla lost all of her powers as the successor of light. ", 
        "@npc": "NotUse"
      }, 
      {
        "@id": "s_DestinyofMika_04", 
        "@name": "Mika, you must purge the lumenstone of chaos\\nand find the source of the power that Layla sent you. ", 
        "@npc": "NotUse"
      }, 
      {
        "@id": "s_lumieragonhistory_01", 
        "@name": "The lumarigons: intelligent, strong, and unfalteringly good. When the darkness came, they joined the fight for Maple World's soul.", 
        "@npc": "에레브"
      }, 
      {
        "@id": "s_lumieragonhistory_02", 
        "@name": "But these great dragons were not invincible. After their leader, the dragon master Biset, fell in battle, the lumarigons all but died out.", 
        "@npc": "에레브"
      }, 
      {
        "@id": "s_lumieragonhistory_03", 
        "@name": "To save themselves, the lumarigons escaped to the sanctum of their people and entered a deep slumber.", 
        "@npc": "에레브"
      }, 
      {
        "@id": "s_lumieragonhistory_04", 
        "@name": "It is said that when a new dragon master rises, the lumarigons will return to Maple World.", 
        "@npc": "에레브"
      }, 
      {
        "@id": "s_lumieragonhistory_05", 
        "@name": "Over the years, the lumarigons vanished from memory. That is, until the day of the siege of Tria...", 
        "@npc": "에레브"
      }, 
      {
        "@id": "s_lumieragonhistory_06", 
        "@name": "The dragon Madria rode into battle–could it have been one of these fabled lumarigons? Have they turned to the darkness?", 
        "@npc": "에레브"
      }, 
      {
        "@id": "s_lumieragonhistory_07", 
        "@name": "If the lumarigons have joined the enemy, then the light of Maple World may soon be extinguished…", 
        "@npc": "에레브"
      }, 
      {
        "@id": "s_MemoryofDragon_01", 
        "@name": "Birth... Light...", 
        "@npc": "NotUse"
      }, 
      {
        "@id": "s_MemoryofDragon_02", 
        "@name": "Darkness... Death...", 
        "@npc": "NotUse"
      }, 
      {
        "@id": "s_MemoryofDragon_03", 
        "@name": "Fate...", 
        "@npc": "NotUse"
      }, 
      {
        "@id": "s_Cut_Blackstar_Crash_01", 
        "@name": "This one's alone! No mercy!", 
        "@npc": "흑성회원"
      }, 
      {
        "@id": "s_Cut_Blackstar_Crash_02", 
        "@name": "Kah... Look at this mess. All just to find a few people...\\nGray Wolf, you fool! You've gone mad... Cough, cough.", 
        "@npc": "흑성회원"
      }, 
      {
        "@id": "s_Cut_Blackstar_Crash_03", 
        "@name": "You think you can handle us?", 
        "@npc": "흑성회원"
      }, 
      {
        "@id": "s_Cut_Blackstar_Crash_04", 
        "@name": "Stop right there! Who do you think you are, coming here?", 
        "@npc": "흑성회원"
      }, 
      {
        "@id": "s_Cut_Blackstar_Crash_05", 
        "@name": "I was wondering what that noise was...\\nHah, it was you... Gray Wolf.", 
        "@npc": "웨이 홍"
      }, 
      {
        "@id": "s_Cut_Blackstar_Crash_06", 
        "@name": "Eee hee hee...\\nWelcome to Blackstar...", 
        "@npc": "웨이 홍"
      }, 
      {
        "@id": "s_KarKarIntro_01", 
        "@name": "The power to call a dragon…\\nIf I can become the Kaiser, I will claim this world... Even if I must destroy it.", 
        "@npc": "바르칸트"
      }, 
      {
        "@id": "s_ProphecyofFall_01", 
        "@name": "Destruction from light...", 
        "@npc": "홀슈타트"
      }, 
      {
        "@id": "s_2ndjobStory_01", 
        "@name": "Since the adventure began, the crisis of MapleWorld has not stopped.", 
        "@feature": "JobChange_01", 
        "@npc": "system"
      }, 
      {
        "@id": "s_2ndjobStory_02", 
        "@name": "The forces of darkness that have begun to reveal identity,", 
        "@feature": "JobChange_01", 
        "@npc": "system"
      }, 
      {
        "@id": "s_2ndjobStory_03", 
        "@name": "The emergency takeoff of Sky Fortress,", 
        "@feature": "JobChange_01", 
        "@npc": "system"
      }, 
      {
        "@id": "s_2ndjobStory_04", 
        "@name": "And… The resurrection of Inferno.", 
        "@feature": "JobChange_01", 
        "@npc": "system"
      }, 
      {
        "@id": "s_2ndjobStory_05", 
        "@name": "However, even in this crisis, the warriors did not lose hope.", 
        "@feature": "JobChange_01", 
        "@npc": "system"
      }, 
      {
        "@id": "s_2ndjobStory_06", 
        "@name": "The warriors became stronger and dreamed of greater power.", 
        "@feature": "JobChange_01", 
        "@npc": "system"
      }, 
      {
        "@id": "s_2ndjobStory_07", 
        "@name": "The power of light is stronger than ever.", 
        "@feature": "JobChange_01", 
        "@npc": "system"
      }, 
      {
        "@id": "s_2ndjobStory_08", 
        "@name": "The world was changing.", 
        "@feature": "JobChange_01", 
        "@npc": "system"
      }, 
      {
        "@id": "s_2ndjobStory_09", 
        "@name": "And the change is ... Soon the world began to appear.", 
        "@feature": "JobChange_01", 
        "@npc": "system"
      }, 
      {
        "@id": "s_Cut_Vivid_Dream_01", 
        "@name": "Code E applied. No reaction to the critical point. \\n Synchro rate reaches 98%! Both objects switch to Phase 3!", 
        "@locale": "NA", 
        "@npc": "Kandula Load"
      }, 
      {
        "@id": "s_Cut_Vivid_Dream_02", 
        "@name": "Great.", 
        "@locale": "NA", 
        "@npc": "Kandula"
      }, 
      {
        "@id": "s_Cut_Vivid_Dream_03", 
        "@name": "Do not worry, we're together. \\nI'm never falling. never.", 
        "@locale": "NA", 
        "@npc": "vision"
      }, 
      {
        "@id": "s_Cut_Vivid_Dream_04", 
        "@name": "Pour everything, everything! Stop it unconditionally!", 
        "@locale": "NA", 
        "@npc": "Kandula Load"
      }, 
      {
        "@id": "s_Cut_Vivid_Dream_05", 
        "@name": "Memories are just debris. \\n Some things are very vivid, but the important thing is that they are always hidden in the fog.", 
        "@locale": "NA", 
        "@npc": "PC monologue"
      }, 
      {
        "@id": "s_Cut_Vivid_Dream_06", 
        "@name": "... It's not too late yet.", 
        "@locale": "NA", 
        "@npc": "Laoz"
      }, 
      {
        "@id": "s_Cut_Vivid_Dream_07", 
        "@name": "master! I do not know why ... It also has the power to ... !", 
        "@locale": "NA", 
        "@npc": "Junta"
      }, 
      {
        "@id": "s_Cut_Vivid_Dream_08", 
        "@name": "It just follows the truth.", 
        "@locale": "NA", 
        "@npc": "Laoz"
      }, 
      {
        "@id": "s_Cut_Vivid_Dream_09", 
        "@name": "New life over the forgotten memory ...", 
        "@locale": "NA", 
        "@npc": "PC monologue"
      }, 
      {
        "@id": "s_Cut_Vivid_Dream_10", 
        "@name": "... It is engraved and filled.", 
        "@locale": "NA", 
        "@npc": "PC monologue"
      }, 
      {
        "@id": "s_Cut_Vivid_Dream_11", 
        "@name": "If you do not balance, you fall.", 
        "@locale": "NA", 
        "@npc": "Junta"
      }, 
      {
        "@id": "s_Cut_Vivid_Dream_12", 
        "@name": "Are you listening to me?", 
        "@locale": "NA", 
        "@npc": "Junta"
      }, 
      {
        "@id": "s_Cut_Vivid_Dream_13", 
        "@name": "That guy ... In addition!", 
        "@locale": "NA", 
        "@npc": "Junta"
      }, 
      {
        "@id": "s_Nutaman_intro_01", 
        "@name": "The owner of Lunikta ... I was waiting.", 
        "@locale": "NA", 
        "@feature": "NutaNuta", 
        "@npc": "Nutta Bay"
      }, 
      {
        "@id": "s_Nutaman_intro_02", 
        "@name": "Who dares ... Do you interfere with the owner of Lunikta!", 
        "@locale": "NA", 
        "@feature": "NutaNuta", 
        "@npc": "Nutta Bay"
      }, 
      {
        "@id": "s_KatvanIntroMovie_01", 
        "@name": "The Seeds of Darkness", 
        "@locale": "NA", 
        "@feature": "KatvanDungeon", 
        "@npc": "Devil"
      }, 
      {
        "@id": "s_KatvanIntroMovie_02", 
        "@name": "If you take your roots in", 
        "@locale": "NA", 
        "@feature": "KatvanDungeon", 
        "@npc": "Devil"
      }, 
      {
        "@id": "s_KatvanIntroMovie_03", 
        "@name": "A great deal of suffering will come.", 
        "@locale": "NA", 
        "@feature": "KatvanDungeon", 
        "@npc": "Devil"
      }, 
      {
        "@id": "s_KatvanIntroMovie_04", 
        "@name": "And at the end", 
        "@locale": "NA", 
        "@feature": "KatvanDungeon", 
        "@npc": "Devil"
      }, 
      {
        "@id": "s_KatvanIntroMovie_05", 
        "@name": "A new son of the devil will be born.", 
        "@locale": "NA", 
        "@feature": "KatvanDungeon", 
        "@npc": "Devil"
      }
    ]
  }
}