{
  "?xml": {
    "@version": "1.0",
    "@encoding": "utf-8"
  },
  "ms2": {
    "mail": [
      {
        "@id": "30000001",
        "@sender": "Real estate administrator",
        "@subject": "Collected items arrived.",
        "@content": "Collected items arrived.\nPlease leave your belongings and get items."
      },
      {
        "@id": "50000000",
        "@sender": "System Administrator",
        "@subject": "I have a lot of belongings.",
        "@content": "I can not acquire more items that I have.\nPlease empty your belongings"
      },
      {
        "@id": "50000001",
        "@sender": "Real estate management",
        "@subject": "The land use contract expired.",
        "@content": "The land use contract expired.\nMaterials that were installed on the ground can be confirmed in the construction material construction material list.\nEven if the ground contract is canceled, the indoor place of my home will be maintained as it is."
      },
      {
        "@id": "50000010",
        "@sender": "Maple Story 2",
        "@subject": "[PC room time event] connection gift arrival",
        "@content": "PC room connection time event gift has arrived.\nConnect with PC room every day and get a gift!\n\n(Attention) If you do not move to the belongings window within 30 days, the item attached to the email will be deleted along with the email so please receive it as soon as possible.\n\nReceived items can be freely moved by other characters in the account through safe NPC in big cities such as Tria.\n\nThank you very much."
      },
      {
        "@id": "50000011",
        "@sender": "Maple Story 2",
        "@subject": "[PC room time event] 30 minutes connection gift arrival",
        "@content": "PC room connection time event gift has arrived.\nConnect with PC room every day and get a gift!\n\n(Attention) If you do not move to the belongings window within 30 days, the item attached to the email will be deleted along with the email so please receive it as soon as possible.\n\nReceived items can be freely moved by other characters in the account through safe NPC in big cities such as Tria.\n\nThank you very much."
      },
      {
        "@id": "50000012",
        "@sender": "Maple Story 2",
        "@subject": "[PC room time event] 60 minutes connection gift arrival",
        "@content": "PC room connection time event gift has arrived.\nConnect with PC room every day and get a gift!\n\n(Attention) If you do not move to the belongings window within 30 days, the item attached to the email will be deleted along with the email so please receive it as soon as possible.\n\nReceived items can be freely moved by other characters in the account through safe NPC in big cities such as Tria.\n\nThank you very much."
      },
      {
        "@id": "50000013",
        "@sender": "Maple Story 2",
        "@subject": "[PC room time event] 120-minute connection gift arrival",
        "@content": "PC room connection time event gift has arrived.\nConnect with PC room every day and get a gift!\n\n(Attention) If you do not move to the belongings window within 30 days, the item attached to the email will be deleted along with the email so please receive it as soon as possible.\n\nReceived items can be freely moved by other characters in the account through safe NPC in big cities such as Tria.\n\nThank you very much."
      },
      {
        "@id": "52000001",
        "@sender": "Director of lost and found management",
        "@subject": "Items arrived stored in the lost and found item!",
        "@content": "Hello!\nMapleStory 2 Lost and lost material manager.\n\nThe lost and found office is a place to store what you lost, we sort by e-mails that are particularly valuable among those you lost separately!\n\n[Finished] You found out what you lost and sent it by email, so please find and go.\n\nBe careful not to lose items from the next!\n\nThe lost property management chief is always watching you!\n\ngoodbye!"
      },
      {
        "@id": "52000002",
        "@sender": "Guild manager",
        "@subject": "New items arrived from the guild!",
        "@content": "A gift from the guild manager arrived.\nPlease check the contents.\nPlease look for a present before the mail period expires."
      },
      {
        "@id": "53000000",
        "@sender": "Maple Story 2",
        "@subject": "[Dungeon rank reward] Weekly rank achievement Gifts arrived!",
        "@content": "Weekly rank achievement gift has arrived."
      },
      {
        "@id": "53000001",
        "@sender": "Maple Story 2",
        "@subject": "[Dungeon rank reward] Reverse raid C rank gift Arrived!",
        "@content": "Reverse raid Dungeon's C rank gift has arrived."
      },
      {
        "@id": "53000002",
        "@sender": "Maple Story 2",
        "@subject": "[Dungeon rank reward] Reverse lead B rank gift arrived!",
        "@content": "Reverse raid Dungeon 's B rank gift has arrived."
      },
      {
        "@id": "53000003",
        "@sender": "Maple Story 2",
        "@subject": "[Dungeon rank reward] Reverse lead A rank gift arrived!",
        "@content": "Reverse raid Dungeon's A rank gift has arrived."
      },
      {
        "@id": "53000004",
        "@sender": "Maple Story 2",
        "@subject": "[Dungeon rank reward] Reverse lead S rank gift arrived!",
        "@content": "Reverse raid Dungeon S rank gift has arrived."
      },
      {
        "@id": "53000005",
        "@sender": "Maple Story 2",
        "@subject": "[Dungeon rank reward] Reverse lead SS rank gift arrived!",
        "@content": "Reverse raid Dungeon SS rank gifts arrived."
      },
      {
        "@id": "53000006",
        "@sender": "Maple Story 2",
        "@subject": "[Dungeon rank reward] World Invasion C rank gift Arrived!",
        "@content": "We received the C rank gift of World Invasion."
      },
      {
        "@id": "53000007",
        "@sender": "Maple Story 2",
        "@subject": "[Dungeon rank reward] World Invasion B rank gift Arrive!",
        "@content": "We received the B rank gift of World Invasion."
      },
      {
        "@id": "53000008",
        "@sender": "Maple Story 2",
        "@subject": "[Dungeon rank reward] World Invasion A rank gift Arrive!",
        "@content": "A gift of World Invasion A rank has arrived."
      },
      {
        "@id": "53000009",
        "@sender": "Maple Story 2",
        "@subject": "[Dungeon rank reward] World Invasion S rank gift Arrive!",
        "@content": "We received the S rank gift of World Invasion."
      },
      {
        "@id": "53000010",
        "@sender": "Maple Story 2",
        "@subject": "[Dungeon rank reward] World Invasion SS rank gift Arrived!",
        "@content": "The World Invasion 's SS rank gift has arrived."
      },
      {
        "@id": "53000011",
        "@sender": "Maple Story 2",
        "@subject": "[Dungeon rank reward] Maple association Fortress rumble C rank gift Arrive!",
        "@content": "Maple Union Yamashiro Rumble 's C rank gift has arrived."
      },
      {
        "@id": "53000012",
        "@sender": "Maple Story 2",
        "@subject": "[Dungeon rank reward] Maple association Fortress rumble B rank gift Arrive!",
        "@content": "Maple Union Yamashiro Rumble 's B rank gift has arrived."
      },
      {
        "@id": "53000013",
        "@sender": "Maple Story 2",
        "@subject": "[Dungeon rank reward] Maple association Fortress rumble A rank gift Arrive!",
        "@content": "The Maple Union Yamashiro Rumble 's A rank gift has arrived."
      },
      {
        "@id": "53000014",
        "@sender": "Maple Story 2",
        "@subject": "[Dungeon rank reward] Maple association Fortress rumble S rank gift Arrive!",
        "@content": "Maple Union Yamashiro Rumble 's S rank gift has arrived."
      },
      {
        "@id": "53000015",
        "@sender": "Maple Story 2",
        "@subject": "[Dungeon rank reward] Maple association Fortress rumble SS rank gift arrived!",
        "@content": "The Maple Union Yamashiro Rumble 's SS rank gift has arrived."
      },
      {
        "@id": "53000016",
        "@sender": "Maple Story 2",
        "@subject": "[Dungeon rank reward] Tria Konoya Fortress Rumble C rank gift Arrive!",
        "@content": "Tria Konoyo Yamashiro Rumble 's C rank gift has arrived."
      },
      {
        "@id": "53000017",
        "@sender": "Maple Story 2",
        "@subject": "[Dungeon rank reward] Tria Konoya Fortress rumble B rank gifts Arrive!",
        "@content": "Tri Konoya Yamashiro Rumble 's B rank gift has arrived."
      },
      {
        "@id": "53000018",
        "@sender": "Maple Story 2",
        "@subject": "[Dungeon rank reward] Tria Konoya Fortress rumble A rank gift Arrived!",
        "@content": "Tria Konoyo Yamashiro Rumble 's A rank gift has arrived."
      },
      {
        "@id": "53000019",
        "@sender": "Maple Story 2",
        "@subject": "[Dungeon rank reward] Tria Konoya Fortress Rumble S rank gift Arrived!",
        "@content": "The S rank gift of Tri Konoyo Yamashiro Rumble arrived."
      },
      {
        "@id": "53000020",
        "@sender": "Maple Story 2",
        "@subject": "[Dungeon rank reward] Tria Konoya Fortress Rumble SS rank gift Arrived!",
        "@content": "Tri Konoya Yamashiro Rumble SS rank gift has arrived."
      },
      {
        "@id": "53000021",
        "@sender": "Maple Story 2",
        "@subject": "[Dungeon rank reward] Green food Fortress Rumble C rank gift Arrived!",
        "@content": "Green Food The C rank gift of Fortress Rumble arrived."
      },
      {
        "@id": "53000022",
        "@sender": "Maple Story 2",
        "@subject": "[Dungeon rank reward] Green food Fortress Rumble B rank gift Arrive!",
        "@content": "Green Food The B rank gift of Fortress Rumble arrived."
      },
      {
        "@id": "53000023",
        "@sender": "Maple Story 2",
        "@subject": "[Dungeon rank reward] Green food Fortress Rumble A rank gift Arrive!",
        "@content": "Green Food A Fortress Rumble A rank gift has arrived."
      },
      {
        "@id": "53000024",
        "@sender": "Maple Story 2",
        "@subject": "[Dungeon rank reward] Green food Fortress Rumble S rank gift Arrived!",
        "@content": "Green Food The S rank gift of Fortress Rumble arrived."
      },
      {
        "@id": "53000025",
        "@sender": "Maple Story 2",
        "@subject": "[Dungeon Rank Rewards] Green Food Fortress Rumble SS Rank Present Arrived!",
        "@content": "Green Food The Fortress Rumble SS rank gift has arrived."
      },
      {
        "@id": "53000026",
        "@sender": "Maple Story 2",
        "@subject": "[Dungeon rank reward] Rumi knights Fortress rumble C rank gift Arrive!",
        "@content": "The C rank gift of the Lumi nights mountain castle rumble arrived."
      },
      {
        "@id": "53000027",
        "@sender": "Maple Story 2",
        "@subject": "[Dungeon rank reward] Rumi knights Fortress rumble B rank gifts Arrive!",
        "@content": "The B rank gift of the Lumi nights mountain ranch rumble arrived."
      },
      {
        "@id": "53000028",
        "@sender": "Maple Story 2",
        "@subject": "[Dungeon rank reward] Rumi knights Fortress rumble A rank gift Arrive!",
        "@content": "A gift of A rank of Lumi nights mountain castle rumble arrived."
      },
      {
        "@id": "53000029",
        "@sender": "Maple Story 2",
        "@subject": "[Dungeon rank reward] Rumi knights Fortress rumble S rank gift Arrive!",
        "@content": "The S rank gift of the Lumi nights mountain castle rumble arrived."
      },
      {
        "@id": "53000030",
        "@sender": "Maple Story 2",
        "@subject": "[Dungeon rank reward] Rumi Nights Fortress Rumble SS rank gift Arrived!",
        "@content": "The SS rank gift of the Lumi nights mountain ranch rumble arrived."
      },
      {
        "@id": "53000031",
        "@sender": "Maple Story 2",
        "@subject": "[Dungeon Rank Rewards] Dark Wind Fortress Rumble C Rank Rank Present Arrived!",
        "@content": "Dark Wind Fortress Rumble 's C rank gift has arrived."
      },
      {
        "@id": "53000032",
        "@sender": "Maple Story 2",
        "@subject": "[Dungeon rank reward] Dark Wind Fortress Rumble B rank gift Arrive!",
        "@content": "Dark Wind Fortress Rumble B rank gifts arrived."
      },
      {
        "@id": "53000033",
        "@sender": "Maple Story 2",
        "@subject": "[Dungeon Rank Rewards] Dark Wind Fortress Rumble A Rank Gift Arrived!",
        "@content": "Dark Wind Fortress Rumble A rank gift has arrived."
      },
      {
        "@id": "53000034",
        "@sender": "Maple Story 2",
        "@subject": "[Dungeon rank reward] Dark Wind Fortress Rumble S rank gift Arrived!",
        "@content": "Dark Wind Fortress Rumble S rank gift has arrived."
      },
      {
        "@id": "53000035",
        "@sender": "Maple Story 2",
        "@subject": "[Dungeon Rank Rewards] Dark Wind Fortress Rumble SS Rank Present Arrived!",
        "@content": "Dark Wind Fortress Rumble SS rank gift has arrived."
      },
      {
        "@id": "60000000",
        "@sender": "Maple Story 2",
        "@subject": "Running with time",
        "@content": "Hello! Adventurer.\nWelcome to maple world.\nLet's make a special gift for adventurers who took the first step.\nUsing \"Hourglass of transcendence\" we dedicate, we can do the running with time during the 7th time.\nIf you can complete the duties given before the 7th time all flows\nI can arrive at the final point faster than time and receive a nice compensation.\n\nTherefore, we expect the adventurers' running skill!"
      },
      {
        "@id": "170307001",
        "@sender": "Maple Story 2",
        "@subject": "[Maple Marble] A coin arrived.",
        "@content": "Hello, it is Maple Story 2.\n\nTaking a memorial photo of Tria with a refreshing spring feeling, Enjoy indoors\nI prepared a maple marble game ~\nIn case\nA special opportunity to get rolling dice only limited skin and cute pet!\nI got gifts abundantly besides this\nDo not miss it absolutely ~\n\nMaple Town Memorial coin until 3/21 (Tue) before maintenance\nAttendance alone, three each day,\nEven just maintaining the connection, you can earn up to 20 more in a day!\nIn case\n* Maple Town Commemoration Coin is available on 3/21 (Tue)) Please use it within the period because it can be used until the periodic inspection.\nIn case\nThank you for always having with MapleStory 2.\n2017 Happy New Year!"
      },
      {
        "@id": "170307002",
        "@sender": "Maple Story 2",
        "@subject": "[Maple Marble] 20 minutes connection coin gift arrived",
        "@content": "MapleStory 2 Connection Time event gift has arrived.\nI will send [Maple Town Memorial 2 coins] as a reward connected for 20 minutes!\n\nMaple marble which came by the sign of spring!\nPlease collect Maple Town Memorial Coins and enjoy Backgammon ~\n\nSince many coin gifts are prepared in the future\nEnjoy Maple Story 2 easily!\n\nLet's meet again in 40 minutes later ~ *\n\n* Maple Town Commemorative Coin can be used until 3/21 (Tue) periodic maintenance, so please use it during the period.\n\nThank you very much."
      },
      {
        "@id": "170307003",
        "@sender": "Maple Story 2",
        "@subject": "[Maple Marble 40 minutes connection coin gift arrived",
        "@content": "MapleStory 2 Connection Time event gift has arrived.\nWe will send [Maple Town Memorial 2 coins] as a connected reward for 40 minutes!\n\nMaple marble which came by the sign of spring!\nPlease collect Maple Town Memorial Coins and enjoy Backgammon ~\n\nSince many coin gifts are prepared in the future\nEnjoy Maple Story 2 easily!\n\nLet's meet again in 60 minutes later ~ *\n\n* Maple Town Commemorative Coin can be used until 3/21 (Tue) periodic maintenance, so please use it during the period.\n\nThank you very much."
      },
      {
        "@id": "170307004",
        "@sender": "Maple Story 2",
        "@subject": "[Maple Marble] 60 minutes connection coin gift arrived",
        "@content": "MapleStory 2 Connection Time event gift has arrived.\nWe will send [Maple Town Memorial coin 3 pieces] as a reward connected for 60 minutes!\n\nMaple marble which came by the sign of spring!\nPlease collect Maple Town Memorial Coins and enjoy Backgammon ~\n\nSince many coin gifts are prepared in the future\nEnjoy Maple Story 2 easily!\n\nLet's meet again in 80 minutes later ~ *\n\n* Maple Town Commemorative Coin can be used until 3/21 (Tue) periodic maintenance, so please use it during the period.\n\nThank you very much."
      },
      {
        "@id": "170307005",
        "@sender": "Maple Story 2",
        "@subject": "[Maple marble 80 minutes connection coin gift arrived",
        "@content": "MapleStory 2 Connection Time event gift has arrived.\nWe will send [Maple Town Memorial coin 4] as a connected reward for 80 minutes!\n\nMaple marble which came by the sign of spring!\nPlease collect Maple Town Memorial Coins and enjoy Backgammon ~\n\nSince many coin gifts are prepared in the future\nEnjoy Maple Story 2 easily!\n\nLet's meet again after 100 minutes later ~ *\n\n* Maple Town Commemorative Coin can be used until 3/21 (Tue) periodic maintenance, so please use it during the period.\n\nThank you very much."
      },
      {
        "@id": "170307006",
        "@sender": "Maple Story 2",
        "@subject": "[Maple Marble] 100 minutes connection coin gift arrived",
        "@content": "MapleStory 2 Connection Time event gift has arrived.\nWe will send [Maple Town Memorial coin 4] as a connected reward for 100 minutes!\n\nMaple marble which came by the sign of spring!\nPlease collect Maple Town Memorial Coins and enjoy Backgammon ~\n\nSince many coin gifts are prepared in the future\nEnjoy Maple Story 2 easily!\n\nLet's meet again later 120 minutes later ~ *\n\n* Maple Town Commemorative Coin can be used until 3/21 (Tue) periodic maintenance, so please use it during the period.\n\nThank you very much."
      },
      {
        "@id": "170307007",
        "@sender": "Maple Story 2",
        "@subject": "[Maple Marble] 120 minutes connection coin gift arrived",
        "@content": "MapleStory 2 Connection Time event gift has arrived.\nWe will send [Maple Town Memorial coin 5 pieces] as a connected reward for 120 minutes!\n\nMaple marble which came by the sign of spring!\nPlease collect Maple Town Memorial Coins and enjoy Backgammon ~\n\nMaple Town Commemorative Coin Present is daily until 2/9 (Thur) Maintenance,\nDo not miss it!\n\nLet's meet again tomorrow ~ *\n\n* Maple Town Commemorative Coin can be used until 3/21 (Tue) periodic maintenance, so please use it during the period.\n\nThank you very much."
      },
      {
        "@id": "170406001",
        "@sender": "Maple Story 2",
        "@subject": "\"Lulu's key fragments\" arrived.",
        "@content": "Hello.\nFor the adventurer who visited MapleStory 2 today, a wandering merchant Ruru prepared a small gift!\n\nTwo separate shoe district!\nImmediately after steadily improving 30 pieces you can make one of Ruru's keys [fragments of Lulu's key].\n\n【Lulu's key fragments】 until 4/18 (Tue) before maintenance\nYou are able to receive 2 e-mails immediately and 3 sessions when maintaining 60-minute connections!\nEarn daily e-mail gifts to beat the dark stream boss to earn [Lulu's key fragments] eagerly\nPlease try opening the mystery box!"
      },
      {
        "@id": "170406002",
        "@sender": "Maple Story 2",
        "@subject": "\"Lulu's key fragments\" arrived.",
        "@content": "Connecting to Maple Story 2 for 60 minutes hot!\nAs a thank you wanderer merchant Ruru will play adventurers [fragments of Lulu's key] as promised.\n\n【Lulu's key fragments】 until 4/18 (Tue) before maintenance\nYou are able to receive 2 e-mails immediately and 3 sessions when maintaining 60-minute connections!\nEarn daily e-mail gifts to beat the dark stream boss to earn [Lulu's key fragments] eagerly\nPlease try opening the mystery box!"
      },
      {
        "@id": "170411101",
        "@sender": "Maple Story 2",
        "@subject": "[Lucky box event] Open the box of good luck!",
        "@content": "Five Lucky boxes everyday We will do one of the lucky golden keys.\n\nLucky boxes include skin equipments, enchantment materials, elixirs etc.\nVarious items are included.\n\nThe lucky golden key is to get rid of elite monsters appearing in the field\nYou can earn additional.\n\nLucky box and lucky golden keys are until midnight on 25th April\nPlease note that you can use."
      },
      {
        "@id": "170425001",
        "@sender": "Maple Story 2",
        "@subject": "[Number One Festival] A coin has arrived.",
        "@content": "Adventurer, Hello! What?\nIt is Maple Story 2.\nIn case\nWelcome to Maple Story 2 today.\nI will send you a happy feeling [three number one coins] ~ *\nIn case\nFestival in number one coin Lucky spin and festival cardboard on the board\nPlease participate and get a wonderful luck ~!\nIn case\nMay 9 (Tuesday) I will attend every day until maintenance\nDo not forget to attend as we will send you the number one coin everyday!\nIn case\nLet's meet again tomorrow ~ *\nIn case\n* Please be sure to receive the attached item within the validity period of mail (30 days)!\n* Since the number one coin can be used until 5/9 (Tuesday) regular maintenance,\nPlease use it within the period.\nIn case\nThank you very much."
      },
      {
        "@id": "170425002",
        "@sender": "Maple Story 2",
        "@subject": "[Number One Festival] 30 minutes connection coin gift arrived",
        "@content": "MapleStory 2 Connection Time event gift has arrived.\nI will send [number one coin 2] as a reward connected for 30 minutes!\n\nFestival in number one coin Lucky spin and festival cardboard on the board\nPlease participate and get a wonderful luck ~!\n\nConnections 60 minutes, 90 minutes, 120 minutes gifts are also available,\nEnjoy Maple Story 2 easily!\n\nLet's meet again in 60 minutes later ~ *\n\n* Please be sure to receive the attached item within the validity period of mail (30 days)!\n* Since the number one coin can be used until 5/9 (Tuesday) regular maintenance,\nPlease use it within the period.\n\nThank you very much."
      },
      {
        "@id": "170425003",
        "@sender": "Maple Story 2",
        "@subject": "[Number One Festival] 60 minutes connection coin gift arrived",
        "@content": "MapleStory 2 Connection Time event gift has arrived.\nI will send [number one coin 2] as a reward connected for 60 minutes!\n\nFestival in number one coin Lucky spin and festival cardboard on the board\nPlease participate and get a wonderful luck ~!\n\nConnections 90 minutes, 120 minutes gifts are also available,\nEnjoy Maple Story 2 easily!\n\nLet's meet again in 90 minutes later ~ *\n\n* Please be sure to receive the attached item within the validity period of mail (30 days)!\n* Since the number one coin can be used until 5/9 (Tuesday) regular maintenance,\nPlease use it within the period.\n\nThank you very much."
      },
      {
        "@id": "170425004",
        "@sender": "Maple Story 2",
        "@subject": "[Number One Festival] 90 minutes connection coin gift arrived",
        "@content": "MapleStory 2 Connection Time event gift has arrived.\nWe will send [number one coin 3] as a connected reward for 90 minutes!\n\nFestival in number one coin Lucky spin and festival cardboard on the board\nPlease participate and get a wonderful luck ~!\n\nAs gifts are also available for connection 120 minutes,\nEnjoy Maple Story 2 easily!\n\nLet's meet again later 120 minutes later ~ *\n\n* Please be sure to receive the attached item within the validity period of mail (30 days)!\n* Since the number one coin can be used until 5/9 (Tuesday) regular maintenance,\nPlease use it within the period.\n\nThank you very much."
      },
      {
        "@id": "170425005",
        "@sender": "Maple Story 2",
        "@subject": "[Number One Festival] 120 minutes connection coin gift arrived",
        "@content": "MapleStory 2 Connection Time event gift has arrived.\nI will send [number one coin 4] as a connected reward for 120 minutes!\n\nFestival in number one coin Lucky spin and festival cardboard on the board\nPlease participate and get a wonderful luck ~!\n\nConnection compensation is until 5/9 (Tuesday) before maintenance,\nDo not forget to join us everyday!\n\nLet's meet again tomorrow ~ *\n\n* Please be sure to receive the attached item within the validity period of mail (30 days)!\n* Since the number one coin can be used until 5/9 (Tuesday) regular maintenance,\nPlease use it within the period.\n\nThank you very much."
      },
      {
        "@id": "170509001",
        "@sender": "Maple Story 2",
        "@subject": "[Maple Festival] A connection gift has arrived.",
        "@content": "Hello, it is Maple Story 2.\n\nMaple autumn leaves festival was held at Mapleworld!\nIn case\nCollect the beautiful \"Maple petals\"\nPlease visit event companion Bobby!\n\nThe Maple autumn leaves festival is greeted, specially prepared items are bang!\nIn case\nMaple petals until 5/21 (Sunday)\nEven just attending, two each day,\nEven just maintaining the connection, you can earn up to 20 more in a day!\nIn case\n* Maple petals can be used until May 21 (Sunday), so please use it within the period.\nIn case\nThank you very much."
      },
      {
        "@id": "170509002",
        "@sender": "Maple Story 2",
        "@subject": "[Maple Festival] 20 minutes connection petals gifts arrived",
        "@content": "MapleStory 2 Connection Time event gift has arrived.\nI will send [Maple petals 2] as a reward connected for 20 minutes!\n\nCollect the beautiful \"Maple petals\"\nEvent Companion Purchase various items from Bobby!\n\nSince many petal gifts are prepared in the future\nEnjoy Maple Story 2 easily!\n\nLater, after 40 minutes let's meet again ~ *\n\n* Maple petals can be used until May 21 (Sunday), so please use it within the period.\n\nThank you very much."
      },
      {
        "@id": "170509003",
        "@sender": "Maple Story 2",
        "@subject": "[Maple Festival] 40 minutes connection petals gifts arrived",
        "@content": "MapleStory 2 Connection Time event gift has arrived.\nI will send [Maple petals 2] as connected reward for 40 minutes!\n\nCollect the beautiful \"Maple petals\"\nEvent Companion Purchase various items from Bobby!\n\nSince many petal gifts are prepared in the future\nEnjoy Maple Story 2 easily!\n\nLet's meet again in 60 minutes afterwards ~ *\n\n* Maple petals can be used until May 21 (Sunday), so please use it within the period.\n\nThank you very much."
      },
      {
        "@id": "170509004",
        "@sender": "Maple Story 2",
        "@subject": "[Maple Festival] 60 minutes connection petals gifts arrived",
        "@content": "MapleStory 2 Connection Time event gift has arrived.\nI will send [Maple petals 3] as a reward connected for 60 minutes!\n\nCollect the beautiful \"Maple petals\"\nEvent Companion Purchase various items from Bobby!\n\nSince many petal gifts are prepared in the future\nEnjoy Maple Story 2 easily!\n\nLet's meet again in 80 minutes afterwards ~ *\n\n* Maple petals can be used until May 21 (Sunday), so please use it within the period.\n\nThank you very much."
      },
      {
        "@id": "170509005",
        "@sender": "Maple Story 2",
        "@subject": "[Maple festival 80 minutes connection petals gifts arrived",
        "@content": "MapleStory 2 Connection Time event gift has arrived.\nI will send [Maple petals 4] as a connected reward for 80 minutes!\n\nCollect the beautiful \"Maple petals\"\nEvent Companion Purchase various items from Bobby!\n\nSince many petal gifts are prepared in the future\nEnjoy Maple Story 2 easily!\n\nLet's meet again after 100 minutes ~ *\n\n* Maple petals can be used until May 21 (Sunday), so please use it within the period.\n\nThank you very much."
      },
      {
        "@id": "170509006",
        "@sender": "Maple Story 2",
        "@subject": "[Maple Festival] 100 minutes connection Petal present gifts arrived",
        "@content": "MapleStory 2 Connection Time event gift has arrived.\nI will send [Maple petals 4] as a connected reward for 100 minutes!\n\nCollect the beautiful \"Maple petals\"\nEvent Companion Purchase various items from Bobby!\n\nSince many petal gifts are prepared in the future\nEnjoy Maple Story 2 easily!\n\nLet's meet again after 120 minutes ~ *\n* Maple petals can be used until May 21 (Sunday), so please use it within the period.\n\nThank you very much."
      },
      {
        "@id": "170509007",
        "@sender": "Maple Story 2",
        "@subject": "[Maple Festival] 120 minutes connection petals gifts arrived",
        "@content": "MapleStory 2 Connection Time event gift has arrived.\nWe will send [Maple's five petals] as a connected reward for 120 minutes!\n\nCollect the beautiful \"Maple petals\"\nEvent Companion Purchase various items from Bobby!\n\nBecause maple petal gift is daily until 11/10 (Thur) maintenance\nDo not miss it!\n\nLet's meet again tomorrow ~ *\n\n* Maple petals can be used until May 21 (Sunday), so please use it within the period.\n\nThank you very much."
      },
      {
        "@id": "160331101",
        "@sender": "Maple Story 2",
        "@subject": "\"I love you bunny girl pocket\" has arrived.",
        "@content": "Hello.\nMapleStory 2 In commemoration of the second patch, we prepared a special random box for all adventurers who connected!\n\nA beautiful bunny girl at Maple World, did you see Blooman?\nSo I prepared.\nMen should be able to wear bunny girl costumes too!\nWomen can also become a rough and nice buddy bunny girl!\n\nSimply connect every day, love you bunny girl's pocket \"is attached to the e-mail will be sent.\nNot to mention very special bunny girl costumes! Funny items\nOpportunities that you can earn randomly!\n\nLet's wear the costume of our bunny girl Dengyoyo ~\nFOREVER Bunny girl (especially vanilla!) LOVE."
      },
      {
        "@id": "170830001",
        "@sender": "Maple Story 2",
        "@subject": "Get a daily connection gift! Doki watching memorial coins arrived.",
        "@content": "Hello, it is Maple Story 2.\n\nTurn it inside out! Oki - Doki! You can participate in the event\nMemorial coins arrived at Doki arrived!\n\nThree dockyard memorial coins are connected by just connecting every day,\n30 minutes, one at the time of connecting 60 minutes,\n90 minutes, 120 minutes when you connect you will receive two e-mails.\n\nTake out the attached coins right now and go to the \"penguin night bar indoor\"!\nUsing the Poker game memorial coin, turning over the card\nI can not bring a limited gift of limited skin and rides such as vehicles.\n\ntrue! Pokemon coin, September 21 (Thu) before maintenance\nThe point that you can use! Please do not forget to use it beforehand.\n\nI hope everyone will be filled with the blessing of the Duktem god. ^ ^\n\nThank you very much."
      },
      {
        "@id": "170830002",
        "@sender": "Maple Story 2",
        "@subject": "30 minutes present gift! Doki watching memorial coins arrived.",
        "@content": "Hello, it is Maple Story 2.\n\nTurn it inside out! Oki - Doki! You can participate in the event\nMemorial coins arrived at Doki arrived!\n\nThree dockyard memorial coins are connected by just connecting every day,\n30 minutes, one at the time of connecting 60 minutes,\n90 minutes, 120 minutes when you connect you will receive two e-mails.\n\nTake out the attached coins right now and go to the \"penguin night bar indoor\"!\nUsing the Poker game memorial coin, turning over the card\nI can not bring a limited gift of limited skin and rides such as vehicles.\n\ntrue! Pokemon coin, September 21 (Thu) before maintenance\nThe point that you can use! Please do not forget to use it beforehand.\n\nI hope everyone will be filled with the blessing of the Duktem god. ^ ^\n\nThank you very much."
      },
      {
        "@id": "170830003",
        "@sender": "Maple Story 2",
        "@subject": "60 minutes connection gift! Doki watching memorial coins arrived.",
        "@content": "Hello, it is Maple Story 2.\n\nTurn it inside out! Oki - Doki! You can participate in the event\nMemorial coins arrived at Doki arrived!\n\nThree dockyard memorial coins are connected by just connecting every day,\n30 minutes, one at the time of connecting 60 minutes,\n90 minutes, 120 minutes when you connect you will receive two e-mails.\n\nTake out the attached coins right now and go to the \"penguin night bar indoor\"!\nUsing the Poker game memorial coin, turning over the card\nI can not bring a limited gift of limited skin and rides such as vehicles.\n\ntrue! Pokemon coin, September 21 (Thu) before maintenance\nThe point that you can use! Please do not forget to use it beforehand.\n\nI hope everyone will be filled with the blessing of the Duktem god. ^ ^\n\nThank you very much."
      },
      {
        "@id": "170830004",
        "@sender": "Maple Story 2",
        "@subject": "90 minutes connection present! Doki watching memorial coins arrived.",
        "@content": "Hello, it is Maple Story 2.\n\nTurn it inside out! Oki - Doki! You can participate in the event\nMemorial coins arrived at Doki arrived!\n\nThree dockyard memorial coins are connected by just connecting every day,\n30 minutes, one at the time of connecting 60 minutes,\n90 minutes, 120 minutes when you connect you will receive two e-mails.\n\nTake out the attached coins right now and go to the \"penguin night bar indoor\"!\nUsing the Poker game memorial coin, turning over the card\nI can not bring a limited gift of limited skin and rides such as vehicles.\n\ntrue! Pokemon coin, September 21 (Thu) before maintenance\nThe point that you can use! Please do not forget to use it beforehand.\n\nI hope everyone will be filled with the blessing of the Duktem god. ^ ^\n\nThank you very much."
      },
      {
        "@id": "170830005",
        "@sender": "Maple Story 2",
        "@subject": "120 minutes connection gift! Doki watching memorial coins arrived.",
        "@content": "Hello, it is Maple Story 2.\n\nTurn it inside out! Oki - Doki! You can participate in the event\nMemorial coins arrived at Doki arrived!\n\nThree dockyard memorial coins are connected by just connecting every day,\n30 minutes, one at the time of connecting 60 minutes,\n90 minutes, 120 minutes when you connect you will receive two e-mails.\n\nTake out the attached coins right now and go to the \"penguin night bar indoor\"!\nUsing the Poker game memorial coin, turning over the card\nI can not bring a limited gift of limited skin and rides such as vehicles.\n\ntrue! Pokemon coin, September 21 (Thu) before maintenance\nThe point that you can use! Please do not forget to use it beforehand.\n\nI hope everyone will be filled with the blessing of the Duktem god. ^ ^\n\nThank you very much."
      },
      {
        "@id": "170923001",
        "@sender": "Maple Story 2",
        "@subject": "[Monday store] A connection gift has arrived.",
        "@content": "Hello, it is Maple Story 2.\nOnly 2 days on September 25 and October 2! Event Merchant Monday will visit Tria from Monday 12 pm until late night.\nIn case\nIf there is \"Monday Store Coin\"\nYou can purchase various items such as love love name badge and mint campers van, additional dungeon reward acquisition additional volume, experience value coupons ~\n\nThe way you can earn \"Monday store coins\" is easy -\n - Saturday and Sunday between September 23 and October 2 Payment by e-mail when connected\n - Additional payment (up to 90 minutes) will be provided every 30 minutes when maintaining connections on Saturdays and Sundays between September 23 and October 2\n\nA special opportunity to purchase various items just by connecting at weekends!\nDo not miss it absolutely ~ *\n\nThank you very much."
      },
      {
        "@id": "170923002",
        "@sender": "Maple Story 2",
        "@subject": "[Monday store] 30 minutes connection gift arrival",
        "@content": "Monday store connection time event gift has arrived.\nI will send a [Monday store coin] as a reward connected for 30 minutes!\n\nCollect \"Monday Store Coins\"\nPlease buy various items from the event merchant Monday!\n\nLet's meet again in 60 minutes ~ *\n\nThank you very much."
      },
      {
        "@id": "170923003",
        "@sender": "Maple Story 2",
        "@subject": "[Monday store] 60 minutes connection gift arrival",
        "@content": "Monday store connection time event gift has arrived.\nI will send a [Monday store coin] as a reward connected for 60 minutes!\n\nCollect \"Monday Store Coins\"\nPlease buy various items from the event merchant Monday!\n\nLet's meet again in 90 minutes ~ *\n\nThank you very much."
      },
      {
        "@id": "170923004",
        "@sender": "Maple Story 2",
        "@subject": "[Monday store] 90 minutes connection gift arrival",
        "@content": "Monday store connection time event gift has arrived.\nWe will send [Monday store coins 3] as a connected reward for 90 minutes!\n\nCollect \"Monday Store Coins\"\nPlease buy various items from the event merchant Monday!\n\nA special opportunity to purchase various goods cheaply for weekend connections!\nDo not miss it absolutely ~ *\n\nThank you very much."
      },
      {
        "@id": "170923005",
        "@sender": "Maple Story 2",
        "@subject": "[Monday store] A connection gift has arrived.",
        "@content": "Hello, it is Maple Story 2.\nOctober 30 and November 6 just two days! Monday from 12 pm until late night!\nAn event merchant Monday will prepare and special Halloween special items on Tria.\nIn case\nIf there is \"Monday Store Coin\"\nI can purchase interior items that can enjoy Halloween more creepy and special items such as ripe pumpkin blowing badges.\n\nThe way you can earn \"Monday store coins\" is easy -\n - Saturday and Sunday between October 28 and November 6 Payment by e-mail when connected\n - Additional payment (up to 90 minutes) will be provided every 30 minutes when maintaining connection on Saturday and Sunday between October 28 and November 6\n\nOpportunity to purchase Halloween special items just by connecting at weekends!\nDo not miss it absolutely ~ *\n\nThank you very much."
      },
      {
        "@id": "170923010",
        "@sender": "Maple Story 2",
        "@subject": "[National phrase] A connection gift has arrived.",
        "@content": "Hello, it is Maple Story 2.\n\nWe hope to make good tsuki mochi after welcoming the country Keio\nIt is sharing a fresh \"moon cake blood\".\nIn case\nKosi \"moon cake blood\" into \"sediment of the night\" or \"anko\"\nI am able to make the most delicious country of the world celebration memorial moon cake.\nEnjoy all the delicious moon cake and the national chef!\nIn case\nMoon cake blooms until 10/08 (Sun)\nJust connect every day, two by two,\nOne by one when connecting 20, 40, 60, and 80 minutes,\nWe will send two e-mails when connecting 100 minutes, 120 minutes.\nIn case\n* Since it can be used up to moon cake blooming 11/08 (Wednesday), please use it within the period.\nIn case\nThank you very much."
      },
      {
        "@id": "170923011",
        "@sender": "Maple Story 2",
        "@subject": "[National phrase] 20 minutes connected moon cake blood gift arrived",
        "@content": "MapleStory 2 Connection Time event gift has arrived.\nI will send [1 moon cake blood] as a reward connected for 20 minutes!\n\nKosi \"moon cake blood\" into \"sediment of the night\" or \"anko\"\nI am able to make the most delicious country of the world celebration memorial moon cake.\nEnjoy all the delicious moon cake and the national chef!\n\nLater, after 40 minutes let's meet again ~ *\n\n* Since it can be used up to moon cake blooming 11/08 (Wednesday), please use it within the period.\n\nThank you very much."
      },
      {
        "@id": "170923012",
        "@sender": "Maple Story 2",
        "@subject": "[National phrase] 40 minutes connected moon cake blood gift arrived",
        "@content": "MapleStory 2 Connection Time event gift has arrived.\nI will send [moon cake blood 1 piece] as a connected reward for 40 minutes!\n\nKosi \"moon cake blood\" into \"sediment of the night\" or \"anko\"\nI am able to make the most delicious country of the world celebration memorial moon cake.\nEnjoy all the delicious moon cake and the national chef!\n\nLet's meet again in 60 minutes afterwards ~ *\n\n* Since it can be used up to moon cake blooming 11/08 (Wednesday), please use it within the period.\n\nThank you very much."
      },
      {
        "@id": "170923013",
        "@sender": "Maple Story 2",
        "@subject": "[National phrase] 60 minutes connected moon cake blood gift arrived",
        "@content": "MapleStory 2 Connection Time event gift has arrived.\nI will send [moon cake blood 1 piece] as a reward connected for 60 minutes!\n\nKosi \"moon cake blood\" into \"sediment of the night\" or \"anko\"\nI am able to make the most delicious country of the world celebration memorial moon cake.\nEnjoy all the delicious moon cake and the national chef!\n\nLet's meet again in 80 minutes afterwards ~ *\n\n* Since it can be used up to moon cake blooming 11/08 (Wednesday), please use it within the period.\n\nThank you very much."
      },
      {
        "@id": "170923014",
        "@sender": "Maple Story 2",
        "@subject": "[National Day 80 minutes connected moon cake blood gift arrived",
        "@content": "MapleStory 2 Connection Time event gift has arrived.\nI will send [moon cake blood 1 piece] as a connected reward for 80 minutes!\n\nKosi \"moon cake blood\" into \"sediment of the night\" or \"anko\"\nI am able to make the most delicious country of the world celebration memorial moon cake.\nEnjoy all the delicious moon cake and the national chef!\n\nLet's meet again after 100 minutes ~ *\n\n* Since it can be used up to moon cake blooming 11/08 (Wednesday), please use it within the period.\n\nThank you very much."
      },
      {
        "@id": "170923015",
        "@sender": "Maple Story 2",
        "@subject": "[National phrase] 100 minutes connection moon cake blood gift arrived",
        "@content": "MapleStory 2 Connection Time event gift has arrived.\nWe will send [2 moon cake blood] as a connected reward for 100 minutes!\n\nKosi \"moon cake blood\" into \"sediment of the night\" or \"anko\"\nI am able to make the most delicious country of the world celebration memorial moon cake.\nEnjoy all the delicious moon cake and the national chef!\n\nLet's meet again after 120 minutes ~ *\n\n* Since it can be used up to moon cake blooming 11/08 (Wednesday), please use it within the period.\n\nThank you very much."
      },
      {
        "@id": "170923016",
        "@sender": "Maple Story 2",
        "@subject": "[National phrase] 120 minutes connected moon cake blood gift arrived",
        "@content": "MapleStory 2 Connection Time event gift has arrived.\nAs a connected reward for 120 minutes, [2 moon cake blood] will be sent!\n\nKosi \"moon cake blood\" into \"sediment of the night\" or \"anko\"\nI am able to make the most delicious country of the world celebration memorial moon cake.\nEnjoy all the delicious moon cake and the national chef!\n\nLet's meet again tomorrow ~ *\n\n* Since it can be used up to moon cake blooming 11/08 (Wednesday), please use it within the period.\n\nThank you very much."
      },
      {
        "@id": "171026000",
        "@sender": "Maple Story 2",
        "@subject": "[Halloween] A connection gift has arrived.",
        "@content": "Happy Halloween!\n\nWhy do you think of Halloween? It is exactly a pumpkin!\nHalloween welcomes you to make a pumpkin full of \"pumpkin carriage\" to the adventurers.\n\n\"Pumpkin carriage\" until 11/14 (Tue)\nJust connect every day, two by two,\nOne by one when connecting 20, 40, 60, and 80 minutes,\nWe will send two e-mails when connecting 100 minutes, 120 minutes.\nIn case\nPumpkin carriages can be exchanged for items by taking them to the penguin bar \"Tobo\".\nPlease get a pumpkin carriage with a stable connection and purchase items commemorating Halloween.\n\nThank you very much."
      },
      {
        "@id": "171026001",
        "@sender": "Maple Story 2",
        "@subject": "[Halloween] 20 minutes connection Pumpkin carriage gift Arrived",
        "@content": "MapleStory 2 Connection Time event gift has arrived.\nI will send a [pumpkin carriage] as a reward connected for 20 minutes!\n\nPumpkin carriages can be exchanged for items by taking them to the penguin bar \"Tobo\".\nPlease get a pumpkin carriage with a stable connection and purchase items commemorating Halloween.\n\nLater, after 40 minutes let's meet again ~ *\n\n* Since we can meet until 11/14 (Tuesday) earning penguin bar earnest, please within the period.\n\nThank you very much."
      },
      {
        "@id": "171026002",
        "@sender": "Maple Story 2",
        "@subject": "[Halloween] 40 minutes connection Pumpkin carriage gift Arrived",
        "@content": "MapleStory 2 Connection Time event gift has arrived.\nAs a connected reward for 40 minutes, I will send a pumpkin carriage!\n\nPumpkin carriages can be exchanged for items by taking them to the penguin bar \"Tobo\".\nPlease get a pumpkin carriage with a stable connection and purchase items commemorating Halloween.\n\nLet's meet again in 60 minutes afterwards ~ *\n\n* Since we can meet until 11/14 (Tuesday) earning penguin bar earnest, please within the period.\n\nThank you very much."
      },
      {
        "@id": "171026003",
        "@sender": "Maple Story 2",
        "@subject": "[Halloween] 60 minutes connection Pumpkin carriage gift Arrived",
        "@content": "MapleStory 2 Connection Time event gift has arrived.\nI will send a [pumpkin carriage] as a reward connected for 60 minutes!\n\nPumpkin carriages can be exchanged for items by taking them to the penguin bar \"Tobo\".\nPlease get a pumpkin carriage with a stable connection and purchase items commemorating Halloween.\n\nLet's meet again in 80 minutes afterwards ~ *\n\n* Since we can meet until 11/14 (Tuesday) earning penguin bar earnest, please within the period.\n\nThank you very much."
      },
      {
        "@id": "171026004",
        "@sender": "Maple Story 2",
        "@subject": "[Halloween] 80 minutes connection Pumpkin carriage gift Arrived",
        "@content": "MapleStory 2 Connection Time event gift has arrived.\nAs a connected reward for 80 minutes, I will send a pumpkin carriage!\n\nPumpkin carriages can be exchanged for items by taking them to the penguin bar \"Tobo\".\nPlease get a pumpkin carriage with a stable connection and purchase items commemorating Halloween.\n\nLet's meet again after 100 minutes ~ *\n\n* Since we can meet until 11/14 (Tuesday) earning penguin bar earnest, please within the period.\n\nThank you very much."
      },
      {
        "@id": "171026005",
        "@sender": "Maple Story 2",
        "@subject": "[Halloween] 100 minutes connection Pumpkin carriage gift Arrived",
        "@content": "MapleStory 2 Connection Time event gift has arrived.\nAs a connected reward for 100 minutes, I will send [2 pumpkin carriers]!\n\nPumpkin carriages can be exchanged for items by taking them to the penguin bar \"Tobo\".\nPlease get a pumpkin carriage with a stable connection and purchase items commemorating Halloween.\n\nLet's meet again after 120 minutes ~ *\n\n* Since we can meet until 11/14 (Tuesday) earning penguin bar earnest, please within the period.\n\nThank you very much."
      },
      {
        "@id": "171026006",
        "@sender": "Maple Story 2",
        "@subject": "[Halloween] 120 minutes connection Pumpkin carriage gift Arrived",
        "@content": "MapleStory 2 Connection Time event gift has arrived.\nAs a connected reward for 120 minutes, I will send [2 pumpkin carriages]!\n\nPumpkin carriages can be exchanged for items by taking them to the penguin bar \"Tobo\".\nPlease get a pumpkin carriage with a stable connection and purchase items commemorating Halloween.\n\nLet's meet again tomorrow ~ *\n\n* Since we can meet until 11/14 (Tuesday) earning penguin bar earnest, please within the period.\n\nThank you very much."
      },
      {
        "@id": "171123001",
        "@sender": "Maple Story 2",
        "@subject": "Seoul Binder Character Creation Memorial Present Arrived",
        "@content": "Hello, it is Maple Story 2.\n\nSoul binder created for the first time and the tutorial up to completion hot.\nTo celebrate weapon skin of soul binder [antique marble of] will be sent!\nYou can also wear it with weapons, so please try to wear it once.\n\n* Soul binder generated souvenir is paid once per account.\n\nThank you very much."
      },
      {
        "@id": "171123002",
        "@sender": "Maple Story 2",
        "@subject": "Soul binder 30 levels celebration gift arrived",
        "@content": "congratulations!\n\nYou have achieved 30 levels for Soul Binder!\nI will send [Mint Bonito] as a celebration gift.\nPlease ride mint Bonito and run happily!\n\n* Celebration gifts for achieving soul binder 30 level will be paid once per account.\n\nThank you very much."
      },
      {
        "@id": "171212000",
        "@sender": "Maple Story 2",
        "@subject": "【Christmas】 Connection gift has arrived.",
        "@content": "Hero brilliant who enjoys Maple 2, Merry Christmas!\nAt Christmas you know that Santa Papa is giving presents to the brave who did a good job?\nHowever, Santa Papa is not busy you ~ we are giving gingerbread cookies.\n\n\"Santa Papa's Gingerbread Cookie\" is until 1/11 (Thursday)\nJust connect every day, two by two,\nOne by one when connecting 20, 40, 60, and 80 minutes,\nWe will send two e-mails when connecting 100 minutes, 120 minutes.\nIn case\nIf you bring Santa Papa's gingerbread cookie to the penguin bar \"Santa Rudolf\" you can exchange it for items.\nLet's have a nice Christmas item for Santa Papa's gingerbread cookie to offer to the brave who has connected hard.\n\nThank you very much."
      },
      {
        "@id": "171212001",
        "@sender": "Maple Story 2",
        "@subject": "【Christmas】 20 minutes connection Santapapa gingerbread cookie arrived",
        "@content": "MapleStory 2 Connection Time event gift has arrived.\nI will send [Santa Papa's Gingerbread Cookie 1 piece] as a reward connected for 20 minutes!\n\nIf you bring Santa Papa's gingerbread cookie to the penguin bar \"Santa Rudolf\" you can exchange it for items.\nLet's have a nice Christmas item for Santa Papa's gingerbread cookie to offer to the brave who has connected hard.\n\nLater, after 40 minutes let's meet again ~ *\n\n* Penguin bar Santa Rudolph can meet up to 1/11 (Thursday), so please be within the time limit.\n\nThank you very much."
      },
      {
        "@id": "171212002",
        "@sender": "Maple Story 2",
        "@subject": "【Christmas】 40 minutes connection Santapapa gingerbread cookie arrived",
        "@content": "MapleStory 2 Connection Time event gift has arrived.\nI will send [Santa Papa's Gingerbread Cookie 1] as a connected reward for 40 minutes!\n\nIf you bring Santa Papa's gingerbread cookie to the penguin bar \"Santa Rudolf\" you can exchange it for items.\nLet's have a nice Christmas item for Santa Papa's gingerbread cookie to offer to the brave who has connected hard.\n\nLet's meet again in 60 minutes afterwards ~ *\n\n* Penguin bar Santa Rudolph can meet up to 1/11 (Thursday), so please be within the time limit.\n\nThank you very much."
      },
      {
        "@id": "171212003",
        "@sender": "Maple Story 2",
        "@subject": "【Christmas】 60 minutes connection Santapapa gingerbread cookie arrived",
        "@content": "MapleStory 2 Connection Time event gift has arrived.\nI will send [Santa Papa's Gingerbread Cookie 1 piece] as a reward connected for 60 minutes!\n\nIf you bring Santa Papa's gingerbread cookie to the penguin bar \"Santa Rudolf\" you can exchange it for items.\nLet's have a nice Christmas item for Santa Papa's gingerbread cookie to offer to the brave who has connected hard.\n\nLet's meet again in 80 minutes afterwards ~ *\n\n* Penguin bar Santa Rudolph can meet up to 1/11 (Thursday), so please be within the time limit.\n\nThank you very much."
      },
      {
        "@id": "171212004",
        "@sender": "Maple Story 2",
        "@subject": "【Christmas】 80 minutes connection Santapapa gingerbread cookie arrived",
        "@content": "MapleStory 2 Connection Time event gift has arrived.\nI will send [Santa Papa's Gingerbread Cookie 1 piece] as a connected reward for 80 minutes!\n\nIf you bring Santa Papa's gingerbread cookie to the penguin bar \"Santa Rudolf\" you can exchange it for items.\nLet's have a nice Christmas item for Santa Papa's gingerbread cookie to offer to the brave who has connected hard.\n\nLet's meet again after 100 minutes ~ *\n\n* Penguin bar Santa Rudolph can meet up to 1/11 (Thursday), so please be within the time limit.\n\nThank you very much."
      },
      {
        "@id": "171212005",
        "@sender": "Maple Story 2",
        "@subject": "【Christmas】 100 minutes connection Santapapa gingerbread cookie arrived",
        "@content": "MapleStory 2 Connection Time event gift has arrived.\nI will send [Santa Papa's Gingerbread Cookie 2 pieces] as a connected reward for 100 minutes!\n\nIf you bring Santa Papa's gingerbread cookie to the penguin bar \"Santa Rudolf\" you can exchange it for items.\nLet's have a nice Christmas item for Santa Papa's gingerbread cookie to offer to the brave who has connected hard.\n\nLet's meet again after 120 minutes ~ *\n\n* Penguin bar Santa Rudolph can meet up to 1/11 (Thursday), so please be within the time limit.\n\nThank you very much."
      },
      {
        "@id": "171212006",
        "@sender": "Maple Story 2",
        "@subject": "【Christmas】 120 minutes connection Santapapa gingerbread cookie arrived",
        "@content": "MapleStory 2 Connection Time event gift has arrived.\nI will send [Santa Papa's Gingerbread Cookie 2 pieces] as a connected reward for 120 minutes!\n\nIf you bring Santa Papa's gingerbread cookie to the penguin bar \"Santa Rudolf\" you can exchange it for items.\nLet's have a nice Christmas item for Santa Papa's gingerbread cookie to offer to the brave who has connected hard.\n\nLet's meet again tomorrow ~ *\n\n* Santa Rudolph of the penguin bar can meet up to 1/11 (Tuesday), so please within the period.\n\nThank you very much."
      },
      {
        "@id": "171223001",
        "@sender": "Maple Story 2",
        "@subject": "[Christmas Monday store] Connection gift has arrived.",
        "@content": "Hello, it is Maple Story 2.\nJust 2 days on December 25 and January 1! Monday from 12 pm until late night!\nYou can purchase special goods from Event Merchant Monday in Tria.\n\nThe way you can earn \"Monday store coins\" is easy -\n - Saturday and Sunday between December 23 and January 1 Connected by email when connected\n - Additional payment (up to 90 minutes) will be provided every 30 minutes when maintaining connection on Saturday and Sunday between December 23 and January 1\n\nOpportunity to purchase Monday's special items just by connecting at the weekend!\nDo not miss it absolutely ~ *\n\nThank you very much."
      },
      {
        "@id": "171224001",
        "@sender": "Maple Story 2",
        "@subject": "[Hot Time] Happy Christmas Hot Time",
        "@content": "The gift of MapleStory 2 Hot Time Connection Event has arrived.\n\nTomorrow is a Christmas toppling even if you hear only the name!\nWe prepared Christmas Eve Festival present at MapleStory 2.\nTo the brave man who connected for more than an hour from 5 pm to 11 pm on Christmas Eve\n[ACTION LEARNER: Snowy Day] will be sent.\n\nWith MapleStory 2 you can spend more Christmas happily."
      },
      {
        "@id": "171228001",
        "@sender": "Maple Story 2",
        "@subject": "Another sand fishing spot Open commemoration connection gift arrival",
        "@content": "Hello, everyone in adventure!\n\nWe will deliver the news as a beautiful star sand fishing place is opened ~\n\nA star sand fishing place that can enjoy fishing against the mysterious universe as background can be passed through the [event map shortcut] on the upper right side of the screen!\n\nIn another sand fishing place\n\"Moon rabbit fragrant\" Moon rabbit door lebit which will exchange various skins and action attendance certificate, damage badge etc\nBecause I'm waiting for an adventure\nI'd love to! I'd love to! I'd love to! We recommend Gabosinune ~\n\nAs a separate sand fishing opening open commemoration gift\nWhen used in a different sand fishing spot, let's send star magnet feeds that can get the moonlight glowing with a certain probability ~\n\nWhen connecting on a daily basis, pay one time for each account and stay three Do not miss it absolutely ~\n\n* Since the shining moon part and the star magnet lure can be used until 1/11 (Thu) periodic inspection, please use it within the period.\n\nSee you tomorrow~\nThank you!"
      },
      {
        "@id": "171228002",
        "@sender": "Maple Story 2",
        "@subject": "【Warm winter gift】 One connection compensation",
        "@content": "Heroes enjoying MapleStory 2 A warm winter gift has arrived.\nAs a connection fee, I will give you [free predetermined position resurrection coupon 8 pieces]."
      },
      {
        "@id": "171228003",
        "@sender": "Maple Story 2",
        "@subject": "【Warm winter gift】 One connection compensation",
        "@content": "Heroes enjoying MapleStory 2 A warm winter gift has arrived.\nI will send [Dungeon Rewards Coupon Added Coupon 8] as a reward connected for 60 minutes!"
      },
      {
        "@id": "171228004",
        "@sender": "Maple Story 2",
        "@subject": "【Warm winter gift】 Two connection compensation",
        "@content": "Heroes enjoying MapleStory 2 A warm winter gift has arrived.\nAs a connection reward [old old worn key 3 pieces] will be gifted."
      },
      {
        "@id": "171228005",
        "@sender": "Maple Story 2",
        "@subject": "【Warm winter gift】 Two connection compensation",
        "@content": "Heroes enjoying MapleStory 2 A warm winter gift has arrived.\nWe will send an [Automatically generated badge] as a reward connected for 60 minutes!"
      },
      {
        "@id": "180111001",
        "@sender": "Maple Story 2",
        "@subject": "[Lucky box] 2018 Open lucky gift box!",
        "@content": "Hello, everyone in adventure!\n\nIn 2018, we prepared a lucky gift box so that you can enjoy more fun and enjoyable adventures.\n\nFrom unique vehicles to various coupons\nLucky box that can win rich and diverse items!\n\nFrom January 11th inspection until January 25th before the inspection During the event period\nFive Lucky boxes by just connecting every day You can get one of the lucky golden keys properly by email.\n\nLucky box\nEven if you win the mini game you can get additional,\n\nThe lucky golden key is\nIt can be obtained with a certain probability through life skills such as production and manufacturing,\nIt seems that you can earn even if you defeat the field boss monster ~\n\nFortunately for Maple World who came to New Year and visited everyone!\nAlways catch it without missing it!\n\n* Since you can use the box of good luck and the golden key of good luck until 1/25 inspection, please use it by all means within the period!\n\nThank you very much."
      },
      {
        "@id": "180111002",
        "@sender": "Maple Story 2",
        "@subject": "[Snow Event] A connection gift has arrived.",
        "@content": "Hello, it is Maple Story 2.\n\nPassage We divided the white \"Snowman\" that can make beautiful decisions at winter and snow events.\nIn case\nWhen \"white snowman\" and \"light decision\" are combined, \"adventure also decides light\"\nTogether with \"the determination of shining light\" you can create \"adventure as well as snow crystal\".\nLet's get over the warm cold winter with the snow event warmly!\nIn case\nSnowman until 2/08 (Thursday)\nJust connect every day, two by two,\nOne by one when connecting 20, 40, 60, and 80 minutes,\nWe will send two e-mails when connecting 100 minutes, 120 minutes.\n\n* Since snowmen can be used until 3/08 (Thursday), please use it within the period.\n\nThank you very much."
      },
      {
        "@id": "180111003",
        "@sender": "Maple Story 2",
        "@subject": "[Snow event] 20 minutes connection Snowman gift arrived",
        "@content": "MapleStory 2 Connection Time event gift has arrived.\nI will send a [Snowman 1 piece] as a reward connected for 20 minutes!\n\nWhen \"white snowman\" and \"light decision\" are combined, \"adventure also decides light\"\nTogether with \"determination of shining light\" you can create \"adventure as snow crystal\"!\n\nLater, after 40 minutes let's meet again ~ *\n\n* Since snowmen can be used until 3/08 (Thursday), please use it within the period.\n\nThank you very much."
      },
      {
        "@id": "180111004",
        "@sender": "Maple Story 2",
        "@subject": "[Snow event] 40 minutes connection Snowman gift arrived",
        "@content": "MapleStory 2 Connection Time event gift has arrived.\nI will send a [Snowman 1 piece] as a connected reward for 40 minutes!\n\nWhen \"white snowman\" and \"light decision\" are combined, \"adventure also decides light\"\nTogether with \"determination of shining light\" you can create \"adventure as snow crystal\"!\n\nLet's meet again in 60 minutes afterwards ~ *\n\n* Since snowmen can be used until 3/08 (Thursday), please use it within the period.\n\nThank you very much."
      },
      {
        "@id": "180111005",
        "@sender": "Maple Story 2",
        "@subject": "[Snow event] 60 minutes connection Snowman gift arrived",
        "@content": "MapleStory 2 Connection Time event gift has arrived.\nI will send a [Snowman 1 piece] as a reward connected for 60 minutes!\n\nWhen \"white snowman\" and \"light decision\" are combined, \"adventure also decides light\"\nTogether with \"determination of shining light\" you can create \"adventure as snow crystal\"!\n\nLet's meet again in 80 minutes afterwards ~ *\n\n* Since snowmen can be used until 3/08 (Thursday), please use it within the period.\n\nThank you very much."
      },
      {
        "@id": "180111006",
        "@sender": "Maple Story 2",
        "@subject": "[Snow event] 80 minutes connection Snowman gift arrived",
        "@content": "MapleStory 2 Connection Time event gift has arrived.\nI will send a [Snowman 1 piece] as a connected reward for 80 minutes!\n\nWhen \"white snowman\" and \"light decision\" are combined, \"adventure also decides light\"\nTogether with \"determination of shining light\" you can create \"adventure as snow crystal\"!\n\nLet's meet again after 100 minutes ~ *\n\n* Since snowmen can be used until 3/08 (Thursday), please use it within the period.\n\nThank you very much."
      },
      {
        "@id": "180111007",
        "@sender": "Maple Story 2",
        "@subject": "[Snow Event] 100 Minutes Connection Snowman Gift Arrived",
        "@content": "MapleStory 2 Connection Time event gift has arrived.\nI will send a [snowman 1 piece] as a connected reward for 100 minutes!\n\nWhen \"white snowman\" and \"light decision\" are combined, \"adventure also decides light\"\nTogether with \"determination of shining light\" you can create \"adventure as snow crystal\"!\n\nLet's meet again after 120 minutes ~ *\n\n* Since snowmen can be used until 3/08 (Thursday), please use it within the period.\n\nThank you very much."
      },
      {
        "@id": "180111008",
        "@sender": "Maple Story 2",
        "@subject": "[Snow event] 120 minutes connection Snowman gift arrived",
        "@content": "MapleStory 2 Connection Time event gift has arrived.\nWe will send [Snowman 1 piece] as a connected reward for 120 minutes!\n\nWhen \"white snowman\" and \"light decision\" are combined, \"adventure also decides light\"\nTogether with \"determination of shining light\" you can create \"adventure as snow crystal\"!\n\nLet's meet again tomorrow ~ *\n\n* Since snowmen can be used until 3/08 (Thursday), please use it within the period.\n\nThank you very much."
      },
      {
        "@id": "180111009",
        "@sender": "Maple Story 2",
        "@subject": "[Rock-paper] Connection gift has arrived.",
        "@content": "Hello, it is Maple Story 2.\n\nWe have found an event that can make a fun janken showdown at Mapleworld!\nAs a connected gift, I will send a [Janken counterfeit volume 15].\nJack jackpot confrontation right is necessary so please be sure to remember ~\n\nTherefore, we will inform you about the rocking game method!\n\nFirst, you create advertisement of direct confrontation via the Janken menu on the \"Adventure\" tab, receive an application from another adventurer,\nSecondly, we may approach the vicinity of other adventurers who advertise the Rock-out game and apply for a showdown.\n\nYou can receive a gift every time you play the game 3, 6, 9 everyday,\nAdventurers who steadily participate, very very special Pan Pare Baby Angel gifts are available!\n\nDo a fun Janken game and get a gift also ~ *\n\n* Janken's confrontation right can be used until Thursday, February 22nd, 2018, so please use it within the period.\n\nThank you very much."
      },
      {
        "@id": "180208001",
        "@sender": "Maple Story 2",
        "@subject": "[Expedition Memorial Coin] Connection compensation arrived.",
        "@content": "Hello, it is Maple Story 2.\n\nAs connection gift\nThe expedition memorial coin arrived.\n\nGet an expedition commemoration coin\nYou can purchase various items at \"Infel rust expedition sort memorial store\".\n\nYou can see \"Infel rust expedition sort memorial store\" in Queenstown.\nPlease look for expedition supporters!\n\n* Since the expedition commemoration coin can be used until the periodic inspection on March 8, 2018 (Thursday), please use it by all means within the period.\n\nThank you very much."
      },
      {
        "@id": "180208002",
        "@sender": "Maple Story 2",
        "@subject": "[Expedition Memorial Coin] Connection compensation for 60 minutes has arrived.",
        "@content": "The expedition memorial coin arrived to compensate for 60 minutes connection.\n\nLet's collect expedition memorial coins!\nYou can purchase various items from expedition supporters in Queenstown.\n\n* Since the expedition commemoration coin can be used until the periodic inspection on March 8, 2018 (Thursday), please use it by all means within the period.\n\nThank you very much."
      },
      {
        "@id": "180217001",
        "@sender": "Maple Story 2",
        "@subject": "[Spring Festival Monday Store] Connection gift has arrived.",
        "@content": "Hello, it is Maple Story 2.\nFebruary 19 and February 26 just two days! Monday from 12 pm until late night!\nYou can purchase special goods from Event Merchant Monday in Tria.\n\nThe way you can earn \"Monday store coins\" is easy -\n - Saturday and Sunday between February 17 and February 26 Payment by e-mail when connected\n - Additional payment (up to 90 minutes) will be provided every 30 minutes when maintaining connection on Saturday and Sunday between February 17 and February 26\n\nOpportunity to purchase Monday's special items just by connecting at the weekend!\nDo not miss it absolutely ~ *\n\nThank you very much."
      },
      {
        "@id": "180308001",
        "@sender": "Maple Story 2",
        "@subject": "[New semester commemorative coin] Connection compensation arrived.",
        "@content": "Hello, it is Maple Story 2.\n\nAs connection gift\nA new semester commemorative coin arrived.\n\nGet a new semester commemorative coin\nYou can purchase various items at \"New semester pick up shop\".\n\n\"You can meet the new semester pick up shop in Queenstown.\nPlease find Bobby!\n\n* The new semester commemorative coin can be used until Thursday, March 29, 2018 (Thursday), so please use it within the period.\n\nThank you very much."
      },
      {
        "@id": "180308002",
        "@sender": "Maple Story 2",
        "@subject": "[New semester commemorative coin] Connection compensation for 60 minutes has arrived.",
        "@content": "A new semester commemorative coin arrived with a reward of 60 minutes connection.\n\nLet's collect the new semester commemorative coins!\nVarious items can be purchased from Bobby of Queenstown.\n\n* The new semester commemorative coin can be used until Thursday, March 29, 2018 (Thursday), so please use it within the period.\n\nThank you very much."
      },
      {
        "@id": "180308003",
        "@sender": "Maple Story 2",
        "@subject": "[End talk Dukufa event] A connection gift has arrived.",
        "@content": "Hello, it is Maple Story 2.\n\nUnunhid The cold winter has retired, and the spring eventually comes.\nTo celebrate Spring, we will make an incredible magical solution with flower seeds filled with refreshing fragrance of spring every day during the event period.\nThis amazing item will be used in the \"End talk Dukufa\" event.\n\nI will inform you how to participate in the event.\n\n1. Double click on flower seed bag and magic solution box to obtain material.\n2. Please go to Queenstown.\n3. Double-click the flower seed and avoid beautiful sprouts.\n4. Another gender character makes a magical solution like a prison and waits for 30 seconds.\n5. Plant the flower buds, Pluryeun character all the character \"Sparkling Spring Flower\" will be obtained character and magical solution.\n6. Please purchase various items at the shop of ruby ​​which has \"Turning Spring Flower\".\n\nNotes!\n\n - Keep in mind that flower seeds can only be planted in Queenstown.\n - Buds disappear after 1 minute, so sprinkle magical solution before 1 minute elapse.\n - Since flowers in full bloom will disappear after 4 minutes, collect \"Flower of Spring Flowers\" before 4 minutes elapse.\n - Spring blossoms can be earned up to three times per account per day, and can be done with other characters in your account.\n - Despite using both flower seeds and magical solution, did you get spring flowers? please do not worry. Event material can be obtained additionally via dialogue with ruby. However, remember that you can obtain it only when all the flower seeds and magical solution are discharged in your belongings.\n\nQueenstown celebrates spring flowers blooming!\nYour participation is to bring spring to Queenstown.\nDo not miss this incredible event.\n\n* Spring flowering blossoms can be used until Thursday, March 29, 2018 (Thursday), so please use it within the period.\n\nThank you very much."
      },
      {
        "@id": "180308004",
        "@sender": "Maple Story 2",
        "@subject": "[Dokidoki Sakura Tree] Sprinkler has arrived.",
        "@content": "Hello, it is Maple Story 2.\n\nSpring has arrived at Maple World, a beautiful cherry blossom tree arrived!\nI will do \"sprinkler\" item for connection compensation.\n\nIf you possess a sprinkler item and approach near the cherry tree in Queenstown and give water, you can earn a cherry coin.\nI can collect items of cherry blossoms and exchange items at Barbie Shop in Queenstown.\n\nAnother special gift is prepared!\nCherry blossoms bow ~ blooming April 4th, April 11th, April 18th, April 25th is \"Blessing day of cherry blossoms\" is not it?\n\nOn this day, by resonating with the cherry blossom tree \"Three cherry blossoms gift box\" Three, please also look at the beautiful cherry blossoms and do not forget the gift as well ~\n\n* Since sprinklers can be used until the periodic inspection on April 26, 2018 (Thursday 2018), please use by all means within the period.\n\nThank you very much."
      },
      {
        "@id": "180308005",
        "@sender": "Maple Story 2",
        "@subject": "[Qing Ming Dynasty Hot Time] 40 minutes of connection compensation arrived.",
        "@content": "Sakura coins arrived as a gift for 40 minutes connection.\n\nCollect cherry coins\nAt \"Bobby Store\" you can purchase various items.\n\nYou can see the Bobby store in Queenstown.\n\n* Sakura coins can be used until the periodic inspection on April 26, 2018 (Thursday), so please use them within the period.\n\nThank you very much."
      },
      {
        "@id": "180308006",
        "@sender": "Maple Story 2",
        "@subject": "【Qing Ming Dynasty Hot Time 80 minutes connection compensation arrived.",
        "@content": "Sakura coins arrived as a gift for 80 minutes connection.\n\nCollect cherry coins\nAt \"Bobby Store\" you can purchase various items.\n\nYou can see the Bobby store in Queenstown.\n\n* Sakura coins can be used until the periodic inspection on April 26, 2018 (Thursday), so please use them within the period.\n\nThank you very much."
      },
      {
        "@id": "180308007",
        "@sender": "Maple Story 2",
        "@subject": "[Qing Ming Dynasty Hot Time 120 minutes connection compensation arrived.",
        "@content": "Sakura coins arrived as a connection gift of 120 minutes.\n\nCollect cherry coins\nAt \"Bobby Store\" you can purchase various items.\n\nYou can see the Bobby store in Queenstown.\n\n* Sakura coins can be used until the periodic inspection on April 26, 2018 (Thursday), so please use them within the period.\n\nThank you very much."
      },
      {
        "@id": "180308008",
        "@sender": "Maple Story 2",
        "@subject": "[Qing Ming Dynasty Hot Time] Access compensation has arrived.",
        "@content": "Hello, it is Maple Story 2.\n\nFor all the adventurers who connected during the afternoon on Saturday April 7th from 5 p.m. to 11 o'clock\n\nI prepared a special gift.\n\nWe will give weak grass leaves to connection compensation.\n\nThank you very much."
      },
      {
        "@id": "180308009",
        "@sender": "Maple Story 2",
        "@subject": "【Doki Doki Sakura Tree】 Cherry blossom day blessing day guide",
        "@content": "Hello, it is Maple Story 2.\n\nAdventure! Today is a beautiful cherry tree flower planted in Queenstown bow ~ pair bloom \"Cherry blossom day blessing\" It is.\nToday, after giving water to the cherry tree, you can do \"resonate with the cherry tree\".\nAt the completion we got a \"cherry tree gift box\".\n\nDo not forget the fact that \"watering on cherry trees\" is first requested to be executed and sympathetic with cherry trees ~!\n\nLet's meet in Queenstown ~\n\nThank you very much."
      },
      {
        "@id": "180421001",
        "@sender": "Maple Story 2",
        "@subject": "【Weekend Hot Time】 60 minutes connection compensation arrived.",
        "@content": "A tag tag coupon arrived in a gift for 60 minutes connection.\n\nCollect tag tag coupons\nAt \"Bobby Store\" you can purchase various items.\n\nYou can see the Bobby store in Queenstown.\n\n* Tagukko coupons can be used until the periodic inspection on April 26, 2018 (Thursday), so please use them within the period.\n\nThank you very much."
      },
      {
        "@id": "180421002",
        "@sender": "Maple Story 2",
        "@subject": "【We received connection compensation for 120 minutes of hot weekend.",
        "@content": "The tag tag coupon arrived as a connection gift for 120 minutes.\n\nCollect tag tag coupons\nAt \"Bobby Store\" you can purchase various items.\n\nYou can see the Bobby store in Queenstown.\n\n* Tagukko coupons can be used until the periodic inspection on April 26, 2018 (Thursday), so please use them within the period.\n\nThank you very much."
      },
      {
        "@id": "180428001",
        "@sender": "Maple Story 2",
        "@subject": "【Week end connection compensation】 60 minutes connection compensation arrived.",
        "@content": "\"Key of 5.1 mark\" arrived as a gift for 60 minutes connection.\nYou can earn various items by opening \"5.1 Mystery Box\" with \"5.1 Mark's key\".\n\n\"5.1 Mystery Box\" can be acquired through fishing, playing, living skills, and winning by MC Ke event (except PvP event).\n\nThank you very much."
      },
      {
        "@id": "180429001",
        "@sender": "Maple Story 2",
        "@subject": "[Worker's day Monday store] Connection gift has arrived.",
        "@content": "Hello, it is Maple Story 2.\nJust two days on 30th April and 7th May! Monday from 12 pm until late night!\nYou can purchase special goods from Event Merchant Monday in Tria.\n\nThe way you can earn \"Monday store coins\" is easy -\n - Saturday and Sunday between April 28th and May 7th Connected by email when connected\n - Additional payment (up to 90 minutes) will be provided every 30 minutes when maintaining connection on Saturday and Sunday between April 28 and May 7\n\nOpportunity to purchase Monday's special items just by connecting at the weekend!\nDo not miss it absolutely ~ *\n\nThank you very much."
      },
      {
        "@id": "180429002",
        "@sender": "Maple Story 2",
        "@subject": "[Treasures of Barbosa] Barbosa's Treasure Box Event Information",
        "@content": "Hello, it is event companion ruby ​​~\n\nLimited express event that I definitely can not miss today!\nI've been looking for Barbosa's treasure chest event news ~\n\nBarbosa's Treasure Chest Event Please participate!\n1. Receive \"key of the first step Barbosa\" attached to the mail!\n2. Collect Barbosa 's Key Upgrade Material' Flocculated Reinforced Fire '.\n※ How to acquire agglomerated reinforced fire species\n- Earn daily once on connection email\n- Keep connection for 60 minutes Once a day by e-mail\n- \"Barbosa's Daily Mission\" earned with quest completion fee\n3. Step 1 Double-click the key of Barbosa and make the key for the next step in the synthesis window.\n4. After synthesizing the keys up to the desired stage, purchase the treasure box of the same procedure from the event companion Bobby.\n5. Use the key, open the treasure box and earn all compensation.\n\nDoes that mean that a huge amount of compensation will be added to the higher level?\nIn order to open the treasure chest of Barbosa, the key of the same procedure is necessary\nIt is very important to acquire \"agglomerated reinforcement flame\" to get a good reward.\n\nStep 1 Because the key of Barbosa is sold at Bobby's store at a cheap price, please do not give up even if it destroys accidentally!\n\n* Barbosa key, treasure box can be used until 05/24 (Thur) 2018 periodic inspection, so please use it within the period.\n\nThank you very much."
      },
      {
        "@id": "180429003",
        "@sender": "Maple Story 2",
        "@subject": "[Treasure of Barbosa] A connection gift has arrived.",
        "@content": "Hello, it is Maple Story 2.\n\nAs connection gift\nWe will send Barbosa key upgrade material \"Agglomerated reinforced fire\" that can open the Barbosa treasure chest.\n\nPlease collect agglomerated reinforced fire species and upgrade Barbosa key.\nHow about honeyagguyo? Just double click on the key of Barbosa ~!\n\nThe method by which \"agglomerated strengthening fire\" can be acquired is easy -\n- Earn daily once on connection email\n- Keep connection for 60 minutes Once a day by e-mail\n- \"Barbosa's Daily Mission\" earned with quest completion fee\n\nA special opportunity to have plenty of rewards!\nDo not miss it absolutely ~\n\n* Barbosa key, treasure box can be used until 05/24 (Thur) 2018 periodic inspection, so please use it within the period.\n\nThank you very much."
      },
      {
        "@id": "180429004",
        "@sender": "Maple Story 2",
        "@subject": "[Barbosa's treasure] 60 minutes connection gift arrived!",
        "@content": "Barbosa's treasure box connection time event gift has arrived.\nI will send [agglomerated reinforcement fire variety 10] as a reward connected for 60 minutes!\n\nCollect \"agglomerated strengthened fire\"\nPlease upgrade the key of Barbosa!\n\nUpgrade to a higher stage\nPrepare a lot of good rewards ~\n\n* Barbosa key, treasure box can be used until 05/24 (Thur) 2018 periodic inspection, so please use it within the period.\n\nThank you very much."
      },
      {
        "@id": "180517001",
        "@sender": "Maple Story 2",
        "@subject": "[World Raid] 90 minutes connection compensation has arrived.",
        "@content": "Hello. It is Maple Story 2.\n\nThis Friday to Sunday\nMush King is displayed on [Funny Funny Island].\n\nMush King's spores are so powerful\nYou can attack only by painting special cream.\n\nI will do \"spore block cream\" as a reward of connection for 90 minutes!\n\n(Attention) Since there is a usage period for the attached item, please receive it soon.\n\nThank you very much."
      },
      {
        "@id": "180517002",
        "@sender": "Maple Story 2",
        "@subject": "[World Raid] 150 minutes connection compensation arrived.",
        "@content": "Hello. It is Maple Story 2.\n\nThis Friday to Sunday\nMush King is displayed on [Funny Funny Island].\n\nMush King's spores are so powerful\nYou can attack only by painting special cream.\n\nI will do \"spore block cream\" with connection compensation for 150 minutes ~!\n\n(Attention) Since there is a usage period for the attached item, please receive it soon.\n\nThank you very much."
      },
      {
        "@id": "180517003",
        "@sender": "Maple Story 2",
        "@subject": "[World Raid] 240 minutes connection compensation has arrived.",
        "@content": "Hello. It is Maple Story 2.\n\nThis Friday to Sunday\nMush King is displayed on [Funny Funny Island].\n\nMush King's spores are so powerful\nYou can attack only by painting special cream.\n\nI will do \"spore block cream\" with 240 minutes connection compensation ~!\n\n(Attention) Since there is a usage period for the attached item, please receive it soon.\n\nThank you very much."
      },
      {
        "@id": "180517004",
        "@sender": "Maple Story 2",
        "@subject": "[World Raid] 360 minutes connection compensation arrived.",
        "@content": "Hello. It is Maple Story 2.\n\nThis Friday to Sunday\nMush King is displayed on [Funny Funny Island].\n\nMush King's spores are so powerful\nYou can attack only by painting special cream.\n\nI will do \"spore block cream\" by connection compensation for 360 minutes ~!\n\n(Attention) Since there is a usage period for the attached item, please receive it soon.\n\nThank you very much."
      },
      {
        "@id": "180517005",
        "@sender": "Maple Story 2",
        "@subject": "[World Raid] Hold Mush King!",
        "@content": "Hello. It is Maple Story 2.\n\nThis Friday to Sunday\nMush King is displayed on [Funny Funny Island].\n\nMush King's spores are so powerful\nYou can attack only by painting special cream.\n\nWe carefully paint \"spore block cream\" and keep Mush King!\n\n(Attention) Since there is a usage period for the attached item, please receive it soon.\n\nThank you very much."
      },
      {
        "@id": "180517006",
        "@sender": "Maple Story 2",
        "@subject": "【Mush King Championship Ranking Rewards】 {0} Season Results!",
        "@content": "Celebrate the achievement of Mush King Championship {0} season {1} place."
      },
      {
        "@id": "180517007",
        "@sender": "Maple Story 2",
        "@subject": "【Mush King Championship Ranking Rewards】 {0} Season Results!",
        "@content": "Celebrate Mush King Championship {0} Season Top {1} achievement."
      },
      {
        "@id": "180517008",
        "@sender": "Maple Story 2",
        "@subject": "【Mush King Championship Ranking Rewards】 {0} Season Results!",
        "@content": "Mush King Championship {0} Season Grand Champion has been evaluated."
      },
      {
        "@id": "180517009",
        "@sender": "Maple Story 2",
        "@subject": "【Mush King Championship Ranking Rewards】 {0} Season Results!",
        "@content": "Mush King Championship achieved {0} championship rating in the season."
      },
      {
        "@id": "180517010",
        "@sender": "Maple Story 2",
        "@subject": "【Mush King Championship Ranking Rewards】 {0} Season Results!",
        "@content": "Mush King Championship achieved diamond rating in {0} season."
      },
      {
        "@id": "180517011",
        "@sender": "Maple Story 2",
        "@subject": "【Mush King Championship Ranking Rewards】 {0} Season Results!",
        "@content": "Mush King Championship achieved Platinum evaluation in {0} season."
      },
      {
        "@id": "180517012",
        "@sender": "Maple Story 2",
        "@subject": "【Mush King Championship Ranking Rewards】 {0} Season Results!",
        "@content": "Mush King Championship achieved Gold rating in {0} season."
      },
      {
        "@id": "180517013",
        "@sender": "Maple Story 2",
        "@subject": "【Mush King Championship Ranking Rewards】 {0} Season Results!",
        "@content": "Mush King Championship achieved silver rating in {0} season."
      },
      {
        "@id": "180517014",
        "@sender": "Maple Story 2",
        "@subject": "【Mush King Championship Ranking Rewards】 {0} Season Results!",
        "@content": "Mush King Championship achieved bronze evaluation in {0} season."
      },
      {
        "@id": "180517015",
        "@sender": "Maple Story 2",
        "@subject": "[World Raid] Mush King treatment compensation has arrived.",
        "@content": "Hello, it is Maple Story 2.\n\nMush King treatment compensation has arrived.\n\n\"Gold Mush King Coin\" can be exchanged for various items.\nLet's visit the \"Mush King Coin Store\" operated by \"Security Guard Meme\".\n\n(Attention) The attached item below will be placed in the belongings window within 30 days\nIf you do not transfer it, please delete it as soon as you delete it with mail.\n\nTogether with Mush King treatment, thank you!"
      },
      {
        "@id": "180517016",
        "@sender": "Maple Story 2",
        "@subject": "[World Raid Ranking Compensation] {0} Season Settlement Account!",
        "@content": "Celebrate the achievement of World Raid {0} season {1} place."
      },
      {
        "@id": "180517017",
        "@sender": "Maple Story 2",
        "@subject": "[World Raid Ranking Compensation] {0} Season Settlement Account!",
        "@content": "Celebrate World Raid {0} Season Top {1} achievement."
      },
      {
        "@id": "180531001",
        "@sender": "Maple Story 2",
        "@subject": "[Rainbow slime, do you want to grow up? ] I got connection compensation for 20 minutes.",
        "@content": "Hello, it is Maple Story 2.\n\nIs the appearance of Rainbow Slime waiting for her husband in the house all day long is Arun distance?\nSo I prepared a gift that your Rainbow slime would like very much.\nI will send the [Rainbow flavor feed 1] perfectly to the mouth of the rainbow slime as a reward connected for 20 minutes.\nPlease enjoy the connection for 40 minutes, [Rainbow flavor feed 1 piece], connection for 60 minutes, [2 rainbow flavor feeds] Three.\n\nIf you play with other rainbow slime you can get additional [rainbow taste feed], so please visit other houses ~\n* Rainbow slime like * can only play once everyday.\n* You can play with up to 2 rainbow slimes every day."
      },
      {
        "@id": "180531002",
        "@sender": "Maple Story 2",
        "@subject": "[Rainbow slime, do you want to grow up? ] 40 minutes of connection compensation arrived.",
        "@content": "Hello, it is Maple Story 2.\n\nIs the appearance of Rainbow Slime waiting for her husband in the house all day long is Arun distance?\nSo I prepared a gift that your Rainbow slime would like very much.\nWe will send a rainbow slime mouth perfectly [1 rainbow taste feed] to the connected compensation for 40 minutes.\nPlease enjoy the connection for 60 minutes and [3 rainbow taste feeds] in three.\n\nIf you play with other rainbow slime you can get additional [rainbow taste feed], so please visit other houses ~\n* Rainbow slime like * can only play once everyday.\n* You can play with up to 2 rainbow slimes every day."
      },
      {
        "@id": "180531003",
        "@sender": "Maple Story 2",
        "@subject": "[Rainbow slime, do you want to grow up? I got the connection compensation for 60 minutes.",
        "@content": "Hello, it is Maple Story 2.\n\nIs the appearance of Rainbow Slime waiting for her husband in the house all day long is Arun distance?\nSo I prepared a gift that your Rainbow slime would like very much.\nI will send the rainbow slime mouth perfectly [2 rainbow taste feeds] as a reward connected for 60 minutes.\n\nIf you play with other rainbow slime you can get additional [rainbow taste feed], so please visit other houses ~\n* Rainbow slime like * can only play once everyday.\n* You can play with up to 2 rainbow slimes every day."
      },
      {
        "@id": "180607001",
        "@sender": "MapleStory 2",
        "@subject": "[Roll the roses] The gift has arrived.",
        "@content": "Hello, Maple Story 2.\n\nAs a gift\nWe will send you a 'Coin Coin' to roll the Marble Dice.\n\nIf there are only three \"coins\"\nYou can play a Pole Marble dice once in the Tria Lounge.\n\nYou can acquire 'Coins' by:\n  - Accepted once a day via mail upon connection\n  - Cumulative access time is 60 minutes, 80 minutes, 100 minutes, 120 minutes by mail\n  - Fishing, playing, winning a mini-game with probability\n\nEnjoy the special Marvel of Luck's luck!\n\n* You can use the coins until the regular check of 06/28 (Thu) 2018. Please use it during the period.\n\nthank you."
      },
      {
        "@id": "180607002",
        "@sender": "MapleStory 2",
        "@subject": "[Let's roll the moon] 60 min.",
        "@content": "Maple Story 2 access time event gift has arrived.\nI will send you a [Coin Coin] with your reward for 60 minutes!\n\nIf there are only three \"coins\"\nYou can play a Pole Marble dice once in the Tria Lounge.\n\nThen I will meet again in 80 minutes ~ *\n\n* You can use the coins until the regular check of 06/28 (Thu) 2018. Please use it during the period.\n\nthank you."
      },
      {
        "@id": "180607003",
        "@sender": "MapleStory 2",
        "@subject": "[Roll the roses] 80 min.",
        "@content": "Maple Story 2 access time event gift has arrived.\nI will send you a [coin] for 80 minutes with your reward!\n\nIf there are only three \"coins\"\nYou can play a Pole Marble dice once in the Tria Lounge.\n\nSo when it's 100 minutes,\n\n* You can use the coins until the regular check of 06/28 (Thu) 2018. Please use it during the period.\n\nthank you."
      },
      {
        "@id": "180607004",
        "@sender": "MapleStory 2",
        "@subject": "[Roll the roses] 100 min.",
        "@content": "Maple Story 2 access time event gift has arrived.\nI will send you a [Coin Coin] with your reward for 100 minutes!\n\nIf there are only three \"coins\"\nYou can play a Pole Marble dice once in the Tria Lounge.\n\nThen I will meet again in 120 minutes ~ *\n\n* You can use the coins until the regular check of 06/28 (Thu) 2018. Please use it during the period.\n\nthank you."
      },
      {
        "@id": "180607005",
        "@sender": "MapleStory 2",
        "@subject": "[Let's roll the moon] 120 min.",
        "@content": "Maple Story 2 access time event gift has arrived.\nI will send you a [Coin Coin] with your reward for 120 minutes!\n\nIf there are only three \"coins\"\nYou can play a Pole Marble dice once in the Tria Lounge.\n\n* You can use the coins until the regular check of 06/28 (Thu) 2018. Please use it during the period.\n\nthank you."
      },
      {
        "@id": "180607006",
        "@sender": "MapleStory 2",
        "@subject": "[Roll the moon] A surprise gift has arrived.",
        "@content": "Hello, Maple Story 2.\n\nAs a gift for surprise access to the Dano holiday\nWe will send you an additional 'Coin Coin' to roll down the Marble Dice.\n\nIf there are only three \"coins\"\nYou can play a Pole Marble dice once in the Tria Lounge.\n\nEnjoy the special Marvel of Luck's luck!\n\n* You can use the coins until the regular check of 06/28 (Thu) 2018. Please use it during the period.\n\nthank you."
      },
      {
        "@id": "180607007",
        "@sender": "MapleStory 2",
        "@subject": "[Rainbow fishing spot]",
        "@content": "Hello, Maple Story 2.\n\nA rainbow fishing spot was opened to enjoy fishing in the backdrop of a colorful rainbow!\nIt is said that you can go through [event map shortcut] at the upper right of the screen.\n\nI will send you rainbow magnet bait as a memorial gift for opening the shining fish fishing spot ~\nIf you use Rainbow Magnet bait in a sparkling fishing spot, you can get a colorful rainbow sculpture with a certain probability. If you take this 'scrolling rainbow sculpture' to a moonlight rabbit in a sparkling fishing spot, you can exchange it with skins, badges, construction items and pets I hope you will visit!\n\nWe will give you a rainbow magnet bait once per day when you connect. Do not miss it ~\n\n* Scattered rainbow sculptures and rainbow magnet bait can be used until the 7/5 (Thurs) regular inspection, please use within the period.\n\nThank you."
      },
      {
        "@id": "180607008",
        "@sender": "MapleStory 2",
        "@subject": "[Summer Mayday shop] The gift has arrived.",
        "@content": "Hello, Maple Story 2.\nJuly 30 and August 6 Only two days! Mondays from midnight to midnight!\nSpecial items can be purchased from the event merchant Monday in Tria.\n\nHow to get 'Mundayi shop coin' is simple ~\n- Payment by postal mail on Saturdays and Sundays from July 28 to August 6\n- Additional payment every 30 minutes on Saturdays and Sundays from July 28 to August 6 (up to 90 minutes)\n\nA chance to purchase a special product of the day only on the weekend access!\nDo not miss it ~ *\n\nthank you."
      },
      {
        "@id": "180607009",
        "@sender": "MapleStory 2",
        "@subject": "[Sunshine Store] The gift has arrived.",
        "@content": "Hello, Maple Story 2.\n\nWe will send 'Sunshine Coin' as a gift.\n\nCollect Sunshine Coins\nYou can purchase various items from 'Barbie Store'.\n\n'Sunshine coins' can be obtained in the following way ~\n  - Accepted once a day via mail upon connection\n  - Cumulative access time is 60 minutes, 90 minutes, 120 minutes by mail\n  - Completed the quest for the event given by Ruby in Queens Town.\n  - Obtained probabilistically when fishing and playing\n  - Up to 2 times every day when winning a mini game\n\nBarbie shops can be found in Queenstown.\n\n* Sunshine coin will be available until August 09, 2018 (regular check).\n\nthank you."
      },
      {
        "@id": "180607010",
        "@sender": "MapleStory 2",
        "@subject": "[Sunshine Store] 60 min.",
        "@content": "Maple Story 2 access time event gift has arrived.\nI will send you [Sunshine Coins] with your reward for 60 minutes!\n\nCollect Sunshine Coins\nYou can buy a variety of items at the Barbie store in Queens Town.\n\nThen I will meet again in 90 minutes ~ *\n\n* Sunshine coin will be available until August 09, 2018 (regular check).\n\nthank you."
      },
      {
        "@id": "180607011",
        "@sender": "MapleStory 2",
        "@subject": "[Sunshine Store] 90 minutes connecting gift arrival",
        "@content": "Maple Story 2 access time event gift has arrived.\nI will send you [Sunshine Coins] with your reward for 90 minutes!\n\nCollect Sunshine Coins\nYou can buy a variety of items at the Barbie store in Queens Town.\n\nThen I will meet again in 120 minutes ~ *\n\n* Sunshine coin will be available until August 09, 2018 (regular check).\n\nthank you."
      },
      {
        "@id": "180607012",
        "@sender": "MapleStory 2",
        "@subject": "[Sunshine Store] 120 minutes connecting gift arrival",
        "@content": "Maple Story 2 access time event gift has arrived.\nI will send you [Sunshine Coins] with your reward for 120 minutes!\n\nCollect Sunshine Coins\nYou can buy a variety of items at the Barbie store in Queens Town.\n\n* Sunshine coin will be available until August 09, 2018 (regular check).\n\nthank you."
      }
    ]
  }
}
