{
  "?xml": {
    "@version": "1.0",
    "@encoding": "utf-8"
  },
  "ms2": {
    "mail": [
      {
        "@id": "50000000",
        "@sender": "System Manager",
        "@subject": "Your inventory is full.",
        "@content": "Your inventory is full. Make some room for additional items."
      },
      {
        "@id": "50000001",
        "@sender": "Real Estate Manager",
        "@subject": "Your property contract has ended.",
        "@content": "Your property contract has ended. Any materials you placed can be found in your Furnishings list. The interior of your house is preserved even after the contract ends."
      },
      {
        "@id": "52000002",
        "@sender": "Guild Manager",
        "@subject": "A new item has arrived from the guild!",
        "@content": "You've received a gift from the guild manager. Be sure to pick it up before it expires."
      },
      {
        "@id": "18051001",
        "@sender": "MapleStory 2 Team",
        "@subject": "A Closed Beta Gift for You!",
        "@content": "Thank you for playing MapleStory 2. We hope you'll enjoy this little care package from us to you!\n\nYou'll get a package just like this for every day you log in for CB1, starting on 5/9 and ending on 5/16.\n\nHappy Mapling!"
      },
      {
        "@id": "18051011",
        "@sender": "MapleStory 2 Team",
        "@subject": "Congratulations on Level 10!",
        "@content": "Congratulations on hitting level 10! Here's a gift to help you celebrate.\n\nWe have more gifts in store for you at levels 20, 30, 40, and 50!\n\nPlease note that you can only get one of each gift per account."
      },
      {
        "@id": "18051012",
        "@sender": "MapleStory 2 Team",
        "@subject": "Congratulations on Level 20!",
        "@content": "Congratulations on hitting level 20! Here's a gift to help you celebrate.\n\nWe have more gifts in store for you at levels 30, 40, and 50!\n\nPlease note that you can only get one of each gift per account."
      },
      {
        "@id": "18051013",
        "@sender": "MapleStory 2 Team",
        "@subject": "Congratulations on Level 30!",
        "@content": "Congratulations on hitting level 30! Here's a gift to help you celebrate.\n\nWe have more gifts in store for you at levels 40 and 50!\n\nPlease note that you can only get one of each gift per account."
      },
      {
        "@id": "18051014",
        "@sender": "MapleStory 2 Team",
        "@subject": "Congratulations on Level 40!",
        "@content": "Congratulations on hitting level 40! Here's a gift to help you celebrate.\n\nWe have another gift in store for you at level 50!\n\nPlease note that you can only get one of each gift per account."
      },
      {
        "@id": "18051015",
        "@sender": "MapleStory 2 Team",
        "@subject": "Congratulations on Level 50!",
        "@content": "Wow! Level 50, already? Celebrate with the cool weapon skin and sick dance moves in this special gift package!\n\nPlease note that you can only get one of each gift per account."
      }
    ]
  }
}
