{
  "?xml": {
    "@version": "1.0", 
    "@encoding": "utf-8"
  }, 
  "ms2": {
    "key": [
      {
        "@id": "1", 
        "@name": "어벤져스"
      }, 
      {
        "@id": "2", 
        "@name": "엑스맨"
      }, 
      {
        "@id": "3", 
        "@name": "토니스타크"
      }, 
      {
        "@id": "4", 
        "@name": "아이언맨"
      }, 
      {
        "@id": "5", 
        "@name": "캡틴아메리카"
      }, 
      {
        "@id": "6", 
        "@name": "토르"
      }, 
      {
        "@id": "7", 
        "@name": "헐크"
      }, 
      {
        "@id": "8", 
        "@name": "스파이더맨"
      }, 
      {
        "@id": "9", 
        "@name": "배트맨"
      }, 
      {
        "@id": "10", 
        "@name": "슈퍼맨"
      }, 
      {
        "@id": "11", 
        "@name": "스타워즈"
      }, 
      {
        "@id": "12", 
        "@name": "스톰트루퍼"
      }, 
      {
        "@id": "13", 
        "@name": "다스베이더"
      }, 
      {
        "@id": "14", 
        "@name": "엘사"
      }, 
      {
        "@id": "15", 
        "@name": "루피"
      }, 
      {
        "@id": "16", 
        "@name": "트라팔가"
      }, 
      {
        "@id": "17", 
        "@name": "몽키D"
      }, 
      {
        "@id": "18", 
        "@name": "도플라밍고"
      }, 
      {
        "@id": "19", 
        "@name": "나루토"
      }, 
      {
        "@id": "20", 
        "@name": "호카게"
      }, 
      {
        "@id": "21", 
        "@name": "사륜안"
      }, 
      {
        "@id": "22", 
        "@name": "히나타"
      }, 
      {
        "@id": "23", 
        "@name": "사스케"
      }, 
      {
        "@id": "24", 
        "@name": "우치하"
      }, 
      {
        "@id": "25", 
        "@name": "이타치"
      }, 
      {
        "@id": "26", 
        "@name": "도라에몽"
      }, 
      {
        "@id": "27", 
        "@name": "아오오니"
      }, 
      {
        "@id": "28", 
        "@name": "에반게리온"
      }, 
      {
        "@id": "29", 
        "@name": "강철의연금술사"
      }, 
      {
        "@id": "30", 
        "@name": "에드워드엘릭"
      }, 
      {
        "@id": "31", 
        "@name": "페이트스테이트"
      }, 
      {
        "@id": "32", 
        "@name": "건담"
      }, 
      {
        "@id": "33", 
        "@name": "마도카"
      }, 
      {
        "@id": "34", 
        "@name": "아디다스"
      }, 
      {
        "@id": "35", 
        "@name": "나이키"
      }, 
      {
        "@id": "36", 
        "@name": "뉴발란스"
      }, 
      {
        "@id": "37", 
        "@name": "avengers"
      }, 
      {
        "@id": "38", 
        "@name": "Xman"
      }, 
      {
        "@id": "39", 
        "@name": "ironman"
      }, 
      {
        "@id": "40", 
        "@name": "captainamerica"
      }, 
      {
        "@id": "41", 
        "@name": "thor"
      }, 
      {
        "@id": "42", 
        "@name": "hulk"
      }, 
      {
        "@id": "43", 
        "@name": "spiderman"
      }, 
      {
        "@id": "44", 
        "@name": "batman"
      }, 
      {
        "@id": "45", 
        "@name": "superman"
      }, 
      {
        "@id": "46", 
        "@name": "adidas"
      }, 
      {
        "@id": "47", 
        "@name": "nike"
      }, 
      {
        "@id": "48", 
        "@name": "newbalance"
      }, 
      {
        "@id": "49", 
        "@name": "피카츄"
      }, 
      {
        "@id": "50", 
        "@name": "블리치"
      }, 
      {
        "@id": "51", 
        "@name": "드래곤볼"
      }, 
      {
        "@id": "52", 
        "@name": "트랜스포머"
      }, 
      {
        "@id": "53", 
        "@name": "범블비"
      }, 
      {
        "@id": "54", 
        "@name": "호그와트"
      }, 
      {
        "@id": "55", 
        "@name": "그리핀도르"
      }, 
      {
        "@id": "56", 
        "@name": "디즈니"
      }, 
      {
        "@id": "57", 
        "@name": "미키마우스"
      }, 
      {
        "@id": "58", 
        "@name": "미니마우스"
      }, 
      {
        "@id": "59", 
        "@name": "블랙위도우"
      }, 
      {
        "@id": "60", 
        "@name": "스칼렛위치"
      }, 
      {
        "@id": "61", 
        "@name": "매그니토"
      }, 
      {
        "@id": "62", 
        "@name": "보아핸콕"
      }, 
      {
        "@id": "63", 
        "@name": "휴우가"
      }, 
      {
        "@id": "64", 
        "@name": "카카로트"
      }, 
      {
        "@id": "65", 
        "@name": "피콜로"
      }, 
      {
        "@id": "66", 
        "@name": "강백호"
      }, 
      {
        "@id": "67", 
        "@name": "서태웅"
      }, 
      {
        "@id": "68", 
        "@name": "채치수"
      }, 
      {
        "@id": "69", 
        "@name": "어노잉오렌지"
      }, 
      {
        "@id": "70", 
        "@name": "하츠네미쿠"
      }, 
      {
        "@id": "71", 
        "@name": "러브라이브"
      }, 
      {
        "@id": "72", 
        "@name": "호빵맨"
      }, 
      {
        "@id": "73", 
        "@name": "디지몬"
      }, 
      {
        "@id": "74", 
        "@name": "동방프로젝트"
      }, 
      {
        "@id": "75", 
        "@name": "이말년"
      }, 
      {
        "@id": "76", 
        "@name": "사이타마"
      }, 
      {
        "@id": "77", 
        "@name": "apple"
      }, 
      {
        "@id": "78", 
        "@name": "gap"
      }, 
      {
        "@id": "79", 
        "@name": "IU"
      }, 
      {
        "@id": "80", 
        "@name": "LOL"
      }, 
      {
        "@id": "81", 
        "@name": "marvel"
      }, 
      {
        "@id": "82", 
        "@name": "puma"
      }, 
      {
        "@id": "83", 
        "@name": "stark"
      }, 
      {
        "@id": "84", 
        "@name": "가오나시"
      }, 
      {
        "@id": "85", 
        "@name": "겨울왕국"
      }, 
      {
        "@id": "86", 
        "@name": "구찌"
      }, 
      {
        "@id": "87", 
        "@name": "구피"
      }, 
      {
        "@id": "88", 
        "@name": "기뉴"
      }, 
      {
        "@id": "89", 
        "@name": "긴토키"
      }, 
      {
        "@id": "90", 
        "@name": "김광규"
      }, 
      {
        "@id": "91", 
        "@name": "김정은"
      }, 
      {
        "@id": "92", 
        "@name": "김정일"
      }, 
      {
        "@id": "93", 
        "@name": "꼬부기"
      }, 
      {
        "@id": "94", 
        "@name": "꼬북"
      }, 
      {
        "@id": "95", 
        "@name": "꼼데"
      }, 
      {
        "@id": "96", 
        "@name": "꼼데가르송"
      }, 
      {
        "@id": "97", 
        "@name": "나뭇잎마을"
      }, 
      {
        "@id": "98", 
        "@name": "나와토비"
      }, 
      {
        "@id": "99", 
        "@name": "나츠"
      }, 
      {
        "@id": "100", 
        "@name": "나치"
      }, 
      {
        "@id": "101", 
        "@name": "네푸네푸"
      }, 
      {
        "@id": "102", 
        "@name": "넵튠"
      }, 
      {
        "@id": "103", 
        "@name": "니코"
      }, 
      {
        "@id": "104", 
        "@name": "데스노트"
      }, 
      {
        "@id": "105", 
        "@name": "데어데블"
      }, 
      {
        "@id": "106", 
        "@name": "도검난무"
      }, 
      {
        "@id": "107", 
        "@name": "도널드덕"
      }, 
      {
        "@id": "108", 
        "@name": "도쿄구울"
      }, 
      {
        "@id": "109", 
        "@name": "둘리"
      }, 
      {
        "@id": "110", 
        "@name": "드래그닐"
      }, 
      {
        "@id": "111", 
        "@name": "라이토"
      }, 
      {
        "@id": "112", 
        "@name": "라코스테"
      }, 
      {
        "@id": "113", 
        "@name": "라푼젤"
      }, 
      {
        "@id": "114", 
        "@name": "럽라"
      }, 
      {
        "@id": "115", 
        "@name": "레바"
      }, 
      {
        "@id": "116", 
        "@name": "레이니콘"
      }, 
      {
        "@id": "117", 
        "@name": "레진"
      }, 
      {
        "@id": "118", 
        "@name": "로우"
      }, 
      {
        "@id": "119", 
        "@name": "로이머스탱"
      }, 
      {
        "@id": "120", 
        "@name": "록리"
      }, 
      {
        "@id": "121", 
        "@name": "루시"
      }, 
      {
        "@id": "122", 
        "@name": "루이비똥"
      }, 
      {
        "@id": "123", 
        "@name": "루치"
      }, 
      {
        "@id": "124", 
        "@name": "리그오브레전드"
      }, 
      {
        "@id": "125", 
        "@name": "리사"
      }, 
      {
        "@id": "126", 
        "@name": "리신"
      }, 
      {
        "@id": "127", 
        "@name": "마기카"
      }, 
      {
        "@id": "128", 
        "@name": "마블"
      }, 
      {
        "@id": "129", 
        "@name": "마이트가이"
      }, 
      {
        "@id": "130", 
        "@name": "마인부우"
      }, 
      {
        "@id": "131", 
        "@name": "마지"
      }, 
      {
        "@id": "132", 
        "@name": "무네치카"
      }, 
      {
        "@id": "133", 
        "@name": "무천도사"
      }, 
      {
        "@id": "134", 
        "@name": "뮬란"
      }, 
      {
        "@id": "135", 
        "@name": "미나토"
      }, 
      {
        "@id": "136", 
        "@name": "미카즈키"
      }, 
      {
        "@id": "137", 
        "@name": "미쿠"
      }, 
      {
        "@id": "138", 
        "@name": "미키"
      }, 
      {
        "@id": "139", 
        "@name": "백설공주"
      }, 
      {
        "@id": "140", 
        "@name": "버버리"
      }, 
      {
        "@id": "141", 
        "@name": "베르사체"
      }, 
      {
        "@id": "142", 
        "@name": "베인"
      }, 
      {
        "@id": "143", 
        "@name": "베지터"
      }, 
      {
        "@id": "144", 
        "@name": "보노보노"
      }, 
      {
        "@id": "145", 
        "@name": "북조선"
      }, 
      {
        "@id": "146", 
        "@name": "비모"
      }, 
      {
        "@id": "147", 
        "@name": "뽀로로"
      }, 
      {
        "@id": "148", 
        "@name": "상디"
      }, 
      {
        "@id": "149", 
        "@name": "샤넬"
      }, 
      {
        "@id": "150", 
        "@name": "샹크스"
      }, 
      {
        "@id": "151", 
        "@name": "세이버"
      }, 
      {
        "@id": "152", 
        "@name": "세일러문"
      }, 
      {
        "@id": "153", 
        "@name": "소드아트온라인"
      }, 
      {
        "@id": "154", 
        "@name": "소아온"
      }, 
      {
        "@id": "155", 
        "@name": "스타크"
      }, 
      {
        "@id": "156", 
        "@name": "스투시"
      }, 
      {
        "@id": "157", 
        "@name": "스티치"
      }, 
      {
        "@id": "158", 
        "@name": "스펀지밥"
      }, 
      {
        "@id": "159", 
        "@name": "스펀지송"
      }, 
      {
        "@id": "160", 
        "@name": "스폰지밥"
      }, 
      {
        "@id": "161", 
        "@name": "시마카제"
      }, 
      {
        "@id": "162", 
        "@name": "시유"
      }, 
      {
        "@id": "163", 
        "@name": "신지"
      }, 
      {
        "@id": "164", 
        "@name": "심송"
      }, 
      {
        "@id": "165", 
        "@name": "심슨"
      }, 
      {
        "@id": "166", 
        "@name": "심슨패밀리"
      }, 
      {
        "@id": "167", 
        "@name": "심영"
      }, 
      {
        "@id": "168", 
        "@name": "아무무"
      }, 
      {
        "@id": "169", 
        "@name": "아스나"
      }, 
      {
        "@id": "170", 
        "@name": "아스카"
      }, 
      {
        "@id": "171", 
        "@name": "아이돌마스터"
      }, 
      {
        "@id": "172", 
        "@name": "아이유"
      }, 
      {
        "@id": "173", 
        "@name": "아카츠키"
      }, 
      {
        "@id": "174", 
        "@name": "안나"
      }, 
      {
        "@id": "175", 
        "@name": "알폰스엘릭"
      }, 
      {
        "@id": "176", 
        "@name": "애플"
      }, 
      {
        "@id": "177", 
        "@name": "앤트맨"
      }, 
      {
        "@id": "178", 
        "@name": "야자와"
      }, 
      {
        "@id": "179", 
        "@name": "어노잉"
      }, 
      {
        "@id": "180", 
        "@name": "에이스"
      }, 
      {
        "@id": "181", 
        "@name": "엘릭형제"
      }, 
      {
        "@id": "182", 
        "@name": "역내청"
      }, 
      {
        "@id": "183", 
        "@name": "오키타"
      }, 
      {
        "@id": "184", 
        "@name": "오토노키자카"
      }, 
      {
        "@id": "185", 
        "@name": "요괴와치"
      }, 
      {
        "@id": "186", 
        "@name": "요괴워치"
      }, 
      {
        "@id": "187", 
        "@name": "요시와라"
      }, 
      {
        "@id": "188", 
        "@name": "우르키오라"
      }, 
      {
        "@id": "189", 
        "@name": "욱일"
      }, 
      {
        "@id": "190", 
        "@name": "울버린"
      }, 
      {
        "@id": "191", 
        "@name": "유루유리"
      }, 
      {
        "@id": "192", 
        "@name": "유키노"
      }, 
      {
        "@id": "193", 
        "@name": "윤회안"
      }, 
      {
        "@id": "194", 
        "@name": "은혼"
      }, 
      {
        "@id": "195", 
        "@name": "읭읭"
      }, 
      {
        "@id": "196", 
        "@name": "이나즈마"
      }, 
      {
        "@id": "197", 
        "@name": "이누야사"
      }, 
      {
        "@id": "198", 
        "@name": "이치고"
      }, 
      {
        "@id": "199", 
        "@name": "일리어네어"
      }, 
      {
        "@id": "200", 
        "@name": "쟈브라"
      }, 
      {
        "@id": "201", 
        "@name": "정광남"
      }, 
      {
        "@id": "202", 
        "@name": "제이크"
      }, 
      {
        "@id": "203", 
        "@name": "조단"
      }, 
      {
        "@id": "204", 
        "@name": "조던"
      }, 
      {
        "@id": "205", 
        "@name": "조로"
      }, 
      {
        "@id": "206", 
        "@name": "조석"
      }, 
      {
        "@id": "207", 
        "@name": "지바냥"
      }, 
      {
        "@id": "208", 
        "@name": "지방시"
      }, 
      {
        "@id": "209", 
        "@name": "징징이"
      }, 
      {
        "@id": "210", 
        "@name": "징크스"
      }, 
      {
        "@id": "211", 
        "@name": "짱구"
      }, 
      {
        "@id": "212", 
        "@name": "천룡인"
      }, 
      {
        "@id": "213", 
        "@name": "초파"
      }, 
      {
        "@id": "214", 
        "@name": "쵸파"
      }, 
      {
        "@id": "215", 
        "@name": "추사랑"
      }, 
      {
        "@id": "216", 
        "@name": "치비우사"
      }, 
      {
        "@id": "217", 
        "@name": "치비치비"
      }, 
      {
        "@id": "218", 
        "@name": "카네키"
      }, 
      {
        "@id": "219", 
        "@name": "카마인"
      }, 
      {
        "@id": "220", 
        "@name": "카쿠"
      }, 
      {
        "@id": "221", 
        "@name": "카타리나"
      }, 
      {
        "@id": "222", 
        "@name": "칸코레"
      }, 
      {
        "@id": "223", 
        "@name": "캣우먼"
      }, 
      {
        "@id": "224", 
        "@name": "케로로"
      }, 
      {
        "@id": "225", 
        "@name": "케이온"
      }, 
      {
        "@id": "226", 
        "@name": "코카콜라"
      }, 
      {
        "@id": "227", 
        "@name": "쿄우"
      }, 
      {
        "@id": "228", 
        "@name": "크롬하츠"
      }, 
      {
        "@id": "229", 
        "@name": "크리링"
      }, 
      {
        "@id": "230", 
        "@name": "키리토"
      }, 
      {
        "@id": "231", 
        "@name": "키티"
      }, 
      {
        "@id": "232", 
        "@name": "킬베로스"
      }, 
      {
        "@id": "233", 
        "@name": "킬베루스"
      }, 
      {
        "@id": "234", 
        "@name": "토요사토"
      }, 
      {
        "@id": "235", 
        "@name": "트랭크스"
      }, 
      {
        "@id": "236", 
        "@name": "티모"
      }, 
      {
        "@id": "237", 
        "@name": "티몬"
      }, 
      {
        "@id": "238", 
        "@name": "티아나"
      }, 
      {
        "@id": "239", 
        "@name": "파워레인저"
      }, 
      {
        "@id": "240", 
        "@name": "파이리"
      }, 
      {
        "@id": "241", 
        "@name": "파이어버드"
      }, 
      {
        "@id": "242", 
        "@name": "페어리테일"
      }, 
      {
        "@id": "243", 
        "@name": "페이트"
      }, 
      {
        "@id": "244", 
        "@name": "펭도리"
      }, 
      {
        "@id": "245", 
        "@name": "포카혼타스"
      }, 
      {
        "@id": "246", 
        "@name": "포켓몬"
      }, 
      {
        "@id": "247", 
        "@name": "포켓몬스터"
      }, 
      {
        "@id": "248", 
        "@name": "푸마"
      }, 
      {
        "@id": "249", 
        "@name": "품바"
      }, 
      {
        "@id": "250", 
        "@name": "퓨마"
      }, 
      {
        "@id": "251", 
        "@name": "프랑키"
      }, 
      {
        "@id": "252", 
        "@name": "프리저"
      }, 
      {
        "@id": "253", 
        "@name": "피오나"
      }, 
      {
        "@id": "254", 
        "@name": "피카"
      }, 
      {
        "@id": "255", 
        "@name": "하나요"
      }, 
      {
        "@id": "256", 
        "@name": "하츠네"
      }, 
      {
        "@id": "257", 
        "@name": "하켄크로이츠"
      }, 
      {
        "@id": "258", 
        "@name": "할리퀸"
      }, 
      {
        "@id": "259", 
        "@name": "함대콜렉션"
      }, 
      {
        "@id": "260", 
        "@name": "헬로키티"
      }, 
      {
        "@id": "261", 
        "@name": "헬퍼"
      }, 
      {
        "@id": "262", 
        "@name": "호로"
      }, 
      {
        "@id": "263", 
        "@name": "호로화"
      }, 
      {
        "@id": "264", 
        "@name": "호머"
      }, 
      {
        "@id": "265", 
        "@name": "호무라"
      }, 
      {
        "@id": "266", 
        "@name": "호크아이"
      }, 
      {
        "@id": "267", 
        "@name": "후뢰시맨"
      }, 
      {
        "@id": "268", 
        "@name": "히토후리"
      }, 
      {
        "@id": "269", 
        "@name": "일리네어"
      }, 
      {
        "@id": "270", 
        "@name": "카카시"
      }, 
      {
        "@id": "271", 
        "@name": "톰브라운"
      }, 
      {
        "@id": "272", 
        "@name": "사쿤"
      }, 
      {
        "@id": "273", 
        "@name": "SAKUN"
      }, 
      {
        "@id": "274", 
        "@name": "STUSSY"
      }, 
      {
        "@id": "275", 
        "@name": "보컬로이드"
      }, 
      {
        "@id": "276", 
        "@name": "구축함대"
      }, 
      {
        "@id": "277", 
        "@name": "플레이보이"
      }, 
      {
        "@id": "278", 
        "@name": "챔피온"
      }, 
      {
        "@id": "279", 
        "@name": "백안"
      }, 
      {
        "@id": "280", 
        "@name": "암부"
      }, 
      {
        "@id": "281", 
        "@name": "카카오"
      }, 
      {
        "@id": "282", 
        "@name": "MUZI"
      }, 
      {
        "@id": "283", 
        "@name": "카톡"
      }, 
      {
        "@id": "284", 
        "@name": "맥도날드"
      }, 
      {
        "@id": "285", 
        "@name": "맥날"
      }, 
      {
        "@id": "286", 
        "@name": "롯데"
      }, 
      {
        "@id": "287", 
        "@name": "자이언츠"
      }, 
      {
        "@id": "288", 
        "@name": "삼성"
      }, 
      {
        "@id": "289", 
        "@name": "라이온즈"
      }, 
      {
        "@id": "290", 
        "@name": "한화"
      }, 
      {
        "@id": "291", 
        "@name": "이글스"
      }, 
      {
        "@id": "292", 
        "@name": "두산"
      }, 
      {
        "@id": "293", 
        "@name": "베어스"
      }, 
      {
        "@id": "294", 
        "@name": "바트"
      }, 
      {
        "@id": "295", 
        "@name": "레옹"
      }, 
      {
        "@id": "296", 
        "@name": "흑요석"
      }, 
      {
        "@id": "297", 
        "@name": "NBA"
      }, 
      {
        "@id": "298", 
        "@name": "MLB"
      }, 
      {
        "@id": "299", 
        "@name": "데상트"
      }, 
      {
        "@id": "300", 
        "@name": "뉴발"
      }, 
      {
        "@id": "301", 
        "@name": "반스"
      }, 
      {
        "@id": "302", 
        "@name": "미니언"
      }, 
      {
        "@id": "303", 
        "@name": "인사이드아웃"
      }, 
      {
        "@id": "304", 
        "@name": "LG"
      }, 
      {
        "@id": "305", 
        "@name": "트윈스"
      }, 
      {
        "@id": "306", 
        "@name": "NC"
      }, 
      {
        "@id": "307", 
        "@name": "다이노스"
      }, 
      {
        "@id": "308", 
        "@name": "엑소"
      }, 
      {
        "@id": "309", 
        "@name": "EXO"
      }, 
      {
        "@id": "310", 
        "@name": "NARUTO"
      }, 
      {
        "@id": "311", 
        "@name": "MICKY"
      }, 
      {
        "@id": "312", 
        "@name": "마인크래프트"
      }, 
      {
        "@id": "313", 
        "@name": "TNT"
      }, 
      {
        "@id": "314", 
        "@name": "마사루"
      }, 
      {
        "@id": "315", 
        "@name": "니세코이"
      }, 
      {
        "@id": "316", 
        "@name": "햇츠온"
      }, 
      {
        "@id": "317", 
        "@name": "아마츠카제"
      }, 
      {
        "@id": "318", 
        "@name": "원펀맨"
      }, 
      {
        "@id": "319", 
        "@name": "아카이누"
      }, 
      {
        "@id": "320", 
        "@name": "우르키오"
      }, 
      {
        "@id": "321", 
        "@name": "토오사카"
      }, 
      {
        "@id": "322", 
        "@name": "마마마쿄코"
      }, 
      {
        "@id": "323", 
        "@name": "키리사메 마리사"
      }, 
      {
        "@id": "324", 
        "@name": "치에리"
      }, 
      {
        "@id": "325", 
        "@name": "아챠코"
      }, 
      {
        "@id": "326", 
        "@name": "센죠가하라히타기"
      }, 
      {
        "@id": "327", 
        "@name": "아라라기 카렌"
      }, 
      {
        "@id": "328", 
        "@name": "유즈리자키 네로"
      }, 
      {
        "@id": "329", 
        "@name": "코델리아그라우커"
      }, 
      {
        "@id": "330", 
        "@name": "소드걸스시타"
      }, 
      {
        "@id": "331", 
        "@name": "유그드라"
      }, 
      {
        "@id": "332", 
        "@name": "후타바안즈"
      }, 
      {
        "@id": "333", 
        "@name": "마이애미히트"
      }, 
      {
        "@id": "334", 
        "@name": "칼하트"
      }, 
      {
        "@id": "335", 
        "@name": "넨도로이드"
      }, 
      {
        "@id": "336", 
        "@name": "키타카미"
      }, 
      {
        "@id": "337", 
        "@name": "하이퍼즈"
      }, 
      {
        "@id": "338", 
        "@name": "고우키"
      }, 
      {
        "@id": "339", 
        "@name": "네프기어"
      }, 
      {
        "@id": "340", 
        "@name": "쿠루미"
      }, 
      {
        "@id": "341", 
        "@name": "죠죠의기묘한모험"
      }, 
      {
        "@id": "342", 
        "@name": "천체전사 선레드"
      }, 
      {
        "@id": "343", 
        "@name": "시노부"
      }, 
      {
        "@id": "344", 
        "@name": "지라이야"
      }, 
      {
        "@id": "345", 
        "@name": "코마에다"
      }, 
      {
        "@id": "346", 
        "@name": "고샤루브친스키"
      }, 
      {
        "@id": "347", 
        "@name": "오노데라"
      }, 
      {
        "@id": "348", 
        "@name": "골프왕 체리밤"
      }, 
      {
        "@id": "349", 
        "@name": "이소카제"
      }, 
      {
        "@id": "350", 
        "@name": "오키타 소고"
      }, 
      {
        "@id": "351", 
        "@name": "히루코"
      }, 
      {
        "@id": "352", 
        "@name": "사토나카"
      }, 
      {
        "@id": "353", 
        "@name": "카구라"
      }, 
      {
        "@id": "354", 
        "@name": "코드기어스"
      }, 
      {
        "@id": "355", 
        "@name": "그렌라간"
      }, 
      {
        "@id": "356", 
        "@name": "하이라이트레코즈"
      }, 
      {
        "@id": "357", 
        "@name": "뉴에라"
      }, 
      {
        "@id": "358", 
        "@name": "버키와투투"
      }, 
      {
        "@id": "359", 
        "@name": "퍼니셔"
      }, 
      {
        "@id": "360", 
        "@name": "플라스틱메모리즈"
      }, 
      {
        "@id": "361", 
        "@name": "스쿠페스"
      }, 
      {
        "@id": "362", 
        "@name": "후지토라"
      }
    ]
  }
}