{
  "?xml": {
    "@version": "1.0", 
    "@encoding": "utf-8"
  }, 
  "ms2": {
    "key": [
      {
        "@id": "1", 
        "@name": "Zakum's Fury Set"
      }, 
      {
        "@id": "2", 
        "@name": "Miele tea time set"
      }
    ]
  }
}